 This is No.           1 cyclone in Year           1
 This cyclone lasts   2.000000     days
 Start from  2003110300
 This is No.           2 cyclone in Year           1
 This cyclone lasts   3.500000     days
 Start from  2003111412
 This is No.           3 cyclone in Year           1
 This cyclone lasts   1.500000     days
 Start from  2003111812
 This is No.           4 cyclone in Year           1
 This cyclone lasts   2.250000     days
 Start from  2003112018
 This is No.           5 cyclone in Year           1
 This cyclone lasts   2.000000     days
 Start from  2003112906
 This is No.           6 cyclone in Year           1
 This cyclone lasts   2.000000     days
 Start from  2003120118
 This is No.           7 cyclone in Year           1
 This cyclone lasts   1.750000     days
 Start from  2003121506
 This is No.           8 cyclone in Year           1
 This cyclone lasts   1.500000     days
 Start from  2003121906
 This is No.           9 cyclone in Year           1
 This cyclone lasts   2.500000     days
 Start from  2003122506
 This is No.          10 cyclone in Year           1
 This cyclone lasts   4.000000     days
 Start from  2004020206
 This is No.          11 cyclone in Year           1
 This cyclone lasts   3.750000     days
 Start from  2004021218
 This is No.          12 cyclone in Year           1
 This cyclone lasts   2.000000     days
 Start from  2004022206
 This is No.          13 cyclone in Year           1
 This cyclone lasts   2.000000     days
 Start from  2004022518
 This is No.          14 cyclone in Year           1
 This cyclone lasts   1.250000     days
 Start from  2004022818
 This is No.           1 cyclone in Year           2
 This cyclone lasts   2.000000     days
 Start from  2004111506
 This is No.           2 cyclone in Year           2
 This cyclone lasts   1.250000     days
 Start from  2004112318
 This is No.           3 cyclone in Year           2
 This cyclone lasts   2.500000     days
 Start from  2004112600
 This is No.           4 cyclone in Year           2
 This cyclone lasts   1.500000     days
 Start from  2004120412
 This is No.           5 cyclone in Year           2
 This cyclone lasts   1.750000     days
 Start from  2004120706
 This is No.           6 cyclone in Year           2
 This cyclone lasts   1.500000     days
 Start from  2004121018
 This is No.           7 cyclone in Year           2
 This cyclone lasts   1.500000     days
 Start from  2004121606
 This is No.           8 cyclone in Year           2
 This cyclone lasts   4.000000     days
 Start from  2004122006
 This is No.           9 cyclone in Year           2
 This cyclone lasts   1.250000     days
 Start from  2004123118
 This is No.          10 cyclone in Year           2
 This cyclone lasts   1.750000     days
 Start from  2005010318
 This is No.          11 cyclone in Year           2
 This cyclone lasts   2.000000     days
 Start from  2005010706
 This is No.          12 cyclone in Year           2
 This cyclone lasts   2.250000     days
 Start from  2005011018
 This is No.          13 cyclone in Year           2
 This cyclone lasts   3.500000     days
 Start from  2005011506
 This is No.          14 cyclone in Year           2
 This cyclone lasts   1.500000     days
 Start from  2005012006
 This is No.          15 cyclone in Year           2
 This cyclone lasts   1.250000     days
 Start from  2005012606
 This is No.          16 cyclone in Year           2
 This cyclone lasts   4.500000     days
 Start from  2005012818
 This is No.          17 cyclone in Year           2
 This cyclone lasts   4.250000     days
 Start from  2005020212
 This is No.          18 cyclone in Year           2
 This cyclone lasts   1.500000     days
 Start from  2005020918
 This is No.          19 cyclone in Year           2
 This cyclone lasts   5.000000     days
 Start from  2005021912
 This is No.          20 cyclone in Year           2
 This cyclone lasts   2.250000     days
 Start from  2005022618
 This is No.           1 cyclone in Year           3
 This cyclone lasts   1.500000     days
 Start from  2005110112
 This is No.           2 cyclone in Year           3
 This cyclone lasts   5.750000     days
 Start from  2005110506
 This is No.           3 cyclone in Year           3
 This cyclone lasts   1.500000     days
 Start from  2005111118
 This is No.           4 cyclone in Year           3
 This cyclone lasts   4.000000     days
 Start from  2005112206
 This is No.           5 cyclone in Year           3
 This cyclone lasts   5.000000     days
 Start from  2005112818
 This is No.           6 cyclone in Year           3
 This cyclone lasts   1.500000     days
 Start from  2005120412
 This is No.           7 cyclone in Year           3
 This cyclone lasts   4.250000     days
 Start from  2005121006
 This is No.           8 cyclone in Year           3
 This cyclone lasts   2.000000     days
 Start from  2005121706
 This is No.           9 cyclone in Year           3
 This cyclone lasts   1.750000     days
 Start from  2005122112
 This is No.          10 cyclone in Year           3
 This cyclone lasts   2.500000     days
 Start from  2005122512
 This is No.          11 cyclone in Year           3
 This cyclone lasts   3.250000     days
 Start from  2006010206
 This is No.          12 cyclone in Year           3
 This cyclone lasts   1.500000     days
 Start from  2006011406
 This is No.          13 cyclone in Year           3
 This cyclone lasts   3.000000     days
 Start from  2006011700
 This is No.          14 cyclone in Year           3
 This cyclone lasts   3.500000     days
 Start from  2006012106
 This is No.          15 cyclone in Year           3
 This cyclone lasts   2.750000     days
 Start from  2006012512
 This is No.          16 cyclone in Year           3
 This cyclone lasts   1.250000     days
 Start from  2006020112
 This is No.          17 cyclone in Year           3
 This cyclone lasts   1.500000     days
 Start from  2006020918
 This is No.          18 cyclone in Year           3
 This cyclone lasts   1.500000     days
 Start from  2006021200
 This is No.          19 cyclone in Year           3
 This cyclone lasts   1.750000     days
 Start from  2006021618
 This is No.          20 cyclone in Year           3
 This cyclone lasts   2.250000     days
 Start from  2006022612
 This is No.           1 cyclone in Year           4
 This cyclone lasts   4.500000     days
 Start from  2006110100
 This is No.           2 cyclone in Year           4
 This cyclone lasts   2.500000     days
 Start from  2006110618
 This is No.           3 cyclone in Year           4
 This cyclone lasts   5.250000     days
 Start from  2006111106
 This is No.           4 cyclone in Year           4
 This cyclone lasts   2.500000     days
 Start from  2006111700
 This is No.           5 cyclone in Year           4
 This cyclone lasts   1.500000     days
 Start from  2006112200
 This is No.           6 cyclone in Year           4
 This cyclone lasts   1.750000     days
 Start from  2006112818
 This is No.           7 cyclone in Year           4
 This cyclone lasts   4.000000     days
 Start from  2006120118
 This is No.           8 cyclone in Year           4
 This cyclone lasts   1.250000     days
 Start from  2006121000
 This is No.           9 cyclone in Year           4
 This cyclone lasts   1.750000     days
 Start from  2006121618
 This is No.          10 cyclone in Year           4
 This cyclone lasts   2.500000     days
 Start from  2006122606
 This is No.          11 cyclone in Year           4
 This cyclone lasts   1.500000     days
 Start from  2007010412
 This is No.          12 cyclone in Year           4
 This cyclone lasts   3.000000     days
 Start from  2007010606
 This is No.          13 cyclone in Year           4
 This cyclone lasts   4.000000     days
 Start from  2007020106
 This is No.          14 cyclone in Year           4
 This cyclone lasts   1.750000     days
 Start from  2007021006
 This is No.          15 cyclone in Year           4
 This cyclone lasts   2.000000     days
 Start from  2007021406
 This is No.          16 cyclone in Year           4
 This cyclone lasts   6.500000     days
 Start from  2007022012
 This is No.           1 cyclone in Year           5
 This cyclone lasts   1.500000     days
 Start from  2007110100
 This is No.           2 cyclone in Year           5
 This cyclone lasts   1.250000     days
 Start from  2007110300
 This is No.           3 cyclone in Year           5
 This cyclone lasts   1.250000     days
 Start from  2007111118
 This is No.           4 cyclone in Year           5
 This cyclone lasts   5.750000     days
 Start from  2007111406
 This is No.           5 cyclone in Year           5
 This cyclone lasts   1.750000     days
 Start from  2007112012
 This is No.           6 cyclone in Year           5
 This cyclone lasts   1.750000     days
 Start from  2007112518
 This is No.           7 cyclone in Year           5
 This cyclone lasts   2.000000     days
 Start from  2007120600
 This is No.           8 cyclone in Year           5
 This cyclone lasts   1.750000     days
 Start from  2007121106
 This is No.           9 cyclone in Year           5
 This cyclone lasts   6.250000     days
 Start from  2007121306
 This is No.          10 cyclone in Year           5
 This cyclone lasts   3.750000     days
 Start from  2007122818
 This is No.          11 cyclone in Year           5
 This cyclone lasts   1.750000     days
 Start from  2008010406
 This is No.          12 cyclone in Year           5
 This cyclone lasts   6.500000     days
 Start from  2008010618
 This is No.          13 cyclone in Year           5
 This cyclone lasts   1.750000     days
 Start from  2008011918
 This is No.          14 cyclone in Year           5
 This cyclone lasts   2.250000     days
 Start from  2008012318
 This is No.          15 cyclone in Year           5
 This cyclone lasts   3.250000     days
 Start from  2008021206
 This is No.          16 cyclone in Year           5
 This cyclone lasts   2.250000     days
 Start from  2008022300
 This is No.          17 cyclone in Year           5
 This cyclone lasts   3.750000     days
 Start from  2008022606
 This is No.           1 cyclone in Year           6
 This cyclone lasts   5.500000     days
 Start from  2008110100
 This is No.           2 cyclone in Year           6
 This cyclone lasts   2.750000     days
 Start from  2008110618
 This is No.           3 cyclone in Year           6
 This cyclone lasts   3.000000     days
 Start from  2008111106
 This is No.           4 cyclone in Year           6
 This cyclone lasts   3.250000     days
 Start from  2008111806
 This is No.           5 cyclone in Year           6
 This cyclone lasts   2.000000     days
 Start from  2008112706
 This is No.           6 cyclone in Year           6
 This cyclone lasts   1.750000     days
 Start from  2008112912
 This is No.           7 cyclone in Year           6
 This cyclone lasts   2.250000     days
 Start from  2008120118
 This is No.           8 cyclone in Year           6
 This cyclone lasts   3.000000     days
 Start from  2008120406
 This is No.           9 cyclone in Year           6
 This cyclone lasts   1.250000     days
 Start from  2008121000
 This is No.          10 cyclone in Year           6
 This cyclone lasts   4.000000     days
 Start from  2008121200
 This is No.          11 cyclone in Year           6
 This cyclone lasts   2.500000     days
 Start from  2008121706
 This is No.          12 cyclone in Year           6
 This cyclone lasts   4.250000     days
 Start from  2008122500
 This is No.          13 cyclone in Year           6
 This cyclone lasts   1.750000     days
 Start from  2009010912
 This is No.          14 cyclone in Year           6
 This cyclone lasts   2.250000     days
 Start from  2009011418
 This is No.          15 cyclone in Year           6
 This cyclone lasts   1.750000     days
 Start from  2009011818
 This is No.          16 cyclone in Year           6
 This cyclone lasts   2.750000     days
 Start from  2009012218
 This is No.          17 cyclone in Year           6
 This cyclone lasts   2.750000     days
 Start from  2009013012
 This is No.          18 cyclone in Year           6
 This cyclone lasts   1.500000     days
 Start from  2009020512
 This is No.          19 cyclone in Year           6
 This cyclone lasts   5.250000     days
 Start from  2009021006
 This is No.          20 cyclone in Year           6
 This cyclone lasts   1.750000     days
 Start from  2009022000
 This is No.          21 cyclone in Year           6
 This cyclone lasts   1.750000     days
 Start from  2009022306
 This is No.          22 cyclone in Year           6
 This cyclone lasts   1.500000     days
 Start from  2009022506
 This is No.           1 cyclone in Year           7
 This cyclone lasts   7.000000     days
 Start from  2009110106
 This is No.           2 cyclone in Year           7
 This cyclone lasts   3.500000     days
 Start from  2009111318
 This is No.           3 cyclone in Year           7
 This cyclone lasts   1.500000     days
 Start from  2009120612
 This is No.           4 cyclone in Year           7
 This cyclone lasts   6.250000     days
 Start from  2009121212
 This is No.           5 cyclone in Year           7
 This cyclone lasts   1.750000     days
 Start from  2009122018
 This is No.           6 cyclone in Year           7
 This cyclone lasts   1.750000     days
 Start from  2009122806
 This is No.           7 cyclone in Year           7
 This cyclone lasts   2.500000     days
 Start from  2009123018
 This is No.           8 cyclone in Year           7
 This cyclone lasts   2.750000     days
 Start from  2010010500
 This is No.           9 cyclone in Year           7
 This cyclone lasts   5.000000     days
 Start from  2010010900
 This is No.          10 cyclone in Year           7
 This cyclone lasts   1.750000     days
 Start from  2010011918
 This is No.          11 cyclone in Year           7
 This cyclone lasts   2.500000     days
 Start from  2010012118
 This is No.          12 cyclone in Year           7
 This cyclone lasts   5.000000     days
 Start from  2010012500
 This is No.          13 cyclone in Year           7
 This cyclone lasts   2.250000     days
 Start from  2010013106
 This is No.          14 cyclone in Year           7
 This cyclone lasts   1.250000     days
 Start from  2010021206
 This is No.          15 cyclone in Year           7
 This cyclone lasts   2.250000     days
 Start from  2010022512
 This is No.           1 cyclone in Year           8
 This cyclone lasts   2.750000     days
 Start from  2010110106
 This is No.           2 cyclone in Year           8
 This cyclone lasts   1.500000     days
 Start from  2010110418
 This is No.           3 cyclone in Year           8
 This cyclone lasts   3.250000     days
 Start from  2010110806
 This is No.           4 cyclone in Year           8
 This cyclone lasts   2.750000     days
 Start from  2010111406
 This is No.           5 cyclone in Year           8
 This cyclone lasts   3.250000     days
 Start from  2010112106
 This is No.           6 cyclone in Year           8
 This cyclone lasts   1.500000     days
 Start from  2010112612
 This is No.           7 cyclone in Year           8
 This cyclone lasts   2.000000     days
 Start from  2010112818
 This is No.           8 cyclone in Year           8
 This cyclone lasts   2.500000     days
 Start from  2011010218
 This is No.           9 cyclone in Year           8
 This cyclone lasts   3.000000     days
 Start from  2011010518
 This is No.          10 cyclone in Year           8
 This cyclone lasts   1.250000     days
 Start from  2011011206
 This is No.          11 cyclone in Year           8
 This cyclone lasts   1.500000     days
 Start from  2011011506
 This is No.          12 cyclone in Year           8
 This cyclone lasts   2.250000     days
 Start from  2011013012
 This is No.          13 cyclone in Year           8
 This cyclone lasts   9.000000     days
 Start from  2011020212
 This is No.          14 cyclone in Year           8
 This cyclone lasts   2.750000     days
 Start from  2011021200
 This is No.          15 cyclone in Year           8
 This cyclone lasts   1.500000     days
 Start from  2011021806
 This is No.          16 cyclone in Year           8
 This cyclone lasts   1.750000     days
 Start from  2011022118
 This is No.          17 cyclone in Year           8
 This cyclone lasts   2.000000     days
 Start from  2011022400
