%!PS-Adobe-3.0
%%BoundingBox: 0 0 595 842
%%Title: GMT v3.4 Document from psxy
%%Creator: GMT
%%For: manda
%%DocumentNeededResources: font Helvetica
%%CreationDate: Thu Jul  8 17:57:55 2021
%%LanguageLevel: 1
%%DocumentData: Clean7Bit
%%Orientation: Portrait
%%Pages: 1
%%EndComments

%%BeginProlog

% Begin pslib header

250 dict begin

/A /setgray load def
/B /setdash load def
/C /setrgbcolor load def
/D /rlineto load def
/E {dup stringwidth pop} bind def
/F /fill load def
/G /rmoveto load def
/L /lineto load def
/M {stroke moveto} bind def
/m {moveto} bind def
/N /newpath load def
/O {M {D} repeat P V C F U S} def
/o {M {D} repeat P V A F U S} def
/P /closepath load def
/Q {M {D} repeat P V C F U N} def
/q {M {D} repeat P V A F U N} def
/t {M {D} repeat P S} def
/R /rotate load def
/S /stroke load def
/T /translate load def
/U /grestore load def
/V /gsave load def
/W /setlinewidth load def
/X {M dup 0 D dup -0.5 mul dup G 0 exch D S} bind def
/Y {findfont exch scalefont setfont} bind def
/Z /show load def
/A0 {0 exch M 0 D D D D D 0 D P V A F U N} bind def
/A1 {0 exch M 0 D D D D D 0 D P V A F U S} bind def
/A2 {0 exch M 0 D D D D D 0 D P V C F U N} bind def
/A3 {0 exch M 0 D D D D D 0 D P V C F U S} bind def
/A4 {0 exch M 0 D D D D D 0 D P S} bind def
/C0 {0 360 arc V A F U N} bind def
/C1 {0 360 arc V A F U S} bind def
/C2 {0 360 arc V C F U N} bind def
/C3 {0 360 arc V C F U S} bind def
/C4 {0 360 arc S} bind def
/D0 {M 5 {dup} repeat D neg exch D neg exch neg D P V A F U N} bind def
/D1 {M 5 {dup} repeat D neg exch D neg exch neg D P V A F U S} bind def
/D2 {M 5 {dup} repeat D neg exch D neg exch neg D P V C F U N} bind def
/D3 {M 5 {dup} repeat D neg exch D neg exch neg D P V C F U S} bind def
/D4 {M 5 {dup} repeat D neg exch D neg exch neg D P S} bind def
/R0 {M dup 0 D exch 0 exch D neg 0 D P V A F U N} bind def
/R1 {M dup 0 D exch 0 exch D neg 0 D P V A F U S} bind def
/R2 {M dup 0 D exch 0 exch D neg 0 D P V C F U N} bind def
/R3 {M dup 0 D exch 0 exch D neg 0 D P V C F U S} bind def
/R4 {M dup 0 D exch 0 exch D neg 0 D P S} bind def
/S0 {M dup dup 0 D 0 exch D neg 0 D P V A F U N} bind def
/S1 {M dup dup 0 D 0 exch D neg 0 D P V A F U S} bind def
/S2 {M dup dup 0 D 0 exch D neg 0 D P V C F U N} bind def
/S3 {M dup dup 0 D 0 exch D neg 0 D P V C F U S} bind def
/S4 {M dup dup 0 D 0 exch D neg 0 D P S} bind def
/T0 {M dup 0 D dup -0.5 mul exch 0.866025 mul D P V A F U N} bind def
/T1 {M dup 0 D dup -0.5 mul exch 0.866025 mul D P V A F U S} bind def
/T2 {M dup 0 D dup -0.5 mul exch 0.866025 mul D P V C F U N} bind def
/T3 {M dup 0 D dup -0.5 mul exch 0.866025 mul D P V C F U S} bind def
/T4 {M dup 0 D dup -0.5 mul exch 0.866025 mul D P S} bind def
/I0 {M dup 0 D dup -0.5 mul exch -0.866025 mul D P V A F U N} bind def
/I1 {M dup 0 D dup -0.5 mul exch -0.866025 mul D P V A F U S} bind def
/I2 {M dup 0 D dup -0.5 mul exch -0.866025 mul D P V C F U N} bind def
/I3 {M dup 0 D dup -0.5 mul exch -0.866025 mul D P V C F U S} bind def
/I4 {M dup 0 D dup -0.5 mul exch -0.866025 mul D P S} bind def
/E0 {V T dup 0 exch M 0.726542528 mul -72 R dup 0 D 4 {72 R dup 0 D -144 R dup 0 D} repeat pop P V A F U N U} bind def
/E1 {V T dup 0 exch M 0.726542528 mul -72 R dup 0 D 4 {72 R dup 0 D -144 R dup 0 D} repeat pop P V A F U S U} bind def
/E2 {V T dup 0 exch M 0.726542528 mul -72 R dup 0 D 4 {72 R dup 0 D -144 R dup 0 D} repeat pop P V C F U N U} bind def
/E3 {V T dup 0 exch M 0.726542528 mul -72 R dup 0 D 4 {72 R dup 0 D -144 R dup 0 D} repeat pop P V C F U S U} bind def
/E4 {V T dup 0 exch M 0.726542528 mul -72 R dup 0 D 4 {72 R dup 0 D -144 R dup 0 D} repeat pop P S U} bind def
/H0 {V T dup dup 0.5 mul exch 0.866025404 mul M 5 {-60 R dup 0 D} repeat pop P V A F U N U} bind def
/H1 {V T dup dup 0.5 mul exch 0.866025404 mul M 5 {-60 R dup 0 D} repeat pop P V A F U S U} bind def
/H2 {V T dup dup 0.5 mul exch 0.866025404 mul M 5 {-60 R dup 0 D} repeat pop P V C F U N U} bind def
/H3 {V T dup dup 0.5 mul exch 0.866025404 mul M 5 {-60 R dup 0 D} repeat pop P V C F U S U} bind def
/H4 {V T dup dup 0.5 mul exch 0.866025404 mul M 5 {-60 R dup 0 D} repeat pop P S U} bind def
/P0 {arc P V A F U N} bind def
/P1 {arc P V A F U S} bind def
/P2 {arc P V C F U N} bind def
/P3 {arc P V C F U S} bind def
/P4 {arc P S} bind def
/a {P V A F U N} def
/b {P V A F U S} def
/c {P V C F U N} def
/d {P V C F U S} def
/p {P S} def
/F0 {/Helvetica Y} bind def
/F1 {/Helvetica-Bold Y} bind def
/F2 {/Helvetica-Oblique Y} bind def
/F3 {/Helvetica-BoldOblique Y} bind def
/F4 {/Times-Roman Y} bind def
/F5 {/Times-Bold Y} bind def
/F6 {/Times-Italic Y} bind def
/F7 {/Times-BoldItalic Y} bind def
/F8 {/Courier Y} bind def
/F9 {/Courier-Bold Y} bind def
/F10 {/Courier-Oblique Y} bind def
/F11 {/Courier-BoldOblique Y} bind def
/F12 {/Symbol Y} bind def
/F13 {/AvantGarde-Book Y} bind def
/F14 {/AvantGarde-BookOblique Y} bind def
/F15 {/AvantGarde-Demi Y} bind def
/F16 {/AvantGarde-DemiOblique Y} bind def
/F17 {/Bookman-Demi Y} bind def
/F18 {/Bookman-DemiItalic Y} bind def
/F19 {/Bookman-Light Y} bind def
/F20 {/Bookman-LightItalic Y} bind def
/F21 {/Helvetica-Narrow Y} bind def
/F22 {/Helvetica-Narrow-Bold Y} bind def
/F23 {/Helvetica-Narrow-Oblique Y} bind def
/F24 {/Helvetica-Narrow-BoldOblique Y} bind def
/F25 {/NewCenturySchlbk-Roman Y} bind def
/F26 {/NewCenturySchlbk-Italic Y} bind def
/F27 {/NewCenturySchlbk-Bold Y} bind def
/F28 {/NewCenturySchlbk-BoldItalic Y} bind def
/F29 {/Palatino-Roman Y} bind def
/F30 {/Palatino-Italic Y} bind def
/F31 {/Palatino-Bold Y} bind def
/F32 {/Palatino-BoldItalic Y} bind def
/F33 {/ZapfChancery-MediumItalic Y} bind def
/F34 {/ZapfDingbats Y} bind def
/F35 {/Ryumin-Light-EUC-H Y} bind def
/F36 {/Ryumin-Light-EUC-V Y} bind def
/F37 {/GothicBBB-Medium-EUC-H Y} bind def
/F38 {/GothicBBB-Medium-EUC-V Y} bind def
% START OF EUROPEAN FONT DEFINITION
% Reencode standard font map to European font map
%
/reencsmalldict 12 dict def
/ReEncodeSmall
{ reencsmalldict begin
        /newcodesandnames exch def
        /newfontname exch def
        /basefontname exch def
        /basefontdict basefontname findfont def
        /newfont basefontdict maxlength dict def
        basefontdict
        { exch dup /FID ne 
            { dup /Encoding eq
                { exch dup length array copy
                    newfont 3 1 roll put }
                { exch newfont 3 1 roll put }
                ifelse
                }
                { pop pop }
                ifelse
        } forall
        newfont /FontName newfontname put
        newcodesandnames aload pop
        newcodesandnames length 2 idiv
        { newfont /Encoding get 3 1 roll put }
        repeat
        newfontname newfont definefont pop
        end
} def

/eurovec[
8#031 /threequarters
8#032 /threesuperior
8#033 /trademark
8#034 /twosuperior
8#035 /yacute
8#036 /ydieresis
8#037 /zcaron
8#207 /Thorn
8#200 /Atilde
8#201 /Ccedilla
8#202 /Eth
8#203 /Lslash
8#204 /Ntilde
8#205 /Otilde
8#206 /Scaron
8#207 /Thorn
8#210 /Yacute
8#211 /Ydieresis
8#212 /Zcaron
8#213 /atilde
8#214 /brokenbar
8#215 /ccedilla
8#216 /copyright
8#217 /degree
8#220 /divide
8#221 /eth
8#222 /logicalnot
8#223 /lslash
8#224 /minus
8#225 /mu
8#226 /multiply
8#227 /ntilde
8#230 /onehalf
8#231 /onequarter
8#232 /onesuperior
8#233 /otilde
8#234 /plusminus
8#235 /registered
8#236 /scaron
8#237 /thorn
8#260 /Aacute
8#265 /Acircumflex
8#276 /Adieresis
8#300 /Agrave
8#311 /Eacute
8#314 /Ecircumflex
8#321 /Edieresis
8#322 /Egrave
8#323 /Iacute
8#324 /Icircumflex
8#325 /Idieresis
8#326 /Igrave
8#327 /Oacute
8#330 /Ocircumflex
8#331 /Odieresis
8#332 /Ograve
8#333 /Uacute
8#334 /Ucircumflex
8#335 /Udieresis
8#336 /Ugrave
8#337 /aacute
8#340 /acircumflex
8#342 /adieresis
8#344 /agrave
8#345 /eacute
8#346 /ecircumflex
8#347 /edieresis
8#350 /egrave
8#354 /iacute
8#355 /icircumflex
8#356 /idieresis
8#357 /igrave
8#360 /oacute
8#362 /ocircumflex
8#363 /odieresis
8#364 /ograve
8#366 /uacute
8#367 /ucircumflex
8#370 /udieresis
8#374 /ugrave
8#375 /Aring
8#376 /aring
] def
/PSL_Euro_encode 0 0 0 0 0 0 0 0 0 0 0 0 0 0 0 0 0 0 0 0 0 0 0 0 0 0 0 0 0 0 0 0 0 0 0 0 0 0 0 39 array astore def	% Initially zero
PSL_Euro_encode 0 get 0 eq { % Set this font
  /Helvetica /Helvetica eurovec ReEncodeSmall
  PSL_Euro_encode 0 1 put
} if

% END OF EUROPEAN FONT DEFINITION
/#copies 1 def

%%EndProlog

%%BeginSetup

<< /PageSize [595 842] /ImagingBBox null >> setpagedevice

% Init coordinate system and scales
% Scale is originally set to 0.24, which means that
% 1 inch on the paper equals 300 Postscript units
0.24 0.24 scale
% End of pslib header
%%EndSetup

%%Page: 1 1

600 2100 T
%
% PostScript produced by:
%
%% psxy -JX3 PROF000.DAT -R0/50/0/1.2 -W4 -Ba10:x[m]:/a0.2WSne -P -K -X2 -Y7 

S 4 W
S [] 0 B
S 0 A
9 0 M
396 0 D
18 750 D
36 0 D
18 -750 D
414 0 D
 S
%
% Start of basemap
%
S [] 0 B
%
% Map boundaries
%
%
% Start of left y-axis
%
90 R
S 5 W
S [] 0 B
0 0 M
900 0 D
S
S 4 W
S [] 0 B
0 0 M
0 24 D
S
0 47 M V -90 R 0 -20 G 58 F0 (0.0) E -1 div 0 G Z U
150 0 M
0 24 D
S
150 47 M V -90 R 0 -20 G 58 F0 (0.2) E -1 div 0 G Z U
300 0 M
0 24 D
S
300 47 M V -90 R 0 -20 G 58 F0 (0.4) E -1 div 0 G Z U
450 0 M
0 24 D
S
450 47 M V -90 R 0 -20 G 58 F0 (0.6) E -1 div 0 G Z U
600 0 M
0 24 D
S
600 47 M V -90 R 0 -20 G 58 F0 (0.8) E -1 div 0 G Z U
750 0 M
0 24 D
S
750 47 M V -90 R 0 -20 G 58 F0 (1.0) E -1 div 0 G Z U
900 0 M
0 24 D
S
900 47 M V -90 R 0 -20 G 58 F0 (1.2) E -1 div 0 G Z U
0 0 M
0 12 D
S
150 0 M
0 12 D
S
300 0 M
0 12 D
S
450 0 M
0 12 D
S
600 0 M
0 12 D
S
750 0 M
0 12 D
S
900 0 M
0 12 D
S
450 157 M 58 F0 () E -2 div 0 G Z
-90 R
%
% End of y-axis
%
%
% Start of right y-axis
%
900 0 T 90 R
S 5 W
S [] 0 B
0 0 M
900 0 D
S
S 4 W
S [] 0 B
0 0 M
0 -24 D
S
150 0 M
0 -24 D
S
300 0 M
0 -24 D
S
450 0 M
0 -24 D
S
600 0 M
0 -24 D
S
750 0 M
0 -24 D
S
900 0 M
0 -24 D
S
0 0 M
0 -12 D
S
150 0 M
0 -12 D
S
300 0 M
0 -12 D
S
450 0 M
0 -12 D
S
600 0 M
0 -12 D
S
750 0 M
0 -12 D
S
900 0 M
0 -12 D
S
-90 R -900 0 T
%
% End of y-axis
%
%
% Start of lower x-axis
%

S 5 W
S [] 0 B
0 0 M
900 0 D
S
S 4 W
S [] 0 B
0 0 M
0 -24 D
S
0 -47 M 0 -41 G 58 F0 (0) E -2 div 0 G Z
180 0 M
0 -24 D
S
180 -47 M 0 -41 G 58 F0 (10) E -2 div 0 G Z
360 0 M
0 -24 D
S
360 -47 M 0 -41 G 58 F0 (20) E -2 div 0 G Z
540 0 M
0 -24 D
S
540 -47 M 0 -41 G 58 F0 (30) E -2 div 0 G Z
720 0 M
0 -24 D
S
720 -47 M 0 -41 G 58 F0 (40) E -2 div 0 G Z
900 0 M
0 -24 D
S
900 -47 M 0 -41 G 58 F0 (50) E -2 div 0 G Z
0 0 M
0 -12 D
S
180 0 M
0 -12 D
S
360 0 M
0 -12 D
S
540 0 M
0 -12 D
S
720 0 M
0 -12 D
S
900 0 M
0 -12 D
S
450 -124 M 0 -41 G 58 F0 (x\[m\]) E -2 div 0 G Z

%
% End of x-axis
%
%
% Start of upper x-axis
%
0 900 T
S 5 W
S [] 0 B
0 0 M
900 0 D
S
S 4 W
S [] 0 B
0 0 M
0 24 D
S
180 0 M
0 24 D
S
360 0 M
0 24 D
S
540 0 M
0 24 D
S
720 0 M
0 24 D
S
900 0 M
0 24 D
S
0 0 M
0 12 D
S
180 0 M
0 12 D
S
360 0 M
0 12 D
S
540 0 M
0 12 D
S
720 0 M
0 12 D
S
900 0 M
0 12 D
S
0 -900 T
%
% End of x-axis
%
S [] 0 B
%
% End of basemap
%
S [] 0 B
S 0 A
%
% PostScript produced by:
%
%% psxy -JX3 PROF001.DAT -R0/50/0/1.2 -W4 -O -K 

S 4 W
S [] 0 B
S 0 A
9 0 M
162 0 D
18 1 D
18 1 D
18 2 D
18 3 D
18 6 D
18 9 D
18 13 D
18 18 D
18 24 D
18 28 D
18 30 D
18 30 D
18 25 D
18 17 D
18 6 D
18 -6 D
18 -17 D
18 -25 D
18 -30 D
18 -30 D
18 -28 D
18 -24 D
18 -18 D
18 -13 D
18 -9 D
18 -6 D
18 -3 D
18 -2 D
18 -1 D
18 -1 D
180 0 D
 S
S [] 0 B
S 0 A
%
% PostScript produced by:
%
%% psxy -JX3 PROF002.DAT -R0/50/0/1.2 -W4 -O -K 

S 4 W
S [] 0 B
S 0 A
9 0 M
54 0 D
18 1 D
18 0 D
18 1 D
18 1 D
18 1 D
18 2 D
18 3 D
18 5 D
18 5 D
18 8 D
18 9 D
18 12 D
18 13 D
18 14 D
18 16 D
18 15 D
18 15 D
18 12 D
18 10 D
18 7 D
18 2 D
18 -2 D
18 -7 D
18 -10 D
18 -12 D
18 -15 D
18 -15 D
18 -16 D
18 -14 D
18 -13 D
18 -12 D
18 -9 D
18 -8 D
18 -5 D
18 -5 D
18 -3 D
18 -2 D
18 -1 D
18 -1 D
18 -1 D
18 0 D
18 -1 D
72 0 D
 S
S [] 0 B
S 0 A
%
% PostScript produced by:
%
%% psxy -JX3 PROF003.DAT -R0/50/0/1.2 -W4 -O -K 

S 4 W
S [] 0 B
S 0 A
9 0 M
18 0 D
18 1 D
18 1 D
18 1 D
18 1 D
18 2 D
18 2 D
18 3 D
18 3 D
18 5 D
18 6 D
18 6 D
18 8 D
36 18 D
18 10 D
18 11 D
18 10 D
18 10 D
18 8 D
18 8 D
18 5 D
18 4 D
18 1 D
18 -1 D
18 -4 D
18 -5 D
18 -8 D
18 -8 D
18 -10 D
18 -10 D
18 -11 D
18 -10 D
36 -18 D
18 -8 D
18 -6 D
18 -6 D
18 -5 D
18 -3 D
18 -3 D
18 -2 D
18 -2 D
18 -1 D
18 -1 D
18 -1 D
18 0 D
18 -1 D
18 0 D
 S
S [] 0 B
S 0 A
%
% PostScript produced by:
%
%% psxy -JX3 PROF004.DAT -R0/50/0/1.2 -W4 -O -K 

S 4 W
S [] 0 B
S 0 A
9 0 M
18 1 D
18 2 D
18 1 D
18 2 D
18 2 D
18 2 D
18 3 D
18 4 D
18 4 D
18 5 D
18 6 D
18 6 D
18 7 D
18 7 D
18 8 D
18 8 D
18 8 D
18 7 D
18 7 D
18 6 D
18 5 D
18 4 D
18 2 D
18 1 D
18 -1 D
18 -2 D
18 -4 D
18 -5 D
18 -6 D
18 -7 D
18 -7 D
18 -8 D
18 -8 D
18 -8 D
18 -7 D
18 -7 D
18 -6 D
18 -6 D
18 -5 D
18 -4 D
18 -4 D
18 -3 D
18 -2 D
18 -2 D
18 -2 D
18 -1 D
18 -1 D
18 -1 D
18 -1 D
 S
S [] 0 B
S 0 A
%
% PostScript produced by:
%
%% psxy -JX3 PROF005.DAT -R0/50/0/1.2 -W4 -O 

S 4 W
S [] 0 B
S 0 A
9 0 M
18 2 D
18 2 D
18 2 D
18 3 D
18 2 D
18 3 D
18 4 D
18 4 D
18 4 D
18 5 D
18 5 D
18 6 D
18 6 D
18 6 D
18 6 D
18 7 D
18 6 D
18 5 D
18 5 D
18 5 D
18 3 D
18 3 D
18 2 D
36 0 D
18 -2 D
18 -3 D
18 -3 D
18 -5 D
18 -5 D
18 -5 D
18 -6 D
18 -7 D
18 -6 D
18 -6 D
18 -6 D
18 -6 D
18 -5 D
18 -5 D
18 -4 D
18 -4 D
18 -3 D
18 -3 D
18 -3 D
18 -2 D
18 -2 D
18 -2 D
18 -1 D
18 -2 D
 S
S [] 0 B
%%PageTrailer
% Reset translations and scale and call showpage
S 0 0 T 4.16667 4.16667 scale 0 A
showpage

%%Trailer

end
%%EOF
