304.71,95310,0,1e-12,1e-12,1e-12
304.7,94240,100,1e-12,1e-12,1e-12
304.7,93170,200,1e-12,1e-12,1e-12
304.71,92110,300,1e-12,1e-12,1e-12
304.71,91060,400,1e-12,1e-12,1e-12
304.72,90010,500,1e-12,1e-12,1e-12
304.71,88990,600,1e-12,1e-12,1e-12
304.72,87960,700,1e-12,1e-12,1e-12
304.72,86950,800,1e-12,1e-12,1e-12
304.72,85940,900,1e-12,1e-12,1e-12
304.94,84940,1000,1e-12,1e-12,1e-12
305.39,83950,1100,1e-12,1e-12,1e-12
305.85,82970,1200,1e-12,1e-12,1e-12
306.3,82000,1300,1e-12,1e-12,1e-12
306.75,81050,1400,1e-12,1e-12,1e-12
307.22,80090,1500,1e-12,1e-12,1e-12
307.67,79150,1600,1e-12,1e-12,1e-12
308.14,78210,1700,1e-12,1e-12,1e-12
308.6,77280,1800,1e-12,1e-12,1e-12
309.06,76360,1900,1e-12,1e-12,1e-12
309.52,75450,2000,1e-12,1e-12,1e-12
309.97,74550,2100,1e-12,1e-12,1e-12
310.44,73650,2200,1e-12,1e-12,1e-12
310.91,72760,2300,1e-12,1e-12,1e-12
311.35,71890,2400,1e-12,1e-12,1e-12
311.81,71020,2500,1e-12,1e-12,1e-12
312.28,70150,2600,1e-12,1e-12,1e-12
312.74,69300,2700,1e-12,1e-12,1e-12
313.19,68460,2800,1e-12,1e-12,1e-12
313.65,67620,2900,1e-12,1e-12,1e-12
314.11,66790,3000,1e-12,1e-12,1e-12
314.57,65970,3100,1e-12,1e-12,1e-12
315.03,65150,3200,1e-12,1e-12,1e-12
315.48,64350,3300,1e-12,1e-12,1e-12
315.94,63550,3400,1e-12,1e-12,1e-12
316.41,62750,3500,1e-12,1e-12,1e-12
316.86,61970,3600,1e-12,1e-12,1e-12
317.32,61190,3700,1e-12,1e-12,1e-12
317.77,60420,3800,1e-12,1e-12,1e-12
318.24,59650,3900,1e-12,1e-12,1e-12
318.68,58900,4000,1e-12,1e-12,1e-12
319.14,58150,4100,1e-12,1e-12,1e-12
319.6,57400,4200,1e-12,1e-12,1e-12
320.03,56680,4300,1e-12,1e-12,1e-12
320.52,55950,4400,1e-12,1e-12,1e-12
321.01,55230,4500,1e-12,1e-12,1e-12
321.5,54520,4600,1e-12,1e-12,1e-12
322,53810,4700,1e-12,1e-12,1e-12
322.5,53110,4800,1e-12,1e-12,1e-12
323.01,52410,4900,1e-12,1e-12,1e-12
323.49,51740,5000,1e-12,1e-12,1e-12
323.99,51060,5100,1e-12,1e-12,1e-12
324.51,50380,5200,1e-12,1e-12,1e-12
325.01,49720,5300,1e-12,1e-12,1e-12
325.51,49070,5400,1e-12,1e-12,1e-12
326.01,48420,5500,1e-12,1e-12,1e-12
326.54,47770,5600,1e-12,1e-12,1e-12
327.03,47140,5700,1e-12,1e-12,1e-12
327.52,46520,5800,1e-12,1e-12,1e-12
328.05,45890,5900,1e-12,1e-12,1e-12
328.57,45270,6000,1e-12,1e-12,1e-12
329.08,44660,6100,1e-12,1e-12,1e-12
329.58,44060,6200,1e-12,1e-12,1e-12
330.08,43470,6300,1e-12,1e-12,1e-12
330.61,42870,6400,1e-12,1e-12,1e-12
331.13,42280,6500,1e-12,1e-12,1e-12
331.62,41710,6600,1e-12,1e-12,1e-12
332.12,41140,6700,1e-12,1e-12,1e-12
332.64,40570,6800,1e-12,1e-12,1e-12
333.17,40000,6900,1e-12,1e-12,1e-12
333.66,39450,7000,1e-12,1e-12,1e-12
334.14,38910,7100,1e-12,1e-12,1e-12
334.64,38370,7200,1e-12,1e-12,1e-12
335.17,37820,7300,1e-12,1e-12,1e-12
335.66,37290,7400,1e-12,1e-12,1e-12
336.14,36770,7500,1e-12,1e-12,1e-12
336.61,36260,7600,1e-12,1e-12,1e-12
337.12,35740,7700,1e-12,1e-12,1e-12
337.63,35220,7800,1e-12,1e-12,1e-12
338.12,34720,7900,1e-12,1e-12,1e-12
338.44,34230,8000,1e-12,1e-12,1e-12
338.78,33740,8100,1e-12,1e-12,1e-12
339.09,33260,8200,1e-12,1e-12,1e-12
339.44,32770,8300,1e-12,1e-12,1e-12
339.77,32290,8400,1e-12,1e-12,1e-12
340.04,31830,8500,1e-12,1e-12,1e-12
340.32,31370,8600,1e-12,1e-12,1e-12
340.6,30910,8700,1e-12,1e-12,1e-12
340.9,30450,8800,1e-12,1e-12,1e-12
341.2,29990,8900,1e-12,1e-12,1e-12
341.4,29560,9000,1e-12,1e-12,1e-12
341.62,29130,9100,1e-12,1e-12,1e-12
341.88,28690,9200,1e-12,1e-12,1e-12
342.11,28260,9300,1e-12,1e-12,1e-12
342.35,27830,9400,1e-12,1e-12,1e-12
342.59,27400,9500,1e-12,1e-12,1e-12
342.74,27000,9600,1e-12,1e-12,1e-12
342.9,26600,9700,1e-12,1e-12,1e-12
343.07,26200,9800,1e-12,1e-12,1e-12
343.28,25790,9900,1e-12,1e-12,1e-12
343.47,25390,10000,1e-12,1e-12,1e-12
343.67,24990,10100,1e-12,1e-12,1e-12
343.76,24620,10200,1e-12,1e-12,1e-12
343.86,24250,10300,1e-12,1e-12,1e-12
343.98,23880,10400,1e-12,1e-12,1e-12
344.11,23510,10500,1e-12,1e-12,1e-12
344.29,23130,10600,1e-12,1e-12,1e-12
344.45,22760,10700,1e-12,1e-12,1e-12
344.58,22400,10800,1e-12,1e-12,1e-12
344.63,22060,10900,1e-12,1e-12,1e-12
344.66,21730,11000,1e-12,1e-12,1e-12
344.75,21390,11100,1e-12,1e-12,1e-12
344.82,21060,11200,1e-12,1e-12,1e-12
344.95,20720,11300,1e-12,1e-12,1e-12
345.1,20380,11400,1e-12,1e-12,1e-12
345.23,20050,11500,1e-12,1e-12,1e-12
345.23,19750,11600,1e-12,1e-12,1e-12
345.25,19450,11700,1e-12,1e-12,1e-12
345.23,19160,11800,1e-12,1e-12,1e-12
345.3,18860,11900,1e-12,1e-12,1e-12
345.33,18570,12000,1e-12,1e-12,1e-12
345.43,18270,12100,1e-12,1e-12,1e-12
345.51,17980,12200,1e-12,1e-12,1e-12
345.67,17680,12300,1e-12,1e-12,1e-12
345.74,17400,12400,1e-12,1e-12,1e-12
345.72,17140,12500,1e-12,1e-12,1e-12
345.66,16890,12600,1e-12,1e-12,1e-12
345.68,16630,12700,1e-12,1e-12,1e-12
345.67,16380,12800,1e-12,1e-12,1e-12
345.73,16120,12900,1e-12,1e-12,1e-12
345.76,15870,13000,1e-12,1e-12,1e-12
345.88,15610,13100,1e-12,1e-12,1e-12
346.02,15350,13200,1e-12,1e-12,1e-12
346.13,15100,13300,1e-12,1e-12,1e-12
346.12,14870,13400,1e-12,1e-12,1e-12
346.07,14650,13500,1e-12,1e-12,1e-12
345.98,14440,13600,1e-12,1e-12,1e-12
345.97,14220,13700,1e-12,1e-12,1e-12
345.99,14000,13800,1e-12,1e-12,1e-12
345.96,13790,13900,1e-12,1e-12,1e-12
346.02,13570,14000,1e-12,1e-12,1e-12
346.03,13360,14100,1e-12,1e-12,1e-12
346.14,13140,14200,1e-12,1e-12,1e-12
346.21,12930,14300,1e-12,1e-12,1e-12
346.37,12710,14400,1e-12,1e-12,1e-12
346.49,12500,14500,1e-12,1e-12,1e-12
346.39,12320,14600,1e-12,1e-12,1e-12
346.31,12140,14700,1e-12,1e-12,1e-12
346.25,11960,14800,1e-12,1e-12,1e-12
346.13,11790,14900,1e-12,1e-12,1e-12
346.11,11610,15000,1e-12,1e-12,1e-12
346.11,11430,15100,1e-12,1e-12,1e-12
346.14,11250,15200,1e-12,1e-12,1e-12
346.11,11080,15300,1e-12,1e-12,1e-12
346.18,10900,15400,1e-12,1e-12,1e-12
346.28,10720,15500,1e-12,1e-12,1e-12
346.32,10550,15600,1e-12,1e-12,1e-12
346.48,10370,15700,1e-12,1e-12,1e-12
346.66,10190,15800,1e-12,1e-12,1e-12
346.87,10010,15900,1e-12,1e-12,1e-12
346.72,9870,16000,1e-12,1e-12,1e-12
346.58,9730,16100,1e-12,1e-12,1e-12
346.47,9590,16200,1e-12,1e-12,1e-12
346.38,9450,16300,1e-12,1e-12,1e-12
346.31,9310,16400,1e-12,1e-12,1e-12
346.26,9170,16500,1e-12,1e-12,1e-12
346.24,9030,16600,1e-12,1e-12,1e-12
346.24,8890,16700,1e-12,1e-12,1e-12
346.27,8750,16800,1e-12,1e-12,1e-12
346.33,8610,16900,1e-12,1e-12,1e-12
346.41,8470,17000,1e-12,1e-12,1e-12
346.52,8330,17100,1e-12,1e-12,1e-12
346.66,8190,17200,1e-12,1e-12,1e-12
346.83,8050,17300,1e-12,1e-12,1e-12
347.03,7910,17400,1e-12,1e-12,1e-12
347.26,7770,17500,1e-12,1e-12,1e-12
347.53,7630,17600,1e-12,1e-12,1e-12
347.83,7490,17700,1e-12,1e-12,1e-12
348.17,7350,17800,1e-12,1e-12,1e-12
348.54,7210,17900,1e-12,1e-12,1e-12
348.96,7070,18000,1e-12,1e-12,1e-12
349.41,6930,18100,1e-12,1e-12,1e-12
349.91,6790,18200,1e-12,1e-12,1e-12
350.45,6650,18300,1e-12,1e-12,1e-12
351.04,6510,18400,1e-12,1e-12,1e-12
351.67,6370,18500,1e-12,1e-12,1e-12
352.36,6230,18600,1e-12,1e-12,1e-12
353.1,6090,18700,1e-12,1e-12,1e-12
353.9,5950,18800,1e-12,1e-12,1e-12
354.75,5810,18900,1e-12,1e-12,1e-12
355.67,5670,19000,1e-12,1e-12,1e-12
356.66,5530,19100,1e-12,1e-12,1e-12
357.71,5390,19200,1e-12,1e-12,1e-12
358.83,5250,19300,1e-12,1e-12,1e-12
360.04,5110,19400,1e-12,1e-12,1e-12
361.32,4970,19500,1e-12,1e-12,1e-12
362.7,4830,19600,1e-12,1e-12,1e-12
364.17,4690,19700,1e-12,1e-12,1e-12
365.74,4550,19800,1e-12,1e-12,1e-12
367.41,4410,19900,1e-12,1e-12,1e-12
369.2,4270,20000,1e-12,1e-12,1e-12
