  -3.50000   0.00000
  -3.40000   0.00001
  -3.30000   0.00002
  -3.20000   0.00004
  -3.10000   0.00007
  -3.00000   0.00012
  -2.90000   0.00022
  -2.80000   0.00039
  -2.70000   0.00068
  -2.60000   0.00116
  -2.50000   0.00193
  -2.40000   0.00315
  -2.30000   0.00504
  -2.20000   0.00791
  -2.10000   0.01216
  -2.00000   0.01832
  -1.90000   0.02705
  -1.80000   0.03916
  -1.70000   0.05558
  -1.60000   0.07730
  -1.50000   0.10540
  -1.40000   0.14086
  -1.30000   0.18452
  -1.20000   0.23693
  -1.10000   0.29820
  -1.00000   0.36788
  -0.90000   0.44486
  -0.80000   0.52729
  -0.70000   0.61263
  -0.60000   0.69768
  -0.50000   0.77880
  -0.40000   0.85214
  -0.30000   0.91393
  -0.20000   0.96079
  -0.10000   0.99005
   0.00000   1.00000
   0.10000   0.99005
   0.20000   0.96079
   0.30000   0.91393
   0.40000   0.85214
   0.50000   0.77880
   0.60000   0.69768
   0.70000   0.61263
   0.80000   0.52729
   0.90000   0.44486
   1.00000   0.36788
   1.10000   0.29820
   1.20000   0.23693
   1.30000   0.18452
   1.40000   0.14086
   1.50000   0.10540
   1.60000   0.07730
   1.70000   0.05558
   1.80000   0.03916
   1.90000   0.02705
   2.00000   0.01832
   2.10000   0.01216
   2.20000   0.00791
   2.30000   0.00504
   2.40000   0.00315
   2.50000   0.00193
   2.60000   0.00116
   2.70000   0.00068
   2.80000   0.00039
   2.90000   0.00022
   3.00000   0.00012
   3.10000   0.00007
   3.20000   0.00004
   3.30000   0.00002
   3.40000   0.00001
   3.50000   0.00000
