%!PS-Adobe-3.0
%%BoundingBox: 0 0 595 842
%%HiResBoundingBox: 0 0 595 842
%%Title: GMT v4.5.18 [64-bit] Document from pshistogram
%%Creator: GMT
%%For: manda
%%DocumentNeededResources: font Helvetica
%%CreationDate: Tue Aug 13 18:38:52 2024
%%LanguageLevel: 2
%%DocumentData: Clean7Bit
%%Orientation: Portrait
%%Pages: 1
%%EndComments

%%BeginProlog
250 dict begin
/! {bind def} bind def
/# {load def}!
/A /setgray #
/B /setdash #
/C /setrgbcolor #
/D /rlineto #
/E {dup stringwidth pop}!
/F /fill #
/G /rmoveto #
/H /sethsbcolor #
/I /setpattern #
/K /setcmykcolor #
/L /lineto #
/M /moveto #
/N /newpath #
/P /closepath #
/R /rotate #
/S /stroke #
/T /translate #
/U /grestore #
/V /gsave #
/W /setlinewidth #
/Y {findfont exch scalefont setfont}!
/Z /show #
/FP {true charpath flattenpath}!
/MS {/savematrix matrix currentmatrix def}!
/MR {savematrix setmatrix}!
/O {S 3 -1 roll 0 360 arc P F S}!
/X {M 1.414213562 mul 5 {dup} repeat -2 div dup G D neg 0 G neg D S}!
/x {M dup 0 G dup -2 mul dup 0 D exch dup G 0 exch D S}!
/FS {/fc exch def /fs {V fc F U} def}!
/FQ {/fs {} def}!
/O0 {/os {N} def}!
/O1 {/os {P S} def}!
/FO {fs os}!
/SP {M {D} repeat FO}!
/SV {0 exch M 0 D D D D D 0 D FO}!
/Sv {0 0 M D D 0 D D D D D 0 D D FO}!
/SB {M dup 0 D exch 0 exch D neg 0 D FO}!
/SC {N 3 -1 roll 0 360 arc FO}!
/SE {N MS T R scale 0 0 1 0 360 arc MR FO}!
/SD {M 4 {dup} repeat 0 G neg dup dup D exch D D FO}!
/SR {M MS R dup -2 div 0 G exch dup -2 div 0 exch G exch dup 0 D exch 0 exch D neg 0 D MR FO}!
/SS {M 1.414213562 mul dup dup dup -2 div dup G 0 D 0 exch D neg 0 D FO}!
/ST {M MS dup 0 exch G -60 R 1.732050808 mul dup 0 D -120 R 0 D MR FO}!
/SI {M MS dup neg 0 exch G 60 R 1.732050808 mul dup 0 D 120 R 0 D MR FO}!
/SA {M MS dup 0 exch G 0.726542528 mul -72 R dup 0 D 4 {72 R dup 0 D -144 R dup 0 D} repeat pop MR FO}!
/SH {M MS dup 0 G -120 R dup 0 D 4 {-60 R dup 0 D} repeat pop MR FO}!
/SN {M MS dup 0 exch G -36 R 1.175570505 mul dup 0 D 3 {-72 R dup 0 D} repeat pop MR FO}!
/SO {M MS 22.5 R dup 0 exch G -22.5 R 0.765366865 mul dup 0 D 6 {-45 R dup 0 D} repeat pop MR FO}!
/SW {N 2 copy 7 -3 roll arc L FO}!
/PSL_reencode {findfont dup length dict begin
  {1 index /FID ne {def}{pop pop} ifelse} forall
  exch /Encoding exch def currentdict end definefont pop
}!
/PSL_eps_begin {
  /PSL_eps_state save def
  /PSL_dict_count countdictstack def
  /PSL_op_count count 1 sub def
  userdict begin
  /showpage {} def
  0 setgray 0 setlinecap 1 setlinewidth
  0 setlinejoin 10 setmiterlimit [] 0 setdash newpath
  /languagelevel where
  {pop languagelevel 1 ne {false setstrokeadjust false setoverprint} if} if
}!
/PSL_eps_end {
  count PSL_op_count sub {pop} repeat
  countdictstack PSL_dict_count sub {end} repeat
  PSL_eps_state restore
}!
/ISOLatin1+_Encoding [
/.notdef	/.notdef	/.notdef	/.notdef	/.notdef	/.notdef	/.notdef	/.notdef
/.notdef	/.notdef	/.notdef	/.notdef	/.notdef	/.notdef	/.notdef	/.notdef
/.notdef	/.notdef	/.notdef	/.notdef	/.notdef	/.notdef	/.notdef	/.notdef
/.notdef	/bullet		/ellipsis	/trademark	/emdash		/endash		/fi		/zcaron
/space		/exclam		/quotedbl	/numbersign	/dollar		/percent	/ampersand	/quoteright
/parenleft	/parenright	/asterisk	/plus		/comma		/minus		/period		/slash
/zero		/one		/two		/three		/four		/five		/six		/seven
/eight		/nine		/colon		/semicolon	/less		/equal		/greater	/question
/at		/A		/B		/C		/D		/E		/F		/G
/H		/I		/J		/K		/L		/M		/N		/O
/P		/Q		/R		/S		/T		/U		/V		/W
/X		/Y		/Z		/bracketleft	/backslash	/bracketright	/asciicircum	/underscore
/quoteleft	/a		/b		/c 		/d		/e		/f		/g
/h		/i		/j		/k		/l		/m		/n		/o
/p		/q		/r		/s		/t		/u		/v		/w
/x		/y		/z		/braceleft	/bar		/braceright	/asciitilde	/scaron
/OE		/dagger		/daggerdbl	/Lslash		/fraction	/guilsinglleft	/Scaron		/guilsinglright
/oe		/Ydieresis	/Zcaron		/lslash		/perthousand	/quotedblbase	/quotedblleft	/quotedblright
/dotlessi	/grave		/acute		/circumflex	/tilde		/macron		/breve		/dotaccent
/dieresis	/quotesinglbase	/ring		/cedilla	/quotesingle	/hungarumlaut	/ogonek		/caron
/space		/exclamdown	/cent		/sterling	/currency	/yen		/brokenbar	/section
/dieresis	/copyright	/ordfeminine	/guillemotleft	/logicalnot	/hyphen		/registered	/macron
/degree		/plusminus	/twosuperior	/threesuperior	/acute		/mu		/paragraph	/periodcentered
/cedilla	/onesuperior	/ordmasculine	/guillemotright	/onequarter	/onehalf	/threequarters	/questiondown
/Agrave		/Aacute		/Acircumflex	/Atilde		/Adieresis	/Aring		/AE		/Ccedilla
/Egrave		/Eacute		/Ecircumflex	/Edieresis	/Igrave		/Iacute		/Icircumflex	/Idieresis
/Eth		/Ntilde		/Ograve		/Oacute		/Ocircumflex	/Otilde		/Odieresis	/multiply
/Oslash		/Ugrave		/Uacute		/Ucircumflex	/Udieresis	/Yacute		/Thorn		/germandbls
/agrave		/aacute		/acircumflex	/atilde		/adieresis	/aring		/ae		/ccedilla
/egrave		/eacute		/ecircumflex	/edieresis	/igrave		/iacute		/icircumflex	/idieresis
/eth		/ntilde		/ograve		/oacute		/ocircumflex	/otilde		/odieresis	/divide
/oslash		/ugrave		/uacute		/ucircumflex	/udieresis	/yacute		/thorn		/ydieresis
] def
/PSL_font_encode 0 0 0 0 0 0 0 0 0 0 0 0 0 0 0 0 0 0 0 0 0 0 0 0 0 0 0 0 0 0 0 0 0 0 0 35 array astore def
/F0 {/Helvetica Y}!
/F1 {/Helvetica-Bold Y}!
/F2 {/Helvetica-Oblique Y}!
/F3 {/Helvetica-BoldOblique Y}!
/F4 {/Times-Roman Y}!
/F5 {/Times-Bold Y}!
/F6 {/Times-Italic Y}!
/F7 {/Times-BoldItalic Y}!
/F8 {/Courier Y}!
/F9 {/Courier-Bold Y}!
/F10 {/Courier-Oblique Y}!
/F11 {/Courier-BoldOblique Y}!
/F12 {/Symbol Y}!
/F13 {/AvantGarde-Book Y}!
/F14 {/AvantGarde-BookOblique Y}!
/F15 {/AvantGarde-Demi Y}!
/F16 {/AvantGarde-DemiOblique Y}!
/F17 {/Bookman-Demi Y}!
/F18 {/Bookman-DemiItalic Y}!
/F19 {/Bookman-Light Y}!
/F20 {/Bookman-LightItalic Y}!
/F21 {/Helvetica-Narrow Y}!
/F22 {/Helvetica-Narrow-Bold Y}!
/F23 {/Helvetica-Narrow-Oblique Y}!
/F24 {/Helvetica-Narrow-BoldOblique Y}!
/F25 {/NewCenturySchlbk-Roman Y}!
/F26 {/NewCenturySchlbk-Italic Y}!
/F27 {/NewCenturySchlbk-Bold Y}!
/F28 {/NewCenturySchlbk-BoldItalic Y}!
/F29 {/Palatino-Roman Y}!
/F30 {/Palatino-Italic Y}!
/F31 {/Palatino-Bold Y}!
/F32 {/Palatino-BoldItalic Y}!
/F33 {/ZapfChancery-MediumItalic Y}!
/F34 {/ZapfDingbats Y}!
/PSL_pathtextdict 26 dict def
/PSL_pathtext
  {PSL_pathtextdict begin
    /textheight exch def
    /just exch def
    /offset exch def
    /str exch def
    /pathdist 0 def
    /setdist offset def
    /charcount 0 def
    /justy just 4 idiv textheight mul 2 div neg def
    V flattenpath
	{movetoproc} {linetoproc}
	{curvetoproc} {closepathproc}
	pathforall
    U N
    end
  } def
PSL_pathtextdict begin
/movetoproc
  { /newy exch def /newx exch def
    /firstx newx def /firsty newy def
    /ovr 0 def
    newx newy transform
    /cpy exch def /cpx exch def
  } def
/linetoproc
  { /oldx newx def /oldy newy def
    /newy exch def /newx exch def
    /dx newx oldx sub def
    /dy newy oldy sub def
    /dist dx dup mul dy dup mul add sqrt def
    dist 0 ne
    { /dsx dx dist div ovr mul def
      /dsy dy dist div ovr mul def
      oldx dsx add oldy dsy add transform
      /cpy exch def /cpx exch def
      /pathdist pathdist dist add def
      {setdist pathdist le
	  {charcount str length lt
	      {setchar} {exit} ifelse}
	  { /ovr setdist pathdist sub def
	    exit}
	  ifelse
      } loop
    } if
  } def
/curvetoproc
  { (ERROR: No curveto's after flattenpath!)
    print
  } def
/closepathproc
  {firstx firsty linetoproc
    firstx firsty movetoproc
  } def
/setchar
  { /char str charcount 1 getinterval def
    /charcount charcount 1 add def
    /charwidth char stringwidth pop def
    V cpx cpy itransform T
      dy dx atan R
      0 justy M
      char show
      0 justy neg G
      currentpoint transform
      /cpy exch def /cpx exch def
    U /setdist setdist charwidth add def
  } def
end
/PSL_curved_text_labels
{ /bits exch def
  /PSL_clippath bits 1 and 1 eq def
  /PSL_placetext bits 2 and 0 eq def
  /PSL_strokeline bits 4 and 4 eq def
  /PSL_firstcall bits 32 and 32 eq def
  /PSL_lastcall bits 64 and 64 eq def
  /PSL_fillbox bits 128 and 128 eq def
  /PSL_drawbox bits 256 and 256 eq def
  /PSL_n1 PSL_n 1 sub def
  /PSL_m1 PSL_m 1 sub def
  /PSL_usebox PSL_fillbox PSL_drawbox or def
  PSL_CT_calcstringwidth
  PSL_CT_calclinedist
  PSL_CT_addcutpoints
  PSL_clippath PSL_firstcall and
  {clipsave N clippath} if
  PSL_setlinepen
  /PSL_nn1 PSL_nn 1 sub def
  /n 0 def
  /k 0 def
  /j 0 def
  /PSL_seg 0 def
  /PSL_xp PSL_nn array def
  /PSL_yp PSL_nn array def
  PSL_xp 0 PSL_xx 0 get put
  PSL_yp 0 PSL_yy 0 get put
  1 1 PSL_nn1
  { /i exch def
    /node_type PSL_kind i get def
    /j j 1 add def
    PSL_xp j PSL_xx i get put
    PSL_yp j PSL_yy i get put
    node_type 1 eq
    {n 0 eq
      {PSL_CT_drawline}
      {	PSL_CT_reversepath
	PSL_CT_textline} ifelse
      /j 0 def
      PSL_xp j PSL_xx i get put
      PSL_yp j PSL_yy i get put
    } if
  } for
  n 0 eq {PSL_CT_drawline} if
  PSL_lastcall
  {PSL_clippath
    {clip /PSL_clip_on true def} if N
  } if
} def
/PSL_CT_textline
{PSL_placetext
  {PSL_clippath
    {PSL_CT_clippath} {PSL_CT_placelabel} ifelse
  } if
  /n 0 def /k k 1 add def PSL_setlinepen
} def
/PSL_CT_calcstringwidth
{ /PSL_width PSL_m array def
  0 1 PSL_m1
  { /i exch def
    PSL_width i PSL_str i get stringwidth pop put
  } for
} def
/PSL_CT_calclinedist
{ /PSL_newx PSL_x 0 get def
  /PSL_newy PSL_y 0 get def
  /dist 0.0 def
  /PSL_dist PSL_n array def
  PSL_dist 0 0.0 put
  1 1 PSL_n1
  { /i exch def
    /PSL_oldx PSL_newx def
    /PSL_oldy PSL_newy def
    /PSL_newx PSL_x i get def
    /PSL_newy PSL_y i get def
    /dx PSL_newx PSL_oldx sub def
    /dy PSL_newy PSL_oldy sub def
    /dist dist dx dx mul dy dy mul add sqrt add def
    PSL_dist i dist put
  } for
} def
/PSL_CT_addcutpoints
{ /k 0 def
  /PSL_nc PSL_m 2 mul 1 add def
  /PSL_cuts PSL_nc array def
  /PSL_nc1 PSL_nc 1 sub def
  0 1 PSL_m1
  { /i exch def
    /dist PSL_dist PSL_node i get get def
    /halfwidth PSL_width i get 2 div PSL_gap_x add def
    PSL_cuts k dist halfwidth sub put
    /k k 1 add def
    PSL_cuts k dist halfwidth add put
    /k k 1 add def
  } for
  PSL_cuts k 100000.0 put
  /PSL_nn PSL_n PSL_m 2 mul add def
  /PSL_xx PSL_nn array def
  /PSL_yy PSL_nn array def
  /PSL_kind PSL_nn array def
  /j 0 def
  /k 0 def
  /dist 0.0 def
  0 1 PSL_n1
  { /i exch def
    /last_dist dist def
    /dist PSL_dist i get def
    k 1 PSL_nc1
    { /kk exch def
      /this_cut PSL_cuts kk get def
      dist this_cut gt
      { /ds dist last_dist sub def
	/f ds 0.0 eq {0.0} {dist this_cut sub ds div} ifelse def
	/i1 i 0 eq {0} {i 1 sub} ifelse def
	PSL_xx j PSL_x i get dup PSL_x i1 get sub f mul sub put
	PSL_yy j PSL_y i get dup PSL_y i1 get sub f mul sub put
	PSL_kind j 1 put
	/j j 1 add def
	/k k 1 add def
      } if
    } for
    dist PSL_cuts k get le
    {PSL_xx j PSL_x i get put PSL_yy j PSL_y i get put
      PSL_kind j 0 put
      /j j 1 add def
    } if
  } for
} def
/PSL_CT_reversepath
{PSL_xp j get PSL_xp 0 get lt
  {0 1 j 2 idiv
    { /left exch def
      /right j left sub def
      /tmp PSL_xp left get def
      PSL_xp left PSL_xp right get put
      PSL_xp right tmp put
      /tmp PSL_yp left get def
      PSL_yp left PSL_yp right get put
      PSL_yp right tmp put
    } for
  } if
} def
/PSL_CT_placelabel
{
  PSL_usebox
  {PSL_CT_clippath
    PSL_fillbox
    {V PSL_setboxrgb fill U} if
    PSL_drawbox
    {PSL_setboxpen S} if N
  } if
  PSL_settxtrgb PSL_CT_placeline PSL_str k get PSL_gap_x PSL_just PSL_height PSL_pathtext
} def
/PSL_CT_clippath
{
  /H PSL_height 2 div PSL_gap_y add def
  /xoff j 1 add array def
  /yoff j 1 add array def
  /angle 0 def
  0 1 j {
    /ii exch def
    /x PSL_xp ii get def
    /y PSL_yp ii get def
    ii 0 eq {
      /x1 PSL_xp 1 get def
      /y1 PSL_yp 1 get def
      /dx x1 x sub def
      /dy y1 y sub def
    }
    { /i1 ii 1 sub def
      /x1 PSL_xp i1 get def
      /y1 PSL_yp i1 get def
      /dx x x1 sub def
      /dy y y1 sub def
    } ifelse
    dx 0.0 ne dy 0.0 ne and
    { /angle dy dx atan 90 add def} if
    /sina angle sin def
    /cosa angle cos def
    xoff ii H cosa mul put
    yoff ii H sina mul put
  } for
  PSL_xp 0 get xoff 0 get add PSL_yp 0 get yoff 0 get add M
  1 1 j {
    /ii exch def
    PSL_xp ii get xoff ii get add PSL_yp ii get yoff ii get add L
  } for
  j -1 0 {
    /ii exch def
    PSL_xp ii get xoff ii get sub PSL_yp ii get yoff ii get sub L
  } for P
} def
/PSL_CT_drawline
{
  /str 20 string def
  PSL_strokeline
  {PSL_CT_placeline PSL_setlinepen S} if
  /PSL_seg PSL_seg 1 add def
  /n 1 def
} def
/PSL_CT_placeline
{PSL_xp 0 get PSL_yp 0 get M
  1 1 j { /ii exch def PSL_xp ii get PSL_yp ii get L} for
} def
/PSL_straight_text_labels
{
  /bits exch def
  /PSL_clippath bits 1 and 0 eq def
  /PSL_rounded bits 16 and 16 eq def
  /PSL_fillbox bits 128 and 128 eq def
  /PSL_drawbox bits 256 and 256 eq def
  /PSL_m1 PSL_m 1 sub def
  /PSL_justx PSL_just 4 mod 1 sub 2 div neg def
  /PSL_justy PSL_just 4 idiv PSL_height mul 2 div neg def
  /PSL_usebox PSL_fillbox PSL_drawbox or def
  PSL_clippath
  {PSL_ST_clippath}
  {PSL_usebox {PSL_ST_clippath} if
    PSL_ST_placelabel
  } ifelse
} def
/PSL_ST_placelabel
{PSL_settxtrgb
  0 1 PSL_m1
  { /k exch def
    /xp PSL_txt_x k get def
    /yp PSL_txt_y k get def
    V PSL_txt_x k get PSL_txt_y k get T
    PSL_angle k get R
    /BoxW PSL_str k get stringwidth pop def
    BoxW PSL_justx mul PSL_justy M
    PSL_str k get show
    U
  } for
} def
/PSL_ST_clippath
{PSL_rounded {PSL_ST_clippath_round} {PSL_ST_clippath_rect} ifelse
  PSL_usebox
  {PSL_fillbox
    {V PSL_setboxrgb fill U} if
    PSL_drawbox
    {PSL_setboxpen S} if N
  }
  {clip /PSL_clip_on true def
  } ifelse
  N
} def
/PSL_ST_clippath_rect
{N
  /BoxH PSL_height PSL_gap_y 2 mul add def
  /DelY BoxH BoxH 0 3 array astore def
  PSL_usebox not {clipsave clippath} if
  0 1 PSL_m1
  { /k exch def
    /xp PSL_txt_x k get def
    /yp PSL_txt_y k get def
    /MAT PSL_angle k get matrix R def
    /BoxW PSL_str k get stringwidth pop PSL_gap_x 2 mul add def
    /x0 0 BoxW PSL_justx mul add def
    /y0 0 PSL_justy add PSL_gap_y sub def
    /DelX 0 BoxW BoxW 3 array astore def
    x0 y0 MAT transform
    /dy exch def /dx exch def
    xp dx add yp dy add M
    0 1 2
    {
      /ii exch def
      x0 DelX ii get add y0 DelY ii get add MAT transform
      /dy exch def /dx exch def
      xp dx add yp dy add L
    } for P
  } for
} def
/PSL_ST_clippath_round
{N
  /PSL_justy2 PSL_just 4 idiv 2 div neg def
  /BoxR PSL_gap_x PSL_gap_y lt {PSL_gap_x} {PSL_gap_y} ifelse def
  /BoxH PSL_height PSL_gap_y 2 mul add def
  /y0 PSL_height PSL_gap_y 2 mul add PSL_justy2 mul def
  PSL_usebox not {clipsave clippath} if
  0 1 PSL_m1
  { /k exch def
    /xp PSL_txt_x k get def
    /yp PSL_txt_y k get def
    /BoxW PSL_str k get stringwidth pop PSL_gap_x 2 mul add def
    /x0 BoxW PSL_justx mul def
    xp yp T PSL_angle k get R x0 y0 T
    BoxR 0 M
    BoxW 0 BoxW BoxH BoxR arct BoxW BoxH 0 BoxH BoxR arct 0 BoxH 0 0 BoxR arct 0 0 BoxW 0 BoxR arct P
    x0 neg y0 neg T PSL_angle k get neg R xp neg yp neg T
  } for
} def
/PSL_clip_on false def
%%EndProlog

%%BeginSetup
/PSLevel /languagelevel where {pop languagelevel} {1} ifelse def
PSLevel 1 gt { << /PageSize [595 842] /ImagingBBox null >> setpagedevice } if
%%EndSetup

%%Page: 1 1

%%BeginPageSetup
0.24 0.24 scale
%%EndPageSetup

PSL_font_encode 0 get 0 eq {ISOLatin1+_Encoding /Helvetica /Helvetica PSL_reencode PSL_font_encode 0 1 put} if
0 setlinecap
0 setlinejoin
3.32551 setmiterlimit
450 900 T

%% PostScript produced by:
%%GMT:  pshistogram -JX4/4 -R-1/1/0/50 27.HIST_PBLH-Z_BIN250m_HORIZONTAL_RW3A.00.04.05.05.0802.01.d01_T01.01.TXT -W0.25 -Ba0.5f0.25:Z-PBLH\040[km]:/a10f5:Frequency\040[%]::.T01.01\0400000\0400802\04030N<LAT<31N:WSne \
%%GMT:+ -Z1 -L7,255/0/255 -A -P -K -X1.5 -Y3
%%PROJ: xy 0.00000000 50.00000000 -1.00000000 1.00000000 0.000 50.000 -1.000 1.000 +xy +a=6378137.000 +b=6356752.314245
clipsave
0 0 M
1200 0 D
0 1200 D
-1200 0 D
eoclip N
7 W
1 0 1 C
FQ
O1
0 0 M
0 150 D
2 0 D
0 -150 D
FO
0 150 M
0 150 D
194 0 D
0 -150 D
FO
0 300 M
0 150 D
114 0 D
0 -150 D
FO
0 450 M
0 150 D
423 0 D
0 -150 D
FO
0 600 M
0 150 D
511 0 D
0 -150 D
FO
0 750 M
0 150 D
395 0 D
0 -150 D
FO
0 900 M
0 150 D
386 0 D
0 -150 D
FO
0 1050 M
0 150 D
269 0 D
0 -150 D
FO
0 1200 M
106 0 D
FO
cliprestore
0 A
gsave

grestore
gsave 2 setlinecap
90 R
/PSL_sign 1 def
/PSL_do_annot 1 def
/PSL_do_label 1 def
/PSL_do_A1 0 def
/PSL_TL1 24 def
/PSL_AO0 24 def
/PSL_AO1 24 def
/PSL_LO 35 def
/PSL_AF0 75 def
/PSL_AF1 67 def
/PSL_LF 75 def
/PSL_AH0 0 def
/PSL_AH1 0 def
0 0 M 75 F0 (M) E /PSL_dim_w exch def FP pathbbox N /PSL_dim_h exch def pop /PSL_dim_d exch def pop
PSL_dim_h PSL_dim_d sub /PSL_LH exch def
5 W
0 0 M 1200 0 D S
4 W
0 0 M 0 24 D S
300 0 M 0 24 D S
600 0 M 0 24 D S
900 0 M 0 24 D S
1200 0 M 0 24 D S
0 0 M 75 F0 (-1.0) E /PSL_dim_w exch def FP pathbbox N /PSL_dim_h exch def pop /PSL_dim_d exch def pop
PSL_dim_w PSL_AH0 gt {/PSL_AH0 PSL_dim_w def} if
0 0 M 75 F0 (-0.5) E /PSL_dim_w exch def FP pathbbox N /PSL_dim_h exch def pop /PSL_dim_d exch def pop
PSL_dim_w PSL_AH0 gt {/PSL_AH0 PSL_dim_w def} if
0 0 M 75 F0 (0.0) E /PSL_dim_w exch def FP pathbbox N /PSL_dim_h exch def pop /PSL_dim_d exch def pop
PSL_dim_w PSL_AH0 gt {/PSL_AH0 PSL_dim_w def} if
0 0 M 75 F0 (0.5) E /PSL_dim_w exch def FP pathbbox N /PSL_dim_h exch def pop /PSL_dim_d exch def pop
PSL_dim_w PSL_AH0 gt {/PSL_AH0 PSL_dim_w def} if
0 0 M 75 F0 (1.0) E /PSL_dim_w exch def FP pathbbox N /PSL_dim_h exch def pop /PSL_dim_d exch def pop
PSL_dim_w PSL_AH0 gt {/PSL_AH0 PSL_dim_w def} if
0 0 M 0 12 D S
150 0 M 0 12 D S
300 0 M 0 12 D S
450 0 M 0 12 D S
600 0 M 0 12 D S
750 0 M 0 12 D S
900 0 M 0 12 D S
1050 0 M 0 12 D S
1200 0 M 0 12 D S
/PSL_A0_y PSL_AO0 PSL_TL1 PSL_AO0 mul 0 gt {PSL_TL1 add} if PSL_AO0 0 gt {PSL_sign 0 lt {PSL_AH0} {0} ifelse add} if PSL_sign mul def
/PSL_A1_y PSL_A0_y abs PSL_AO1 add PSL_sign 0 lt {PSL_AH1} {PSL_AH0} ifelse add PSL_sign mul def
/PSL_L_y PSL_A1_y abs PSL_LO add PSL_sign 0 lt {PSL_LH} {PSL_AH1} ifelse add PSL_sign mul def
/PSL_x 0 def
PSL_x PSL_A0_y M
currentpoint /PSL_save_y exch def /PSL_save_x exch def
0 0 M 75 F0 (-1.0) E /PSL_dim_w exch def FP pathbbox N /PSL_dim_h exch def pop /PSL_dim_d exch def pop
PSL_save_x PSL_save_y M
V -90 R PSL_dim_w neg PSL_dim_h 2 div neg G 75 F0 (-1.0) Z U
/PSL_x 300 def
PSL_x PSL_A0_y M
currentpoint /PSL_save_y exch def /PSL_save_x exch def
0 0 M 75 F0 (-0.5) E /PSL_dim_w exch def FP pathbbox N /PSL_dim_h exch def pop /PSL_dim_d exch def pop
PSL_save_x PSL_save_y M
V -90 R PSL_dim_w neg PSL_dim_h 2 div neg G 75 F0 (-0.5) Z U
/PSL_x 600 def
PSL_x PSL_A0_y M
currentpoint /PSL_save_y exch def /PSL_save_x exch def
0 0 M 75 F0 (0.0) E /PSL_dim_w exch def FP pathbbox N /PSL_dim_h exch def pop /PSL_dim_d exch def pop
PSL_save_x PSL_save_y M
V -90 R PSL_dim_w neg PSL_dim_h 2 div neg G 75 F0 (0.0) Z U
/PSL_x 900 def
PSL_x PSL_A0_y M
currentpoint /PSL_save_y exch def /PSL_save_x exch def
0 0 M 75 F0 (0.5) E /PSL_dim_w exch def FP pathbbox N /PSL_dim_h exch def pop /PSL_dim_d exch def pop
PSL_save_x PSL_save_y M
V -90 R PSL_dim_w neg PSL_dim_h 2 div neg G 75 F0 (0.5) Z U
/PSL_x 1200 def
PSL_x PSL_A0_y M
currentpoint /PSL_save_y exch def /PSL_save_x exch def
0 0 M 75 F0 (1.0) E /PSL_dim_w exch def FP pathbbox N /PSL_dim_h exch def pop /PSL_dim_d exch def pop
PSL_save_x PSL_save_y M
V -90 R PSL_dim_w neg PSL_dim_h 2 div neg G 75 F0 (1.0) Z U
/PSL_x 600 def
0 0 M 75 F0 (Z-PBLH\040\[km\]) E /PSL_dim_w exch def FP pathbbox N /PSL_dim_h exch def pop /PSL_dim_d exch def pop
PSL_x PSL_L_y M
currentpoint /PSL_save_y exch def /PSL_save_x exch def
0 0 M 75 F0 (Z-PBLH\040\[km\]) E /PSL_dim_w exch def FP pathbbox N /PSL_dim_h exch def pop /PSL_dim_d exch def pop
PSL_save_x PSL_save_y M
PSL_dim_w 2 div neg 0 G 75 F0 (Z-PBLH\040\[km\]) Z
-90 R
1200 0 T 90 R
/PSL_sign -1 def
/PSL_do_annot 0 def
/PSL_do_label 1 def
/PSL_do_A1 0 def
/PSL_TL1 24 def
/PSL_AO0 24 def
/PSL_AO1 24 def
/PSL_LO 35 def
/PSL_AF0 75 def
/PSL_AF1 67 def
/PSL_LF 75 def
/PSL_AH0 0 def
/PSL_AH1 0 def
0 0 M 75 F0 (M) E /PSL_dim_w exch def FP pathbbox N /PSL_dim_h exch def pop /PSL_dim_d exch def pop
PSL_dim_h PSL_dim_d sub /PSL_LH exch def
5 W
0 0 M 1200 0 D S
4 W
0 0 M 0 -24 D S
300 0 M 0 -24 D S
600 0 M 0 -24 D S
900 0 M 0 -24 D S
1200 0 M 0 -24 D S
0 0 M 0 -12 D S
150 0 M 0 -12 D S
300 0 M 0 -12 D S
450 0 M 0 -12 D S
600 0 M 0 -12 D S
750 0 M 0 -12 D S
900 0 M 0 -12 D S
1050 0 M 0 -12 D S
1200 0 M 0 -12 D S
/PSL_A0_y PSL_AO0 PSL_TL1 PSL_AO0 mul 0 gt {PSL_TL1 add} if PSL_AO0 0 gt {PSL_sign 0 lt {PSL_AH0} {0} ifelse add} if PSL_sign mul def
/PSL_A1_y PSL_A0_y abs PSL_AO1 add PSL_sign 0 lt {PSL_AH1} {PSL_AH0} ifelse add PSL_sign mul def
/PSL_L_y PSL_A1_y abs PSL_LO add PSL_sign 0 lt {PSL_LH} {PSL_AH1} ifelse add PSL_sign mul def
-90 R -1200 0 T
/PSL_sign -1 def
/PSL_do_annot 1 def
/PSL_do_label 1 def
/PSL_do_A1 0 def
/PSL_TL1 24 def
/PSL_AO0 24 def
/PSL_AO1 24 def
/PSL_LO 35 def
/PSL_AF0 75 def
/PSL_AF1 67 def
/PSL_LF 75 def
/PSL_AH0 0 def
/PSL_AH1 0 def
0 0 M 75 F0 (M) E /PSL_dim_w exch def FP pathbbox N /PSL_dim_h exch def pop /PSL_dim_d exch def pop
PSL_dim_h PSL_dim_d sub /PSL_LH exch def
5 W
0 0 M 1200 0 D S
4 W
0 0 M 0 -24 D S
240 0 M 0 -24 D S
480 0 M 0 -24 D S
720 0 M 0 -24 D S
960 0 M 0 -24 D S
1200 0 M 0 -24 D S
0 0 M 75 F0 (0) E /PSL_dim_w exch def FP pathbbox N /PSL_dim_h exch def pop /PSL_dim_d exch def pop
PSL_dim_h PSL_AH0 gt {/PSL_AH0 PSL_dim_h def} if
0 0 M 75 F0 (10) E /PSL_dim_w exch def FP pathbbox N /PSL_dim_h exch def pop /PSL_dim_d exch def pop
PSL_dim_h PSL_AH0 gt {/PSL_AH0 PSL_dim_h def} if
0 0 M 75 F0 (20) E /PSL_dim_w exch def FP pathbbox N /PSL_dim_h exch def pop /PSL_dim_d exch def pop
PSL_dim_h PSL_AH0 gt {/PSL_AH0 PSL_dim_h def} if
0 0 M 75 F0 (30) E /PSL_dim_w exch def FP pathbbox N /PSL_dim_h exch def pop /PSL_dim_d exch def pop
PSL_dim_h PSL_AH0 gt {/PSL_AH0 PSL_dim_h def} if
0 0 M 75 F0 (40) E /PSL_dim_w exch def FP pathbbox N /PSL_dim_h exch def pop /PSL_dim_d exch def pop
PSL_dim_h PSL_AH0 gt {/PSL_AH0 PSL_dim_h def} if
0 0 M 75 F0 (50) E /PSL_dim_w exch def FP pathbbox N /PSL_dim_h exch def pop /PSL_dim_d exch def pop
PSL_dim_h PSL_AH0 gt {/PSL_AH0 PSL_dim_h def} if
0 0 M 0 -12 D S
120 0 M 0 -12 D S
240 0 M 0 -12 D S
360 0 M 0 -12 D S
480 0 M 0 -12 D S
600 0 M 0 -12 D S
720 0 M 0 -12 D S
840 0 M 0 -12 D S
960 0 M 0 -12 D S
1080 0 M 0 -12 D S
1200 0 M 0 -12 D S
/PSL_A0_y PSL_AO0 PSL_TL1 PSL_AO0 mul 0 gt {PSL_TL1 add} if PSL_AO0 0 gt {PSL_sign 0 lt {PSL_AH0} {0} ifelse add} if PSL_sign mul def
/PSL_A1_y PSL_A0_y abs PSL_AO1 add PSL_sign 0 lt {PSL_AH1} {PSL_AH0} ifelse add PSL_sign mul def
/PSL_L_y PSL_A1_y abs PSL_LO add PSL_sign 0 lt {PSL_LH} {PSL_AH1} ifelse add PSL_sign mul def
/PSL_x 0 def
PSL_x PSL_A0_y M
currentpoint /PSL_save_y exch def /PSL_save_x exch def
0 0 M 75 F0 (0) E /PSL_dim_w exch def FP pathbbox N /PSL_dim_h exch def pop /PSL_dim_d exch def pop
PSL_save_x PSL_save_y M
PSL_dim_w 2 div neg 0 G 75 F0 (0) Z
/PSL_x 240 def
PSL_x PSL_A0_y M
currentpoint /PSL_save_y exch def /PSL_save_x exch def
0 0 M 75 F0 (10) E /PSL_dim_w exch def FP pathbbox N /PSL_dim_h exch def pop /PSL_dim_d exch def pop
PSL_save_x PSL_save_y M
PSL_dim_w 2 div neg 0 G 75 F0 (10) Z
/PSL_x 480 def
PSL_x PSL_A0_y M
currentpoint /PSL_save_y exch def /PSL_save_x exch def
0 0 M 75 F0 (20) E /PSL_dim_w exch def FP pathbbox N /PSL_dim_h exch def pop /PSL_dim_d exch def pop
PSL_save_x PSL_save_y M
PSL_dim_w 2 div neg 0 G 75 F0 (20) Z
/PSL_x 720 def
PSL_x PSL_A0_y M
currentpoint /PSL_save_y exch def /PSL_save_x exch def
0 0 M 75 F0 (30) E /PSL_dim_w exch def FP pathbbox N /PSL_dim_h exch def pop /PSL_dim_d exch def pop
PSL_save_x PSL_save_y M
PSL_dim_w 2 div neg 0 G 75 F0 (30) Z
/PSL_x 960 def
PSL_x PSL_A0_y M
currentpoint /PSL_save_y exch def /PSL_save_x exch def
0 0 M 75 F0 (40) E /PSL_dim_w exch def FP pathbbox N /PSL_dim_h exch def pop /PSL_dim_d exch def pop
PSL_save_x PSL_save_y M
PSL_dim_w 2 div neg 0 G 75 F0 (40) Z
/PSL_x 1200 def
PSL_x PSL_A0_y M
currentpoint /PSL_save_y exch def /PSL_save_x exch def
0 0 M 75 F0 (50) E /PSL_dim_w exch def FP pathbbox N /PSL_dim_h exch def pop /PSL_dim_d exch def pop
PSL_save_x PSL_save_y M
PSL_dim_w 2 div neg 0 G 75 F0 (50) Z
/PSL_x 600 def
0 0 M 75 F0 (Frequency\040\[%\]) E /PSL_dim_w exch def FP pathbbox N /PSL_dim_h exch def pop /PSL_dim_d exch def pop
PSL_x PSL_L_y M
currentpoint /PSL_save_y exch def /PSL_save_x exch def
0 0 M 75 F0 (Frequency\040\[%\]) E /PSL_dim_w exch def FP pathbbox N /PSL_dim_h exch def pop /PSL_dim_d exch def pop
PSL_save_x PSL_save_y M
PSL_dim_w 2 div neg 0 G 75 F0 (Frequency\040\[%\]) Z
0 1200 T
/PSL_sign 1 def
/PSL_do_annot 0 def
/PSL_do_label 1 def
/PSL_do_A1 0 def
/PSL_TL1 24 def
/PSL_AO0 24 def
/PSL_AO1 24 def
/PSL_LO 35 def
/PSL_AF0 75 def
/PSL_AF1 67 def
/PSL_LF 75 def
/PSL_AH0 0 def
/PSL_AH1 0 def
0 0 M 75 F0 (M) E /PSL_dim_w exch def FP pathbbox N /PSL_dim_h exch def pop /PSL_dim_d exch def pop
PSL_dim_h PSL_dim_d sub /PSL_LH exch def
5 W
0 0 M 1200 0 D S
4 W
0 0 M 0 24 D S
240 0 M 0 24 D S
480 0 M 0 24 D S
720 0 M 0 24 D S
960 0 M 0 24 D S
1200 0 M 0 24 D S
0 0 M 0 12 D S
120 0 M 0 12 D S
240 0 M 0 12 D S
360 0 M 0 12 D S
480 0 M 0 12 D S
600 0 M 0 12 D S
720 0 M 0 12 D S
840 0 M 0 12 D S
960 0 M 0 12 D S
1080 0 M 0 12 D S
1200 0 M 0 12 D S
/PSL_A0_y PSL_AO0 PSL_TL1 PSL_AO0 mul 0 gt {PSL_TL1 add} if PSL_AO0 0 gt {PSL_sign 0 lt {PSL_AH0} {0} ifelse add} if PSL_sign mul def
/PSL_A1_y PSL_A0_y abs PSL_AO1 add PSL_sign 0 lt {PSL_AH1} {PSL_AH0} ifelse add PSL_sign mul def
/PSL_L_y PSL_A1_y abs PSL_LO add PSL_sign 0 lt {PSL_LH} {PSL_AH1} ifelse add PSL_sign mul def
0 -1200 T
grestore
/PSL_sign 1 def
/PSL_do_annot 0 def
/PSL_do_label 1 def
/PSL_do_A1 0 def
/PSL_TL1 24 def
/PSL_AO0 24 def
/PSL_AO1 24 def
/PSL_LO 35 def
/PSL_AF0 75 def
/PSL_AF1 67 def
/PSL_LF 75 def
/PSL_AH0 0 def
/PSL_AH1 0 def
0 0 M 75 F0 (M) E /PSL_dim_w exch def FP pathbbox N /PSL_dim_h exch def pop /PSL_dim_d exch def pop
PSL_dim_h PSL_dim_d sub /PSL_LH exch def
/PSL_A0_y PSL_AO0 PSL_TL1 PSL_AO0 mul 0 gt {PSL_TL1 add} if PSL_AO0 0 gt {PSL_sign 0 lt {PSL_AH0} {0} ifelse add} if PSL_sign mul def
/PSL_A1_y PSL_A0_y abs PSL_AO1 add PSL_sign 0 lt {PSL_AH1} {PSL_AH0} ifelse add PSL_sign mul def
/PSL_L_y PSL_A1_y abs PSL_LO add PSL_sign 0 lt {PSL_LH} {PSL_AH1} ifelse add PSL_sign mul def
/PSL_HO 59 def
/PSL_H_y PSL_L_y PSL_LH add PSL_HO add def
/PSL_H_y PSL_L_y PSL_HO add def
/PSL_x 600 def
/PSL_y 1200 def
/PSL_HF 83 def
0 0 M 83 F0 (T01.01\0400000\0400802\04030N\<LAT\<31N) E /PSL_dim_w exch def FP pathbbox N /PSL_dim_h exch def pop /PSL_dim_d exch def pop
PSL_x PSL_dim_w 2 div sub PSL_y PSL_H_y add M
83 F0 (T01.01\0400000\0400802\04030N\<LAT\<31N) Z
0 A
PSL_font_encode 0 get 0 eq {ISOLatin1+_Encoding /Helvetica /Helvetica PSL_reencode PSL_font_encode 0 1 put} if
0 setlinecap
0 setlinejoin
3.32551 setmiterlimit

%% PostScript produced by:
%%GMT:  pshistogram -JX4/4 -R-1/1/0/50 27.HIST_PBLH-Z_BIN250m_HORIZONTAL_RW3A.00.04.05.05.0000.01.d01_T01.01.TXT -W0.25 -Z1 -L5,0/100/0 \
%%GMT:+ -A -O -K
%%PROJ: xy 0.00000000 50.00000000 -1.00000000 1.00000000 0.000 50.000 -1.000 1.000 +xy +a=6378137.000 +b=6356752.314245
clipsave
0 0 M
1200 0 D
0 1200 D
-1200 0 D
eoclip N
5 W
0 0.392 0 C
FQ
O1
0 0 M
0 150 D
31 0 D
0 -150 D
FO
0 150 M
0 150 D
189 0 D
0 -150 D
FO
0 300 M
0 150 D
349 0 D
0 -150 D
FO
0 450 M
0 150 D
700 0 D
0 -150 D
FO
0 600 M
0 150 D
685 0 D
0 -150 D
FO
0 750 M
0 150 D
301 0 D
0 -150 D
FO
0 900 M
0 150 D
91 0 D
0 -150 D
FO
0 1050 M
0 150 D
50 0 D
0 -150 D
FO
0 1200 M
5 0 D
FO
cliprestore
0 A
PSL_font_encode 0 get 0 eq {ISOLatin1+_Encoding /Helvetica /Helvetica PSL_reencode PSL_font_encode 0 1 put} if
0 setlinecap
0 setlinejoin
3.32551 setmiterlimit

%% PostScript produced by:
%%GMT:  psxy -JX4/4 -R0/50/-1/1 -W3t20_5:5 -O -K
%%PROJ: xy 0.00000000 50.00000000 -1.00000000 1.00000000 0.000 50.000 -1.000 1.000 +xy +a=6378137.000 +b=6356752.314245
3 W
[20 5] 5 B
0 A
0 600 M
1200 0 D
S
[] 0 B
0 A
PSL_font_encode 0 get 0 eq {ISOLatin1+_Encoding /Helvetica /Helvetica PSL_reencode PSL_font_encode 0 1 put} if
0 setlinecap
0 setlinejoin
3.32551 setmiterlimit
-150 1500 T

%% PostScript produced by:
%%GMT:  pstext -JX6/2 -R0/1/0/1.5 -N -x-0.5 -y5 -O -P
%%PROJ: xy 0.00000000 1.00000000 0.00000000 1.50000000 0.000 1.000 0.000 1.500 +xy +a=6378137.000 +b=6356752.314245
0 W
0 A
PSL_font_encode 1 get 0 eq {ISOLatin1+_Encoding /Helvetica-Bold /Helvetica-Bold PSL_reencode PSL_font_encode 1 1 put} if
0 0 M 38 F1 (./27.HIST_PBLH-Z_BIN250m_HORIZONTAL.sh T01.01) E /PSL_dim_w exch def FP pathbbox N /PSL_dim_h exch def pop /PSL_dim_d exch def pop
0 600 M 0 PSL_dim_h 2 div neg G 38 F1 (./27.HIST_PBLH-Z_BIN250m_HORIZONTAL.sh T01.01) Z
0 0 M 38 F1 (Tue, 13 Aug 2024 18:38:52 +0900) E /PSL_dim_w exch def FP pathbbox N /PSL_dim_h exch def pop /PSL_dim_d exch def pop
0 540 M 0 PSL_dim_h 2 div neg G 38 F1 (Tue, 13 Aug 2024 18:38:52 +0900) Z
0 0 M 38 F1 (/work04/manda/2022.RW3A/14.00.RW3A.TRAJ/42.38.1.TIAMAT_HISTO_PBLH) E /PSL_dim_w exch def FP pathbbox N /PSL_dim_h exch def pop /PSL_dim_d exch def pop
0 480 M 0 PSL_dim_h 2 div neg G 38 F1 (/work04/manda/2022.RW3A/14.00.RW3A.TRAJ/42.38.1.TIAMAT_HISTO_PBLH) Z
0 0 M 38 F1 (INDIR: /work04/manda/2022.RW3A/14.00.RW3A.TRAJ/42.32.1.TIAMAT_RW3A.TRAJ.BAK.Z-PBLH_10MN/RW3A.00.04.05.05.0802.01.d01_T01.01) E /PSL_dim_w exch def FP pathbbox N /PSL_dim_h exch def pop /PSL_dim_d exch def pop
0 420 M 0 PSL_dim_h 2 div neg G 38 F1 (INDIR: /work04/manda/2022.RW3A/14.00.RW3A.TRAJ/42.32.1.TIAMAT_RW3A.TRAJ.BAK.Z-PBLH_10MN/RW3A.00.04.05.05.0802.01.d01_T01.01) Z
0 0 M 38 F1 (FIG: 27.HIST_PBLH-Z_BIN250m_HORIZONTAL_RW3A.00.04.05.05_.01.d01_T01.01_30-31.ps) E /PSL_dim_w exch def FP pathbbox N /PSL_dim_h exch def pop /PSL_dim_d exch def pop
0 360 M 0 PSL_dim_h 2 div neg G 38 F1 (FIG: 27.HIST_PBLH-Z_BIN250m_HORIZONTAL_RW3A.00.04.05.05_.01.d01_T01.01_30-31.ps) Z
%%PageTrailer
150 -1500 T 4.16667 4.16667 scale 0 A
showpage

%%Trailer

end
%%EOF
