if [ ! -d ./obj ]; then \
mkdir -p ./obj ; \
fi
ifort -c  -CB -traceback -fpe0 -module ./obj -I/usr/local/netcdf-c-4.8.0/include  -c -o obj/MODULE_LFM_P_VAR.o MODULE_LFM_P_VAR.F90
ifort -c  -CB -traceback -fpe0 -module ./obj -I/usr/local/netcdf-c-4.8.0/include  -c -o obj/MODULE_LFM_S_VAR.o MODULE_LFM_S_VAR.F90
ifort -c  -CB -traceback -fpe0 -module ./obj -I/usr/local/netcdf-c-4.8.0/include  -c -o obj/LFM2BIN.o LFM2BIN.F90
ifort -c  -CB -traceback -fpe0 -module ./obj -I/usr/local/netcdf-c-4.8.0/include  -c -o obj/READ_LFM_S.o READ_LFM_S.F90
ifort -c  -CB -traceback -fpe0 -module ./obj -I/usr/local/netcdf-c-4.8.0/include  -c -o obj/READ_LFM_P.o READ_LFM_P.F90
ifort -c  -CB -traceback -fpe0 -module ./obj -I/usr/local/netcdf-c-4.8.0/include  -c -o obj/WRITE_LFM_S.o WRITE_LFM_S.F90
ifort -c  -CB -traceback -fpe0 -module ./obj -I/usr/local/netcdf-c-4.8.0/include  -c -o obj/WRITE_LFM_P.o WRITE_LFM_P.F90
ifort -o LFM2BIN ./obj/MODULE_LFM_P_VAR.o ./obj/MODULE_LFM_S_VAR.o ./obj/LFM2BIN.o ./obj/READ_LFM_S.o ./obj/READ_LFM_P.o ./obj/WRITE_LFM_S.o ./obj/WRITE_LFM_P.o -module ./obj -L/usr/local/netcdf-c-4.8.0/lib -lnetcdff -I/usr/local/netcdf-c-4.8.0/include
