TIME_UTC    ZOBS    QvITP
2020 06 01 00  100 0.015575
2020 06 01 03  100 0.0149334
2020 06 01 06  100 0.0139927
2020 06 01 09  100 0.0137016
2020 06 01 12  100 0.0133275
2020 06 01 15  100 0.0133451
2020 06 01 18  100 0.0130672
2020 06 01 21  100 0.0127639
