/work03/am/2022.06.ECS.OBS/26.10.LFM.TRANSECT/12.02.TEST.TRANSECT
Thu, 10 Nov 2022 18:46:51 +0900

/work03/am/2022.06.ECS.OBS/28.12.LFM.NCL.pt4/22.12.LFM_MAP_WVF
2023-01-18_17-56

/work03/am/2022.06.ECS.OBS/26.12.LFM.NCL/16.82.LFM_MAP.WVF_CSC
2023-01-18_18-23

MMMMMMMMMMMMMMMMMMMMMMMMMMMMMMMMMMMMMMMMMMMMMMMMMMMMMMMMMM
FH03 OMEGA, EPT, VPT
/work03/am/2022.06.ECS.OBS/26.16.LFM.NCL.pt3/16.16.LFM_W_VAPOR
LFM_PRS_FH03_2022-06-19_03_W_VPT_EPT.png
MMMMMMMMMMMMMMMMMMMMMMMMMMMMMMMMMMMMMMMMMMMMMMMMMMMMMMMMMM
