%!PS-Adobe-3.0
%%BoundingBox: 0 0 595 842
%%HiResBoundingBox: 0 0 595 842
%%Title: GMT v4.5.12 [64-bit] Document from psxy
%%Creator: GMT
%%For: manda
%%DocumentNeededResources: font Helvetica
%%CreationDate: Wed Feb 10 12:39:20 2021
%%LanguageLevel: 2
%%DocumentData: Clean7Bit
%%Orientation: Portrait
%%Pages: 1
%%EndComments

%%BeginProlog
250 dict begin
/! {bind def} bind def
/# {load def}!
/A /setgray #
/B /setdash #
/C /setrgbcolor #
/D /rlineto #
/E {dup stringwidth pop}!
/F /fill #
/G /rmoveto #
/H /sethsbcolor #
/I /setpattern #
/K /setcmykcolor #
/L /lineto #
/M /moveto #
/N /newpath #
/P /closepath #
/R /rotate #
/S /stroke #
/T /translate #
/U /grestore #
/V /gsave #
/W /setlinewidth #
/Y {findfont exch scalefont setfont}!
/Z /show #
/FP {true charpath flattenpath}!
/MS {/savematrix matrix currentmatrix def}!
/MR {savematrix setmatrix}!
/O {S 3 -1 roll 0 360 arc P F S}!
/X {M 1.414213562 mul 5 {dup} repeat -2 div dup G D neg 0 G neg D S}!
/x {M dup 0 G dup -2 mul dup 0 D exch dup G 0 exch D S}!
/FS {/fc exch def /fs {V fc F U} def}!
/FQ {/fs {} def}!
/O0 {/os {N} def}!
/O1 {/os {P S} def}!
/FO {fs os}!
/SP {M {D} repeat FO}!
/SV {0 exch M 0 D D D D D 0 D FO}!
/Sv {0 0 M D D 0 D D D D D 0 D D FO}!
/SB {M dup 0 D exch 0 exch D neg 0 D FO}!
/SC {N 3 -1 roll 0 360 arc FO}!
/SE {N MS T R scale 0 0 1 0 360 arc MR FO}!
/SD {M 4 {dup} repeat 0 G neg dup dup D exch D D FO}!
/SR {M MS R dup -2 div 0 G exch dup -2 div 0 exch G exch dup 0 D exch 0 exch D neg 0 D MR FO}!
/SS {M 1.414213562 mul dup dup dup -2 div dup G 0 D 0 exch D neg 0 D FO}!
/ST {M MS dup 0 exch G -60 R 1.732050808 mul dup 0 D -120 R 0 D MR FO}!
/SI {M MS dup neg 0 exch G 60 R 1.732050808 mul dup 0 D 120 R 0 D MR FO}!
/SA {M MS dup 0 exch G 0.726542528 mul -72 R dup 0 D 4 {72 R dup 0 D -144 R dup 0 D} repeat pop MR FO}!
/SH {M MS dup 0 G -120 R dup 0 D 4 {-60 R dup 0 D} repeat pop MR FO}!
/SN {M MS dup 0 exch G -36 R 1.175570505 mul dup 0 D 3 {-72 R dup 0 D} repeat pop MR FO}!
/SO {M MS 22.5 R dup 0 exch G -22.5 R 0.765366865 mul dup 0 D 6 {-45 R dup 0 D} repeat pop MR FO}!
/SW {N 2 copy 7 -3 roll arc L FO}!
/PSL_reencode {findfont dup length dict begin
  {1 index /FID ne {def}{pop pop} ifelse} forall
  exch /Encoding exch def currentdict end definefont pop
}!
/PSL_eps_begin {
  /PSL_eps_state save def
  /PSL_dict_count countdictstack def
  /PSL_op_count count 1 sub def
  userdict begin
  /showpage {} def
  0 setgray 0 setlinecap 1 setlinewidth
  0 setlinejoin 10 setmiterlimit [] 0 setdash newpath
  /languagelevel where
  {pop languagelevel 1 ne {false setstrokeadjust false setoverprint} if} if
}!
/PSL_eps_end {
  count PSL_op_count sub {pop} repeat
  countdictstack PSL_dict_count sub {end} repeat
  PSL_eps_state restore
}!
/ISOLatin1+_Encoding [
/.notdef	/.notdef	/.notdef	/.notdef	/.notdef	/.notdef	/.notdef	/.notdef
/.notdef	/.notdef	/.notdef	/.notdef	/.notdef	/.notdef	/.notdef	/.notdef
/.notdef	/.notdef	/.notdef	/.notdef	/.notdef	/.notdef	/.notdef	/.notdef
/.notdef	/bullet		/ellipsis	/trademark	/emdash		/endash		/fi		/zcaron
/space		/exclam		/quotedbl	/numbersign	/dollar		/percent	/ampersand	/quoteright
/parenleft	/parenright	/asterisk	/plus		/comma		/minus		/period		/slash
/zero		/one		/two		/three		/four		/five		/six		/seven
/eight		/nine		/colon		/semicolon	/less		/equal		/greater	/question
/at		/A		/B		/C		/D		/E		/F		/G
/H		/I		/J		/K		/L		/M		/N		/O
/P		/Q		/R		/S		/T		/U		/V		/W
/X		/Y		/Z		/bracketleft	/backslash	/bracketright	/asciicircum	/underscore
/quoteleft	/a		/b		/c 		/d		/e		/f		/g
/h		/i		/j		/k		/l		/m		/n		/o
/p		/q		/r		/s		/t		/u		/v		/w
/x		/y		/z		/braceleft	/bar		/braceright	/asciitilde	/scaron
/OE		/dagger		/daggerdbl	/Lslash		/fraction	/guilsinglleft	/Scaron		/guilsinglright
/oe		/Ydieresis	/Zcaron		/lslash		/perthousand	/quotedblbase	/quotedblleft	/quotedblright
/dotlessi	/grave		/acute		/circumflex	/tilde		/macron		/breve		/dotaccent
/dieresis	/quotesinglbase	/ring		/cedilla	/quotesingle	/hungarumlaut	/ogonek		/caron
/space		/exclamdown	/cent		/sterling	/currency	/yen		/brokenbar	/section
/dieresis	/copyright	/ordfeminine	/guillemotleft	/logicalnot	/hyphen		/registered	/macron
/degree		/plusminus	/twosuperior	/threesuperior	/acute		/mu		/paragraph	/periodcentered
/cedilla	/onesuperior	/ordmasculine	/guillemotright	/onequarter	/onehalf	/threequarters	/questiondown
/Agrave		/Aacute		/Acircumflex	/Atilde		/Adieresis	/Aring		/AE		/Ccedilla
/Egrave		/Eacute		/Ecircumflex	/Edieresis	/Igrave		/Iacute		/Icircumflex	/Idieresis
/Eth		/Ntilde		/Ograve		/Oacute		/Ocircumflex	/Otilde		/Odieresis	/multiply
/Oslash		/Ugrave		/Uacute		/Ucircumflex	/Udieresis	/Yacute		/Thorn		/germandbls
/agrave		/aacute		/acircumflex	/atilde		/adieresis	/aring		/ae		/ccedilla
/egrave		/eacute		/ecircumflex	/edieresis	/igrave		/iacute		/icircumflex	/idieresis
/eth		/ntilde		/ograve		/oacute		/ocircumflex	/otilde		/odieresis	/divide
/oslash		/ugrave		/uacute		/ucircumflex	/udieresis	/yacute		/thorn		/ydieresis
] def
/PSL_font_encode 0 0 0 0 0 0 0 0 0 0 0 0 0 0 0 0 0 0 0 0 0 0 0 0 0 0 0 0 0 0 0 0 0 0 0 35 array astore def
/F0 {/Helvetica Y}!
/F1 {/Helvetica-Bold Y}!
/F2 {/Helvetica-Oblique Y}!
/F3 {/Helvetica-BoldOblique Y}!
/F4 {/Times-Roman Y}!
/F5 {/Times-Bold Y}!
/F6 {/Times-Italic Y}!
/F7 {/Times-BoldItalic Y}!
/F8 {/Courier Y}!
/F9 {/Courier-Bold Y}!
/F10 {/Courier-Oblique Y}!
/F11 {/Courier-BoldOblique Y}!
/F12 {/Symbol Y}!
/F13 {/AvantGarde-Book Y}!
/F14 {/AvantGarde-BookOblique Y}!
/F15 {/AvantGarde-Demi Y}!
/F16 {/AvantGarde-DemiOblique Y}!
/F17 {/Bookman-Demi Y}!
/F18 {/Bookman-DemiItalic Y}!
/F19 {/Bookman-Light Y}!
/F20 {/Bookman-LightItalic Y}!
/F21 {/Helvetica-Narrow Y}!
/F22 {/Helvetica-Narrow-Bold Y}!
/F23 {/Helvetica-Narrow-Oblique Y}!
/F24 {/Helvetica-Narrow-BoldOblique Y}!
/F25 {/NewCenturySchlbk-Roman Y}!
/F26 {/NewCenturySchlbk-Italic Y}!
/F27 {/NewCenturySchlbk-Bold Y}!
/F28 {/NewCenturySchlbk-BoldItalic Y}!
/F29 {/Palatino-Roman Y}!
/F30 {/Palatino-Italic Y}!
/F31 {/Palatino-Bold Y}!
/F32 {/Palatino-BoldItalic Y}!
/F33 {/ZapfChancery-MediumItalic Y}!
/F34 {/ZapfDingbats Y}!
/PSL_pathtextdict 26 dict def
/PSL_pathtext
  {PSL_pathtextdict begin
    /textheight exch def
    /just exch def
    /offset exch def
    /str exch def
    /pathdist 0 def
    /setdist offset def
    /charcount 0 def
    /justy just 4 idiv textheight mul 2 div neg def
    V flattenpath
	{movetoproc} {linetoproc}
	{curvetoproc} {closepathproc}
	pathforall
    U N
    end
  } def
PSL_pathtextdict begin
/movetoproc
  { /newy exch def /newx exch def
    /firstx newx def /firsty newy def
    /ovr 0 def
    newx newy transform
    /cpy exch def /cpx exch def
  } def
/linetoproc
  { /oldx newx def /oldy newy def
    /newy exch def /newx exch def
    /dx newx oldx sub def
    /dy newy oldy sub def
    /dist dx dup mul dy dup mul add sqrt def
    dist 0 ne
    { /dsx dx dist div ovr mul def
      /dsy dy dist div ovr mul def
      oldx dsx add oldy dsy add transform
      /cpy exch def /cpx exch def
      /pathdist pathdist dist add def
      {setdist pathdist le
	  {charcount str length lt
	      {setchar} {exit} ifelse}
	  { /ovr setdist pathdist sub def
	    exit}
	  ifelse
      } loop
    } if
  } def
/curvetoproc
  { (ERROR: No curveto's after flattenpath!)
    print
  } def
/closepathproc
  {firstx firsty linetoproc
    firstx firsty movetoproc
  } def
/setchar
  { /char str charcount 1 getinterval def
    /charcount charcount 1 add def
    /charwidth char stringwidth pop def
    V cpx cpy itransform T
      dy dx atan R
      0 justy M
      char show
      0 justy neg G
      currentpoint transform
      /cpy exch def /cpx exch def
    U /setdist setdist charwidth add def
  } def
end
/PSL_curved_text_labels
{ /bits exch def
  /PSL_clippath bits 1 and 1 eq def
  /PSL_placetext bits 2 and 0 eq def
  /PSL_strokeline bits 4 and 4 eq def
  /PSL_firstcall bits 32 and 32 eq def
  /PSL_lastcall bits 64 and 64 eq def
  /PSL_fillbox bits 128 and 128 eq def
  /PSL_drawbox bits 256 and 256 eq def
  /PSL_n1 PSL_n 1 sub def
  /PSL_m1 PSL_m 1 sub def
  /PSL_usebox PSL_fillbox PSL_drawbox or def
  PSL_CT_calcstringwidth
  PSL_CT_calclinedist
  PSL_CT_addcutpoints
  PSL_clippath PSL_firstcall and
  {clipsave N clippath} if
  PSL_setlinepen
  /PSL_nn1 PSL_nn 1 sub def
  /n 0 def
  /k 0 def
  /j 0 def
  /PSL_seg 0 def
  /PSL_xp PSL_nn array def
  /PSL_yp PSL_nn array def
  PSL_xp 0 PSL_xx 0 get put
  PSL_yp 0 PSL_yy 0 get put
  1 1 PSL_nn1
  { /i exch def
    /node_type PSL_kind i get def
    /j j 1 add def
    PSL_xp j PSL_xx i get put
    PSL_yp j PSL_yy i get put
    node_type 1 eq
    {n 0 eq
      {PSL_CT_drawline}
      {	PSL_CT_reversepath
	PSL_CT_textline} ifelse
      /j 0 def
      PSL_xp j PSL_xx i get put
      PSL_yp j PSL_yy i get put
    } if
  } for
  n 0 eq {PSL_CT_drawline} if
  PSL_lastcall
  {PSL_clippath
    {clip /PSL_clip_on true def} if N
  } if
} def
/PSL_CT_textline
{PSL_placetext
  {PSL_clippath
    {PSL_CT_clippath} {PSL_CT_placelabel} ifelse
  } if
  /n 0 def /k k 1 add def PSL_setlinepen
} def
/PSL_CT_calcstringwidth
{ /PSL_width PSL_m array def
  0 1 PSL_m1
  { /i exch def
    PSL_width i PSL_str i get stringwidth pop put
  } for
} def
/PSL_CT_calclinedist
{ /PSL_newx PSL_x 0 get def
  /PSL_newy PSL_y 0 get def
  /dist 0.0 def
  /PSL_dist PSL_n array def
  PSL_dist 0 0.0 put
  1 1 PSL_n1
  { /i exch def
    /PSL_oldx PSL_newx def
    /PSL_oldy PSL_newy def
    /PSL_newx PSL_x i get def
    /PSL_newy PSL_y i get def
    /dx PSL_newx PSL_oldx sub def
    /dy PSL_newy PSL_oldy sub def
    /dist dist dx dx mul dy dy mul add sqrt add def
    PSL_dist i dist put
  } for
} def
/PSL_CT_addcutpoints
{ /k 0 def
  /PSL_nc PSL_m 2 mul 1 add def
  /PSL_cuts PSL_nc array def
  /PSL_nc1 PSL_nc 1 sub def
  0 1 PSL_m1
  { /i exch def
    /dist PSL_dist PSL_node i get get def
    /halfwidth PSL_width i get 2 div PSL_gap_x add def
    PSL_cuts k dist halfwidth sub put
    /k k 1 add def
    PSL_cuts k dist halfwidth add put
    /k k 1 add def
  } for
  PSL_cuts k 100000.0 put
  /PSL_nn PSL_n PSL_m 2 mul add def
  /PSL_xx PSL_nn array def
  /PSL_yy PSL_nn array def
  /PSL_kind PSL_nn array def
  /j 0 def
  /k 0 def
  /dist 0.0 def
  0 1 PSL_n1
  { /i exch def
    /last_dist dist def
    /dist PSL_dist i get def
    k 1 PSL_nc1
    { /kk exch def
      /this_cut PSL_cuts kk get def
      dist this_cut gt
      { /ds dist last_dist sub def
	/f ds 0.0 eq {0.0} {dist this_cut sub ds div} ifelse def
	/i1 i 0 eq {0} {i 1 sub} ifelse def
	PSL_xx j PSL_x i get dup PSL_x i1 get sub f mul sub put
	PSL_yy j PSL_y i get dup PSL_y i1 get sub f mul sub put
	PSL_kind j 1 put
	/j j 1 add def
	/k k 1 add def
      } if
    } for
    dist PSL_cuts k get le
    {PSL_xx j PSL_x i get put PSL_yy j PSL_y i get put
      PSL_kind j 0 put
      /j j 1 add def
    } if
  } for
} def
/PSL_CT_reversepath
{PSL_xp j get PSL_xp 0 get lt
  {0 1 j 2 idiv
    { /left exch def
      /right j left sub def
      /tmp PSL_xp left get def
      PSL_xp left PSL_xp right get put
      PSL_xp right tmp put
      /tmp PSL_yp left get def
      PSL_yp left PSL_yp right get put
      PSL_yp right tmp put
    } for
  } if
} def
/PSL_CT_placelabel
{
  PSL_usebox
  {PSL_CT_clippath
    PSL_fillbox
    {V PSL_setboxrgb fill U} if
    PSL_drawbox
    {PSL_setboxpen S} if N
  } if
  PSL_settxtrgb PSL_CT_placeline PSL_str k get PSL_gap_x PSL_just PSL_height PSL_pathtext
} def
/PSL_CT_clippath
{
  /H PSL_height 2 div PSL_gap_y add def
  /xoff j 1 add array def
  /yoff j 1 add array def
  /angle 0 def
  0 1 j {
    /ii exch def
    /x PSL_xp ii get def
    /y PSL_yp ii get def
    ii 0 eq {
      /x1 PSL_xp 1 get def
      /y1 PSL_yp 1 get def
      /dx x1 x sub def
      /dy y1 y sub def
    }
    { /i1 ii 1 sub def
      /x1 PSL_xp i1 get def
      /y1 PSL_yp i1 get def
      /dx x x1 sub def
      /dy y y1 sub def
    } ifelse
    dx 0.0 ne dy 0.0 ne and
    { /angle dy dx atan 90 add def} if
    /sina angle sin def
    /cosa angle cos def
    xoff ii H cosa mul put
    yoff ii H sina mul put
  } for
  PSL_xp 0 get xoff 0 get add PSL_yp 0 get yoff 0 get add M
  1 1 j {
    /ii exch def
    PSL_xp ii get xoff ii get add PSL_yp ii get yoff ii get add L
  } for
  j -1 0 {
    /ii exch def
    PSL_xp ii get xoff ii get sub PSL_yp ii get yoff ii get sub L
  } for P
} def
/PSL_CT_drawline
{
  /str 20 string def
  PSL_strokeline
  {PSL_CT_placeline PSL_setlinepen S} if
  /PSL_seg PSL_seg 1 add def
  /n 1 def
} def
/PSL_CT_placeline
{PSL_xp 0 get PSL_yp 0 get M
  1 1 j { /ii exch def PSL_xp ii get PSL_yp ii get L} for
} def
/PSL_straight_text_labels
{
  /bits exch def
  /PSL_clippath bits 1 and 0 eq def
  /PSL_rounded bits 16 and 16 eq def
  /PSL_fillbox bits 128 and 128 eq def
  /PSL_drawbox bits 256 and 256 eq def
  /PSL_m1 PSL_m 1 sub def
  /PSL_justx PSL_just 4 mod 1 sub 2 div neg def
  /PSL_justy PSL_just 4 idiv PSL_height mul 2 div neg def
  /PSL_usebox PSL_fillbox PSL_drawbox or def
  PSL_clippath
  {PSL_ST_clippath}
  {PSL_usebox {PSL_ST_clippath} if
    PSL_ST_placelabel
  } ifelse
} def
/PSL_ST_placelabel
{PSL_settxtrgb
  0 1 PSL_m1
  { /k exch def
    /xp PSL_txt_x k get def
    /yp PSL_txt_y k get def
    V PSL_txt_x k get PSL_txt_y k get T
    PSL_angle k get R
    /BoxW PSL_str k get stringwidth pop def
    BoxW PSL_justx mul PSL_justy M
    PSL_str k get show
    U
  } for
} def
/PSL_ST_clippath
{PSL_rounded {PSL_ST_clippath_round} {PSL_ST_clippath_rect} ifelse
  PSL_usebox
  {PSL_fillbox
    {V PSL_setboxrgb fill U} if
    PSL_drawbox
    {PSL_setboxpen S} if N
  }
  {clip /PSL_clip_on true def
  } ifelse
  N
} def
/PSL_ST_clippath_rect
{N
  /BoxH PSL_height PSL_gap_y 2 mul add def
  /DelY BoxH BoxH 0 3 array astore def
  PSL_usebox not {clipsave clippath} if
  0 1 PSL_m1
  { /k exch def
    /xp PSL_txt_x k get def
    /yp PSL_txt_y k get def
    /MAT PSL_angle k get matrix R def
    /BoxW PSL_str k get stringwidth pop PSL_gap_x 2 mul add def
    /x0 0 BoxW PSL_justx mul add def
    /y0 0 PSL_justy add PSL_gap_y sub def
    /DelX 0 BoxW BoxW 3 array astore def
    x0 y0 MAT transform
    /dy exch def /dx exch def
    xp dx add yp dy add M
    0 1 2
    {
      /ii exch def
      x0 DelX ii get add y0 DelY ii get add MAT transform
      /dy exch def /dx exch def
      xp dx add yp dy add L
    } for P
  } for
} def
/PSL_ST_clippath_round
{N
  /PSL_justy2 PSL_just 4 idiv 2 div neg def
  /BoxR PSL_gap_x PSL_gap_y lt {PSL_gap_x} {PSL_gap_y} ifelse def
  /BoxH PSL_height PSL_gap_y 2 mul add def
  /y0 PSL_height PSL_gap_y 2 mul add PSL_justy2 mul def
  PSL_usebox not {clipsave clippath} if
  0 1 PSL_m1
  { /k exch def
    /xp PSL_txt_x k get def
    /yp PSL_txt_y k get def
    /BoxW PSL_str k get stringwidth pop PSL_gap_x 2 mul add def
    /x0 BoxW PSL_justx mul def
    xp yp T PSL_angle k get R x0 y0 T
    BoxR 0 M
    BoxW 0 BoxW BoxH BoxR arct BoxW BoxH 0 BoxH BoxR arct 0 BoxH 0 0 BoxR arct 0 0 BoxW 0 BoxR arct P
    x0 neg y0 neg T PSL_angle k get neg R xp neg yp neg T
  } for
} def
/PSL_clip_on false def
%%EndProlog

%%BeginSetup
/PSLevel /languagelevel where {pop languagelevel} {1} ifelse def
PSLevel 1 gt { << /PageSize [595 842] /ImagingBBox null >> setpagedevice } if
%%EndSetup

%%Page: 1 1

%%BeginPageSetup
0.24 0.24 scale
%%EndPageSetup

PSL_font_encode 0 get 0 eq {ISOLatin1+_Encoding /Helvetica /Helvetica PSL_reencode PSL_font_encode 0 1 put} if
0 setlinecap
0 setlinejoin
3.32551 setmiterlimit
450 1500 T

%% PostScript produced by:
%%GMT:  psxy -JX4 -R-5/4/-1/9 -CPL_V2D_EKMAN.HODO.CPT -Sv0.03/0.05/0.05 -G0 -X1.5 -Y5 -K -P
%%PROJ: xy -5.00000000 4.00000000 -1.00000000 9.00000000 -5.000 4.000 -1.000 9.000 +xy +a=6378137.000 +b=6356752.314245
clipsave
0 0 M
1200 0 D
0 1200 D
-1200 0 D
eoclip N
1 W
0 A
{0.0157 0.0549 0.847 C} FS
O0
V 667 120 T 135 R -105 0 -11 -15 15 15 15 0 -11 105 -4 SV U
V 572 205 T 129.303 R -94 0 -11 -15 15 15 15 0 -11 94 -4 SV U
V 496 289 T 123.535 R -83 0 -11 -15 15 15 15 0 -11 83 -4 SV U
{0.125 0.314 1 C} FS
V 436 371 T 117.845 R -74 0 -11 -15 15 15 15 0 -11 74 -4 SV U
V 390 449 T 112.087 R -65 0 -11 -15 15 15 15 0 -11 65 -4 SV U
V 356 524 T 106.374 R -58 0 -11 -15 15 15 15 0 -11 58 -4 SV U
V 333 594 T 100.613 R -51 0 -11 -15 15 15 15 0 -11 51 -4 SV U
{0.255 0.588 1 C} FS
V 320 659 T 94.8498 R -45 0 -11 -15 15 15 15 0 -11 45 -4 SV U
V 314 718 T 89.1068 R -39 0 -11 -15 15 15 15 0 -11 39 -4 SV U
{0.427 0.757 1 C} FS
V 315 772 T 83.5042 R -34 0 -11 -15 15 15 15 0 -11 34 -4 SV U
V 321 820 T 77.7419 R -29 0 -11 -15 15 15 15 0 -11 29 -4 SV U
{0.525 0.851 1 C} FS
V 332 863 T 71.9999 R -25 0 -11 -15 15 15 15 0 -11 25 -4 SV U
V 345 901 T 66.3271 R -21 0 -11 -15 15 15 15 0 -11 21 -4 SV U
{0.612 0.933 1 C} FS
V 362 934 T 60.5161 R -18 0 -11 -15 15 15 15 0 -11 18 -4 SV U
V 379 963 T 54.76 R -15 0 -11 -15 15 15 15 0 -11 15 -4 SV U
V 398 987 T 49.1761 R -12 0 -11 -15 15 15 15 0 -11 12 -4 SV U
V 418 1007 T 43.3977 R -9 0 -11 -15 15 15 15 0 -11 9 -4 SV U
{0.686 0.961 1 C} FS
V 437 1024 T 37.4347 R -7 0 -11 -15 15 15 15 0 -11 7 -4 SV U
V 457 1037 T 31.858 R -5 0 -11 -15 15 15 15 0 -11 5 -4 SV U
{0.808 1 1 C} FS
V 475 1048 T 26.222 R -3 0 -11 -15 15 15 15 0 -11 3 -4 SV U
V 493 1056 T 20.3084 R -1 0 -11 -15 15 15 15 0 -11 1 -4 SV U
{1 0.996 0.278 C} FS
V 510 1061 T 14.7197 R 0 0 -11 -15 15 15 15 0 -11 0 -4 SV U
V 526 1065 T 8.86462 R 2 0 -11 -15 15 15 15 0 -11 -2 -4 SV U
{1 0.922 0 C} FS
V 541 1067 T 3.43363 R 3 0 -11 -15 15 15 15 0 -11 -3 -4 SV U
V 554 1068 T -2.51688 R 4 0 -11 -15 15 15 15 0 -11 -4 -4 SV U
V 566 1067 T -8.42697 R 5 0 -11 -15 15 15 15 0 -11 -5 -4 SV U
V 577 1066 T -14.0362 R 6 0 -11 -15 15 15 15 0 -11 -6 -4 SV U
{1 0.769 0 C} FS
V 587 1064 T -20.0561 R 7 0 -11 -15 15 15 15 0 -11 -7 -4 SV U
V 595 1061 T -25.3014 R 8 0 -11 -15 15 15 15 0 -11 -8 -4 SV U
{1 0.565 0 C} FS
V 602 1058 T -30.7841 R 8 0 -11 -15 15 15 15 0 -11 -8 -4 SV U
V 609 1055 T -36.8699 R 9 0 -11 -15 15 15 15 0 -11 -9 -4 SV U
{1 0.282 0 C} FS
V 614 1051 T -43.2101 R 10 0 -11 -15 15 15 15 0 -11 -10 -4 SV U
V 618 1047 T -48.0128 R 10 0 -11 -15 15 15 15 0 -11 -10 -4 SV U
{1 0 0 C} FS
V 622 1044 T -53.7462 R 11 0 -11 -15 15 15 15 0 -11 -11 -4 SV U
V 625 1040 T -59.6209 R 11 0 -11 -15 15 15 15 0 -11 -11 -4 SV U
V 627 1037 T -64.29 R 11 0 -11 -15 15 15 15 0 -11 -11 -4 SV U
V 629 1033 T -70.9065 R 12 0 -11 -15 15 15 15 0 -11 -12 -4 SV U
{0.835 0 0 C} FS
V 630 1030 T -75.9638 R 12 0 -11 -15 15 15 15 0 -11 -12 -4 SV U
V 631 1027 T -82.2348 R 12 0 -11 -15 15 15 15 0 -11 -12 -4 SV U
{0.62 0 0 C} FS
V 631 1025 T -87.1376 R 13 0 -11 -15 15 15 15 0 -11 -13 -4 SV U
V 631 1022 T -93.1798 R 13 0 -11 -15 15 15 15 0 -11 -13 -4 SV U
cliprestore
0 A
PSL_font_encode 0 get 0 eq {ISOLatin1+_Encoding /Helvetica /Helvetica PSL_reencode PSL_font_encode 0 1 put} if
0 setlinecap
0 setlinejoin
3.32551 setmiterlimit

%% PostScript produced by:
%%GMT:  psxy -JX4 -R-5/4/-1/9 -Ba1f1:x:/a1f1:y:WSne -W3 -K -O
%%PROJ: xy -5.00000000 4.00000000 -1.00000000 9.00000000 -5.000 4.000 -1.000 9.000 +xy +a=6378137.000 +b=6356752.314245
3 W
0 A
667 120 M
-95 85 D
-76 84 D
-60 82 D
-46 78 D
-34 75 D
-23 70 D
-13 65 D
-6 59 D
1 54 D
6 48 D
11 43 D
13 38 D
17 33 D
17 29 D
19 24 D
20 20 D
19 17 D
20 13 D
18 11 D
18 8 D
17 5 D
16 4 D
15 2 D
13 1 D
12 -1 D
11 -1 D
10 -2 D
8 -3 D
14 -6 D
5 -4 D
4 -4 D
4 -3 D
3 -4 D
2 -3 D
2 -4 D
2 -6 D
0 -5 D
S
gsave 2 setlinecap
90 R
/PSL_sign 1 def
/PSL_do_annot 1 def
/PSL_do_label 1 def
/PSL_do_A1 0 def
/PSL_TL1 24 def
/PSL_AO0 24 def
/PSL_AO1 24 def
/PSL_LO 35 def
/PSL_AF0 75 def
/PSL_AF1 67 def
/PSL_LF 75 def
/PSL_AH0 0 def
/PSL_AH1 0 def
0 0 M 75 F0 (M) E /PSL_dim_w exch def FP pathbbox N /PSL_dim_h exch def pop /PSL_dim_d exch def pop
PSL_dim_h PSL_dim_d sub /PSL_LH exch def
5 W
0 0 M 1200 0 D S
4 W
0 0 M 0 24 D S
120 0 M 0 24 D S
240 0 M 0 24 D S
360 0 M 0 24 D S
480 0 M 0 24 D S
600 0 M 0 24 D S
720 0 M 0 24 D S
840 0 M 0 24 D S
960 0 M 0 24 D S
1080 0 M 0 24 D S
1200 0 M 0 24 D S
0 0 M 75 F0 (-1) E /PSL_dim_w exch def FP pathbbox N /PSL_dim_h exch def pop /PSL_dim_d exch def pop
PSL_dim_w PSL_AH0 gt {/PSL_AH0 PSL_dim_w def} if
0 0 M 75 F0 (0) E /PSL_dim_w exch def FP pathbbox N /PSL_dim_h exch def pop /PSL_dim_d exch def pop
PSL_dim_w PSL_AH0 gt {/PSL_AH0 PSL_dim_w def} if
0 0 M 75 F0 (1) E /PSL_dim_w exch def FP pathbbox N /PSL_dim_h exch def pop /PSL_dim_d exch def pop
PSL_dim_w PSL_AH0 gt {/PSL_AH0 PSL_dim_w def} if
0 0 M 75 F0 (2) E /PSL_dim_w exch def FP pathbbox N /PSL_dim_h exch def pop /PSL_dim_d exch def pop
PSL_dim_w PSL_AH0 gt {/PSL_AH0 PSL_dim_w def} if
0 0 M 75 F0 (3) E /PSL_dim_w exch def FP pathbbox N /PSL_dim_h exch def pop /PSL_dim_d exch def pop
PSL_dim_w PSL_AH0 gt {/PSL_AH0 PSL_dim_w def} if
0 0 M 75 F0 (4) E /PSL_dim_w exch def FP pathbbox N /PSL_dim_h exch def pop /PSL_dim_d exch def pop
PSL_dim_w PSL_AH0 gt {/PSL_AH0 PSL_dim_w def} if
0 0 M 75 F0 (5) E /PSL_dim_w exch def FP pathbbox N /PSL_dim_h exch def pop /PSL_dim_d exch def pop
PSL_dim_w PSL_AH0 gt {/PSL_AH0 PSL_dim_w def} if
0 0 M 75 F0 (6) E /PSL_dim_w exch def FP pathbbox N /PSL_dim_h exch def pop /PSL_dim_d exch def pop
PSL_dim_w PSL_AH0 gt {/PSL_AH0 PSL_dim_w def} if
0 0 M 75 F0 (7) E /PSL_dim_w exch def FP pathbbox N /PSL_dim_h exch def pop /PSL_dim_d exch def pop
PSL_dim_w PSL_AH0 gt {/PSL_AH0 PSL_dim_w def} if
0 0 M 75 F0 (8) E /PSL_dim_w exch def FP pathbbox N /PSL_dim_h exch def pop /PSL_dim_d exch def pop
PSL_dim_w PSL_AH0 gt {/PSL_AH0 PSL_dim_w def} if
0 0 M 75 F0 (9) E /PSL_dim_w exch def FP pathbbox N /PSL_dim_h exch def pop /PSL_dim_d exch def pop
PSL_dim_w PSL_AH0 gt {/PSL_AH0 PSL_dim_w def} if
0 0 M 0 12 D S
120 0 M 0 12 D S
240 0 M 0 12 D S
360 0 M 0 12 D S
480 0 M 0 12 D S
600 0 M 0 12 D S
720 0 M 0 12 D S
840 0 M 0 12 D S
960 0 M 0 12 D S
1080 0 M 0 12 D S
1200 0 M 0 12 D S
/PSL_A0_y PSL_AO0 PSL_TL1 PSL_AO0 mul 0 gt {PSL_TL1 add} if PSL_AO0 0 gt {PSL_sign 0 lt {PSL_AH0} {0} ifelse add} if PSL_sign mul def
/PSL_A1_y PSL_A0_y abs PSL_AO1 add PSL_sign 0 lt {PSL_AH1} {PSL_AH0} ifelse add PSL_sign mul def
/PSL_L_y PSL_A1_y abs PSL_LO add PSL_sign 0 lt {PSL_LH} {PSL_AH1} ifelse add PSL_sign mul def
/PSL_x 0 def
PSL_x PSL_A0_y M
currentpoint /PSL_save_y exch def /PSL_save_x exch def
0 0 M 75 F0 (-1) E /PSL_dim_w exch def FP pathbbox N /PSL_dim_h exch def pop /PSL_dim_d exch def pop
PSL_save_x PSL_save_y M
V -90 R PSL_dim_w neg PSL_dim_h 2 div neg G 75 F0 (-1) Z U
/PSL_x 120 def
PSL_x PSL_A0_y M
currentpoint /PSL_save_y exch def /PSL_save_x exch def
0 0 M 75 F0 (0) E /PSL_dim_w exch def FP pathbbox N /PSL_dim_h exch def pop /PSL_dim_d exch def pop
PSL_save_x PSL_save_y M
V -90 R PSL_dim_w neg PSL_dim_h 2 div neg G 75 F0 (0) Z U
/PSL_x 240 def
PSL_x PSL_A0_y M
currentpoint /PSL_save_y exch def /PSL_save_x exch def
0 0 M 75 F0 (1) E /PSL_dim_w exch def FP pathbbox N /PSL_dim_h exch def pop /PSL_dim_d exch def pop
PSL_save_x PSL_save_y M
V -90 R PSL_dim_w neg PSL_dim_h 2 div neg G 75 F0 (1) Z U
/PSL_x 360 def
PSL_x PSL_A0_y M
currentpoint /PSL_save_y exch def /PSL_save_x exch def
0 0 M 75 F0 (2) E /PSL_dim_w exch def FP pathbbox N /PSL_dim_h exch def pop /PSL_dim_d exch def pop
PSL_save_x PSL_save_y M
V -90 R PSL_dim_w neg PSL_dim_h 2 div neg G 75 F0 (2) Z U
/PSL_x 480 def
PSL_x PSL_A0_y M
currentpoint /PSL_save_y exch def /PSL_save_x exch def
0 0 M 75 F0 (3) E /PSL_dim_w exch def FP pathbbox N /PSL_dim_h exch def pop /PSL_dim_d exch def pop
PSL_save_x PSL_save_y M
V -90 R PSL_dim_w neg PSL_dim_h 2 div neg G 75 F0 (3) Z U
/PSL_x 600 def
PSL_x PSL_A0_y M
currentpoint /PSL_save_y exch def /PSL_save_x exch def
0 0 M 75 F0 (4) E /PSL_dim_w exch def FP pathbbox N /PSL_dim_h exch def pop /PSL_dim_d exch def pop
PSL_save_x PSL_save_y M
V -90 R PSL_dim_w neg PSL_dim_h 2 div neg G 75 F0 (4) Z U
/PSL_x 720 def
PSL_x PSL_A0_y M
currentpoint /PSL_save_y exch def /PSL_save_x exch def
0 0 M 75 F0 (5) E /PSL_dim_w exch def FP pathbbox N /PSL_dim_h exch def pop /PSL_dim_d exch def pop
PSL_save_x PSL_save_y M
V -90 R PSL_dim_w neg PSL_dim_h 2 div neg G 75 F0 (5) Z U
/PSL_x 840 def
PSL_x PSL_A0_y M
currentpoint /PSL_save_y exch def /PSL_save_x exch def
0 0 M 75 F0 (6) E /PSL_dim_w exch def FP pathbbox N /PSL_dim_h exch def pop /PSL_dim_d exch def pop
PSL_save_x PSL_save_y M
V -90 R PSL_dim_w neg PSL_dim_h 2 div neg G 75 F0 (6) Z U
/PSL_x 960 def
PSL_x PSL_A0_y M
currentpoint /PSL_save_y exch def /PSL_save_x exch def
0 0 M 75 F0 (7) E /PSL_dim_w exch def FP pathbbox N /PSL_dim_h exch def pop /PSL_dim_d exch def pop
PSL_save_x PSL_save_y M
V -90 R PSL_dim_w neg PSL_dim_h 2 div neg G 75 F0 (7) Z U
/PSL_x 1080 def
PSL_x PSL_A0_y M
currentpoint /PSL_save_y exch def /PSL_save_x exch def
0 0 M 75 F0 (8) E /PSL_dim_w exch def FP pathbbox N /PSL_dim_h exch def pop /PSL_dim_d exch def pop
PSL_save_x PSL_save_y M
V -90 R PSL_dim_w neg PSL_dim_h 2 div neg G 75 F0 (8) Z U
/PSL_x 1200 def
PSL_x PSL_A0_y M
currentpoint /PSL_save_y exch def /PSL_save_x exch def
0 0 M 75 F0 (9) E /PSL_dim_w exch def FP pathbbox N /PSL_dim_h exch def pop /PSL_dim_d exch def pop
PSL_save_x PSL_save_y M
V -90 R PSL_dim_w neg PSL_dim_h 2 div neg G 75 F0 (9) Z U
/PSL_x 600 def
0 0 M 75 F0 (y) E /PSL_dim_w exch def FP pathbbox N /PSL_dim_h exch def pop /PSL_dim_d exch def pop
PSL_x PSL_L_y M
currentpoint /PSL_save_y exch def /PSL_save_x exch def
0 0 M 75 F0 (y) E /PSL_dim_w exch def FP pathbbox N /PSL_dim_h exch def pop /PSL_dim_d exch def pop
PSL_save_x PSL_save_y M
PSL_dim_w 2 div neg 0 G 75 F0 (y) Z
-90 R
1200 0 T 90 R
/PSL_sign -1 def
/PSL_do_annot 0 def
/PSL_do_label 1 def
/PSL_do_A1 0 def
/PSL_TL1 24 def
/PSL_AO0 24 def
/PSL_AO1 24 def
/PSL_LO 35 def
/PSL_AF0 75 def
/PSL_AF1 67 def
/PSL_LF 75 def
/PSL_AH0 0 def
/PSL_AH1 0 def
0 0 M 75 F0 (M) E /PSL_dim_w exch def FP pathbbox N /PSL_dim_h exch def pop /PSL_dim_d exch def pop
PSL_dim_h PSL_dim_d sub /PSL_LH exch def
5 W
0 0 M 1200 0 D S
4 W
0 0 M 0 -24 D S
120 0 M 0 -24 D S
240 0 M 0 -24 D S
360 0 M 0 -24 D S
480 0 M 0 -24 D S
600 0 M 0 -24 D S
720 0 M 0 -24 D S
840 0 M 0 -24 D S
960 0 M 0 -24 D S
1080 0 M 0 -24 D S
1200 0 M 0 -24 D S
0 0 M 0 -12 D S
120 0 M 0 -12 D S
240 0 M 0 -12 D S
360 0 M 0 -12 D S
480 0 M 0 -12 D S
600 0 M 0 -12 D S
720 0 M 0 -12 D S
840 0 M 0 -12 D S
960 0 M 0 -12 D S
1080 0 M 0 -12 D S
1200 0 M 0 -12 D S
/PSL_A0_y PSL_AO0 PSL_TL1 PSL_AO0 mul 0 gt {PSL_TL1 add} if PSL_AO0 0 gt {PSL_sign 0 lt {PSL_AH0} {0} ifelse add} if PSL_sign mul def
/PSL_A1_y PSL_A0_y abs PSL_AO1 add PSL_sign 0 lt {PSL_AH1} {PSL_AH0} ifelse add PSL_sign mul def
/PSL_L_y PSL_A1_y abs PSL_LO add PSL_sign 0 lt {PSL_LH} {PSL_AH1} ifelse add PSL_sign mul def
-90 R -1200 0 T
/PSL_sign -1 def
/PSL_do_annot 1 def
/PSL_do_label 1 def
/PSL_do_A1 0 def
/PSL_TL1 24 def
/PSL_AO0 24 def
/PSL_AO1 24 def
/PSL_LO 35 def
/PSL_AF0 75 def
/PSL_AF1 67 def
/PSL_LF 75 def
/PSL_AH0 0 def
/PSL_AH1 0 def
0 0 M 75 F0 (M) E /PSL_dim_w exch def FP pathbbox N /PSL_dim_h exch def pop /PSL_dim_d exch def pop
PSL_dim_h PSL_dim_d sub /PSL_LH exch def
5 W
0 0 M 1200 0 D S
4 W
0 0 M 0 -24 D S
133 0 M 0 -24 D S
267 0 M 0 -24 D S
400 0 M 0 -24 D S
533 0 M 0 -24 D S
667 0 M 0 -24 D S
800 0 M 0 -24 D S
933 0 M 0 -24 D S
1067 0 M 0 -24 D S
1200 0 M 0 -24 D S
0 0 M 75 F0 (-5) E /PSL_dim_w exch def FP pathbbox N /PSL_dim_h exch def pop /PSL_dim_d exch def pop
PSL_dim_h PSL_AH0 gt {/PSL_AH0 PSL_dim_h def} if
0 0 M 75 F0 (-4) E /PSL_dim_w exch def FP pathbbox N /PSL_dim_h exch def pop /PSL_dim_d exch def pop
PSL_dim_h PSL_AH0 gt {/PSL_AH0 PSL_dim_h def} if
0 0 M 75 F0 (-3) E /PSL_dim_w exch def FP pathbbox N /PSL_dim_h exch def pop /PSL_dim_d exch def pop
PSL_dim_h PSL_AH0 gt {/PSL_AH0 PSL_dim_h def} if
0 0 M 75 F0 (-2) E /PSL_dim_w exch def FP pathbbox N /PSL_dim_h exch def pop /PSL_dim_d exch def pop
PSL_dim_h PSL_AH0 gt {/PSL_AH0 PSL_dim_h def} if
0 0 M 75 F0 (-1) E /PSL_dim_w exch def FP pathbbox N /PSL_dim_h exch def pop /PSL_dim_d exch def pop
PSL_dim_h PSL_AH0 gt {/PSL_AH0 PSL_dim_h def} if
0 0 M 75 F0 (0) E /PSL_dim_w exch def FP pathbbox N /PSL_dim_h exch def pop /PSL_dim_d exch def pop
PSL_dim_h PSL_AH0 gt {/PSL_AH0 PSL_dim_h def} if
0 0 M 75 F0 (1) E /PSL_dim_w exch def FP pathbbox N /PSL_dim_h exch def pop /PSL_dim_d exch def pop
PSL_dim_h PSL_AH0 gt {/PSL_AH0 PSL_dim_h def} if
0 0 M 75 F0 (2) E /PSL_dim_w exch def FP pathbbox N /PSL_dim_h exch def pop /PSL_dim_d exch def pop
PSL_dim_h PSL_AH0 gt {/PSL_AH0 PSL_dim_h def} if
0 0 M 75 F0 (3) E /PSL_dim_w exch def FP pathbbox N /PSL_dim_h exch def pop /PSL_dim_d exch def pop
PSL_dim_h PSL_AH0 gt {/PSL_AH0 PSL_dim_h def} if
0 0 M 75 F0 (4) E /PSL_dim_w exch def FP pathbbox N /PSL_dim_h exch def pop /PSL_dim_d exch def pop
PSL_dim_h PSL_AH0 gt {/PSL_AH0 PSL_dim_h def} if
0 0 M 0 -12 D S
133 0 M 0 -12 D S
267 0 M 0 -12 D S
400 0 M 0 -12 D S
533 0 M 0 -12 D S
667 0 M 0 -12 D S
800 0 M 0 -12 D S
933 0 M 0 -12 D S
1067 0 M 0 -12 D S
1200 0 M 0 -12 D S
/PSL_A0_y PSL_AO0 PSL_TL1 PSL_AO0 mul 0 gt {PSL_TL1 add} if PSL_AO0 0 gt {PSL_sign 0 lt {PSL_AH0} {0} ifelse add} if PSL_sign mul def
/PSL_A1_y PSL_A0_y abs PSL_AO1 add PSL_sign 0 lt {PSL_AH1} {PSL_AH0} ifelse add PSL_sign mul def
/PSL_L_y PSL_A1_y abs PSL_LO add PSL_sign 0 lt {PSL_LH} {PSL_AH1} ifelse add PSL_sign mul def
/PSL_x 0 def
PSL_x PSL_A0_y M
currentpoint /PSL_save_y exch def /PSL_save_x exch def
0 0 M 75 F0 (-5) E /PSL_dim_w exch def FP pathbbox N /PSL_dim_h exch def pop /PSL_dim_d exch def pop
PSL_save_x PSL_save_y M
PSL_dim_w 2 div neg 0 G 75 F0 (-5) Z
/PSL_x 133 def
PSL_x PSL_A0_y M
currentpoint /PSL_save_y exch def /PSL_save_x exch def
0 0 M 75 F0 (-4) E /PSL_dim_w exch def FP pathbbox N /PSL_dim_h exch def pop /PSL_dim_d exch def pop
PSL_save_x PSL_save_y M
PSL_dim_w 2 div neg 0 G 75 F0 (-4) Z
/PSL_x 267 def
PSL_x PSL_A0_y M
currentpoint /PSL_save_y exch def /PSL_save_x exch def
0 0 M 75 F0 (-3) E /PSL_dim_w exch def FP pathbbox N /PSL_dim_h exch def pop /PSL_dim_d exch def pop
PSL_save_x PSL_save_y M
PSL_dim_w 2 div neg 0 G 75 F0 (-3) Z
/PSL_x 400 def
PSL_x PSL_A0_y M
currentpoint /PSL_save_y exch def /PSL_save_x exch def
0 0 M 75 F0 (-2) E /PSL_dim_w exch def FP pathbbox N /PSL_dim_h exch def pop /PSL_dim_d exch def pop
PSL_save_x PSL_save_y M
PSL_dim_w 2 div neg 0 G 75 F0 (-2) Z
/PSL_x 533 def
PSL_x PSL_A0_y M
currentpoint /PSL_save_y exch def /PSL_save_x exch def
0 0 M 75 F0 (-1) E /PSL_dim_w exch def FP pathbbox N /PSL_dim_h exch def pop /PSL_dim_d exch def pop
PSL_save_x PSL_save_y M
PSL_dim_w 2 div neg 0 G 75 F0 (-1) Z
/PSL_x 667 def
PSL_x PSL_A0_y M
currentpoint /PSL_save_y exch def /PSL_save_x exch def
0 0 M 75 F0 (0) E /PSL_dim_w exch def FP pathbbox N /PSL_dim_h exch def pop /PSL_dim_d exch def pop
PSL_save_x PSL_save_y M
PSL_dim_w 2 div neg 0 G 75 F0 (0) Z
/PSL_x 800 def
PSL_x PSL_A0_y M
currentpoint /PSL_save_y exch def /PSL_save_x exch def
0 0 M 75 F0 (1) E /PSL_dim_w exch def FP pathbbox N /PSL_dim_h exch def pop /PSL_dim_d exch def pop
PSL_save_x PSL_save_y M
PSL_dim_w 2 div neg 0 G 75 F0 (1) Z
/PSL_x 933 def
PSL_x PSL_A0_y M
currentpoint /PSL_save_y exch def /PSL_save_x exch def
0 0 M 75 F0 (2) E /PSL_dim_w exch def FP pathbbox N /PSL_dim_h exch def pop /PSL_dim_d exch def pop
PSL_save_x PSL_save_y M
PSL_dim_w 2 div neg 0 G 75 F0 (2) Z
/PSL_x 1067 def
PSL_x PSL_A0_y M
currentpoint /PSL_save_y exch def /PSL_save_x exch def
0 0 M 75 F0 (3) E /PSL_dim_w exch def FP pathbbox N /PSL_dim_h exch def pop /PSL_dim_d exch def pop
PSL_save_x PSL_save_y M
PSL_dim_w 2 div neg 0 G 75 F0 (3) Z
/PSL_x 1200 def
PSL_x PSL_A0_y M
currentpoint /PSL_save_y exch def /PSL_save_x exch def
0 0 M 75 F0 (4) E /PSL_dim_w exch def FP pathbbox N /PSL_dim_h exch def pop /PSL_dim_d exch def pop
PSL_save_x PSL_save_y M
PSL_dim_w 2 div neg 0 G 75 F0 (4) Z
/PSL_x 600 def
0 0 M 75 F0 (x) E /PSL_dim_w exch def FP pathbbox N /PSL_dim_h exch def pop /PSL_dim_d exch def pop
PSL_x PSL_L_y M
currentpoint /PSL_save_y exch def /PSL_save_x exch def
0 0 M 75 F0 (x) E /PSL_dim_w exch def FP pathbbox N /PSL_dim_h exch def pop /PSL_dim_d exch def pop
PSL_save_x PSL_save_y M
PSL_dim_w 2 div neg 0 G 75 F0 (x) Z
0 1200 T
/PSL_sign 1 def
/PSL_do_annot 0 def
/PSL_do_label 1 def
/PSL_do_A1 0 def
/PSL_TL1 24 def
/PSL_AO0 24 def
/PSL_AO1 24 def
/PSL_LO 35 def
/PSL_AF0 75 def
/PSL_AF1 67 def
/PSL_LF 75 def
/PSL_AH0 0 def
/PSL_AH1 0 def
0 0 M 75 F0 (M) E /PSL_dim_w exch def FP pathbbox N /PSL_dim_h exch def pop /PSL_dim_d exch def pop
PSL_dim_h PSL_dim_d sub /PSL_LH exch def
5 W
0 0 M 1200 0 D S
4 W
0 0 M 0 24 D S
133 0 M 0 24 D S
267 0 M 0 24 D S
400 0 M 0 24 D S
533 0 M 0 24 D S
667 0 M 0 24 D S
800 0 M 0 24 D S
933 0 M 0 24 D S
1067 0 M 0 24 D S
1200 0 M 0 24 D S
0 0 M 0 12 D S
133 0 M 0 12 D S
267 0 M 0 12 D S
400 0 M 0 12 D S
533 0 M 0 12 D S
667 0 M 0 12 D S
800 0 M 0 12 D S
933 0 M 0 12 D S
1067 0 M 0 12 D S
1200 0 M 0 12 D S
/PSL_A0_y PSL_AO0 PSL_TL1 PSL_AO0 mul 0 gt {PSL_TL1 add} if PSL_AO0 0 gt {PSL_sign 0 lt {PSL_AH0} {0} ifelse add} if PSL_sign mul def
/PSL_A1_y PSL_A0_y abs PSL_AO1 add PSL_sign 0 lt {PSL_AH1} {PSL_AH0} ifelse add PSL_sign mul def
/PSL_L_y PSL_A1_y abs PSL_LO add PSL_sign 0 lt {PSL_LH} {PSL_AH1} ifelse add PSL_sign mul def
0 -1200 T
grestore
0 A
PSL_font_encode 0 get 0 eq {ISOLatin1+_Encoding /Helvetica /Helvetica PSL_reencode PSL_font_encode 0 1 put} if
0 setlinecap
0 setlinejoin
3.32551 setmiterlimit
0 -330 T

%% PostScript produced by:
%%GMT:  psscale -D2/-1/4/0.1h -Ba1f0.5:z: -CPL_V2D_EKMAN.HODO.CPT -O -K
%%PROJ: xy -4.00000000 0.00000000 0.00000000 0.10000000 -4.000 0.000 0.000 0.100 +xy +a=6378137.000 +b=6356752.314245
0 A
5 W
V N 0 0 T 1200 30 scale [/Indexed /DeviceRGB 15 <
9E0000D50000FF0000FF4800FF9000FFC400FFEB00FFFE47CEFFFFAFF5FF9CEEFF86D9FF6DC1FF4196FF2050FF040ED8
>] setcolorspace
<< /ImageType 1 /Decode [0 15] /Width 20 /Height 1 /BitsPerComponent 4
   /ImageMatrix [20 0 0 -1 0 1] /DataSource currentfile /ASCII85Decode filter
>> image
!?s@$B8NY$hX:~>
U
0 0 M 1200 0 D S
0 30 M 1200 0 D S
0 0 M 0 30 D S
1200 0 M 0 30 D S
/PSL_sign -1 def
/PSL_do_annot 1 def
/PSL_do_label 0 def
/PSL_do_A1 0 def
/PSL_TL1 24 def
/PSL_AO0 24 def
/PSL_AO1 24 def
/PSL_LO 35 def
/PSL_AF0 75 def
/PSL_AF1 67 def
/PSL_LF 75 def
/PSL_AH0 0 def
/PSL_AH1 0 def
0 0 M 75 F0 (M) E /PSL_dim_w exch def FP pathbbox N /PSL_dim_h exch def pop /PSL_dim_d exch def pop
PSL_dim_h PSL_dim_d sub /PSL_LH exch def
0 0 M 1200 0 D S
4 W
0 0 M 0 -24 D S
300 0 M 0 -24 D S
600 0 M 0 -24 D S
900 0 M 0 -24 D S
1200 0 M 0 -24 D S
0 0 M 75 F0 (-4) E /PSL_dim_w exch def FP pathbbox N /PSL_dim_h exch def pop /PSL_dim_d exch def pop
PSL_dim_h PSL_AH0 gt {/PSL_AH0 PSL_dim_h def} if
0 0 M 75 F0 (-3) E /PSL_dim_w exch def FP pathbbox N /PSL_dim_h exch def pop /PSL_dim_d exch def pop
PSL_dim_h PSL_AH0 gt {/PSL_AH0 PSL_dim_h def} if
0 0 M 75 F0 (-2) E /PSL_dim_w exch def FP pathbbox N /PSL_dim_h exch def pop /PSL_dim_d exch def pop
PSL_dim_h PSL_AH0 gt {/PSL_AH0 PSL_dim_h def} if
0 0 M 75 F0 (-1) E /PSL_dim_w exch def FP pathbbox N /PSL_dim_h exch def pop /PSL_dim_d exch def pop
PSL_dim_h PSL_AH0 gt {/PSL_AH0 PSL_dim_h def} if
0 0 M 75 F0 (0) E /PSL_dim_w exch def FP pathbbox N /PSL_dim_h exch def pop /PSL_dim_d exch def pop
PSL_dim_h PSL_AH0 gt {/PSL_AH0 PSL_dim_h def} if
0 0 M 0 -12 D S
150 0 M 0 -12 D S
300 0 M 0 -12 D S
450 0 M 0 -12 D S
600 0 M 0 -12 D S
750 0 M 0 -12 D S
900 0 M 0 -12 D S
1050 0 M 0 -12 D S
1200 0 M 0 -12 D S
/PSL_A0_y PSL_AO0 PSL_TL1 PSL_AO0 mul 0 gt {PSL_TL1 add} if PSL_AO0 0 gt {PSL_sign 0 lt {PSL_AH0} {0} ifelse add} if PSL_sign mul def
/PSL_A1_y PSL_A0_y abs PSL_AO1 add PSL_sign 0 lt {PSL_AH1} {PSL_AH0} ifelse add PSL_sign mul def
/PSL_L_y PSL_A1_y abs PSL_LO add PSL_sign 0 lt {PSL_LH} {PSL_AH1} ifelse add PSL_sign mul def
/PSL_x 0 def
PSL_x PSL_A0_y M
currentpoint /PSL_save_y exch def /PSL_save_x exch def
0 0 M 75 F0 (-4) E /PSL_dim_w exch def FP pathbbox N /PSL_dim_h exch def pop /PSL_dim_d exch def pop
PSL_save_x PSL_save_y M
PSL_dim_w 2 div neg 0 G 75 F0 (-4) Z
/PSL_x 300 def
PSL_x PSL_A0_y M
currentpoint /PSL_save_y exch def /PSL_save_x exch def
0 0 M 75 F0 (-3) E /PSL_dim_w exch def FP pathbbox N /PSL_dim_h exch def pop /PSL_dim_d exch def pop
PSL_save_x PSL_save_y M
PSL_dim_w 2 div neg 0 G 75 F0 (-3) Z
/PSL_x 600 def
PSL_x PSL_A0_y M
currentpoint /PSL_save_y exch def /PSL_save_x exch def
0 0 M 75 F0 (-2) E /PSL_dim_w exch def FP pathbbox N /PSL_dim_h exch def pop /PSL_dim_d exch def pop
PSL_save_x PSL_save_y M
PSL_dim_w 2 div neg 0 G 75 F0 (-2) Z
/PSL_x 900 def
PSL_x PSL_A0_y M
currentpoint /PSL_save_y exch def /PSL_save_x exch def
0 0 M 75 F0 (-1) E /PSL_dim_w exch def FP pathbbox N /PSL_dim_h exch def pop /PSL_dim_d exch def pop
PSL_save_x PSL_save_y M
PSL_dim_w 2 div neg 0 G 75 F0 (-1) Z
/PSL_x 1200 def
PSL_x PSL_A0_y M
currentpoint /PSL_save_y exch def /PSL_save_x exch def
0 0 M 75 F0 (0) E /PSL_dim_w exch def FP pathbbox N /PSL_dim_h exch def pop /PSL_dim_d exch def pop
PSL_save_x PSL_save_y M
PSL_dim_w 2 div neg 0 G 75 F0 (0) Z
0 0 M 75 F0 (z) E /PSL_dim_w exch def FP pathbbox N /PSL_dim_h exch def pop /PSL_dim_d exch def pop
600 -158 M PSL_dim_w 2 div neg PSL_dim_h neg G 75 F0 (z) Z
-0 330 T 0 A
PSL_font_encode 0 get 0 eq {ISOLatin1+_Encoding /Helvetica /Helvetica PSL_reencode PSL_font_encode 0 1 put} if
0 setlinecap
0 setlinejoin
3.32551 setmiterlimit
0 1200 T

%% PostScript produced by:
%%GMT:  pstext -JX6/1.5 -R0/1/0/1.5 -N -x0 -y4 -O
%%PROJ: xy 0.00000000 1.00000000 0.00000000 1.50000000 0.000 1.000 0.000 1.500 +xy +a=6378137.000 +b=6356752.314245
0 W
0 A
PSL_font_encode 1 get 0 eq {ISOLatin1+_Encoding /Helvetica-Bold /Helvetica-Bold PSL_reencode PSL_font_encode 1 1 put} if
0 0 M 38 F1 (./PL_V2D_EKMAN.HODO.sh ) E /PSL_dim_w exch def FP pathbbox N /PSL_dim_h exch def pop /PSL_dim_d exch def pop
0 450 M 0 PSL_dim_h 2 div neg G 38 F1 (./PL_V2D_EKMAN.HODO.sh ) Z
0 0 M 38 F1 (Wed Feb 10 12:39:20 JST 2021) E /PSL_dim_w exch def FP pathbbox N /PSL_dim_h exch def pop /PSL_dim_d exch def pop
0 405 M 0 PSL_dim_h 2 div neg G 38 F1 (Wed Feb 10 12:39:20 JST 2021) Z
0 0 M 38 F1 (calypso.bosai.go.jp) E /PSL_dim_w exch def FP pathbbox N /PSL_dim_h exch def pop /PSL_dim_d exch def pop
0 360 M 0 PSL_dim_h 2 div neg G 38 F1 (calypso.bosai.go.jp) Z
0 0 M 38 F1 (/work05/manda/TEACHING/2020_KANKYO_KAISEKI/08-01.EKMAN) E /PSL_dim_w exch def FP pathbbox N /PSL_dim_h exch def pop /PSL_dim_d exch def pop
0 315 M 0 PSL_dim_h 2 div neg G 38 F1 (/work05/manda/TEACHING/2020_KANKYO_KAISEKI/08-01.EKMAN) Z
0 0 M 38 F1 (INPUT: EKMAN.HODO.TXT \(Feb 10 12:21\)) E /PSL_dim_w exch def FP pathbbox N /PSL_dim_h exch def pop /PSL_dim_d exch def pop
0 270 M 0 PSL_dim_h 2 div neg G 38 F1 (INPUT: EKMAN.HODO.TXT \(Feb 10 12:21\)) Z
0 0 M 38 F1 (INPUT:) E /PSL_dim_w exch def FP pathbbox N /PSL_dim_h exch def pop /PSL_dim_d exch def pop
0 225 M 0 PSL_dim_h 2 div neg G 38 F1 (INPUT:) Z
0 0 M 38 F1 (INPUT:) E /PSL_dim_w exch def FP pathbbox N /PSL_dim_h exch def pop /PSL_dim_d exch def pop
0 180 M 0 PSL_dim_h 2 div neg G 38 F1 (INPUT:) Z
0 0 M 38 F1 (OUTPUT: ./PL_V2D_EKMAN.HODO_EKMAN.HODO.ps \(Feb 10 12:39\)) E /PSL_dim_w exch def FP pathbbox N /PSL_dim_h exch def pop /PSL_dim_d exch def pop
0 135 M 0 PSL_dim_h 2 div neg G 38 F1 (OUTPUT: ./PL_V2D_EKMAN.HODO_EKMAN.HODO.ps \(Feb 10 12:39\)) Z
%%PageTrailer
-0 -1200 T 4.16667 4.16667 scale 0 A
showpage

%%Trailer

end
%%EOF
