#格子幅 [km]
 1.0
# 時間ステップ [s]
 1.0
# 計算結果出力のインターバル[計算ステップ]
 1000
# 水路の水深[m]
25.0
# 水路の長さ[km]
100.0
# gau : x=0,t=0でガウス型の水位を与える(ダランベールの解)
# sin : x=0でsin(ωt)の振動を与える。
# sch : 湖の自由振動
sch
#モードの数
1


sin
# 周期[hr]
0.2




gau
#ガウス型の山のe-folding scale[km]
10.0










