/work03/am/2022.06.ECS.OBS/12.22.SONDE_3SHIP/12.34.SONDE_P_COORD_TXT/FIG_20.12.VPROF
Sat, 21 Jan 2023 15:42:25 +0900
/work03/am/2022.06.ECS.OBS/12.22.SONDE_3SHIP/12.34.SONDE_P_COORD_TXT/FIG_20.12.VPROF
Sat, 21 Jan 2023 15:42:31 +0900
/work03/am/2022.06.ECS.OBS/12.22.SONDE_3SHIP/12.34.SONDE_P_COORD_TXT/FIG_20.12.VPROF
Sat, 21 Jan 2023 15:42:32 +0900
/work03/am/2022.06.ECS.OBS/12.22.SONDE_3SHIP/12.34.SONDE_P_COORD_TXT/FIG_20.12.VPROF
Sat, 21 Jan 2023 15:42:34 +0900
/work03/am/2022.06.ECS.OBS/12.22.SONDE_3SHIP/12.34.SONDE_P_COORD_TXT/FIG_20.12.VPROF
Sat, 21 Jan 2023 15:42:36 +0900
/work03/am/2022.06.ECS.OBS/12.22.SONDE_3SHIP/12.34.SONDE_P_COORD_TXT/FIG_20.12.VPROF
Sat, 21 Jan 2023 15:42:38 +0900
/work03/am/2022.06.ECS.OBS/12.22.SONDE_3SHIP/12.34.SONDE_P_COORD_TXT/FIG_20.12.VPROF
Sat, 21 Jan 2023 15:42:40 +0900
