%!PS-Adobe-3.0 EPSF-3.0
%%Creator: cairo 1.12.16 (http://cairographics.org)
%%CreationDate: Fri Oct 14 17:52:58 2022
%%Pages: 1
%%DocumentData: Clean7Bit
%%LanguageLevel: 2
%%BoundingBox: 0 0 612 792
%%EndComments
%%BeginProlog
save
50 dict begin
/q { gsave } bind def
/Q { grestore } bind def
/cm { 6 array astore concat } bind def
/w { setlinewidth } bind def
/J { setlinecap } bind def
/j { setlinejoin } bind def
/M { setmiterlimit } bind def
/d { setdash } bind def
/m { moveto } bind def
/l { lineto } bind def
/c { curveto } bind def
/h { closepath } bind def
/re { exch dup neg 3 1 roll 5 3 roll moveto 0 rlineto
      0 exch rlineto 0 rlineto closepath } bind def
/S { stroke } bind def
/f { fill } bind def
/f* { eofill } bind def
/n { newpath } bind def
/W { clip } bind def
/W* { eoclip } bind def
/BT { } bind def
/ET { } bind def
/pdfmark where { pop globaldict /?pdfmark /exec load put }
    { globaldict begin /?pdfmark /pop load def /pdfmark
    /cleartomark load def end } ifelse
/BDC { mark 3 1 roll /BDC pdfmark } bind def
/EMC { mark /EMC pdfmark } bind def
/cairo_store_point { /cairo_point_y exch def /cairo_point_x exch def } def
/Tj { show currentpoint cairo_store_point } bind def
/TJ {
  {
    dup
    type /stringtype eq
    { show } { -0.001 mul 0 cairo_font_matrix dtransform rmoveto } ifelse
  } forall
  currentpoint cairo_store_point
} bind def
/cairo_selectfont { cairo_font_matrix aload pop pop pop 0 0 6 array astore
    cairo_font exch selectfont cairo_point_x cairo_point_y moveto } bind def
/Tf { pop /cairo_font exch def /cairo_font_matrix where
      { pop cairo_selectfont } if } bind def
/Td { matrix translate cairo_font_matrix matrix concatmatrix dup
      /cairo_font_matrix exch def dup 4 get exch 5 get cairo_store_point
      /cairo_font where { pop cairo_selectfont } if } bind def
/Tm { 2 copy 8 2 roll 6 array astore /cairo_font_matrix exch def
      cairo_store_point /cairo_font where { pop cairo_selectfont } if } bind def
/g { setgray } bind def
/rg { setrgbcolor } bind def
/d1 { setcachedevice } bind def
%%EndProlog
%%Page: 1 1
%%BeginPageSetup
%%PageBoundingBox: 0 0 612 792
%%EndPageSetup
q 0 0 612 792 rectclip q
1 g
0 0 612 792 rectfill
0 g
1.5 w
1 J
1 j
[] 0.0 d
10 M 45.926 640.84 138.707 -174.887 re S
1.25 w
163.629 465.953 m 145.723 509.676 l 123.605 553.398 l 93.77 597.121 l 67.328
 640.84 l S
1 g
165.016 468.379 m 163.629 468.754 l 162.242 468.379 l 161.227 467.355 l
 160.855 465.953 l 166.402 465.953 l 166.031 467.355 l 165.016 468.379 l
 f
0 g
165.016 468.379 m 163.629 468.754 l 162.242 468.379 l 161.227 467.355 l
 160.855 465.953 l S
166.402 465.953 m 166.031 467.355 l 165.016 468.379 l S
1 g
147.109 512.098 m 145.723 512.473 l 144.336 512.098 l 143.32 511.074 l 
142.949 509.676 l 143.32 508.277 l 144.336 507.254 l 145.723 506.879 l 147.109
 507.254 l 148.125 508.277 l 148.496 509.676 l 148.125 511.074 l 147.109
 512.098 l f
0 g
147.109 512.098 m 145.723 512.473 l 144.336 512.098 l 143.32 511.074 l 
142.949 509.676 l 143.32 508.277 l 144.336 507.254 l 145.723 506.879 l 147.109
 507.254 l 148.125 508.277 l 148.496 509.676 l 148.125 511.074 l 147.109
 512.098 l S
1 g
124.992 555.82 m 123.605 556.195 l 122.219 555.82 l 121.203 554.797 l 120.832
 553.398 l 121.203 552 l 122.219 550.973 l 123.605 550.598 l 124.992 550.973
 l 126.008 552 l 126.379 553.398 l 126.008 554.797 l 124.992 555.82 l f
0 g
124.992 555.82 m 123.605 556.195 l 122.219 555.82 l 121.203 554.797 l 120.832
 553.398 l 121.203 552 l 122.219 550.973 l 123.605 550.598 l 124.992 550.973
 l 126.008 552 l 126.379 553.398 l 126.008 554.797 l 124.992 555.82 l S
1 g
95.156 599.543 m 93.77 599.918 l 92.383 599.543 l 91.367 598.52 l 90.996
 597.121 l 91.367 595.719 l 92.383 594.695 l 93.77 594.32 l 95.156 594.695
 l 96.172 595.719 l 96.543 597.121 l 96.172 598.52 l 95.156 599.543 l f
0 g
95.156 599.543 m 93.77 599.918 l 92.383 599.543 l 91.367 598.52 l 90.996
 597.121 l 91.367 595.719 l 92.383 594.695 l 93.77 594.32 l 95.156 594.695
 l 96.172 595.719 l 96.543 597.121 l 96.172 598.52 l 95.156 599.543 l S
1 g
68.715 640.84 m 64.555 640.84 l 64.926 639.441 l 65.941 638.418 l 67.328
 638.043 l 68.715 638.418 l 69.73 639.441 l 70.102 640.84 l 68.715 640.84
 l f
0 g
64.555 640.84 m 64.926 639.441 l 65.941 638.418 l 67.328 638.043 l 68.715
 638.418 l 69.73 639.441 l 70.102 640.84 l S
45.926 640.84 m 42.043 640.84 l S
20.961 642.285 m 20.59 640.949 l 19.852 640.059 l 18.738 639.613 l 18.371
 639.613 l 17.262 640.059 l 16.52 640.949 l 16.152 642.285 l 16.152 642.727
 l 16.52 644.062 l 17.262 644.953 l 18.371 645.398 l 18.738 645.398 l 19.852
 644.953 l 20.59 644.062 l 20.961 642.285 l 20.961 640.059 l 20.59 637.832
 l 19.852 636.496 l 18.738 636.051 l 18 636.051 l 16.891 636.496 l 16.52
 637.387 l S
26.137 645.398 m 25.027 644.953 l 24.289 643.617 l 23.918 641.395 l 23.918
 640.059 l 24.289 637.832 l 25.027 636.496 l 26.137 636.051 l 26.879 636.051
 l 27.988 636.496 l 28.727 637.832 l 29.098 640.059 l 29.098 641.395 l 28.727
 643.617 l 27.988 644.953 l 26.879 645.398 l 26.137 645.398 l S
33.906 645.398 m 32.797 644.953 l 32.055 643.617 l 31.688 641.395 l 31.688
 640.059 l 32.055 637.832 l 32.797 636.496 l 33.906 636.051 l 34.645 636.051
 l 35.754 636.496 l 36.496 637.832 l 36.863 640.059 l 36.863 641.395 l 36.496
 643.617 l 35.754 644.953 l 34.645 645.398 l 33.906 645.398 l S
45.926 553.398 m 42.043 553.398 l S
20.961 554.84 m 20.59 553.504 l 19.852 552.613 l 18.738 552.168 l 18.371
 552.168 l 17.262 552.613 l 16.52 553.504 l 16.152 554.84 l 16.152 555.285
 l 16.52 556.621 l 17.262 557.512 l 18.371 557.957 l 18.738 557.957 l 19.852
 557.512 l 20.59 556.621 l 20.961 554.84 l 20.961 552.613 l 20.59 550.387
 l 19.852 549.055 l 18.738 548.609 l 18 548.609 l 16.891 549.055 l 16.52
 549.941 l S
28.355 557.957 m 24.66 557.957 l 24.289 553.949 l 24.66 554.395 l 25.77
 554.84 l 26.879 554.84 l 27.988 554.395 l 28.727 553.504 l 29.098 552.168
 l 29.098 551.277 l 28.727 549.941 l 27.988 549.055 l 26.879 548.609 l 25.77
 548.609 l 24.66 549.055 l 24.289 549.5 l 23.918 550.387 l S
33.906 557.957 m 32.797 557.512 l 32.055 556.176 l 31.688 553.949 l 31.688
 552.613 l 32.055 550.387 l 32.797 549.055 l 33.906 548.609 l 34.645 548.609
 l 35.754 549.055 l 36.496 550.387 l 36.863 552.613 l 36.863 553.949 l 36.496
 556.176 l 35.754 557.512 l 34.645 557.957 l 33.906 557.957 l S
45.926 465.953 m 42.043 465.953 l S
11.25 470.402 m 11.344 470.512 l 11.344 461.164 l S
18.371 470.512 m 17.262 470.066 l 16.52 468.73 l 16.152 466.508 l 16.152
 465.172 l 16.52 462.945 l 17.262 461.609 l 18.371 461.164 l 19.109 461.164
 l 20.219 461.609 l 20.961 462.945 l 21.328 465.172 l 21.328 466.508 l 20.961
 468.73 l 20.219 470.066 l 19.109 470.512 l 18.371 470.512 l S
26.137 470.512 m 25.027 470.066 l 24.289 468.73 l 23.918 466.508 l 23.918
 465.172 l 24.289 462.945 l 25.027 461.609 l 26.137 461.164 l 26.879 461.164
 l 27.988 461.609 l 28.727 462.945 l 29.098 465.172 l 29.098 466.508 l 28.727
 468.73 l 27.988 470.066 l 26.879 470.512 l 26.137 470.512 l S
33.906 470.512 m 32.797 470.066 l 32.055 468.73 l 31.688 466.508 l 31.688
 465.172 l 32.055 462.945 l 32.797 461.609 l 33.906 461.164 l 34.645 461.164
 l 35.754 461.609 l 36.496 462.945 l 36.863 465.172 l 36.863 466.508 l 36.496
 468.73 l 35.754 470.066 l 34.645 470.512 l 33.906 470.512 l S
20.371 19.91 m 20.074 20.547 l 19.48 21.184 l 18.887 21.5 l 17.699 21.5
 l 17.102 21.184 l 16.508 20.547 l 16.211 19.91 l 15.914 18.957 l 15.914
 17.367 l 16.211 16.414 l 16.508 15.777 l 17.102 15.141 l 17.699 14.824 
l 18.887 14.824 l 19.48 15.141 l 20.074 15.777 l 20.371 16.414 l 20.371 
17.367 l S
18.887 17.367 m 20.371 17.367 l S
22.41 19.277 m 22.41 14.824 l S
22.41 17.367 m 22.707 18.32 l 23.301 18.957 l 23.895 19.277 l 24.785 19.277
 l S
28.137 21.5 m 25.758 14.824 l S
28.137 21.5 m 30.516 14.824 l S
26.652 17.051 m 29.625 17.051 l S
32.141 21.5 m 32.141 14.824 l S
32.141 21.5 m 34.223 21.5 l 35.113 21.184 l 35.711 20.547 l 36.008 19.91
 l 36.305 18.957 l 36.305 17.367 l 36.008 16.414 l 35.711 15.777 l 35.113
 15.141 l 34.223 14.824 l 32.141 14.824 l S
42.703 20.547 m 42.105 21.184 l 41.215 21.5 l 40.027 21.5 l 39.137 21.184
 l 38.539 20.547 l 38.539 19.91 l 38.836 19.277 l 39.137 18.957 l 39.73 
18.641 l 41.512 18.004 l 42.105 17.688 l 42.406 17.367 l 42.703 16.73 l 
42.703 15.777 l 42.105 15.141 l 41.215 14.824 l 40.027 14.824 l 39.137 15.141
 l 38.539 15.777 l S
49.852 22.773 m 44.5 12.598 l S
56.262 19.91 m 55.965 20.547 l 55.371 21.184 l 54.777 21.5 l 53.586 21.5
 l 52.992 21.184 l 52.398 20.547 l 52.102 19.91 l 51.805 18.957 l 51.805
 17.367 l 52.102 16.414 l 52.398 15.777 l 52.992 15.141 l 53.586 14.824 
l 54.777 14.824 l 55.371 15.141 l 55.965 15.777 l 56.262 16.414 l S
60 21.5 m 59.406 21.184 l 58.812 20.547 l 58.516 19.91 l 58.219 18.957 
l 58.219 17.367 l 58.516 16.414 l 58.812 15.777 l 59.406 15.141 l 60 14.824
 l 61.188 14.824 l 61.785 15.141 l 62.379 15.777 l 62.676 16.414 l 62.973
 17.367 l 62.973 18.957 l 62.676 19.91 l 62.379 20.547 l 61.785 21.184 l
 61.188 21.5 l 60 21.5 l S
64.898 21.5 m 64.898 14.824 l S
64.898 14.824 m 68.465 14.824 l S
72.141 21.5 m 69.766 14.824 l S
72.141 21.5 m 74.52 14.824 l S
70.656 17.051 m 73.629 17.051 l S
1 w
14.668 659.715 m 13.48 659.238 l 12.688 657.809 l 12.289 655.422 l 12.289
 653.992 l 12.688 651.609 l 13.48 650.176 l 14.668 649.699 l 15.461 649.699
 l 16.648 650.176 l 17.441 651.609 l 17.84 653.992 l 17.84 655.422 l 17.441
 657.809 l 16.648 659.238 l 15.461 659.715 l 14.668 659.715 l S
22.992 659.715 m 21.801 659.238 l 21.008 657.809 l 20.613 655.422 l 20.613
 653.992 l 21.008 651.609 l 21.801 650.176 l 22.992 649.699 l 23.781 649.699
 l 24.973 650.176 l 25.766 651.609 l 26.16 653.992 l 26.16 655.422 l 25.766
 657.809 l 24.973 659.238 l 23.781 659.715 l 22.992 659.715 l S
34.484 659.715 m 28.934 649.699 l S
28.934 659.715 m 34.484 659.715 l S
28.934 649.699 m 34.484 649.699 l S
39.637 659.715 m 38.445 659.238 l 37.652 657.809 l 37.258 655.422 l 37.258
 653.992 l 37.652 651.609 l 38.445 650.176 l 39.637 649.699 l 40.43 649.699
 l 41.617 650.176 l 42.41 651.609 l 42.805 653.992 l 42.805 655.422 l 42.41
 657.809 l 41.617 659.238 l 40.43 659.715 l 39.637 659.715 l S
50.336 659.715 m 46.371 659.715 l 45.977 655.422 l 46.371 655.898 l 47.562
 656.379 l 48.75 656.379 l 49.938 655.898 l 50.73 654.945 l 51.129 653.516
 l 51.129 652.562 l 50.73 651.129 l 49.938 650.176 l 48.75 649.699 l 47.562
 649.699 l 46.371 650.176 l 45.977 650.652 l 45.578 651.609 l S
57.43 659.715 m 57.43 652.086 l 57.031 650.652 l 56.637 650.176 l 55.844
 649.699 l 55.051 649.699 l 54.258 650.176 l 53.863 650.652 l 53.465 652.086
 l 53.465 653.039 l S
60.977 659.715 m 60.977 652.562 l 61.371 651.129 l 62.164 650.176 l 63.355
 649.699 l 64.148 649.699 l 65.336 650.176 l 66.129 651.129 l 66.523 652.562
 l 66.523 659.715 l S
69.488 659.715 m 69.488 649.699 l S
69.488 649.699 m 74.242 649.699 l S
77.184 657.332 m 77.184 657.809 l 77.582 658.762 l 77.977 659.238 l 78.77
 659.715 l 80.355 659.715 l 81.148 659.238 l 81.543 658.762 l 81.941 657.809
 l 81.941 656.855 l 81.543 655.898 l 80.75 654.469 l 76.789 649.699 l 82.336
 649.699 l S
87.488 659.715 m 86.301 659.238 l 85.508 657.809 l 85.109 655.422 l 85.109
 653.992 l 85.508 651.609 l 86.301 650.176 l 87.488 649.699 l 88.281 649.699
 l 89.469 650.176 l 90.262 651.609 l 90.66 653.992 l 90.66 655.422 l 90.262
 657.809 l 89.469 659.238 l 88.281 659.715 l 87.488 659.715 l S
93.828 657.332 m 93.828 657.809 l 94.227 658.762 l 94.621 659.238 l 95.414
 659.715 l 97 659.715 l 97.793 659.238 l 98.188 658.762 l 98.586 657.809
 l 98.586 656.855 l 98.188 655.898 l 97.395 654.469 l 93.434 649.699 l 98.98
 649.699 l S
102.152 657.332 m 102.152 657.809 l 102.547 658.762 l 102.945 659.238 l
 103.738 659.715 l 105.324 659.715 l 106.113 659.238 l 106.512 658.762 l
 106.906 657.809 l 106.906 656.855 l 106.512 655.898 l 105.719 654.469 l
 101.754 649.699 l 107.305 649.699 l S
1.5 w
233.18 640.84 138.707 -174.887 re S
0 0.862745 0 rg
1.25 w
341.734 465.953 m 321.199 509.676 l 308.418 553.398 l 285.031 597.121 l
 248.227 640.84 l S
343.121 468.379 m 341.734 468.754 l 340.348 468.379 l 339.332 467.355 l
 338.961 465.953 l 344.508 465.953 l 344.137 467.355 l 343.121 468.379 l
 f
322.586 512.098 m 321.199 512.473 l 319.812 512.098 l 318.797 511.074 l
 318.426 509.676 l 318.797 508.277 l 319.812 507.254 l 321.199 506.879 l
 322.586 507.254 l 323.602 508.277 l 323.973 509.676 l 323.602 511.074 l
 322.586 512.098 l f
309.805 555.82 m 308.418 556.195 l 307.031 555.82 l 306.016 554.797 l 305.645
 553.398 l 306.016 552 l 307.031 550.973 l 308.418 550.598 l 309.805 550.973
 l 310.82 552 l 311.191 553.398 l 310.82 554.797 l 309.805 555.82 l f
286.418 599.543 m 285.031 599.918 l 283.645 599.543 l 282.629 598.52 l 
282.258 597.121 l 282.629 595.719 l 283.645 594.695 l 285.031 594.32 l 286.418
 594.695 l 287.434 595.719 l 287.805 597.121 l 287.434 598.52 l 286.418 
599.543 l f
249.613 640.84 m 245.453 640.84 l 245.824 639.441 l 246.84 638.418 l 248.227
 638.043 l 249.613 638.418 l 250.629 639.441 l 251 640.84 l 249.613 640.84
 l f
0 g
233.18 640.84 m 229.297 640.84 l S
208.211 642.285 m 207.844 640.949 l 207.102 640.059 l 205.992 639.613 l
 205.625 639.613 l 204.512 640.059 l 203.773 640.949 l 203.402 642.285 l
 203.402 642.727 l 203.773 644.062 l 204.512 644.953 l 205.625 645.398 l
 205.992 645.398 l 207.102 644.953 l 207.844 644.062 l 208.211 642.285 l
 208.211 640.059 l 207.844 637.832 l 207.102 636.496 l 205.992 636.051 l
 205.254 636.051 l 204.145 636.496 l 203.773 637.387 l S
213.391 645.398 m 212.281 644.953 l 211.543 643.617 l 211.172 641.395 l
 211.172 640.059 l 211.543 637.832 l 212.281 636.496 l 213.391 636.051 l
 214.129 636.051 l 215.238 636.496 l 215.98 637.832 l 216.352 640.059 l 
216.352 641.395 l 215.98 643.617 l 215.238 644.953 l 214.129 645.398 l 213.391
 645.398 l S
221.16 645.398 m 220.047 644.953 l 219.309 643.617 l 218.938 641.395 l 
218.938 640.059 l 219.309 637.832 l 220.047 636.496 l 221.16 636.051 l 221.898
 636.051 l 223.008 636.496 l 223.746 637.832 l 224.117 640.059 l 224.117
 641.395 l 223.746 643.617 l 223.008 644.953 l 221.898 645.398 l 221.16 
645.398 l S
233.18 553.398 m 229.297 553.398 l S
208.211 554.84 m 207.844 553.504 l 207.102 552.613 l 205.992 552.168 l 
205.625 552.168 l 204.512 552.613 l 203.773 553.504 l 203.402 554.84 l 203.402
 555.285 l 203.773 556.621 l 204.512 557.512 l 205.625 557.957 l 205.992
 557.957 l 207.102 557.512 l 207.844 556.621 l 208.211 554.84 l 208.211 
552.613 l 207.844 550.387 l 207.102 549.055 l 205.992 548.609 l 205.254 
548.609 l 204.145 549.055 l 203.773 549.941 l S
215.609 557.957 m 211.91 557.957 l 211.543 553.949 l 211.91 554.395 l 213.02
 554.84 l 214.129 554.84 l 215.238 554.395 l 215.98 553.504 l 216.352 552.168
 l 216.352 551.277 l 215.98 549.941 l 215.238 549.055 l 214.129 548.609 
l 213.02 548.609 l 211.91 549.055 l 211.543 549.5 l 211.172 550.387 l S
221.16 557.957 m 220.047 557.512 l 219.309 556.176 l 218.938 553.949 l 
218.938 552.613 l 219.309 550.387 l 220.047 549.055 l 221.16 548.609 l 221.898
 548.609 l 223.008 549.055 l 223.746 550.387 l 224.117 552.613 l 224.117
 553.949 l 223.746 556.176 l 223.008 557.512 l 221.898 557.957 l 221.16 
557.957 l S
233.18 465.953 m 229.297 465.953 l S
196.746 468.73 m 197.484 469.176 l 198.594 470.512 l 198.594 461.164 l S
205.625 470.512 m 204.512 470.066 l 203.773 468.73 l 203.402 466.508 l 
203.402 465.172 l 203.773 462.945 l 204.512 461.609 l 205.625 461.164 l 
206.363 461.164 l 207.473 461.609 l 208.211 462.945 l 208.582 465.172 l 
208.582 466.508 l 208.211 468.73 l 207.473 470.066 l 206.363 470.512 l 205.625
 470.512 l S
213.391 470.512 m 212.281 470.066 l 211.543 468.73 l 211.172 466.508 l 
211.172 465.172 l 211.543 462.945 l 212.281 461.609 l 213.391 461.164 l 
214.129 461.164 l 215.238 461.609 l 215.98 462.945 l 216.352 465.172 l 216.352
 466.508 l 215.98 468.73 l 215.238 470.066 l 214.129 470.512 l 213.391 470.512
 l S
221.16 470.512 m 220.047 470.066 l 219.309 468.73 l 218.938 466.508 l 218.938
 465.172 l 219.309 462.945 l 220.047 461.609 l 221.16 461.164 l 221.898 
461.164 l 223.008 461.609 l 223.746 462.945 l 224.117 465.172 l 224.117 
466.508 l 223.746 468.73 l 223.008 470.066 l 221.898 470.512 l 221.16 470.512
 l S
1 w
201.922 659.715 m 200.73 659.238 l 199.941 657.809 l 199.543 655.422 l 
199.543 653.992 l 199.941 651.609 l 200.73 650.176 l 201.922 649.699 l 202.715
 649.699 l 203.902 650.176 l 204.695 651.609 l 205.09 653.992 l 205.09 655.422
 l 204.695 657.809 l 203.902 659.238 l 202.715 659.715 l 201.922 659.715
 l S
208.66 659.715 m 213.016 659.715 l 210.641 655.898 l 211.828 655.898 l 
212.621 655.422 l 213.016 654.945 l 213.414 653.516 l 213.414 652.562 l 
213.016 651.129 l 212.227 650.176 l 211.035 649.699 l 209.848 649.699 l 
208.66 650.176 l 208.262 650.652 l 207.867 651.609 l S
221.734 659.715 m 216.188 649.699 l S
216.188 659.715 m 221.734 659.715 l S
216.188 649.699 m 221.734 649.699 l S
226.887 659.715 m 225.699 659.238 l 224.906 657.809 l 224.512 655.422 l
 224.512 653.992 l 224.906 651.609 l 225.699 650.176 l 226.887 649.699 l
 227.68 649.699 l 228.871 650.176 l 229.664 651.609 l 230.059 653.992 l 
230.059 655.422 l 229.664 657.809 l 228.871 659.238 l 227.68 659.715 l 226.887
 659.715 l S
237.59 659.715 m 233.625 659.715 l 233.23 655.422 l 233.625 655.898 l 234.812
 656.379 l 236.004 656.379 l 237.191 655.898 l 237.984 654.945 l 238.383
 653.516 l 238.383 652.562 l 237.984 651.129 l 237.191 650.176 l 236.004
 649.699 l 234.812 649.699 l 233.625 650.176 l 233.23 650.652 l 232.832 
651.609 l S
244.684 659.715 m 244.684 652.086 l 244.285 650.652 l 243.891 650.176 l
 243.098 649.699 l 242.305 649.699 l 241.512 650.176 l 241.117 650.652 l
 240.719 652.086 l 240.719 653.039 l S
248.23 659.715 m 248.23 652.562 l 248.625 651.129 l 249.418 650.176 l 250.605
 649.699 l 251.398 649.699 l 252.59 650.176 l 253.383 651.129 l 253.777 
652.562 l 253.777 659.715 l S
256.738 659.715 m 256.738 649.699 l S
256.738 649.699 m 261.496 649.699 l S
264.438 657.332 m 264.438 657.809 l 264.836 658.762 l 265.23 659.238 l 
266.023 659.715 l 267.609 659.715 l 268.402 659.238 l 268.797 658.762 l 
269.195 657.809 l 269.195 656.855 l 268.797 655.898 l 268.004 654.469 l 
264.043 649.699 l 269.59 649.699 l S
274.742 659.715 m 273.555 659.238 l 272.762 657.809 l 272.363 655.422 l
 272.363 653.992 l 272.762 651.609 l 273.555 650.176 l 274.742 649.699 l
 275.535 649.699 l 276.723 650.176 l 277.516 651.609 l 277.91 653.992 l 
277.91 655.422 l 277.516 657.809 l 276.723 659.238 l 275.535 659.715 l 274.742
 659.715 l S
281.082 657.332 m 281.082 657.809 l 281.48 658.762 l 281.875 659.238 l 
282.668 659.715 l 284.254 659.715 l 285.047 659.238 l 285.441 658.762 l 
285.84 657.809 l 285.84 656.855 l 285.441 655.898 l 284.648 654.469 l 280.688
 649.699 l 286.234 649.699 l S
289.406 657.332 m 289.406 657.809 l 289.801 658.762 l 290.199 659.238 l
 290.988 659.715 l 292.574 659.715 l 293.367 659.238 l 293.766 658.762 l
 294.16 657.809 l 294.16 656.855 l 293.766 655.898 l 292.973 654.469 l 289.008
 649.699 l 294.559 649.699 l S
1.5 w
420.434 640.84 138.703 -174.887 re S
0.901961 0.862745 0.196078 rg
1.25 w
529.52 465.953 m 506.965 509.676 l 492.914 553.398 l 463.688 597.121 l 
419.738 632.535 l S
1 g
526.746 468.754 5.551 -2.801 re f
0.901961 0.862745 0.196078 rg
526.746 468.754 m 532.297 468.754 l 532.297 465.953 l S
526.746 465.953 m 526.746 468.754 l S
1 g
504.191 512.473 5.547 -5.594 re f
0.901961 0.862745 0.196078 rg
504.191 512.473 5.547 -5.594 re S
1 g
490.141 556.195 5.547 -5.598 re f
0.901961 0.862745 0.196078 rg
490.141 556.195 5.547 -5.598 re S
1 g
460.91 599.918 5.551 -5.598 re f
0.901961 0.862745 0.196078 rg
460.91 599.918 5.551 -5.598 re S
0 g
420.434 640.84 m 416.547 640.84 l S
395.465 642.285 m 395.094 640.949 l 394.355 640.059 l 393.246 639.613 l
 392.875 639.613 l 391.766 640.059 l 391.027 640.949 l 390.656 642.285 l
 390.656 642.727 l 391.027 644.062 l 391.766 644.953 l 392.875 645.398 l
 393.246 645.398 l 394.355 644.953 l 395.094 644.062 l 395.465 642.285 l
 395.465 640.059 l 395.094 637.832 l 394.355 636.496 l 393.246 636.051 l
 392.508 636.051 l 391.398 636.496 l 391.027 637.387 l S
400.645 645.398 m 399.535 644.953 l 398.793 643.617 l 398.426 641.395 l
 398.426 640.059 l 398.793 637.832 l 399.535 636.496 l 400.645 636.051 l
 401.383 636.051 l 402.492 636.496 l 403.234 637.832 l 403.602 640.059 l
 403.602 641.395 l 403.234 643.617 l 402.492 644.953 l 401.383 645.398 l
 400.645 645.398 l S
408.41 645.398 m 407.301 644.953 l 406.562 643.617 l 406.191 641.395 l 
406.191 640.059 l 406.562 637.832 l 407.301 636.496 l 408.41 636.051 l 409.152
 636.051 l 410.262 636.496 l 411 637.832 l 411.371 640.059 l 411.371 641.395
 l 411 643.617 l 410.262 644.953 l 409.152 645.398 l 408.41 645.398 l S
420.434 553.398 m 416.547 553.398 l S
395.465 554.84 m 395.094 553.504 l 394.355 552.613 l 393.246 552.168 l 
392.875 552.168 l 391.766 552.613 l 391.027 553.504 l 390.656 554.84 l 390.656
 555.285 l 391.027 556.621 l 391.766 557.512 l 392.875 557.957 l 393.246
 557.957 l 394.355 557.512 l 395.094 556.621 l 395.465 554.84 l 395.465 
552.613 l 395.094 550.387 l 394.355 549.055 l 393.246 548.609 l 392.508 
548.609 l 391.398 549.055 l 391.027 549.941 l S
402.863 557.957 m 399.164 557.957 l 398.793 553.949 l 399.164 554.395 l
 400.273 554.84 l 401.383 554.84 l 402.492 554.395 l 403.234 553.504 l 403.602
 552.168 l 403.602 551.277 l 403.234 549.941 l 402.492 549.055 l 401.383
 548.609 l 400.273 548.609 l 399.164 549.055 l 398.793 549.5 l 398.426 550.387
 l S
408.41 557.957 m 407.301 557.512 l 406.562 556.176 l 406.191 553.949 l 
406.191 552.613 l 406.562 550.387 l 407.301 549.055 l 408.41 548.609 l 409.152
 548.609 l 410.262 549.055 l 411 550.387 l 411.371 552.613 l 411.371 553.949
 l 411 556.176 l 410.262 557.512 l 409.152 557.957 l 408.41 557.957 l S
420.434 465.953 m 416.547 465.953 l S
384 468.73 m 384.738 469.176 l 385.848 470.512 l 385.848 461.164 l S
392.875 470.512 m 391.766 470.066 l 391.027 468.73 l 390.656 466.508 l 
390.656 465.172 l 391.027 462.945 l 391.766 461.609 l 392.875 461.164 l 
393.617 461.164 l 394.727 461.609 l 395.465 462.945 l 395.836 465.172 l 
395.836 466.508 l 395.465 468.73 l 394.727 470.066 l 393.617 470.512 l 392.875
 470.512 l S
400.645 470.512 m 399.535 470.066 l 398.793 468.73 l 398.426 466.508 l 
398.426 465.172 l 398.793 462.945 l 399.535 461.609 l 400.645 461.164 l 
401.383 461.164 l 402.492 461.609 l 403.234 462.945 l 403.602 465.172 l 
403.602 466.508 l 403.234 468.73 l 402.492 470.066 l 401.383 470.512 l 400.645
 470.512 l S
408.41 470.512 m 407.301 470.066 l 406.562 468.73 l 406.191 466.508 l 406.191
 465.172 l 406.562 462.945 l 407.301 461.609 l 408.41 461.164 l 409.152 
461.164 l 410.262 461.609 l 411 462.945 l 411.371 465.172 l 411.371 466.508
 l 411 468.73 l 410.262 470.066 l 409.152 470.512 l 408.41 470.512 l S
1 w
389.176 659.715 m 387.984 659.238 l 387.191 657.809 l 386.797 655.422 l
 386.797 653.992 l 387.191 651.609 l 387.984 650.176 l 389.176 649.699 l
 389.965 649.699 l 391.156 650.176 l 391.949 651.609 l 392.344 653.992 l
 392.344 655.422 l 391.949 657.809 l 391.156 659.238 l 389.965 659.715 l
 389.176 659.715 l S
400.27 658.285 m 399.875 659.238 l 398.684 659.715 l 397.895 659.715 l 
396.703 659.238 l 395.91 657.809 l 395.516 655.422 l 395.516 653.039 l 395.91
 651.129 l 396.703 650.176 l 397.895 649.699 l 398.289 649.699 l 399.477
 650.176 l 400.27 651.129 l 400.668 652.562 l 400.668 653.039 l 400.27 654.469
 l 399.477 655.422 l 398.289 655.898 l 397.895 655.898 l 396.703 655.422
 l 395.91 654.469 l 395.516 653.039 l S
408.988 659.715 m 403.441 649.699 l S
403.441 659.715 m 408.988 659.715 l S
403.441 649.699 m 408.988 649.699 l S
414.141 659.715 m 412.953 659.238 l 412.16 657.809 l 411.762 655.422 l 
411.762 653.992 l 412.16 651.609 l 412.953 650.176 l 414.141 649.699 l 414.934
 649.699 l 416.121 650.176 l 416.914 651.609 l 417.312 653.992 l 417.312
 655.422 l 416.914 657.809 l 416.121 659.238 l 414.934 659.715 l 414.141
 659.715 l S
424.84 659.715 m 420.879 659.715 l 420.48 655.422 l 420.879 655.898 l 422.066
 656.379 l 423.258 656.379 l 424.445 655.898 l 425.238 654.945 l 425.633
 653.516 l 425.633 652.562 l 425.238 651.129 l 424.445 650.176 l 423.258
 649.699 l 422.066 649.699 l 420.879 650.176 l 420.48 650.652 l 420.086 
651.609 l S
431.934 659.715 m 431.934 652.086 l 431.539 650.652 l 431.141 650.176 l
 430.352 649.699 l 429.559 649.699 l 428.766 650.176 l 428.367 650.652 l
 427.973 652.086 l 427.973 653.039 l S
435.48 659.715 m 435.48 652.562 l 435.879 651.129 l 436.672 650.176 l 437.859
 649.699 l 438.652 649.699 l 439.84 650.176 l 440.633 651.129 l 441.031 
652.562 l 441.031 659.715 l S
443.992 659.715 m 443.992 649.699 l S
443.992 649.699 m 448.75 649.699 l S
451.691 657.332 m 451.691 657.809 l 452.086 658.762 l 452.484 659.238 l
 453.277 659.715 l 454.859 659.715 l 455.652 659.238 l 456.051 658.762 l
 456.445 657.809 l 456.445 656.855 l 456.051 655.898 l 455.258 654.469 l
 451.293 649.699 l 456.844 649.699 l S
461.996 659.715 m 460.805 659.238 l 460.012 657.809 l 459.617 655.422 l
 459.617 653.992 l 460.012 651.609 l 460.805 650.176 l 461.996 649.699 l
 462.789 649.699 l 463.977 650.176 l 464.77 651.609 l 465.164 653.992 l 
465.164 655.422 l 464.77 657.809 l 463.977 659.238 l 462.789 659.715 l 461.996
 659.715 l S
468.336 657.332 m 468.336 657.809 l 468.73 658.762 l 469.129 659.238 l 
469.922 659.715 l 471.504 659.715 l 472.297 659.238 l 472.695 658.762 l 
473.09 657.809 l 473.09 656.855 l 472.695 655.898 l 471.902 654.469 l 467.938
 649.699 l 473.488 649.699 l S
476.656 657.332 m 476.656 657.809 l 477.055 658.762 l 477.449 659.238 l
 478.242 659.715 l 479.828 659.715 l 480.621 659.238 l 481.016 658.762 l
 481.414 657.809 l 481.414 656.855 l 481.016 655.898 l 480.223 654.469 l
 476.262 649.699 l 481.809 649.699 l S
1.5 w
45.926 416.988 138.707 -174.887 re S
0.980392 0.235294 0.235294 rg
1.25 w
159.145 242.102 m 140.609 285.82 l 123.285 329.543 l 87.793 373.266 l 48.254
 416.988 l S
156.371 244.898 5.551 -2.797 re f
137.832 288.621 5.551 -5.598 re f
120.512 332.34 5.547 -5.594 re f
85.02 376.062 5.547 -5.598 re f
45.48 416.988 5.547 -2.801 re f
0 g
45.926 416.988 m 42.043 416.988 l S
20.961 418.43 m 20.59 417.094 l 19.852 416.203 l 18.738 415.758 l 18.371
 415.758 l 17.262 416.203 l 16.52 417.094 l 16.152 418.43 l 16.152 418.875
 l 16.52 420.211 l 17.262 421.102 l 18.371 421.543 l 18.738 421.543 l 19.852
 421.102 l 20.59 420.211 l 20.961 418.43 l 20.961 416.203 l 20.59 413.977
 l 19.852 412.641 l 18.738 412.195 l 18 412.195 l 16.891 412.641 l 16.52
 413.531 l S
26.137 421.543 m 25.027 421.102 l 24.289 419.766 l 23.918 417.539 l 23.918
 416.203 l 24.289 413.977 l 25.027 412.641 l 26.137 412.195 l 26.879 412.195
 l 27.988 412.641 l 28.727 413.977 l 29.098 416.203 l 29.098 417.539 l 28.727
 419.766 l 27.988 421.102 l 26.879 421.543 l 26.137 421.543 l S
33.906 421.543 m 32.797 421.102 l 32.055 419.766 l 31.688 417.539 l 31.688
 416.203 l 32.055 413.977 l 32.797 412.641 l 33.906 412.195 l 34.645 412.195
 l 35.754 412.641 l 36.496 413.977 l 36.863 416.203 l 36.863 417.539 l 36.496
 419.766 l 35.754 421.102 l 34.645 421.543 l 33.906 421.543 l S
45.926 329.543 m 42.043 329.543 l S
20.961 330.984 m 20.59 329.648 l 19.852 328.758 l 18.738 328.316 l 18.371
 328.316 l 17.262 328.758 l 16.52 329.648 l 16.152 330.984 l 16.152 331.43
 l 16.52 332.766 l 17.262 333.656 l 18.371 334.102 l 18.738 334.102 l 19.852
 333.656 l 20.59 332.766 l 20.961 330.984 l 20.961 328.758 l 20.59 326.535
 l 19.852 325.199 l 18.738 324.754 l 18 324.754 l 16.891 325.199 l 16.52
 326.09 l S
28.355 334.102 m 24.66 334.102 l 24.289 330.094 l 24.66 330.539 l 25.77
 330.984 l 26.879 330.984 l 27.988 330.539 l 28.727 329.648 l 29.098 328.316
 l 29.098 327.426 l 28.727 326.09 l 27.988 325.199 l 26.879 324.754 l 25.77
 324.754 l 24.66 325.199 l 24.289 325.645 l 23.918 326.535 l S
33.906 334.102 m 32.797 333.656 l 32.055 332.32 l 31.688 330.094 l 31.688
 328.758 l 32.055 326.535 l 32.797 325.199 l 33.906 324.754 l 34.645 324.754
 l 35.754 325.199 l 36.496 326.535 l 36.863 328.758 l 36.863 330.094 l 36.496
 332.32 l 35.754 333.656 l 34.645 334.102 l 33.906 334.102 l S
45.926 242.102 m 42.043 242.102 l S
11.25 246.547 m 11.344 246.66 l 11.344 237.309 l S
18.371 246.66 m 17.262 246.215 l 16.52 244.879 l 16.152 242.652 l 16.152
 241.316 l 16.52 239.09 l 17.262 237.754 l 18.371 237.309 l 19.109 237.309
 l 20.219 237.754 l 20.961 239.09 l 21.328 241.316 l 21.328 242.652 l 20.961
 244.879 l 20.219 246.215 l 19.109 246.66 l 18.371 246.66 l S
26.137 246.66 m 25.027 246.215 l 24.289 244.879 l 23.918 242.652 l 23.918
 241.316 l 24.289 239.09 l 25.027 237.754 l 26.137 237.309 l 26.879 237.309
 l 27.988 237.754 l 28.727 239.09 l 29.098 241.316 l 29.098 242.652 l 28.727
 244.879 l 27.988 246.215 l 26.879 246.66 l 26.137 246.66 l S
33.906 246.66 m 32.797 246.215 l 32.055 244.879 l 31.688 242.652 l 31.688
 241.316 l 32.055 239.09 l 32.797 237.754 l 33.906 237.309 l 34.645 237.309
 l 35.754 237.754 l 36.496 239.09 l 36.863 241.316 l 36.863 242.652 l 36.496
 244.879 l 35.754 246.215 l 34.645 246.66 l 33.906 246.66 l S
1 w
14.668 435.863 m 13.48 435.383 l 12.688 433.953 l 12.289 431.57 l 12.289
 430.137 l 12.688 427.754 l 13.48 426.32 l 14.668 425.844 l 15.461 425.844
 l 16.648 426.32 l 17.441 427.754 l 17.84 430.137 l 17.84 431.57 l 17.441
 433.953 l 16.648 435.383 l 15.461 435.863 l 14.668 435.863 l S
25.766 432.523 m 25.367 431.09 l 24.574 430.137 l 23.387 429.66 l 22.992
 429.66 l 21.801 430.137 l 21.008 431.09 l 20.613 432.523 l 20.613 433 l
 21.008 434.43 l 21.801 435.383 l 22.992 435.863 l 23.387 435.863 l 24.574
 435.383 l 25.367 434.43 l 25.766 432.523 l 25.766 430.137 l 25.367 427.754
 l 24.574 426.32 l 23.387 425.844 l 22.594 425.844 l 21.406 426.32 l 21.008
 427.277 l S
34.484 435.863 m 28.934 425.844 l S
28.934 435.863 m 34.484 435.863 l S
28.934 425.844 m 34.484 425.844 l S
39.637 435.863 m 38.445 435.383 l 37.652 433.953 l 37.258 431.57 l 37.258
 430.137 l 37.652 427.754 l 38.445 426.32 l 39.637 425.844 l 40.43 425.844
 l 41.617 426.32 l 42.41 427.754 l 42.805 430.137 l 42.805 431.57 l 42.41
 433.953 l 41.617 435.383 l 40.43 435.863 l 39.637 435.863 l S
50.336 435.863 m 46.371 435.863 l 45.977 431.57 l 46.371 432.047 l 47.562
 432.523 l 48.75 432.523 l 49.938 432.047 l 50.73 431.09 l 51.129 429.66
 l 51.129 428.707 l 50.73 427.277 l 49.938 426.32 l 48.75 425.844 l 47.562
 425.844 l 46.371 426.32 l 45.977 426.801 l 45.578 427.754 l S
57.43 435.863 m 57.43 428.23 l 57.031 426.801 l 56.637 426.32 l 55.844 
425.844 l 55.051 425.844 l 54.258 426.32 l 53.863 426.801 l 53.465 428.23
 l 53.465 429.184 l S
60.977 435.863 m 60.977 428.707 l 61.371 427.277 l 62.164 426.32 l 63.355
 425.844 l 64.148 425.844 l 65.336 426.32 l 66.129 427.277 l 66.523 428.707
 l 66.523 435.863 l S
69.488 435.863 m 69.488 425.844 l S
69.488 425.844 m 74.242 425.844 l S
77.184 433.477 m 77.184 433.953 l 77.582 434.906 l 77.977 435.383 l 78.77
 435.863 l 80.355 435.863 l 81.148 435.383 l 81.543 434.906 l 81.941 433.953
 l 81.941 433 l 81.543 432.047 l 80.75 430.613 l 76.789 425.844 l 82.336
 425.844 l S
87.488 435.863 m 86.301 435.383 l 85.508 433.953 l 85.109 431.57 l 85.109
 430.137 l 85.508 427.754 l 86.301 426.32 l 87.488 425.844 l 88.281 425.844
 l 89.469 426.32 l 90.262 427.754 l 90.66 430.137 l 90.66 431.57 l 90.262
 433.953 l 89.469 435.383 l 88.281 435.863 l 87.488 435.863 l S
93.828 433.477 m 93.828 433.953 l 94.227 434.906 l 94.621 435.383 l 95.414
 435.863 l 97 435.863 l 97.793 435.383 l 98.188 434.906 l 98.586 433.953
 l 98.586 433 l 98.188 432.047 l 97.395 430.613 l 93.434 425.844 l 98.98
 425.844 l S
102.152 433.477 m 102.152 433.953 l 102.547 434.906 l 102.945 435.383 l
 103.738 435.863 l 105.324 435.863 l 106.113 435.383 l 106.512 434.906 l
 106.906 433.953 l 106.906 433 l 106.512 432.047 l 105.719 430.613 l 101.754
 425.844 l 107.305 425.844 l S
1.5 w
233.18 416.988 138.707 -174.887 re S
0.941176 0 0.509804 rg
1.25 w
343.145 242.102 m 327.734 285.82 l 308.051 329.543 l 272.074 373.266 l 
232.484 414.582 l S
1 g
340.371 244.898 m 345.922 244.898 l 345.922 242.102 l S
340.371 242.102 m 340.371 244.898 l S
0.941176 0 0.509804 rg
343.145 242.102 m 343.145 244.898 l S
340.371 242.102 m 345.922 242.102 l S
1 g
324.961 288.621 5.547 -5.598 re S
0.941176 0 0.509804 rg
327.734 283.023 m 327.734 288.621 l S
324.961 285.82 m 330.508 285.82 l S
1 g
305.277 332.34 5.547 -5.594 re S
0.941176 0 0.509804 rg
308.051 326.746 m 308.051 332.34 l S
305.277 329.543 m 310.824 329.543 l S
1 g
269.297 376.062 5.551 -5.598 re S
0.941176 0 0.509804 rg
272.074 370.465 m 272.074 376.062 l S
269.297 373.266 m 274.848 373.266 l S
1 g
232.957 416.988 m 232.957 414.188 l 232.484 414.188 l S
0 g
233.18 416.988 m 229.297 416.988 l S
208.211 418.43 m 207.844 417.094 l 207.102 416.203 l 205.992 415.758 l 
205.625 415.758 l 204.512 416.203 l 203.773 417.094 l 203.402 418.43 l 203.402
 418.875 l 203.773 420.211 l 204.512 421.102 l 205.625 421.543 l 205.992
 421.543 l 207.102 421.102 l 207.844 420.211 l 208.211 418.43 l 208.211 
416.203 l 207.844 413.977 l 207.102 412.641 l 205.992 412.195 l 205.254 
412.195 l 204.145 412.641 l 203.773 413.531 l S
213.391 421.543 m 212.281 421.102 l 211.543 419.766 l 211.172 417.539 l
 211.172 416.203 l 211.543 413.977 l 212.281 412.641 l 213.391 412.195 l
 214.129 412.195 l 215.238 412.641 l 215.98 413.977 l 216.352 416.203 l 
216.352 417.539 l 215.98 419.766 l 215.238 421.102 l 214.129 421.543 l 213.391
 421.543 l S
221.16 421.543 m 220.047 421.102 l 219.309 419.766 l 218.938 417.539 l 
218.938 416.203 l 219.309 413.977 l 220.047 412.641 l 221.16 412.195 l 221.898
 412.195 l 223.008 412.641 l 223.746 413.977 l 224.117 416.203 l 224.117
 417.539 l 223.746 419.766 l 223.008 421.102 l 221.898 421.543 l 221.16 
421.543 l S
233.18 329.543 m 229.297 329.543 l S
208.211 330.984 m 207.844 329.648 l 207.102 328.758 l 205.992 328.316 l
 205.625 328.316 l 204.512 328.758 l 203.773 329.648 l 203.402 330.984 l
 203.402 331.43 l 203.773 332.766 l 204.512 333.656 l 205.625 334.102 l 
205.992 334.102 l 207.102 333.656 l 207.844 332.766 l 208.211 330.984 l 
208.211 328.758 l 207.844 326.535 l 207.102 325.199 l 205.992 324.754 l 
205.254 324.754 l 204.145 325.199 l 203.773 326.09 l S
215.609 334.102 m 211.91 334.102 l 211.543 330.094 l 211.91 330.539 l 213.02
 330.984 l 214.129 330.984 l 215.238 330.539 l 215.98 329.648 l 216.352 
328.316 l 216.352 327.426 l 215.98 326.09 l 215.238 325.199 l 214.129 324.754
 l 213.02 324.754 l 211.91 325.199 l 211.543 325.645 l 211.172 326.535 l
 S
221.16 334.102 m 220.047 333.656 l 219.309 332.32 l 218.938 330.094 l 218.938
 328.758 l 219.309 326.535 l 220.047 325.199 l 221.16 324.754 l 221.898 
324.754 l 223.008 325.199 l 223.746 326.535 l 224.117 328.758 l 224.117 
330.094 l 223.746 332.32 l 223.008 333.656 l 221.898 334.102 l 221.16 334.102
 l S
233.18 242.102 m 229.297 242.102 l S
196.746 244.879 m 197.484 245.324 l 198.594 246.66 l 198.594 237.309 l S
205.625 246.66 m 204.512 246.215 l 203.773 244.879 l 203.402 242.652 l 
203.402 241.316 l 203.773 239.09 l 204.512 237.754 l 205.625 237.309 l 206.363
 237.309 l 207.473 237.754 l 208.211 239.09 l 208.582 241.316 l 208.582 
242.652 l 208.211 244.879 l 207.473 246.215 l 206.363 246.66 l 205.625 246.66
 l S
213.391 246.66 m 212.281 246.215 l 211.543 244.879 l 211.172 242.652 l 
211.172 241.316 l 211.543 239.09 l 212.281 237.754 l 213.391 237.309 l 214.129
 237.309 l 215.238 237.754 l 215.98 239.09 l 216.352 241.316 l 216.352 242.652
 l 215.98 244.879 l 215.238 246.215 l 214.129 246.66 l 213.391 246.66 l S
221.16 246.66 m 220.047 246.215 l 219.309 244.879 l 218.938 242.652 l 218.938
 241.316 l 219.309 239.09 l 220.047 237.754 l 221.16 237.309 l 221.898 237.309
 l 223.008 237.754 l 223.746 239.09 l 224.117 241.316 l 224.117 242.652 
l 223.746 244.879 l 223.008 246.215 l 221.898 246.66 l 221.16 246.66 l S
1 w
200.73 433.953 m 201.523 434.43 l 202.715 435.863 l 202.715 425.844 l S
208.262 433.477 m 208.262 433.953 l 208.66 434.906 l 209.055 435.383 l 
209.848 435.863 l 211.434 435.863 l 212.227 435.383 l 212.621 434.906 l 
213.016 433.953 l 213.016 433 l 212.621 432.047 l 211.828 430.613 l 207.867
 425.844 l 213.414 425.844 l S
221.734 435.863 m 216.188 425.844 l S
216.188 435.863 m 221.734 435.863 l S
216.188 425.844 m 221.734 425.844 l S
226.887 435.863 m 225.699 435.383 l 224.906 433.953 l 224.512 431.57 l 
224.512 430.137 l 224.906 427.754 l 225.699 426.32 l 226.887 425.844 l 227.68
 425.844 l 228.871 426.32 l 229.664 427.754 l 230.059 430.137 l 230.059 
431.57 l 229.664 433.953 l 228.871 435.383 l 227.68 435.863 l 226.887 435.863
 l S
237.59 435.863 m 233.625 435.863 l 233.23 431.57 l 233.625 432.047 l 234.812
 432.523 l 236.004 432.523 l 237.191 432.047 l 237.984 431.09 l 238.383 
429.66 l 238.383 428.707 l 237.984 427.277 l 237.191 426.32 l 236.004 425.844
 l 234.812 425.844 l 233.625 426.32 l 233.23 426.801 l 232.832 427.754 l
 S
244.684 435.863 m 244.684 428.23 l 244.285 426.801 l 243.891 426.32 l 243.098
 425.844 l 242.305 425.844 l 241.512 426.32 l 241.117 426.801 l 240.719 
428.23 l 240.719 429.184 l S
248.23 435.863 m 248.23 428.707 l 248.625 427.277 l 249.418 426.32 l 250.605
 425.844 l 251.398 425.844 l 252.59 426.32 l 253.383 427.277 l 253.777 428.707
 l 253.777 435.863 l S
256.738 435.863 m 256.738 425.844 l S
256.738 425.844 m 261.496 425.844 l S
264.438 433.477 m 264.438 433.953 l 264.836 434.906 l 265.23 435.383 l 
266.023 435.863 l 267.609 435.863 l 268.402 435.383 l 268.797 434.906 l 
269.195 433.953 l 269.195 433 l 268.797 432.047 l 268.004 430.613 l 264.043
 425.844 l 269.59 425.844 l S
274.742 435.863 m 273.555 435.383 l 272.762 433.953 l 272.363 431.57 l 
272.363 430.137 l 272.762 427.754 l 273.555 426.32 l 274.742 425.844 l 275.535
 425.844 l 276.723 426.32 l 277.516 427.754 l 277.91 430.137 l 277.91 431.57
 l 277.516 433.953 l 276.723 435.383 l 275.535 435.863 l 274.742 435.863
 l S
281.082 433.477 m 281.082 433.953 l 281.48 434.906 l 281.875 435.383 l 
282.668 435.863 l 284.254 435.863 l 285.047 435.383 l 285.441 434.906 l 
285.84 433.953 l 285.84 433 l 285.441 432.047 l 284.648 430.613 l 280.688
 425.844 l 286.234 425.844 l S
289.406 433.477 m 289.406 433.953 l 289.801 434.906 l 290.199 435.383 l
 290.988 435.863 l 292.574 435.863 l 293.367 435.383 l 293.766 434.906 l
 294.16 433.953 l 294.16 433 l 293.766 432.047 l 292.973 430.613 l 289.008
 425.844 l 294.559 425.844 l S
1.5 w
420.434 416.988 138.703 -174.887 re S
0.627451 0 0.784314 rg
1.25 w
520.73 242.102 m 504.48 285.82 l 489.645 329.543 l 462.156 373.266 l 419.738
 399.957 l S
1 g
522.117 244.523 m 520.73 244.898 l 519.344 244.523 l 518.328 243.5 l 517.957
 242.102 l 523.504 242.102 l 523.133 243.5 l 522.117 244.523 l f
0.627451 0 0.784314 rg
522.117 244.523 m 520.73 244.898 l 519.344 244.523 l 518.328 243.5 l 517.957
 242.102 l S
523.504 242.102 m 523.133 243.5 l 522.117 244.523 l S
1 g
505.867 288.246 m 504.48 288.621 l 503.094 288.246 l 502.078 287.219 l 
501.707 285.82 l 502.078 284.422 l 503.094 283.398 l 504.48 283.023 l 505.867
 283.398 l 506.883 284.422 l 507.254 285.82 l 506.883 287.219 l 505.867 
288.246 l f
0.627451 0 0.784314 rg
505.867 288.246 m 504.48 288.621 l 503.094 288.246 l 502.078 287.219 l 
501.707 285.82 l 502.078 284.422 l 503.094 283.398 l 504.48 283.023 l 505.867
 283.398 l 506.883 284.422 l 507.254 285.82 l 506.883 287.219 l 505.867 
288.246 l S
1 g
491.031 331.965 m 489.645 332.34 l 488.258 331.965 l 487.242 330.941 l 
486.871 329.543 l 487.242 328.145 l 488.258 327.121 l 489.645 326.746 l 
491.031 327.121 l 492.047 328.145 l 492.422 329.543 l 492.047 330.941 l 
491.031 331.965 l f
0.627451 0 0.784314 rg
491.031 331.965 m 489.645 332.34 l 488.258 331.965 l 487.242 330.941 l 
486.871 329.543 l 487.242 328.145 l 488.258 327.121 l 489.645 326.746 l 
491.031 327.121 l 492.047 328.145 l 492.422 329.543 l 492.047 330.941 l 
491.031 331.965 l S
1 g
463.543 375.688 m 462.156 376.062 l 460.766 375.688 l 459.754 374.664 l
 459.379 373.266 l 459.754 371.867 l 460.766 370.84 l 462.156 370.465 l 
463.543 370.84 l 464.559 371.867 l 464.93 373.266 l 464.559 374.664 l 463.543
 375.688 l f
0.627451 0 0.784314 rg
463.543 375.688 m 462.156 376.062 l 460.766 375.688 l 459.754 374.664 l
 459.379 373.266 l 459.754 371.867 l 460.766 370.84 l 462.156 370.465 l 
463.543 370.84 l 464.559 371.867 l 464.93 373.266 l 464.559 374.664 l 463.543
 375.688 l S
0 g
420.434 416.988 m 416.547 416.988 l S
395.465 418.43 m 395.094 417.094 l 394.355 416.203 l 393.246 415.758 l 
392.875 415.758 l 391.766 416.203 l 391.027 417.094 l 390.656 418.43 l 390.656
 418.875 l 391.027 420.211 l 391.766 421.102 l 392.875 421.543 l 393.246
 421.543 l 394.355 421.102 l 395.094 420.211 l 395.465 418.43 l 395.465 
416.203 l 395.094 413.977 l 394.355 412.641 l 393.246 412.195 l 392.508 
412.195 l 391.398 412.641 l 391.027 413.531 l S
400.645 421.543 m 399.535 421.102 l 398.793 419.766 l 398.426 417.539 l
 398.426 416.203 l 398.793 413.977 l 399.535 412.641 l 400.645 412.195 l
 401.383 412.195 l 402.492 412.641 l 403.234 413.977 l 403.602 416.203 l
 403.602 417.539 l 403.234 419.766 l 402.492 421.102 l 401.383 421.543 l
 400.645 421.543 l S
408.41 421.543 m 407.301 421.102 l 406.562 419.766 l 406.191 417.539 l 
406.191 416.203 l 406.562 413.977 l 407.301 412.641 l 408.41 412.195 l 409.152
 412.195 l 410.262 412.641 l 411 413.977 l 411.371 416.203 l 411.371 417.539
 l 411 419.766 l 410.262 421.102 l 409.152 421.543 l 408.41 421.543 l S
420.434 329.543 m 416.547 329.543 l S
395.465 330.984 m 395.094 329.648 l 394.355 328.758 l 393.246 328.316 l
 392.875 328.316 l 391.766 328.758 l 391.027 329.648 l 390.656 330.984 l
 390.656 331.43 l 391.027 332.766 l 391.766 333.656 l 392.875 334.102 l 
393.246 334.102 l 394.355 333.656 l 395.094 332.766 l 395.465 330.984 l 
395.465 328.758 l 395.094 326.535 l 394.355 325.199 l 393.246 324.754 l 
392.508 324.754 l 391.398 325.199 l 391.027 326.09 l S
402.863 334.102 m 399.164 334.102 l 398.793 330.094 l 399.164 330.539 l
 400.273 330.984 l 401.383 330.984 l 402.492 330.539 l 403.234 329.648 l
 403.602 328.316 l 403.602 327.426 l 403.234 326.09 l 402.492 325.199 l 
401.383 324.754 l 400.273 324.754 l 399.164 325.199 l 398.793 325.645 l 
398.426 326.535 l S
408.41 334.102 m 407.301 333.656 l 406.562 332.32 l 406.191 330.094 l 406.191
 328.758 l 406.562 326.535 l 407.301 325.199 l 408.41 324.754 l 409.152 
324.754 l 410.262 325.199 l 411 326.535 l 411.371 328.758 l 411.371 330.094
 l 411 332.32 l 410.262 333.656 l 409.152 334.102 l 408.41 334.102 l S
420.434 242.102 m 416.547 242.102 l S
384 244.879 m 384.738 245.324 l 385.848 246.66 l 385.848 237.309 l S
392.875 246.66 m 391.766 246.215 l 391.027 244.879 l 390.656 242.652 l 
390.656 241.316 l 391.027 239.09 l 391.766 237.754 l 392.875 237.309 l 393.617
 237.309 l 394.727 237.754 l 395.465 239.09 l 395.836 241.316 l 395.836 
242.652 l 395.465 244.879 l 394.727 246.215 l 393.617 246.66 l 392.875 246.66
 l S
400.645 246.66 m 399.535 246.215 l 398.793 244.879 l 398.426 242.652 l 
398.426 241.316 l 398.793 239.09 l 399.535 237.754 l 400.645 237.309 l 401.383
 237.309 l 402.492 237.754 l 403.234 239.09 l 403.602 241.316 l 403.602 
242.652 l 403.234 244.879 l 402.492 246.215 l 401.383 246.66 l 400.645 246.66
 l S
408.41 246.66 m 407.301 246.215 l 406.562 244.879 l 406.191 242.652 l 406.191
 241.316 l 406.562 239.09 l 407.301 237.754 l 408.41 237.309 l 409.152 237.309
 l 410.262 237.754 l 411 239.09 l 411.371 241.316 l 411.371 242.652 l 411
 244.879 l 410.262 246.215 l 409.152 246.66 l 408.41 246.66 l S
1 w
387.984 433.953 m 388.777 434.43 l 389.965 435.863 l 389.965 425.844 l S
399.875 435.863 m 395.91 435.863 l 395.516 431.57 l 395.91 432.047 l 397.102
 432.523 l 398.289 432.523 l 399.477 432.047 l 400.27 431.09 l 400.668 429.66
 l 400.668 428.707 l 400.27 427.277 l 399.477 426.32 l 398.289 425.844 l
 397.102 425.844 l 395.91 426.32 l 395.516 426.801 l 395.117 427.754 l S
408.988 435.863 m 403.441 425.844 l S
403.441 435.863 m 408.988 435.863 l S
403.441 425.844 m 408.988 425.844 l S
414.141 435.863 m 412.953 435.383 l 412.16 433.953 l 411.762 431.57 l 411.762
 430.137 l 412.16 427.754 l 412.953 426.32 l 414.141 425.844 l 414.934 425.844
 l 416.121 426.32 l 416.914 427.754 l 417.312 430.137 l 417.312 431.57 l
 416.914 433.953 l 416.121 435.383 l 414.934 435.863 l 414.141 435.863 l
 S
424.84 435.863 m 420.879 435.863 l 420.48 431.57 l 420.879 432.047 l 422.066
 432.523 l 423.258 432.523 l 424.445 432.047 l 425.238 431.09 l 425.633 
429.66 l 425.633 428.707 l 425.238 427.277 l 424.445 426.32 l 423.258 425.844
 l 422.066 425.844 l 420.879 426.32 l 420.48 426.801 l 420.086 427.754 l
 S
431.934 435.863 m 431.934 428.23 l 431.539 426.801 l 431.141 426.32 l 430.352
 425.844 l 429.559 425.844 l 428.766 426.32 l 428.367 426.801 l 427.973 
428.23 l 427.973 429.184 l S
435.48 435.863 m 435.48 428.707 l 435.879 427.277 l 436.672 426.32 l 437.859
 425.844 l 438.652 425.844 l 439.84 426.32 l 440.633 427.277 l 441.031 428.707
 l 441.031 435.863 l S
443.992 435.863 m 443.992 425.844 l S
443.992 425.844 m 448.75 425.844 l S
451.691 433.477 m 451.691 433.953 l 452.086 434.906 l 452.484 435.383 l
 453.277 435.863 l 454.859 435.863 l 455.652 435.383 l 456.051 434.906 l
 456.445 433.953 l 456.445 433 l 456.051 432.047 l 455.258 430.613 l 451.293
 425.844 l 456.844 425.844 l S
461.996 435.863 m 460.805 435.383 l 460.012 433.953 l 459.617 431.57 l 
459.617 430.137 l 460.012 427.754 l 460.805 426.32 l 461.996 425.844 l 462.789
 425.844 l 463.977 426.32 l 464.77 427.754 l 465.164 430.137 l 465.164 431.57
 l 464.77 433.953 l 463.977 435.383 l 462.789 435.863 l 461.996 435.863 
l S
468.336 433.477 m 468.336 433.953 l 468.73 434.906 l 469.129 435.383 l 
469.922 435.863 l 471.504 435.863 l 472.297 435.383 l 472.695 434.906 l 
473.09 433.953 l 473.09 433 l 472.695 432.047 l 471.902 430.613 l 467.938
 425.844 l 473.488 425.844 l S
476.656 433.477 m 476.656 433.953 l 477.055 434.906 l 477.449 435.383 l
 478.242 435.863 l 479.828 435.863 l 480.621 435.383 l 481.016 434.906 l
 481.414 433.953 l 481.414 433 l 481.016 432.047 l 480.223 430.613 l 476.262
 425.844 l 481.809 425.844 l S
1.5 w
45.926 193.133 138.707 -174.887 re S
0.627451 0.901961 0.196078 rg
1.25 w
113.379 18.246 m 102.082 61.969 l 86.762 105.688 l 45.234 135.453 l S
114.766 20.668 m 113.379 21.043 l 111.992 20.668 l 110.977 19.645 l 110.605
 18.246 l 116.152 18.246 l 115.781 19.645 l 114.766 20.668 l f
103.469 64.391 m 102.082 64.766 l 100.695 64.391 l 99.68 63.367 l 99.309
 61.969 l 99.68 60.566 l 100.695 59.543 l 102.082 59.168 l 103.469 59.543
 l 104.484 60.566 l 104.855 61.969 l 104.484 63.367 l 103.469 64.391 l f
88.152 108.113 m 86.762 108.488 l 85.375 108.113 l 84.359 107.086 l 83.988
 105.688 l 84.359 104.289 l 85.375 103.266 l 86.762 102.891 l 88.152 103.266
 l 89.164 104.289 l 89.539 105.688 l 89.164 107.086 l 88.152 108.113 l f
0 g
45.926 193.133 m 42.043 193.133 l S
20.961 194.574 m 20.59 193.238 l 19.852 192.348 l 18.738 191.902 l 18.371
 191.902 l 17.262 192.348 l 16.52 193.238 l 16.152 194.574 l 16.152 195.02
 l 16.52 196.355 l 17.262 197.246 l 18.371 197.691 l 18.738 197.691 l 19.852
 197.246 l 20.59 196.355 l 20.961 194.574 l 20.961 192.348 l 20.59 190.121
 l 19.852 188.785 l 18.738 188.344 l 18 188.344 l 16.891 188.785 l 16.52
 189.676 l S
26.137 197.691 m 25.027 197.246 l 24.289 195.91 l 23.918 193.684 l 23.918
 192.348 l 24.289 190.121 l 25.027 188.785 l 26.137 188.344 l 26.879 188.344
 l 27.988 188.785 l 28.727 190.121 l 29.098 192.348 l 29.098 193.684 l 28.727
 195.91 l 27.988 197.246 l 26.879 197.691 l 26.137 197.691 l S
33.906 197.691 m 32.797 197.246 l 32.055 195.91 l 31.688 193.684 l 31.688
 192.348 l 32.055 190.121 l 32.797 188.785 l 33.906 188.344 l 34.645 188.344
 l 35.754 188.785 l 36.496 190.121 l 36.863 192.348 l 36.863 193.684 l 36.496
 195.91 l 35.754 197.246 l 34.645 197.691 l 33.906 197.691 l S
45.926 105.688 m 42.043 105.688 l S
20.961 107.133 m 20.59 105.797 l 19.852 104.906 l 18.738 104.461 l 18.371
 104.461 l 17.262 104.906 l 16.52 105.797 l 16.152 107.133 l 16.152 107.574
 l 16.52 108.91 l 17.262 109.801 l 18.371 110.246 l 18.738 110.246 l 19.852
 109.801 l 20.59 108.91 l 20.961 107.133 l 20.961 104.906 l 20.59 102.68
 l 19.852 101.344 l 18.738 100.898 l 18 100.898 l 16.891 101.344 l 16.52
 102.234 l S
28.355 110.246 m 24.66 110.246 l 24.289 106.242 l 24.66 106.688 l 25.77
 107.133 l 26.879 107.133 l 27.988 106.688 l 28.727 105.797 l 29.098 104.461
 l 29.098 103.57 l 28.727 102.234 l 27.988 101.344 l 26.879 100.898 l 25.77
 100.898 l 24.66 101.344 l 24.289 101.789 l 23.918 102.68 l S
33.906 110.246 m 32.797 109.801 l 32.055 108.465 l 31.688 106.242 l 31.688
 104.906 l 32.055 102.68 l 32.797 101.344 l 33.906 100.898 l 34.645 100.898
 l 35.754 101.344 l 36.496 102.68 l 36.863 104.906 l 36.863 106.242 l 36.496
 108.465 l 35.754 109.801 l 34.645 110.246 l 33.906 110.246 l S
45.926 18.246 m 42.043 18.246 l S
11.25 22.691 m 11.344 22.805 l 11.344 13.457 l S
18.371 22.805 m 17.262 22.359 l 16.52 21.023 l 16.152 18.797 l 16.152 17.461
 l 16.52 15.234 l 17.262 13.902 l 18.371 13.457 l 19.109 13.457 l 20.219
 13.902 l 20.961 15.234 l 21.328 17.461 l 21.328 18.797 l 20.961 21.023 
l 20.219 22.359 l 19.109 22.805 l 18.371 22.805 l S
26.137 22.805 m 25.027 22.359 l 24.289 21.023 l 23.918 18.797 l 23.918 
17.461 l 24.289 15.234 l 25.027 13.902 l 26.137 13.457 l 26.879 13.457 l
 27.988 13.902 l 28.727 15.234 l 29.098 17.461 l 29.098 18.797 l 28.727 
21.023 l 27.988 22.359 l 26.879 22.805 l 26.137 22.805 l S
33.906 22.805 m 32.797 22.359 l 32.055 21.023 l 31.688 18.797 l 31.688 
17.461 l 32.055 15.234 l 32.797 13.902 l 33.906 13.457 l 34.645 13.457 l
 35.754 13.902 l 36.496 15.234 l 36.863 17.461 l 36.863 18.797 l 36.496 
21.023 l 35.754 22.359 l 34.645 22.805 l 33.906 22.805 l S
1 w
13.48 210.098 m 14.273 210.574 l 15.461 212.008 l 15.461 201.992 l S
22.594 212.008 m 21.406 211.531 l 21.008 210.574 l 21.008 209.621 l 21.406
 208.668 l 22.199 208.191 l 23.781 207.715 l 24.973 207.238 l 25.766 206.285
 l 26.16 205.328 l 26.16 203.898 l 25.766 202.945 l 25.367 202.469 l 24.18
 201.992 l 22.594 201.992 l 21.406 202.469 l 21.008 202.945 l 20.613 203.898
 l 20.613 205.328 l 21.008 206.285 l 21.801 207.238 l 22.992 207.715 l 24.574
 208.191 l 25.367 208.668 l 25.766 209.621 l 25.766 210.574 l 25.367 211.531
 l 24.18 212.008 l 22.594 212.008 l S
34.484 212.008 m 28.934 201.992 l S
28.934 212.008 m 34.484 212.008 l S
28.934 201.992 m 34.484 201.992 l S
39.637 212.008 m 38.445 211.531 l 37.652 210.098 l 37.258 207.715 l 37.258
 206.285 l 37.652 203.898 l 38.445 202.469 l 39.637 201.992 l 40.43 201.992
 l 41.617 202.469 l 42.41 203.898 l 42.805 206.285 l 42.805 207.715 l 42.41
 210.098 l 41.617 211.531 l 40.43 212.008 l 39.637 212.008 l S
50.336 212.008 m 46.371 212.008 l 45.977 207.715 l 46.371 208.191 l 47.562
 208.668 l 48.75 208.668 l 49.938 208.191 l 50.73 207.238 l 51.129 205.805
 l 51.129 204.852 l 50.73 203.422 l 49.938 202.469 l 48.75 201.992 l 47.562
 201.992 l 46.371 202.469 l 45.977 202.945 l 45.578 203.898 l S
57.43 212.008 m 57.43 204.375 l 57.031 202.945 l 56.637 202.469 l 55.844
 201.992 l 55.051 201.992 l 54.258 202.469 l 53.863 202.945 l 53.465 204.375
 l 53.465 205.328 l S
60.977 212.008 m 60.977 204.852 l 61.371 203.422 l 62.164 202.469 l 63.355
 201.992 l 64.148 201.992 l 65.336 202.469 l 66.129 203.422 l 66.523 204.852
 l 66.523 212.008 l S
69.488 212.008 m 69.488 201.992 l S
69.488 201.992 m 74.242 201.992 l S
77.184 209.621 m 77.184 210.098 l 77.582 211.055 l 77.977 211.531 l 78.77
 212.008 l 80.355 212.008 l 81.148 211.531 l 81.543 211.055 l 81.941 210.098
 l 81.941 209.145 l 81.543 208.191 l 80.75 206.762 l 76.789 201.992 l 82.336
 201.992 l S
87.488 212.008 m 86.301 211.531 l 85.508 210.098 l 85.109 207.715 l 85.109
 206.285 l 85.508 203.898 l 86.301 202.469 l 87.488 201.992 l 88.281 201.992
 l 89.469 202.469 l 90.262 203.898 l 90.66 206.285 l 90.66 207.715 l 90.262
 210.098 l 89.469 211.531 l 88.281 212.008 l 87.488 212.008 l S
93.828 209.621 m 93.828 210.098 l 94.227 211.055 l 94.621 211.531 l 95.414
 212.008 l 97 212.008 l 97.793 211.531 l 98.188 211.055 l 98.586 210.098
 l 98.586 209.145 l 98.188 208.191 l 97.395 206.762 l 93.434 201.992 l 98.98
 201.992 l S
102.152 209.621 m 102.152 210.098 l 102.547 211.055 l 102.945 211.531 l
 103.738 212.008 l 105.324 212.008 l 106.113 211.531 l 106.512 211.055 l
 106.906 210.098 l 106.906 209.145 l 106.512 208.191 l 105.719 206.762 l
 101.754 201.992 l 107.305 201.992 l S
1.5 w
233.18 193.133 138.707 -174.887 re S
0 0.627451 1 rg
1.25 w
323.75 18.246 m 308.719 61.969 l 295.531 105.688 l 259.375 149.41 l 232.484
 175.871 l S
1 g
320.973 21.043 5.551 -2.797 re f
0 0.627451 1 rg
320.973 21.043 m 326.523 21.043 l 326.523 18.246 l S
320.973 18.246 m 320.973 21.043 l S
1 g
305.945 64.766 5.547 -5.598 re f
0 0.627451 1 rg
305.945 64.766 5.547 -5.598 re S
1 g
292.758 108.488 5.547 -5.598 re f
0 0.627451 1 rg
292.758 108.488 5.547 -5.598 re S
1 g
256.602 152.207 5.547 -5.594 re f
0 0.627451 1 rg
256.602 152.207 5.547 -5.594 re S
0 g
233.18 193.133 m 229.297 193.133 l S
208.211 194.574 m 207.844 193.238 l 207.102 192.348 l 205.992 191.902 l
 205.625 191.902 l 204.512 192.348 l 203.773 193.238 l 203.402 194.574 l
 203.402 195.02 l 203.773 196.355 l 204.512 197.246 l 205.625 197.691 l 
205.992 197.691 l 207.102 197.246 l 207.844 196.355 l 208.211 194.574 l 
208.211 192.348 l 207.844 190.121 l 207.102 188.785 l 205.992 188.344 l 
205.254 188.344 l 204.145 188.785 l 203.773 189.676 l S
213.391 197.691 m 212.281 197.246 l 211.543 195.91 l 211.172 193.684 l 
211.172 192.348 l 211.543 190.121 l 212.281 188.785 l 213.391 188.344 l 
214.129 188.344 l 215.238 188.785 l 215.98 190.121 l 216.352 192.348 l 216.352
 193.684 l 215.98 195.91 l 215.238 197.246 l 214.129 197.691 l 213.391 197.691
 l S
221.16 197.691 m 220.047 197.246 l 219.309 195.91 l 218.938 193.684 l 218.938
 192.348 l 219.309 190.121 l 220.047 188.785 l 221.16 188.344 l 221.898 
188.344 l 223.008 188.785 l 223.746 190.121 l 224.117 192.348 l 224.117 
193.684 l 223.746 195.91 l 223.008 197.246 l 221.898 197.691 l 221.16 197.691
 l S
233.18 105.688 m 229.297 105.688 l S
208.211 107.133 m 207.844 105.797 l 207.102 104.906 l 205.992 104.461 l
 205.625 104.461 l 204.512 104.906 l 203.773 105.797 l 203.402 107.133 l
 203.402 107.574 l 203.773 108.91 l 204.512 109.801 l 205.625 110.246 l 
205.992 110.246 l 207.102 109.801 l 207.844 108.91 l 208.211 107.133 l 208.211
 104.906 l 207.844 102.68 l 207.102 101.344 l 205.992 100.898 l 205.254 
100.898 l 204.145 101.344 l 203.773 102.234 l S
215.609 110.246 m 211.91 110.246 l 211.543 106.242 l 211.91 106.688 l 213.02
 107.133 l 214.129 107.133 l 215.238 106.688 l 215.98 105.797 l 216.352 
104.461 l 216.352 103.57 l 215.98 102.234 l 215.238 101.344 l 214.129 100.898
 l 213.02 100.898 l 211.91 101.344 l 211.543 101.789 l 211.172 102.68 l S
221.16 110.246 m 220.047 109.801 l 219.309 108.465 l 218.938 106.242 l 
218.938 104.906 l 219.309 102.68 l 220.047 101.344 l 221.16 100.898 l 221.898
 100.898 l 223.008 101.344 l 223.746 102.68 l 224.117 104.906 l 224.117 
106.242 l 223.746 108.465 l 223.008 109.801 l 221.898 110.246 l 221.16 110.246
 l S
233.18 18.246 m 229.297 18.246 l S
196.746 21.023 m 197.484 21.469 l 198.594 22.805 l 198.594 13.457 l S
205.625 22.805 m 204.512 22.359 l 203.773 21.023 l 203.402 18.797 l 203.402
 17.461 l 203.773 15.234 l 204.512 13.902 l 205.625 13.457 l 206.363 13.457
 l 207.473 13.902 l 208.211 15.234 l 208.582 17.461 l 208.582 18.797 l 208.211
 21.023 l 207.473 22.359 l 206.363 22.805 l 205.625 22.805 l S
213.391 22.805 m 212.281 22.359 l 211.543 21.023 l 211.172 18.797 l 211.172
 17.461 l 211.543 15.234 l 212.281 13.902 l 213.391 13.457 l 214.129 13.457
 l 215.238 13.902 l 215.98 15.234 l 216.352 17.461 l 216.352 18.797 l 215.98
 21.023 l 215.238 22.359 l 214.129 22.805 l 213.391 22.805 l S
221.16 22.805 m 220.047 22.359 l 219.309 21.023 l 218.938 18.797 l 218.938
 17.461 l 219.309 15.234 l 220.047 13.902 l 221.16 13.457 l 221.898 13.457
 l 223.008 13.902 l 223.746 15.234 l 224.117 17.461 l 224.117 18.797 l 223.746
 21.023 l 223.008 22.359 l 221.898 22.805 l 221.16 22.805 l S
1 w
199.941 209.621 m 199.941 210.098 l 200.336 211.055 l 200.73 211.531 l 
201.523 212.008 l 203.109 212.008 l 203.902 211.531 l 204.301 211.055 l 
204.695 210.098 l 204.695 209.145 l 204.301 208.191 l 203.508 206.762 l 
199.543 201.992 l 205.09 201.992 l S
209.055 210.098 m 209.848 210.574 l 211.035 212.008 l 211.035 201.992 l
 S
221.734 212.008 m 216.188 201.992 l S
216.188 212.008 m 221.734 212.008 l S
216.188 201.992 m 221.734 201.992 l S
226.887 212.008 m 225.699 211.531 l 224.906 210.098 l 224.512 207.715 l
 224.512 206.285 l 224.906 203.898 l 225.699 202.469 l 226.887 201.992 l
 227.68 201.992 l 228.871 202.469 l 229.664 203.898 l 230.059 206.285 l 
230.059 207.715 l 229.664 210.098 l 228.871 211.531 l 227.68 212.008 l 226.887
 212.008 l S
237.59 212.008 m 233.625 212.008 l 233.23 207.715 l 233.625 208.191 l 234.812
 208.668 l 236.004 208.668 l 237.191 208.191 l 237.984 207.238 l 238.383
 205.805 l 238.383 204.852 l 237.984 203.422 l 237.191 202.469 l 236.004
 201.992 l 234.812 201.992 l 233.625 202.469 l 233.23 202.945 l 232.832 
203.898 l S
244.684 212.008 m 244.684 204.375 l 244.285 202.945 l 243.891 202.469 l
 243.098 201.992 l 242.305 201.992 l 241.512 202.469 l 241.117 202.945 l
 240.719 204.375 l 240.719 205.328 l S
248.23 212.008 m 248.23 204.852 l 248.625 203.422 l 249.418 202.469 l 250.605
 201.992 l 251.398 201.992 l 252.59 202.469 l 253.383 203.422 l 253.777 
204.852 l 253.777 212.008 l S
256.738 212.008 m 256.738 201.992 l S
256.738 201.992 m 261.496 201.992 l S
264.438 209.621 m 264.438 210.098 l 264.836 211.055 l 265.23 211.531 l 
266.023 212.008 l 267.609 212.008 l 268.402 211.531 l 268.797 211.055 l 
269.195 210.098 l 269.195 209.145 l 268.797 208.191 l 268.004 206.762 l 
264.043 201.992 l 269.59 201.992 l S
274.742 212.008 m 273.555 211.531 l 272.762 210.098 l 272.363 207.715 l
 272.363 206.285 l 272.762 203.898 l 273.555 202.469 l 274.742 201.992 l
 275.535 201.992 l 276.723 202.469 l 277.516 203.898 l 277.91 206.285 l 
277.91 207.715 l 277.516 210.098 l 276.723 211.531 l 275.535 212.008 l 274.742
 212.008 l S
281.082 209.621 m 281.082 210.098 l 281.48 211.055 l 281.875 211.531 l 
282.668 212.008 l 284.254 212.008 l 285.047 211.531 l 285.441 211.055 l 
285.84 210.098 l 285.84 209.145 l 285.441 208.191 l 284.648 206.762 l 280.688
 201.992 l 286.234 201.992 l S
289.406 209.621 m 289.406 210.098 l 289.801 211.055 l 290.199 211.531 l
 290.988 212.008 l 292.574 212.008 l 293.367 211.531 l 293.766 211.055 l
 294.16 210.098 l 294.16 209.145 l 293.766 208.191 l 292.973 206.762 l 289.008
 201.992 l 294.559 201.992 l S
27.203 685.91 m 26.805 685.465 l 27.203 685.02 l 27.598 685.465 l 27.203
 685.91 l S
37.426 696.148 m 30.293 681.902 l S
39.012 694.367 m 42.18 685.02 l S
45.352 694.367 m 42.18 685.02 l S
47.523 694.367 m 47.523 685.02 l S
47.523 694.367 m 51.09 694.367 l 52.277 693.922 l 52.672 693.477 l 53.07
 692.586 l 53.07 691.25 l 52.672 690.359 l 52.277 689.914 l 51.09 689.473
 l 47.523 689.473 l S
56.262 694.367 m 56.262 685.02 l S
56.262 694.367 m 59.828 694.367 l 61.016 693.922 l 61.41 693.477 l 61.809
 692.586 l 61.809 691.695 l 61.41 690.805 l 61.016 690.359 l 59.828 689.914
 l 56.262 689.914 l S
59.035 689.914 m 61.809 685.02 l S
63.207 681.902 m 71.133 681.902 l S
73.547 694.367 m 73.547 685.02 l S
73.547 694.367 m 76.719 685.02 l S
79.891 694.367 m 76.719 685.02 l S
79.891 694.367 m 79.891 685.02 l S
88.648 693.031 m 87.855 693.922 l 86.668 694.367 l 85.082 694.367 l 83.891
 693.922 l 83.102 693.031 l 83.102 692.141 l 83.496 691.25 l 83.891 690.805
 l 84.684 690.359 l 87.062 689.473 l 87.855 689.027 l 88.25 688.582 l 88.648
 687.691 l 88.648 686.355 l 87.855 685.465 l 86.668 685.02 l 85.082 685.02
 l 83.891 685.465 l 83.102 686.355 l S
91.859 694.367 m 91.859 685.02 l S
91.859 694.367 m 95.027 685.02 l S
98.199 694.367 m 95.027 685.02 l S
98.199 694.367 m 98.199 685.02 l S
99.824 681.902 m 107.75 681.902 l S
110.148 694.367 m 110.148 685.02 l S
115.695 694.367 m 115.695 685.02 l S
110.148 689.914 m 115.695 689.914 l S
119.164 694.367 m 119.164 685.02 l S
122.629 694.367 m 122.629 685.02 l S
122.629 694.367 m 128.18 685.02 l S
128.18 694.367 m 128.18 685.02 l S
133.312 694.367 m 133.312 685.02 l S
130.535 694.367 m 136.086 694.367 l S
138.234 694.367 m 138.234 685.02 l S
138.234 694.367 m 141.801 694.367 l 142.992 693.922 l 143.387 693.477 l
 143.785 692.586 l 143.785 691.25 l 143.387 690.359 l 142.992 689.914 l 
141.801 689.473 l 138.234 689.473 l S
146.539 694.367 m 146.539 685.02 l S
146.539 685.02 m 151.293 685.02 l S
154.531 685.91 m 154.137 685.465 l 154.531 685.02 l 154.93 685.465 l 154.531
 685.91 l S
162.527 689.914 m 162.133 690.805 l 160.945 691.25 l 159.754 691.25 l 158.566
 690.805 l 158.168 689.914 l 158.566 689.027 l 159.359 688.582 l 161.34 
688.137 l 162.133 687.691 l 162.527 686.801 l 162.527 686.355 l 162.133 
685.465 l 160.945 685.02 l 159.754 685.02 l 158.566 685.465 l 158.168 686.355
 l S
165.66 694.367 m 165.66 685.02 l S
165.66 689.473 m 166.848 690.805 l 167.641 691.25 l 168.828 691.25 l 169.621
 690.805 l 170.02 689.473 l 170.02 685.02 l S
26.488 708.359 m 26.488 699.012 l S
26.488 708.359 m 31.641 708.359 l S
26.488 703.906 m 29.66 703.906 l S
34.125 705.242 m 34.125 699.012 l S
34.125 702.57 m 34.523 703.906 l 35.316 704.797 l 36.109 705.242 l 37.297
 705.242 l S
39.289 708.359 m 39.684 707.914 l 40.082 708.359 l 39.684 708.805 l 39.289
 708.359 l S
39.684 705.242 m 39.684 699.012 l S
43.824 699.457 m 43.43 699.012 l 43.035 699.457 l 43.43 699.898 l 43.824
 699.457 l 43.824 698.566 l 43.43 697.676 l 43.035 697.23 l S
55.578 706.578 m 56.367 707.023 l 57.559 708.359 l 57.559 699.012 l S
66.672 708.359 m 62.711 702.125 l 68.656 702.125 l S
66.672 708.359 m 66.672 699.012 l S
80.922 708.359 m 80.129 707.914 l 79.336 707.023 l 78.938 706.133 l 78.543
 704.797 l 78.543 702.57 l 78.938 701.234 l 79.336 700.344 l 80.129 699.457
 l 80.922 699.012 l 82.504 699.012 l 83.297 699.457 l 84.09 700.344 l 84.488
 701.234 l 84.883 702.57 l 84.883 704.797 l 84.488 706.133 l 84.09 707.023
 l 83.297 707.914 l 82.504 708.359 l 80.922 708.359 l S
92.414 703.906 m 91.621 704.797 l 90.828 705.242 l 89.637 705.242 l 88.848
 704.797 l 88.055 703.906 l 87.656 702.57 l 87.656 701.68 l 88.055 700.344
 l 88.848 699.457 l 89.637 699.012 l 90.828 699.012 l 91.621 699.457 l 92.414
 700.344 l S
96.277 708.359 m 96.277 700.789 l 96.672 699.457 l 97.465 699.012 l 98.258
 699.012 l S
95.086 705.242 m 97.863 705.242 l S
108.047 706.133 m 108.047 706.578 l 108.441 707.469 l 108.84 707.914 l 
109.633 708.359 l 111.219 708.359 l 112.012 707.914 l 112.406 707.469 l 
112.801 706.578 l 112.801 705.688 l 112.406 704.797 l 111.613 703.461 l 
107.652 699.012 l 113.199 699.012 l S
118.352 708.359 m 117.16 707.914 l 116.371 706.578 l 115.973 704.352 l 
115.973 703.016 l 116.371 700.789 l 117.16 699.457 l 118.352 699.012 l 119.145
 699.012 l 120.332 699.457 l 121.125 700.789 l 121.52 703.016 l 121.52 704.352
 l 121.125 706.578 l 120.332 707.914 l 119.145 708.359 l 118.352 708.359
 l S
124.691 706.133 m 124.691 706.578 l 125.09 707.469 l 125.484 707.914 l 
126.277 708.359 l 127.863 708.359 l 128.656 707.914 l 129.051 707.469 l 
129.445 706.578 l 129.445 705.688 l 129.051 704.797 l 128.258 703.461 l 
124.297 699.012 l 129.844 699.012 l S
133.016 706.133 m 133.016 706.578 l 133.41 707.469 l 133.805 707.914 l 
134.598 708.359 l 136.184 708.359 l 136.977 707.914 l 137.375 707.469 l 
137.77 706.578 l 137.77 705.688 l 137.375 704.797 l 136.582 703.461 l 132.617
 699.012 l 138.164 699.012 l S
149.617 706.578 m 150.41 707.023 l 151.602 708.359 l 151.602 699.012 l S
162.301 708.359 m 158.336 699.012 l S
156.754 708.359 m 162.301 708.359 l S
165.77 705.242 m 165.371 704.797 l 165.77 704.352 l 166.164 704.797 l 165.77
 705.242 l S
165.77 699.898 m 165.371 699.457 l 165.77 699.012 l 166.164 699.457 l 165.77
 699.898 l S
173.992 708.359 m 170.027 708.359 l 169.633 704.352 l 170.027 704.797 l
 171.219 705.242 l 172.406 705.242 l 173.594 704.797 l 174.387 703.906 l
 174.785 702.57 l 174.785 701.68 l 174.387 700.344 l 173.594 699.457 l 172.406
 699.012 l 171.219 699.012 l 170.027 699.457 l 169.633 699.898 l 169.234
 700.789 l S
177.953 706.133 m 177.953 706.578 l 178.352 707.469 l 178.746 707.914 l
 179.539 708.359 l 181.125 708.359 l 181.918 707.914 l 182.312 707.469 l
 182.711 706.578 l 182.711 705.688 l 182.312 704.797 l 181.52 703.461 l 
177.559 699.012 l 183.105 699.012 l S
186.574 705.242 m 186.18 704.797 l 186.574 704.352 l 186.969 704.797 l 
186.574 705.242 l S
186.574 699.898 m 186.18 699.457 l 186.574 699.012 l 186.969 699.457 l 
186.574 699.898 l S
194.797 708.359 m 190.836 708.359 l 190.438 704.352 l 190.836 704.797 l
 192.023 705.242 l 193.211 705.242 l 194.402 704.797 l 195.195 703.906 l
 195.59 702.57 l 195.59 701.68 l 195.195 700.344 l 194.402 699.457 l 193.211
 699.012 l 192.023 699.012 l 190.836 699.457 l 190.438 699.898 l 190.043
 700.789 l S
200.348 708.359 m 199.156 707.914 l 198.762 707.023 l 198.762 706.133 l
 199.156 705.242 l 199.949 704.797 l 201.535 704.352 l 202.723 703.906 l
 203.516 703.016 l 203.914 702.125 l 203.914 700.789 l 203.516 699.898 l
 203.121 699.457 l 201.93 699.012 l 200.348 699.012 l 199.156 699.457 l 
198.762 699.898 l 198.363 700.789 l 198.363 702.125 l 198.762 703.016 l 
199.555 703.906 l 200.742 704.352 l 202.328 704.797 l 203.121 705.242 l 
203.516 706.133 l 203.516 707.023 l 203.121 707.914 l 201.93 708.359 l 200.348
 708.359 l S
218.199 707.023 m 218.199 699.012 l S
214.633 703.016 m 221.766 703.016 l S
227.375 708.359 m 226.184 707.914 l 225.391 706.578 l 224.996 704.352 l
 224.996 703.016 l 225.391 700.789 l 226.184 699.457 l 227.375 699.012 l
 228.168 699.012 l 229.355 699.457 l 230.148 700.789 l 230.543 703.016 l
 230.543 704.352 l 230.148 706.578 l 229.355 707.914 l 228.168 708.359 l
 227.375 708.359 l S
238.469 705.242 m 238.074 703.906 l 237.281 703.016 l 236.094 702.57 l 
235.695 702.57 l 234.508 703.016 l 233.715 703.906 l 233.316 705.242 l 233.316
 705.688 l 233.715 707.023 l 234.508 707.914 l 235.695 708.359 l 236.094
 708.359 l 237.281 707.914 l 238.074 707.023 l 238.469 705.242 l 238.469
 703.016 l 238.074 700.789 l 237.281 699.457 l 236.094 699.012 l 235.301
 699.012 l 234.109 699.457 l 233.715 700.344 l S
244.02 708.359 m 242.828 707.914 l 242.035 706.578 l 241.641 704.352 l 
241.641 703.016 l 242.035 700.789 l 242.828 699.457 l 244.02 699.012 l 244.812
 699.012 l 246 699.457 l 246.793 700.789 l 247.188 703.016 l 247.188 704.352
 l 246.793 706.578 l 246 707.914 l 244.812 708.359 l 244.02 708.359 l S
252.34 708.359 m 251.152 707.914 l 250.359 706.578 l 249.961 704.352 l 
249.961 703.016 l 250.359 700.789 l 251.152 699.457 l 252.34 699.012 l 253.133
 699.012 l 254.32 699.457 l 255.113 700.789 l 255.512 703.016 l 255.512 
704.352 l 255.113 706.578 l 254.32 707.914 l 253.133 708.359 l 252.34 708.359
 l S
26.695 719.234 m 26.695 709.883 l S
26.695 717.898 m 27.488 718.789 l 28.281 719.234 l 29.469 719.234 l 30.262
 718.789 l 31.055 717.898 l 31.453 716.562 l 31.453 715.672 l 31.055 714.336
 l 30.262 713.445 l 29.469 713 l 28.281 713 l 27.488 713.445 l 26.695 714.336
 l S
39.168 722.348 m 35.207 722.348 l 34.809 718.344 l 35.207 718.789 l 36.395
 719.234 l 37.586 719.234 l 38.773 718.789 l 39.566 717.898 l 39.961 716.562
 l 39.961 715.672 l 39.566 714.336 l 38.773 713.445 l 37.586 713 l 36.395
 713 l 35.207 713.445 l 34.809 713.891 l 34.414 714.781 l S
44.719 722.348 m 43.527 721.902 l 43.133 721.016 l 43.133 720.125 l 43.527
 719.234 l 44.32 718.789 l 45.906 718.344 l 47.094 717.898 l 47.887 717.008
 l 48.285 716.117 l 48.285 714.781 l 47.887 713.891 l 47.492 713.445 l 46.305
 713 l 44.719 713 l 43.527 713.445 l 43.133 713.891 l 42.734 714.781 l 42.734
 716.117 l 43.133 717.008 l 43.926 717.898 l 45.113 718.344 l 46.699 718.789
 l 47.492 719.234 l 47.887 720.125 l 47.887 721.016 l 47.492 721.902 l 46.305
 722.348 l 44.719 722.348 l S
51.453 720.125 m 51.453 720.57 l 51.852 721.461 l 52.246 721.902 l 53.039
 722.348 l 54.625 722.348 l 55.418 721.902 l 55.812 721.461 l 56.211 720.57
 l 56.211 719.68 l 55.812 718.789 l 55.023 717.453 l 51.059 713 l 56.605
 713 l S
61.758 722.348 m 60.57 721.902 l 59.777 720.57 l 59.383 718.344 l 59.383
 717.008 l 59.777 714.781 l 60.57 713.445 l 61.758 713 l 62.551 713 l 63.742
 713.445 l 64.531 714.781 l 64.93 717.008 l 64.93 718.344 l 64.531 720.57
 l 63.742 721.902 l 62.551 722.348 l 61.758 722.348 l S
68.398 713.891 m 68 713.445 l 68.398 713 l 68.793 713.445 l 68.398 713.891
 l S
72.051 722.348 m 72.051 713 l S
72.051 717.898 m 72.844 718.789 l 73.637 719.234 l 74.828 719.234 l 75.621
 718.789 l 76.41 717.898 l 76.809 716.562 l 76.809 715.672 l 76.41 714.336
 l 75.621 713.445 l 74.828 713 l 73.637 713 l 72.844 713.445 l 72.051 714.336
 l S
79.652 722.348 m 80.047 721.902 l 80.445 722.348 l 80.047 722.793 l 79.652
 722.348 l S
80.047 719.234 m 80.047 713 l S
85.27 719.234 m 84.477 718.789 l 83.684 717.898 l 83.289 716.562 l 83.289
 715.672 l 83.684 714.336 l 84.477 713.445 l 85.27 713 l 86.457 713 l 87.25
 713.445 l 88.043 714.336 l 88.441 715.672 l 88.441 716.562 l 88.043 717.898
 l 87.25 718.789 l 86.457 719.234 l 85.27 719.234 l S
91.699 713.891 m 91.305 713.445 l 91.699 713 l 92.098 713.445 l 91.699 
713.891 l S
95.664 719.234 m 95.664 713 l S
95.664 717.453 m 96.852 718.789 l 97.645 719.234 l 98.832 719.234 l 99.625
 718.789 l 100.023 717.453 l 100.023 713 l S
100.023 717.453 m 101.211 718.789 l 102.004 719.234 l 103.191 719.234 l
 103.984 718.789 l 104.383 717.453 l 104.383 713 l S
107.531 722.348 m 107.93 721.902 l 108.324 722.348 l 107.93 722.793 l 107.531
 722.348 l S
107.93 719.234 m 107.93 713 l S
110.961 716.562 m 115.715 716.562 l 115.715 717.453 l 115.32 718.344 l 
114.922 718.789 l 114.129 719.234 l 112.941 719.234 l 112.148 718.789 l 
111.355 717.898 l 110.961 716.562 l 110.961 715.672 l 111.355 714.336 l 
112.148 713.445 l 112.941 713 l 114.129 713 l 114.922 713.445 l 115.715 
714.336 l S
118.926 717.008 m 126.059 717.008 l S
129.875 719.234 m 129.875 714.781 l 130.27 713.445 l 131.062 713 l 132.25
 713 l 133.043 713.445 l 134.234 714.781 l S
134.234 719.234 m 134.234 713 l S
137.887 713.891 m 137.492 713.445 l 137.887 713 l 138.285 713.445 l 137.887
 713.891 l S
146.301 719.234 m 146.301 713 l S
146.301 717.898 m 145.508 718.789 l 144.715 719.234 l 143.527 719.234 l
 142.734 718.789 l 141.941 717.898 l 141.543 716.562 l 141.543 715.672 l
 141.941 714.336 l 142.734 713.445 l 143.527 713 l 144.715 713 l 145.508
 713.445 l 146.301 714.336 l S
154 717.898 m 153.207 718.789 l 152.414 719.234 l 151.223 719.234 l 150.43
 718.789 l 149.641 717.898 l 149.242 716.562 l 149.242 715.672 l 149.641
 714.336 l 150.43 713.445 l 151.223 713 l 152.414 713 l 153.207 713.445 
l 154 714.336 l S
157.445 713.891 m 157.051 713.445 l 157.445 713 l 157.844 713.445 l 157.445
 713.891 l S
161.605 722.348 m 162.004 721.902 l 162.398 722.348 l 162.004 722.793 l
 161.605 722.348 l S
162.004 719.234 m 162.004 711.664 l 161.605 710.328 l 160.816 709.883 l
 160.023 709.883 l S
165.262 719.234 m 165.262 709.883 l S
165.262 717.898 m 166.055 718.789 l 166.848 719.234 l 168.039 719.234 l
 168.828 718.789 l 169.621 717.898 l 170.02 716.562 l 170.02 715.672 l 169.621
 714.336 l 168.828 713.445 l 168.039 713 l 166.848 713 l 166.055 713.445
 l 165.262 714.336 l S
33.266 738.121 m 26.133 723.875 l S
35.684 733.223 m 37.266 726.992 l S
38.852 733.223 m 37.266 726.992 l S
38.852 733.223 m 40.438 726.992 l S
42.023 733.223 m 40.438 726.992 l S
46.988 733.223 m 46.195 732.777 l 45.402 731.887 l 45.004 730.555 l 45.004
 729.664 l 45.402 728.328 l 46.195 727.438 l 46.988 726.992 l 48.176 726.992
 l 48.969 727.438 l 49.762 728.328 l 50.156 729.664 l 50.156 730.555 l 49.762
 731.887 l 48.969 732.777 l 48.176 733.223 l 46.988 733.223 l S
52.852 733.223 m 52.852 726.992 l S
52.852 730.555 m 53.25 731.887 l 54.039 732.777 l 54.832 733.223 l 56.023
 733.223 l S
58.301 736.34 m 58.301 726.992 l S
62.266 733.223 m 58.301 728.773 l S
59.887 730.555 m 62.66 726.992 l S
67.586 736.34 m 66.395 735.895 l 65.602 734.559 l 65.207 732.332 l 65.207
 731 l 65.602 728.773 l 66.395 727.438 l 67.586 726.992 l 68.379 726.992
 l 69.566 727.438 l 70.359 728.773 l 70.754 731 l 70.754 732.332 l 70.359
 734.559 l 69.566 735.895 l 68.379 736.34 l 67.586 736.34 l S
74.32 736.34 m 78.68 736.34 l 76.305 732.777 l 77.492 732.777 l 78.285 
732.332 l 78.68 731.887 l 79.078 730.555 l 79.078 729.664 l 78.68 728.328
 l 77.887 727.438 l 76.699 726.992 l 75.512 726.992 l 74.32 727.438 l 73.926
 727.883 l 73.527 728.773 l S
88.609 738.121 m 81.477 723.875 l S
91.402 734.113 m 91.402 734.559 l 91.797 735.449 l 92.195 735.895 l 92.988
 736.34 l 94.574 736.34 l 95.363 735.895 l 95.762 735.449 l 96.156 734.559
 l 96.156 733.668 l 95.762 732.777 l 94.969 731.445 l 91.008 726.992 l 96.555
 726.992 l S
101.707 736.34 m 100.516 735.895 l 99.723 734.559 l 99.328 732.332 l 99.328
 731 l 99.723 728.773 l 100.516 727.438 l 101.707 726.992 l 102.5 726.992
 l 103.688 727.438 l 104.48 728.773 l 104.875 731 l 104.875 732.332 l 104.48
 734.559 l 103.688 735.895 l 102.5 736.34 l 101.707 736.34 l S
108.047 734.113 m 108.047 734.559 l 108.441 735.449 l 108.84 735.895 l 
109.633 736.34 l 111.219 736.34 l 112.012 735.895 l 112.406 735.449 l 112.801
 734.559 l 112.801 733.668 l 112.406 732.777 l 111.613 731.445 l 107.652
 726.992 l 113.199 726.992 l S
117.16 734.559 m 117.953 735.004 l 119.145 736.34 l 119.145 726.992 l S
131.051 738.121 m 123.918 723.875 l S
134.035 733.223 m 134.035 726.992 l S
134.035 731.445 m 135.223 732.777 l 136.016 733.223 l 137.203 733.223 l
 137.996 732.777 l 138.395 731.445 l 138.395 726.992 l S
146.301 733.223 m 146.301 726.992 l S
146.301 731.887 m 145.508 732.777 l 144.715 733.223 l 143.527 733.223 l
 142.734 732.777 l 141.941 731.887 l 141.543 730.555 l 141.543 729.664 l
 141.941 728.328 l 142.734 727.438 l 143.527 726.992 l 144.715 726.992 l
 145.508 727.438 l 146.301 728.328 l S
149.43 736.34 m 149.43 726.992 l S
153.395 733.223 m 149.43 728.773 l S
151.016 730.555 m 153.789 726.992 l S
161.281 733.223 m 161.281 726.992 l S
161.281 731.887 m 160.488 732.777 l 159.695 733.223 l 158.508 733.223 l
 157.715 732.777 l 156.922 731.887 l 156.523 730.555 l 156.523 729.664 l
 156.922 728.328 l 157.715 727.438 l 158.508 726.992 l 159.695 726.992 l
 160.488 727.438 l 161.281 728.328 l S
164.738 733.223 m 164.738 726.992 l S
164.738 731.445 m 165.926 732.777 l 166.719 733.223 l 167.91 733.223 l 
168.699 732.777 l 169.098 731.445 l 169.098 726.992 l S
169.098 731.445 m 170.285 732.777 l 171.078 733.223 l 172.27 733.223 l 
173.059 732.777 l 173.457 731.445 l 173.457 726.992 l S
177.312 733.223 m 177.312 728.773 l 177.707 727.438 l 178.5 726.992 l 179.688
 726.992 l 180.48 727.438 l 181.672 728.773 l S
181.672 733.223 m 181.672 726.992 l S
184.762 733.223 m 184.762 726.992 l S
184.762 730.555 m 185.156 731.887 l 185.949 732.777 l 186.742 733.223 l
 187.93 733.223 l S
192.211 733.223 m 191.418 732.777 l 190.625 731.887 l 190.23 730.555 l 
190.23 729.664 l 190.625 728.328 l 191.418 727.438 l 192.211 726.992 l 193.402
 726.992 l 194.191 727.438 l 194.984 728.328 l 195.383 729.664 l 195.383
 730.555 l 194.984 731.887 l 194.191 732.777 l 193.402 733.223 l 192.211
 733.223 l S
204.707 738.121 m 197.57 723.875 l S
207.5 734.113 m 207.5 734.559 l 207.895 735.449 l 208.293 735.895 l 209.086
 736.34 l 210.668 736.34 l 211.461 735.895 l 211.859 735.449 l 212.254 734.559
 l 212.254 733.668 l 211.859 732.777 l 211.066 731.445 l 207.102 726.992
 l 212.652 726.992 l S
217.805 736.34 m 216.613 735.895 l 215.82 734.559 l 215.426 732.332 l 215.426
 731 l 215.82 728.773 l 216.613 727.438 l 217.805 726.992 l 218.594 726.992
 l 219.785 727.438 l 220.578 728.773 l 220.973 731 l 220.973 732.332 l 220.578
 734.559 l 219.785 735.895 l 218.594 736.34 l 217.805 736.34 l S
224.145 734.113 m 224.145 734.559 l 224.539 735.449 l 224.938 735.895 l
 225.73 736.34 l 227.312 736.34 l 228.105 735.895 l 228.504 735.449 l 228.898
 734.559 l 228.898 733.668 l 228.504 732.777 l 227.711 731.445 l 223.746
 726.992 l 229.297 726.992 l S
232.465 734.113 m 232.465 734.559 l 232.863 735.449 l 233.258 735.895 l
 234.051 736.34 l 235.637 736.34 l 236.43 735.895 l 236.824 735.449 l 237.223
 734.559 l 237.223 733.668 l 236.824 732.777 l 236.031 731.445 l 232.07 
726.992 l 237.617 726.992 l S
241.086 727.883 m 240.688 727.438 l 241.086 726.992 l 241.48 727.438 l 
241.086 727.883 l S
244.969 736.34 m 244.969 726.992 l S
244.969 736.34 m 250.52 726.992 l S
250.52 736.34 m 250.52 726.992 l S
256.066 736.34 m 252.895 726.992 l S
256.066 736.34 m 259.234 726.992 l S
254.086 730.109 m 258.047 730.109 l S
261.406 736.34 m 261.406 726.992 l S
266.953 736.34 m 261.406 730.109 l S
263.387 732.332 m 266.953 726.992 l S
272.293 736.34 m 269.125 726.992 l S
272.293 736.34 m 275.465 726.992 l S
270.312 730.109 m 274.277 730.109 l S
277.863 736.34 m 277.863 726.992 l S
277.863 736.34 m 281.031 726.992 l S
284.203 736.34 m 281.031 726.992 l S
284.203 736.34 m 284.203 726.992 l S
287.828 736.34 m 287.828 729.664 l 288.227 728.328 l 289.02 727.438 l 290.207
 726.992 l 291 726.992 l 292.188 727.438 l 292.98 728.328 l 293.379 729.664
 l 293.379 736.34 l S
296.777 736.34 m 296.777 726.992 l S
296.777 736.34 m 300.344 736.34 l 301.531 735.895 l 301.93 735.449 l 302.324
 734.559 l 302.324 733.668 l 301.93 732.777 l 301.531 732.332 l 300.344 
731.887 l 296.777 731.887 l S
299.551 731.887 m 302.324 726.992 l S
307.703 736.34 m 306.91 735.895 l 306.117 735.004 l 305.723 734.113 l 305.328
 732.777 l 305.328 730.555 l 305.723 729.219 l 306.117 728.328 l 306.91 
727.438 l 307.703 726.992 l 309.289 726.992 l 310.082 727.438 l 310.875 
728.328 l 311.27 729.219 l 311.668 730.555 l 311.668 732.777 l 311.27 734.113
 l 310.875 735.004 l 310.082 735.895 l 309.289 736.34 l 307.703 736.34 l
 S
312.875 723.875 m 320.801 723.875 l S
322.762 736.34 m 322.762 726.992 l S
322.762 736.34 m 327.914 736.34 l S
322.762 731.887 m 325.934 731.887 l S
330.047 736.34 m 330.047 726.992 l S
330.047 726.992 m 334.801 726.992 l S
337.762 736.34 m 337.762 729.664 l 338.16 728.328 l 338.953 727.438 l 340.141
 726.992 l 340.934 726.992 l 342.121 727.438 l 342.914 728.328 l 343.312
 729.664 l 343.312 736.34 l S
346.504 736.34 m 352.051 726.992 l S
352.051 736.34 m 346.504 726.992 l S
361.582 738.121 m 354.449 723.875 l S
365.168 734.559 m 365.961 735.004 l 367.148 736.34 l 367.148 726.992 l S
376.266 736.34 m 372.301 730.109 l 378.246 730.109 l S
376.266 736.34 m 376.266 726.992 l S
381.316 727.883 m 380.922 727.438 l 381.316 726.992 l 381.715 727.438 l
 381.316 727.883 l S
387.164 736.34 m 385.973 735.895 l 385.18 734.559 l 384.785 732.332 l 384.785
 731 l 385.18 728.773 l 385.973 727.438 l 387.164 726.992 l 387.957 726.992
 l 389.145 727.438 l 389.938 728.773 l 390.332 731 l 390.332 732.332 l 389.938
 734.559 l 389.145 735.895 l 387.957 736.34 l 387.164 736.34 l S
393.504 734.113 m 393.504 734.559 l 393.898 735.449 l 394.297 735.895 l
 395.09 736.34 l 396.676 736.34 l 397.465 735.895 l 397.863 735.449 l 398.258
 734.559 l 398.258 733.668 l 397.863 732.777 l 397.07 731.445 l 393.105 
726.992 l 398.656 726.992 l S
402.125 727.883 m 401.727 727.438 l 402.125 726.992 l 402.52 727.438 l 
402.125 727.883 l S
407.531 736.34 m 407.531 726.992 l S
404.758 736.34 m 410.309 736.34 l S
412.438 736.34 m 412.438 726.992 l S
412.438 736.34 m 417.59 736.34 l S
412.438 731.887 m 415.605 731.887 l S
412.438 726.992 m 417.59 726.992 l S
425.703 735.004 m 424.91 735.895 l 423.723 736.34 l 422.137 736.34 l 420.949
 735.895 l 420.156 735.004 l 420.156 734.113 l 420.551 733.223 l 420.949
 732.777 l 421.738 732.332 l 424.117 731.445 l 424.91 731 l 425.309 730.555
 l 425.703 729.664 l 425.703 728.328 l 424.91 727.438 l 423.723 726.992 
l 422.137 726.992 l 420.949 727.438 l 420.156 728.328 l S
430.418 736.34 m 430.418 726.992 l S
427.645 736.34 m 433.191 736.34 l S
433.551 723.875 m 441.477 723.875 l S
443.734 736.34 m 443.734 726.992 l S
447.203 736.34 m 447.203 726.992 l S
447.203 736.34 m 452.75 726.992 l S
452.75 736.34 m 452.75 726.992 l S
457.883 736.34 m 457.883 726.992 l S
455.109 736.34 m 460.656 736.34 l S
462.789 736.34 m 462.789 726.992 l S
462.789 736.34 m 467.938 736.34 l S
462.789 731.887 m 465.957 731.887 l S
462.789 726.992 m 467.938 726.992 l S
470.715 736.34 m 470.715 726.992 l S
470.715 736.34 m 474.281 736.34 l 475.469 735.895 l 475.863 735.449 l 476.262
 734.559 l 476.262 733.668 l 475.863 732.777 l 475.469 732.332 l 474.281
 731.887 l 470.715 731.887 l S
473.488 731.887 m 476.262 726.992 l S
479.453 736.34 m 479.453 726.992 l S
479.453 736.34 m 483.02 736.34 l 484.207 735.895 l 484.605 735.449 l 485
 734.559 l 485 733.223 l 484.605 732.332 l 484.207 731.887 l 483.02 731.445
 l 479.453 731.445 l S
490.379 736.34 m 489.586 735.895 l 488.793 735.004 l 488.398 734.113 l 
488.004 732.777 l 488.004 730.555 l 488.398 729.219 l 488.793 728.328 l 
489.586 727.438 l 490.379 726.992 l 491.965 726.992 l 492.758 727.438 l 
493.551 728.328 l 493.945 729.219 l 494.344 730.555 l 494.344 732.777 l 
493.945 734.113 l 493.551 735.004 l 492.758 735.895 l 491.965 736.34 l 490.379
 736.34 l S
496.91 736.34 m 496.91 726.992 l S
496.91 726.992 m 501.664 726.992 l S
506.57 736.34 m 503.398 726.992 l S
506.57 736.34 m 509.738 726.992 l S
504.586 730.109 m 508.551 730.109 l S
513.645 736.34 m 513.645 726.992 l S
510.867 736.34 m 516.418 736.34 l S
518.637 736.34 m 518.637 726.992 l S
524.086 736.34 m 523.293 735.895 l 522.5 735.004 l 522.105 734.113 l 521.707
 732.777 l 521.707 730.555 l 522.105 729.219 l 522.5 728.328 l 523.293 727.438
 l 524.086 726.992 l 525.672 726.992 l 526.465 727.438 l 527.254 728.328
 l 527.652 729.219 l 528.047 730.555 l 528.047 732.777 l 527.652 734.113
 l 527.254 735.004 l 526.465 735.895 l 525.672 736.34 l 524.086 736.34 l
 S
531.258 736.34 m 531.258 726.992 l S
531.258 736.34 m 536.805 726.992 l S
536.805 736.34 m 536.805 726.992 l S
546.754 738.121 m 539.621 723.875 l S
550.34 734.559 m 551.133 735.004 l 552.32 736.34 l 552.32 726.992 l S
557.871 734.113 m 557.871 734.559 l 558.266 735.449 l 558.664 735.895 l
 559.457 736.34 l 561.039 736.34 l 561.832 735.895 l 562.23 735.449 l 562.625
 734.559 l 562.625 733.668 l 562.23 732.777 l 561.438 731.445 l 557.473 
726.992 l 563.023 726.992 l S
566.488 727.883 m 566.094 727.438 l 566.488 726.992 l 566.887 727.438 l
 566.488 727.883 l S
572.336 736.34 m 571.145 735.895 l 570.355 734.559 l 569.957 732.332 l 
569.957 731 l 570.355 728.773 l 571.145 727.438 l 572.336 726.992 l 573.129
 726.992 l 574.316 727.438 l 575.109 728.773 l 575.504 731 l 575.504 732.332
 l 575.109 734.559 l 574.316 735.895 l 573.129 736.34 l 572.336 736.34 l
 S
582.242 736.34 m 578.281 730.109 l 584.223 730.109 l S
582.242 736.34 m 582.242 726.992 l S
587.297 727.883 m 586.898 727.438 l 587.297 726.992 l 587.691 727.438 l
 587.297 727.883 l S
591.199 736.34 m 591.199 726.992 l S
591.199 736.34 m 594.371 726.992 l S
597.539 736.34 m 594.371 726.992 l S
597.539 736.34 m 597.539 726.992 l S
Q Q
showpage
%%Trailer
end restore
%%EOF
