# lon=  129.65401
# lat=   32.36770
# yyyy= 2012.
# mm=    6.
# dd=   15.
# hh=     3.00
# p[hPa] z[m] u[m/s] v[m/s] temp[K] rh[%]
1000.     69.6 -11.39   3.81 294.866   85.97
 975.    289.2 -13.39   5.45 293.183   89.14
 950.    513.6 -14.78   8.25 292.219   87.65
 925.    743.0 -13.67  10.27 291.434   85.96
 900.    978.1 -11.36  11.64 290.435   87.23
 850.   1465.8  -6.31  13.24 288.491   94.89
 800.   1980.1  -0.38  13.66 286.891   99.04
 700.   3098.4  11.14  12.88 281.397   92.73
 600.   4357.3  14.98  11.64 273.982   99.72
 500.   5808.0  13.23  13.67 267.462   99.84
 400.   7528.8  17.27  14.79 258.527   94.42
 300.   9649.5  19.24  17.78 244.415   89.53
 250.  10925.4  19.06  19.35 233.997 -999.90
 200.  12415.6  28.48  17.79 222.474 -999.90
 150.  14226.3  32.38  13.42 208.519 -999.90
 100.  16657.4  12.24   4.69 202.062 -999.90
