# lon=  130.04300
# lat=   30.75650
# yyyy= 2012.
# mm=    6.
# dd=   15.
# hh=    12.00
# p[hPa] z[m] u[m/s] v[m/s] temp[K] rh[%]
1000.     69.4  -1.68  10.11 298.172   94.61
 975.    292.3  -0.24  12.04 296.955   94.28
 950.    520.2   3.36  10.94 296.044   91.96
 925.    753.1   5.45   9.91 294.797   92.29
 900.    991.2   6.28  10.12 293.436   92.50
 850.   1484.0   7.70  12.90 290.474   92.55
 800.   2000.8  10.33  15.16 287.723   87.21
 700.   3120.0  11.38  16.89 281.529   90.16
 600.   4380.5  14.19  14.13 274.677   86.95
 500.   5834.5  14.95  20.71 268.134   86.55
 400.   7555.2  20.15   7.32 259.048   86.97
 300.   9683.0  18.23   9.59 245.221   82.99
 250.  10964.3  18.09  12.87 235.476 -999.90
 200.  12460.2  17.36  14.23 222.779 -999.90
 150.  14269.9  20.46  11.85 207.117 -999.90
 100.  16676.3  11.03   4.30 200.278 -999.90
