# lon=  129.85500
# lat=   30.51660
# yyyy= 2012.
# mm=    6.
# dd=   15.
# hh=    13.00
# p[hPa] z[m] u[m/s] v[m/s] temp[K] rh[%]
1000.     68.8  -1.05   9.55 298.528   93.49
 975.    291.9   0.55  11.30 297.087   94.74
 950.    519.8   4.01  11.24 296.014   92.77
 925.    752.7   6.66  11.50 294.737   92.05
 900.    990.8   7.93  11.98 293.376   92.59
 850.   1483.5   9.45  13.96 290.540   92.18
 800.   2000.6  11.82  15.65 288.062   81.53
 700.   3121.5  13.22  16.68 282.193   81.24
 600.   4383.2  14.56  14.98 274.644   93.85
 500.   5837.0  14.24  19.24 268.131   82.35
 400.   7558.5  19.26   6.99 259.145   91.04
 300.   9686.8  17.97   9.60 245.274   87.11
 250.  10968.4  18.25  12.28 235.581 -999.90
 200.  12464.5  17.73  13.18 222.647 -999.90
 150.  14273.1  19.86  13.19 206.931 -999.90
 100.  16677.1  11.07   4.48 200.124 -999.90
