# lon=  130.05299
# lat=   31.34340
# yyyy= 2012.
# mm=    6.
# dd=   15.
# hh=     9.00
# p[hPa] z[m] u[m/s] v[m/s] temp[K] rh[%]
1000.     60.5  -6.25   8.03 296.885   96.23
 975.    282.6  -3.56  12.12 296.083   96.99
 950.    509.6  -0.02  13.12 295.097   96.10
 925.    741.8   4.46  12.54 294.018   96.48
 900.    979.3   8.27  10.63 292.741   96.49
 850.   1471.1  15.18   8.15 289.989   95.96
 800.   1987.1  17.10   8.28 287.333   96.08
 700.   3107.4  15.61  12.39 282.284   95.14
 600.   4369.6  14.05  15.17 274.627   98.66
 500.   5822.4  13.27  20.60 267.860   98.62
 400.   7545.7  17.27  20.42 258.412   98.16
 300.   9668.2  17.39  12.28 244.773   84.92
 250.  10946.9  15.85  13.76 234.764 -999.90
 200.  12441.9  21.38  12.41 223.166 -999.90
 150.  14257.5  25.05  11.52 207.862 -999.90
 100.  16669.1  12.51   2.33 200.327 -999.90
