------ Now processing config020m.txt -------
fmt: read unexpected character
apparent state: unit 10 named ../03.BATHYMETRIC_DATA/output/grdbath.dat
last format: (2F10.3,F10.5)
Unit 10 is a sequential formatted external file
 INPUT FILE : 
 ../04.JODC+KODC_DATA/output/05-020.dat            
 OUTPUT FILE : 
 output/05-020g.dat                                


 E-FOLDING SCALE OF GAUSSIAN FILTER =   0.1000000    [degree]
 RAIDIUS OF GAUSSIAN FILTER =   0.2000000    [degree]
 MISSING VALUE IS SET TO BE    999.0000    
*** Execution Terminated (115) ***
------ config020m.txt terminated! ----------

------ Now processing config030m.txt -------
fmt: read unexpected character
apparent state: unit 10 named ../03.BATHYMETRIC_DATA/output/grdbath.dat
last format: (2F10.3,F10.5)
Unit 10 is a sequential formatted external file
 INPUT FILE : 
 ../04.JODC+KODC_DATA/output/05-030.dat            
 OUTPUT FILE : 
 output/05-030g.dat                                


 E-FOLDING SCALE OF GAUSSIAN FILTER =   0.2000000    [degree]
 RAIDIUS OF GAUSSIAN FILTER =   0.4000000    [degree]
 MISSING VALUE IS SET TO BE    999.0000    
*** Execution Terminated (115) ***
------ config030m.txt terminated! ----------

------ Now processing config050m.txt -------
fmt: read unexpected character
apparent state: unit 10 named ../03.BATHYMETRIC_DATA/output/grdbath.dat
last format: (2F10.3,F10.5)
Unit 10 is a sequential formatted external file
 INPUT FILE : 
 ../04.JODC+KODC_DATA/output/05-050.dat            
 OUTPUT FILE : 
 output/05-050g.dat                                


 E-FOLDING SCALE OF GAUSSIAN FILTER =   0.2000000    [degree]
 RAIDIUS OF GAUSSIAN FILTER =   0.4000000    [degree]
 MISSING VALUE IS SET TO BE    999.0000    
*** Execution Terminated (115) ***
------ config050m.txt terminated! ----------

------ Now processing config075m.txt -------
fmt: read unexpected character
apparent state: unit 10 named ../03.BATHYMETRIC_DATA/output/grdbath.dat
last format: (2F10.3,F10.5)
Unit 10 is a sequential formatted external file
 INPUT FILE : 
 ../04.JODC+KODC_DATA/output/05-075.dat            
 OUTPUT FILE : 
 output/05-075g.dat                                


 E-FOLDING SCALE OF GAUSSIAN FILTER =   0.2000000    [degree]
 RAIDIUS OF GAUSSIAN FILTER =   0.4000000    [degree]
 MISSING VALUE IS SET TO BE    999.0000    
*** Execution Terminated (115) ***
------ config075m.txt terminated! ----------

------ Now processing config100m.txt -------
s_rsfe: end of file -1
apparent state: unit 7 named config.txt
last format: (A50)
Unit 7 is a sequential formatted external file
*** Execution Terminated (-1) ***
------ config100m.txt terminated! ----------

------ Now processing config125m.txt -------
fmt: read unexpected character
apparent state: unit 10 named ../03.BATHYMETRIC_DATA/output/grdbath.dat
last format: (2F10.3,F10.5)
Unit 10 is a sequential formatted external file
 INPUT FILE : 
 ../04.JODC+KODC_DATA/output/05-125.dat            
 OUTPUT FILE : 
 output/05-125g.dat                                


 E-FOLDING SCALE OF GAUSSIAN FILTER =   0.2000000    [degree]
 RAIDIUS OF GAUSSIAN FILTER =   0.4000000    [degree]
 MISSING VALUE IS SET TO BE    999.0000    
*** Execution Terminated (115) ***
------ config125m.txt terminated! ----------

------ Now processing config150m.txt -------
fmt: read unexpected character
apparent state: unit 10 named ../03.BATHYMETRIC_DATA/output/grdbath.dat
last format: (2F10.3,F10.5)
Unit 10 is a sequential formatted external file
 INPUT FILE : 
 ../04.JODC+KODC_DATA/output/05-150.dat            
 OUTPUT FILE : 
 output/05-150g.dat                                


 E-FOLDING SCALE OF GAUSSIAN FILTER =   0.2000000    [degree]
 RAIDIUS OF GAUSSIAN FILTER =   0.4000000    [degree]
 MISSING VALUE IS SET TO BE    999.0000    
*** Execution Terminated (115) ***
------ config150m.txt terminated! ----------

