/work01/DATA/JRA55C/6HR/ANL/anl_surf125.C.033_ugrd.1972110100_1972123118*
/work01/DATA/JRA55C/6HR/ANL/anl_surf125.C.033_ugrd.1973010100_1973123118*
/work01/DATA/JRA55C/6HR/ANL/anl_surf125.C.033_ugrd.1974010100_1974123118*
/work01/DATA/JRA55C/6HR/ANL/anl_surf125.C.033_ugrd.1975010100_1975123118*
/work01/DATA/JRA55C/6HR/ANL/anl_surf125.C.033_ugrd.1976010100_1976123118*
/work01/DATA/JRA55C/6HR/ANL/anl_surf125.C.033_ugrd.1977010100_1977123118*
/work01/DATA/JRA55C/6HR/ANL/anl_surf125.C.033_ugrd.1978010100_1978123118*
/work01/DATA/JRA55C/6HR/ANL/anl_surf125.C.033_ugrd.1979010100_1979123118*
/work01/DATA/JRA55C/6HR/ANL/anl_surf125.C.033_ugrd.1980010100_1980123118*
/work01/DATA/JRA55C/6HR/ANL/anl_surf125.C.033_ugrd.1981010100_1981123118*
/work01/DATA/JRA55C/6HR/ANL/anl_surf125.C.033_ugrd.1982010100_1982123118*
/work01/DATA/JRA55C/6HR/ANL/anl_surf125.C.033_ugrd.1983010100_1983123118*
/work01/DATA/JRA55C/6HR/ANL/anl_surf125.C.033_ugrd.1984010100_1984123118*
/work01/DATA/JRA55C/6HR/ANL/anl_surf125.C.033_ugrd.1985010100_1985123118*
/work01/DATA/JRA55C/6HR/ANL/anl_surf125.C.033_ugrd.1986010100_1986123118*
/work01/DATA/JRA55C/6HR/ANL/anl_surf125.C.033_ugrd.1987010100_1987123118*
/work01/DATA/JRA55C/6HR/ANL/anl_surf125.C.033_ugrd.1988010100_1988123118*
/work01/DATA/JRA55C/6HR/ANL/anl_surf125.C.033_ugrd.1989010100_1989123118*
/work01/DATA/JRA55C/6HR/ANL/anl_surf125.C.033_ugrd.1990010100_1990123118*
/work01/DATA/JRA55C/6HR/ANL/anl_surf125.C.033_ugrd.1991010100_1991123118*
/work01/DATA/JRA55C/6HR/ANL/anl_surf125.C.033_ugrd.1992010100_1992123118*
/work01/DATA/JRA55C/6HR/ANL/anl_surf125.C.033_ugrd.1993010100_1993123118*
/work01/DATA/JRA55C/6HR/ANL/anl_surf125.C.033_ugrd.1994010100_1994123118*
/work01/DATA/JRA55C/6HR/ANL/anl_surf125.C.033_ugrd.1995010100_1995123118*
/work01/DATA/JRA55C/6HR/ANL/anl_surf125.C.033_ugrd.1996010100_1996123118*
/work01/DATA/JRA55C/6HR/ANL/anl_surf125.C.033_ugrd.1997010100_1997123118*
/work01/DATA/JRA55C/6HR/ANL/anl_surf125.C.033_ugrd.1998010100_1998123118*
/work01/DATA/JRA55C/6HR/ANL/anl_surf125.C.033_ugrd.1999010100_1999123118*
/work01/DATA/JRA55C/6HR/ANL/anl_surf125.C.033_ugrd.2000010100_2000123118*
/work01/DATA/JRA55C/6HR/ANL/anl_surf125.C.033_ugrd.2001010100_2001123118*
/work01/DATA/JRA55C/6HR/ANL/anl_surf125.C.033_ugrd.2002010100_2002123118*
/work01/DATA/JRA55C/6HR/ANL/anl_surf125.C.033_ugrd.2003010100_2003123118*
/work01/DATA/JRA55C/6HR/ANL/anl_surf125.C.033_ugrd.2004010100_2004123118*
/work01/DATA/JRA55C/6HR/ANL/anl_surf125.C.033_ugrd.2005010100_2005123118*
/work01/DATA/JRA55C/6HR/ANL/anl_surf125.C.033_ugrd.2006010100_2006123118*
/work01/DATA/JRA55C/6HR/ANL/anl_surf125.C.033_ugrd.2007010100_2007123118*
/work01/DATA/JRA55C/6HR/ANL/anl_surf125.C.033_ugrd.2008010100_2008123118*
/work01/DATA/JRA55C/6HR/ANL/anl_surf125.C.033_ugrd.2009010100_2009123118*
/work01/DATA/JRA55C/6HR/ANL/anl_surf125.C.033_ugrd.2010010100_2010123118*
/work01/DATA/JRA55C/6HR/ANL/anl_surf125.C.033_ugrd.2011010100_2011123118*
/work01/DATA/JRA55C/6HR/ANL/anl_surf125.C.033_ugrd.2012010100_2012123118*

/work01/DATA/JRA55C/6HR/ANL/anl_surf125.C.034_vgrd.1972110100_1972123118*
/work01/DATA/JRA55C/6HR/ANL/anl_surf125.C.034_vgrd.1973010100_1973123118*
/work01/DATA/JRA55C/6HR/ANL/anl_surf125.C.034_vgrd.1974010100_1974123118*
/work01/DATA/JRA55C/6HR/ANL/anl_surf125.C.034_vgrd.1975010100_1975123118*
/work01/DATA/JRA55C/6HR/ANL/anl_surf125.C.034_vgrd.1976010100_1976123118*
/work01/DATA/JRA55C/6HR/ANL/anl_surf125.C.034_vgrd.1977010100_1977123118*
/work01/DATA/JRA55C/6HR/ANL/anl_surf125.C.034_vgrd.1978010100_1978123118*
/work01/DATA/JRA55C/6HR/ANL/anl_surf125.C.034_vgrd.1979010100_1979123118*
/work01/DATA/JRA55C/6HR/ANL/anl_surf125.C.034_vgrd.1980010100_1980123118*
/work01/DATA/JRA55C/6HR/ANL/anl_surf125.C.034_vgrd.1981010100_1981123118*
/work01/DATA/JRA55C/6HR/ANL/anl_surf125.C.034_vgrd.1982010100_1982123118*
/work01/DATA/JRA55C/6HR/ANL/anl_surf125.C.034_vgrd.1983010100_1983123118*
/work01/DATA/JRA55C/6HR/ANL/anl_surf125.C.034_vgrd.1984010100_1984123118*
/work01/DATA/JRA55C/6HR/ANL/anl_surf125.C.034_vgrd.1985010100_1985123118*
/work01/DATA/JRA55C/6HR/ANL/anl_surf125.C.034_vgrd.1986010100_1986123118*
/work01/DATA/JRA55C/6HR/ANL/anl_surf125.C.034_vgrd.1987010100_1987123118*
/work01/DATA/JRA55C/6HR/ANL/anl_surf125.C.034_vgrd.1988010100_1988123118*
/work01/DATA/JRA55C/6HR/ANL/anl_surf125.C.034_vgrd.1989010100_1989123118*
/work01/DATA/JRA55C/6HR/ANL/anl_surf125.C.034_vgrd.1990010100_1990123118*
/work01/DATA/JRA55C/6HR/ANL/anl_surf125.C.034_vgrd.1991010100_1991123118*
/work01/DATA/JRA55C/6HR/ANL/anl_surf125.C.034_vgrd.1992010100_1992123118*
/work01/DATA/JRA55C/6HR/ANL/anl_surf125.C.034_vgrd.1993010100_1993123118*
/work01/DATA/JRA55C/6HR/ANL/anl_surf125.C.034_vgrd.1994010100_1994123118*
/work01/DATA/JRA55C/6HR/ANL/anl_surf125.C.034_vgrd.1995010100_1995123118*
/work01/DATA/JRA55C/6HR/ANL/anl_surf125.C.034_vgrd.1996010100_1996123118*
/work01/DATA/JRA55C/6HR/ANL/anl_surf125.C.034_vgrd.1997010100_1997123118*
/work01/DATA/JRA55C/6HR/ANL/anl_surf125.C.034_vgrd.1998010100_1998123118*
/work01/DATA/JRA55C/6HR/ANL/anl_surf125.C.034_vgrd.1999010100_1999123118*
/work01/DATA/JRA55C/6HR/ANL/anl_surf125.C.034_vgrd.2000010100_2000123118*
/work01/DATA/JRA55C/6HR/ANL/anl_surf125.C.034_vgrd.2001010100_2001123118*
/work01/DATA/JRA55C/6HR/ANL/anl_surf125.C.034_vgrd.2002010100_2002123118*
/work01/DATA/JRA55C/6HR/ANL/anl_surf125.C.034_vgrd.2003010100_2003123118*
/work01/DATA/JRA55C/6HR/ANL/anl_surf125.C.034_vgrd.2004010100_2004123118*
/work01/DATA/JRA55C/6HR/ANL/anl_surf125.C.034_vgrd.2005010100_2005123118*
/work01/DATA/JRA55C/6HR/ANL/anl_surf125.C.034_vgrd.2006010100_2006123118*
/work01/DATA/JRA55C/6HR/ANL/anl_surf125.C.034_vgrd.2007010100_2007123118*
/work01/DATA/JRA55C/6HR/ANL/anl_surf125.C.034_vgrd.2008010100_2008123118*
/work01/DATA/JRA55C/6HR/ANL/anl_surf125.C.034_vgrd.2009010100_2009123118*
/work01/DATA/JRA55C/6HR/ANL/anl_surf125.C.034_vgrd.2010010100_2010123118*
/work01/DATA/JRA55C/6HR/ANL/anl_surf125.C.034_vgrd.2011010100_2011123118*
/work01/DATA/JRA55C/6HR/ANL/anl_surf125.C.034_vgrd.2012010100_2012123118*
