%!PS-Adobe-3.0 EPSF-3.0
%%Creator: cairo 1.12.16 (http://cairographics.org)
%%CreationDate: Fri Oct 21 20:02:45 2022
%%Pages: 1
%%DocumentData: Clean7Bit
%%LanguageLevel: 2
%%BoundingBox: 0 0 612 792
%%EndComments
%%BeginProlog
save
50 dict begin
/q { gsave } bind def
/Q { grestore } bind def
/cm { 6 array astore concat } bind def
/w { setlinewidth } bind def
/J { setlinecap } bind def
/j { setlinejoin } bind def
/M { setmiterlimit } bind def
/d { setdash } bind def
/m { moveto } bind def
/l { lineto } bind def
/c { curveto } bind def
/h { closepath } bind def
/re { exch dup neg 3 1 roll 5 3 roll moveto 0 rlineto
      0 exch rlineto 0 rlineto closepath } bind def
/S { stroke } bind def
/f { fill } bind def
/f* { eofill } bind def
/n { newpath } bind def
/W { clip } bind def
/W* { eoclip } bind def
/BT { } bind def
/ET { } bind def
/pdfmark where { pop globaldict /?pdfmark /exec load put }
    { globaldict begin /?pdfmark /pop load def /pdfmark
    /cleartomark load def end } ifelse
/BDC { mark 3 1 roll /BDC pdfmark } bind def
/EMC { mark /EMC pdfmark } bind def
/cairo_store_point { /cairo_point_y exch def /cairo_point_x exch def } def
/Tj { show currentpoint cairo_store_point } bind def
/TJ {
  {
    dup
    type /stringtype eq
    { show } { -0.001 mul 0 cairo_font_matrix dtransform rmoveto } ifelse
  } forall
  currentpoint cairo_store_point
} bind def
/cairo_selectfont { cairo_font_matrix aload pop pop pop 0 0 6 array astore
    cairo_font exch selectfont cairo_point_x cairo_point_y moveto } bind def
/Tf { pop /cairo_font exch def /cairo_font_matrix where
      { pop cairo_selectfont } if } bind def
/Td { matrix translate cairo_font_matrix matrix concatmatrix dup
      /cairo_font_matrix exch def dup 4 get exch 5 get cairo_store_point
      /cairo_font where { pop cairo_selectfont } if } bind def
/Tm { 2 copy 8 2 roll 6 array astore /cairo_font_matrix exch def
      cairo_store_point /cairo_font where { pop cairo_selectfont } if } bind def
/g { setgray } bind def
/rg { setrgbcolor } bind def
/d1 { setcachedevice } bind def
%%EndProlog
%%Page: 1 1
%%BeginPageSetup
%%PageBoundingBox: 0 0 612 792
%%EndPageSetup
q 0 0 612 792 rectclip q
1 g
0 0 612 792 rectfill
0 g
1.5 w
1 J
1 j
[] 0.0 d
10 M 149.957 728.285 416.117 -664.57 re S
1.25 w
149.957 534.258 m 209.402 539.547 l 268.848 536.629 l 328.293 540.574 l
 387.738 552.023 l 447.184 561.574 l 506.629 564.258 l 566.074 566.863 l
 S
1 g
151.344 536.684 m 149.957 537.059 l 149.262 536.871 l 149.262 531.648 l
 149.957 531.461 l 151.344 531.836 l 152.359 532.859 l 152.73 534.258 l 
152.359 535.656 l 151.344 536.684 l f
0 g
151.344 536.684 m 149.957 537.059 l 149.262 536.871 l S
149.262 531.648 m 149.957 531.461 l 151.344 531.836 l 152.359 532.859 l
 152.73 534.258 l 152.359 535.656 l 151.344 536.684 l S
1 g
210.789 541.973 m 209.402 542.348 l 208.016 541.973 l 207 540.949 l 206.629
 539.547 l 207 538.148 l 208.016 537.125 l 209.402 536.75 l 210.789 537.125
 l 211.805 538.148 l 212.176 539.547 l 211.805 540.949 l 210.789 541.973
 l f
0 g
210.789 541.973 m 209.402 542.348 l 208.016 541.973 l 207 540.949 l 206.629
 539.547 l 207 538.148 l 208.016 537.125 l 209.402 536.75 l 210.789 537.125
 l 211.805 538.148 l 212.176 539.547 l 211.805 540.949 l 210.789 541.973
 l S
1 g
270.234 539.051 m 268.848 539.426 l 267.461 539.051 l 266.445 538.027 l
 266.074 536.629 l 266.445 535.227 l 267.461 534.203 l 268.848 533.828 l
 270.234 534.203 l 271.25 535.227 l 271.621 536.629 l 271.25 538.027 l 270.234
 539.051 l f
0 g
270.234 539.051 m 268.848 539.426 l 267.461 539.051 l 266.445 538.027 l
 266.074 536.629 l 266.445 535.227 l 267.461 534.203 l 268.848 533.828 l
 270.234 534.203 l 271.25 535.227 l 271.621 536.629 l 271.25 538.027 l 270.234
 539.051 l S
1 g
329.68 543 m 328.293 543.375 l 326.906 543 l 325.891 541.973 l 325.52 540.574
 l 325.891 539.176 l 326.906 538.152 l 328.293 537.777 l 329.68 538.152 
l 330.695 539.176 l 331.066 540.574 l 330.695 541.973 l 329.68 543 l f
0 g
329.68 543 m 328.293 543.375 l 326.906 543 l 325.891 541.973 l 325.52 540.574
 l 325.891 539.176 l 326.906 538.152 l 328.293 537.777 l 329.68 538.152 
l 330.695 539.176 l 331.066 540.574 l 330.695 541.973 l 329.68 543 l S
1 g
389.125 554.445 m 387.738 554.82 l 386.352 554.445 l 385.336 553.422 l 
384.965 552.023 l 385.336 550.625 l 386.352 549.598 l 387.738 549.223 l 
389.125 549.598 l 390.141 550.625 l 390.512 552.023 l 390.141 553.422 l 
389.125 554.445 l f
0 g
389.125 554.445 m 387.738 554.82 l 386.352 554.445 l 385.336 553.422 l 
384.965 552.023 l 385.336 550.625 l 386.352 549.598 l 387.738 549.223 l 
389.125 549.598 l 390.141 550.625 l 390.512 552.023 l 390.141 553.422 l 
389.125 554.445 l S
1 g
448.57 564 m 447.184 564.375 l 445.797 564 l 444.781 562.973 l 444.41 561.574
 l 444.781 560.176 l 445.797 559.152 l 447.184 558.777 l 448.57 559.152 
l 449.586 560.176 l 449.957 561.574 l 449.586 562.973 l 448.57 564 l f
0 g
448.57 564 m 447.184 564.375 l 445.797 564 l 444.781 562.973 l 444.41 561.574
 l 444.781 560.176 l 445.797 559.152 l 447.184 558.777 l 448.57 559.152 
l 449.586 560.176 l 449.957 561.574 l 449.586 562.973 l 448.57 564 l S
1 g
508.016 566.684 m 506.629 567.059 l 505.242 566.684 l 504.227 565.656 l
 503.855 564.258 l 504.227 562.859 l 505.242 561.836 l 506.629 561.461 l
 508.016 561.836 l 509.031 562.859 l 509.402 564.258 l 509.031 565.656 l
 508.016 566.684 l f
0 g
508.016 566.684 m 506.629 567.059 l 505.242 566.684 l 504.227 565.656 l
 503.855 564.258 l 504.227 562.859 l 505.242 561.836 l 506.629 561.461 l
 508.016 561.836 l 509.031 562.859 l 509.402 564.258 l 509.031 565.656 l
 508.016 566.684 l S
1 g
566.766 569.289 m 566.766 569.477 l 566.074 569.664 l 564.688 569.289 l
 563.672 568.262 l 563.301 566.863 l 563.672 565.465 l 564.688 564.441 l
 566.074 564.066 l 566.766 564.254 l 566.766 569.289 l f
0 g
566.766 569.477 m 566.074 569.664 l 564.688 569.289 l 563.672 568.262 l
 563.301 566.863 l 563.672 565.465 l 564.688 564.441 l 566.074 564.066 l
 566.766 564.254 l S
149.957 63.715 m 149.957 59.797 l S
0.666667 g
149.957 63.715 m 149.957 64.414 l S
149.957 70.012 m 149.957 70.711 l S
149.957 76.309 m 149.957 77.008 l S
149.957 82.605 m 149.957 83.305 l S
149.957 88.898 m 149.957 89.598 l S
149.957 95.195 m 149.957 95.895 l S
149.957 101.492 m 149.957 102.191 l S
149.957 107.789 m 149.957 108.488 l S
149.957 114.082 m 149.957 114.781 l S
149.957 120.379 m 149.957 121.078 l S
149.957 126.676 m 149.957 127.375 l S
149.957 132.973 m 149.957 133.672 l S
149.957 139.266 m 149.957 139.965 l S
149.957 145.562 m 149.957 146.262 l S
149.957 151.859 m 149.957 152.559 l S
149.957 158.156 m 149.957 158.855 l S
149.957 164.449 m 149.957 165.148 l S
149.957 170.746 m 149.957 171.445 l S
149.957 177.043 m 149.957 177.742 l S
149.957 183.34 m 149.957 184.039 l S
149.957 189.633 m 149.957 190.332 l S
149.957 195.93 m 149.957 196.629 l S
149.957 202.227 m 149.957 202.926 l S
149.957 208.523 m 149.957 209.223 l S
149.957 214.816 m 149.957 215.516 l S
149.957 221.113 m 149.957 221.812 l S
149.957 227.41 m 149.957 228.109 l S
149.957 233.707 m 149.957 234.406 l S
149.957 240 m 149.957 240.699 l S
149.957 246.297 m 149.957 246.996 l S
149.957 252.594 m 149.957 253.293 l S
149.957 258.891 m 149.957 259.59 l S
149.957 265.184 m 149.957 265.883 l S
149.957 271.48 m 149.957 272.18 l S
149.957 277.777 m 149.957 278.477 l S
149.957 284.074 m 149.957 284.773 l S
149.957 290.367 m 149.957 291.066 l S
149.957 296.664 m 149.957 297.363 l S
149.957 302.961 m 149.957 303.66 l S
149.957 309.258 m 149.957 309.957 l S
149.957 315.551 m 149.957 316.25 l S
149.957 321.848 m 149.957 322.547 l S
149.957 328.145 m 149.957 328.844 l S
149.957 334.441 m 149.957 335.141 l S
149.957 340.734 m 149.957 341.434 l S
149.957 347.031 m 149.957 347.73 l S
149.957 353.328 m 149.957 354.027 l S
149.957 359.625 m 149.957 360.324 l S
149.957 365.918 m 149.957 366.617 l S
149.957 372.215 m 149.957 372.914 l S
149.957 378.512 m 149.957 379.211 l S
149.957 384.809 m 149.957 385.508 l S
149.957 391.102 m 149.957 391.801 l S
149.957 397.398 m 149.957 398.098 l S
149.957 403.695 m 149.957 404.395 l S
149.957 409.992 m 149.957 410.691 l S
149.957 416.285 m 149.957 416.988 l S
149.957 422.582 m 149.957 423.281 l S
149.957 428.879 m 149.957 429.578 l S
149.957 435.176 m 149.957 435.875 l S
149.957 441.469 m 149.957 442.172 l S
149.957 447.766 m 149.957 448.465 l S
149.957 454.062 m 149.957 454.762 l S
149.957 460.359 m 149.957 461.059 l S
149.957 466.652 m 149.957 467.355 l S
149.957 472.949 m 149.957 473.648 l S
149.957 479.246 m 149.957 479.945 l S
149.957 485.543 m 149.957 486.242 l S
149.957 491.836 m 149.957 492.539 l S
149.957 498.133 m 149.957 498.832 l S
149.957 504.43 m 149.957 505.129 l S
149.957 510.727 m 149.957 511.426 l S
149.957 517.02 m 149.957 517.723 l S
149.957 523.316 m 149.957 524.016 l S
149.957 529.613 m 149.957 530.312 l S
149.957 535.91 m 149.957 536.609 l S
149.957 542.203 m 149.957 542.906 l S
149.957 548.5 m 149.957 549.199 l S
149.957 554.797 m 149.957 555.496 l S
149.957 561.094 m 149.957 561.793 l S
149.957 567.387 m 149.957 568.09 l S
149.957 573.684 m 149.957 574.383 l S
149.957 579.98 m 149.957 580.68 l S
149.957 586.277 m 149.957 586.977 l S
149.957 592.574 m 149.957 593.273 l S
149.957 598.867 m 149.957 599.566 l S
149.957 605.164 m 149.957 605.863 l S
149.957 611.461 m 149.957 612.16 l S
149.957 617.758 m 149.957 618.457 l S
149.957 624.051 m 149.957 624.75 l S
149.957 630.348 m 149.957 631.047 l S
149.957 636.645 m 149.957 637.344 l S
149.957 642.941 m 149.957 643.641 l S
149.957 649.234 m 149.957 649.934 l S
149.957 655.531 m 149.957 656.23 l S
149.957 661.828 m 149.957 662.527 l S
149.957 668.125 m 149.957 668.824 l S
149.957 674.418 m 149.957 675.117 l S
149.957 680.715 m 149.957 681.414 l S
149.957 687.012 m 149.957 687.711 l S
149.957 693.309 m 149.957 694.008 l S
149.957 699.602 m 149.957 700.301 l S
149.957 705.898 m 149.957 706.598 l S
149.957 712.195 m 149.957 712.895 l S
149.957 718.492 m 149.957 719.191 l S
149.957 724.785 m 149.957 725.484 l S
0 g
141.82 56.523 m 140.707 56.078 l 139.969 54.742 l 139.598 52.516 l 139.598
 51.18 l 139.969 48.953 l 140.707 47.617 l 141.82 47.172 l 142.559 47.172
 l 143.668 47.617 l 144.406 48.953 l 144.777 51.18 l 144.777 52.516 l 144.406
 54.742 l 143.668 56.078 l 142.559 56.523 l 141.82 56.523 l S
149.586 56.523 m 148.477 56.078 l 147.738 54.742 l 147.367 52.516 l 147.367
 51.18 l 147.738 48.953 l 148.477 47.617 l 149.586 47.172 l 150.324 47.172
 l 151.434 47.617 l 152.176 48.953 l 152.547 51.18 l 152.547 52.516 l 152.176
 54.742 l 151.434 56.078 l 150.324 56.523 l 149.586 56.523 l S
160.312 56.523 m 155.133 47.172 l S
155.133 56.523 m 160.312 56.523 l S
155.133 47.172 m 160.312 47.172 l S
141.125 42.812 m 137.426 42.812 l 137.055 38.805 l 137.426 39.25 l 138.535
 39.695 l 139.645 39.695 l 140.754 39.25 l 141.496 38.359 l 141.863 37.023
 l 141.863 36.133 l 141.496 34.797 l 140.754 33.906 l 139.645 33.461 l 138.535
 33.461 l 137.426 33.906 l 137.055 34.352 l 136.688 35.242 l S
147.746 42.812 m 147.746 35.688 l 147.375 34.352 l 147.008 33.906 l 146.266
 33.461 l 145.527 33.461 l 144.785 33.906 l 144.418 34.352 l 144.047 35.688
 l 144.047 36.578 l S
151.055 42.812 m 151.055 36.133 l 151.426 34.797 l 152.164 33.906 l 153.277
 33.461 l 154.016 33.461 l 155.125 33.906 l 155.863 34.797 l 156.234 36.133
 l 156.234 42.812 l S
159 42.812 m 159 33.461 l S
159 33.461 m 163.438 33.461 l S
136.086 26.875 m 136.086 27.32 l 136.457 28.211 l 136.824 28.656 l 137.566
 29.102 l 139.043 29.102 l 139.785 28.656 l 140.152 28.211 l 140.523 27.32
 l 140.523 26.43 l 140.152 25.539 l 139.414 24.203 l 135.715 19.75 l 140.895
 19.75 l S
145.703 29.102 m 144.594 28.656 l 143.852 27.32 l 143.484 25.094 l 143.484
 23.758 l 143.852 21.531 l 144.594 20.195 l 145.703 19.75 l 146.441 19.75
 l 147.551 20.195 l 148.293 21.531 l 148.66 23.758 l 148.66 25.094 l 148.293
 27.32 l 147.551 28.656 l 146.441 29.102 l 145.703 29.102 l S
151.621 26.875 m 151.621 27.32 l 151.992 28.211 l 152.359 28.656 l 153.102
 29.102 l 154.578 29.102 l 155.32 28.656 l 155.688 28.211 l 156.059 27.32
 l 156.059 26.43 l 155.688 25.539 l 154.949 24.203 l 151.25 19.75 l 156.43
 19.75 l S
159.387 26.875 m 159.387 27.32 l 159.758 28.211 l 160.129 28.656 l 160.867
 29.102 l 162.348 29.102 l 163.086 28.656 l 163.457 28.211 l 163.828 27.32
 l 163.828 26.43 l 163.457 25.539 l 162.719 24.203 l 159.02 19.75 l 164.195
 19.75 l S
209.402 63.715 m 209.402 59.797 l S
0.666667 g
209.402 63.715 m 209.402 64.414 l S
209.402 70.012 m 209.402 70.711 l S
209.402 76.309 m 209.402 77.008 l S
209.402 82.605 m 209.402 83.305 l S
209.402 88.898 m 209.402 89.598 l S
209.402 95.195 m 209.402 95.895 l S
209.402 101.492 m 209.402 102.191 l S
209.402 107.789 m 209.402 108.488 l S
209.402 114.082 m 209.402 114.781 l S
209.402 120.379 m 209.402 121.078 l S
209.402 126.676 m 209.402 127.375 l S
209.402 132.973 m 209.402 133.672 l S
209.402 139.266 m 209.402 139.965 l S
209.402 145.562 m 209.402 146.262 l S
209.402 151.859 m 209.402 152.559 l S
209.402 158.156 m 209.402 158.855 l S
209.402 164.449 m 209.402 165.148 l S
209.402 170.746 m 209.402 171.445 l S
209.402 177.043 m 209.402 177.742 l S
209.402 183.34 m 209.402 184.039 l S
209.402 189.633 m 209.402 190.332 l S
209.402 195.93 m 209.402 196.629 l S
209.402 202.227 m 209.402 202.926 l S
209.402 208.523 m 209.402 209.223 l S
209.402 214.816 m 209.402 215.516 l S
209.402 221.113 m 209.402 221.812 l S
209.402 227.41 m 209.402 228.109 l S
209.402 233.707 m 209.402 234.406 l S
209.402 240 m 209.402 240.699 l S
209.402 246.297 m 209.402 246.996 l S
209.402 252.594 m 209.402 253.293 l S
209.402 258.891 m 209.402 259.59 l S
209.402 265.184 m 209.402 265.883 l S
209.402 271.48 m 209.402 272.18 l S
209.402 277.777 m 209.402 278.477 l S
209.402 284.074 m 209.402 284.773 l S
209.402 290.367 m 209.402 291.066 l S
209.402 296.664 m 209.402 297.363 l S
209.402 302.961 m 209.402 303.66 l S
209.402 309.258 m 209.402 309.957 l S
209.402 315.551 m 209.402 316.25 l S
209.402 321.848 m 209.402 322.547 l S
209.402 328.145 m 209.402 328.844 l S
209.402 334.441 m 209.402 335.141 l S
209.402 340.734 m 209.402 341.434 l S
209.402 347.031 m 209.402 347.73 l S
209.402 353.328 m 209.402 354.027 l S
209.402 359.625 m 209.402 360.324 l S
209.402 365.918 m 209.402 366.617 l S
209.402 372.215 m 209.402 372.914 l S
209.402 378.512 m 209.402 379.211 l S
209.402 384.809 m 209.402 385.508 l S
209.402 391.102 m 209.402 391.801 l S
209.402 397.398 m 209.402 398.098 l S
209.402 403.695 m 209.402 404.395 l S
209.402 409.992 m 209.402 410.691 l S
209.402 416.285 m 209.402 416.988 l S
209.402 422.582 m 209.402 423.281 l S
209.402 428.879 m 209.402 429.578 l S
209.402 435.176 m 209.402 435.875 l S
209.402 441.469 m 209.402 442.172 l S
209.402 447.766 m 209.402 448.465 l S
209.402 454.062 m 209.402 454.762 l S
209.402 460.359 m 209.402 461.059 l S
209.402 466.652 m 209.402 467.355 l S
209.402 472.949 m 209.402 473.648 l S
209.402 479.246 m 209.402 479.945 l S
209.402 485.543 m 209.402 486.242 l S
209.402 491.836 m 209.402 492.539 l S
209.402 498.133 m 209.402 498.832 l S
209.402 504.43 m 209.402 505.129 l S
209.402 510.727 m 209.402 511.426 l S
209.402 517.02 m 209.402 517.723 l S
209.402 523.316 m 209.402 524.016 l S
209.402 529.613 m 209.402 530.312 l S
209.402 535.91 m 209.402 536.609 l S
209.402 542.203 m 209.402 542.906 l S
209.402 548.5 m 209.402 549.199 l S
209.402 554.797 m 209.402 555.496 l S
209.402 561.094 m 209.402 561.793 l S
209.402 567.387 m 209.402 568.09 l S
209.402 573.684 m 209.402 574.383 l S
209.402 579.98 m 209.402 580.68 l S
209.402 586.277 m 209.402 586.977 l S
209.402 592.574 m 209.402 593.273 l S
209.402 598.867 m 209.402 599.566 l S
209.402 605.164 m 209.402 605.863 l S
209.402 611.461 m 209.402 612.16 l S
209.402 617.758 m 209.402 618.457 l S
209.402 624.051 m 209.402 624.75 l S
209.402 630.348 m 209.402 631.047 l S
209.402 636.645 m 209.402 637.344 l S
209.402 642.941 m 209.402 643.641 l S
209.402 649.234 m 209.402 649.934 l S
209.402 655.531 m 209.402 656.23 l S
209.402 661.828 m 209.402 662.527 l S
209.402 668.125 m 209.402 668.824 l S
209.402 674.418 m 209.402 675.117 l S
209.402 680.715 m 209.402 681.414 l S
209.402 687.012 m 209.402 687.711 l S
209.402 693.309 m 209.402 694.008 l S
209.402 699.602 m 209.402 700.301 l S
209.402 705.898 m 209.402 706.598 l S
209.402 712.195 m 209.402 712.895 l S
209.402 718.492 m 209.402 719.191 l S
209.402 724.785 m 209.402 725.484 l S
0 g
201.266 56.523 m 200.152 56.078 l 199.414 54.742 l 199.043 52.516 l 199.043
 51.18 l 199.414 48.953 l 200.152 47.617 l 201.266 47.172 l 202.004 47.172
 l 203.113 47.617 l 203.852 48.953 l 204.223 51.18 l 204.223 52.516 l 203.852
 54.742 l 203.113 56.078 l 202.004 56.523 l 201.266 56.523 l S
207.551 56.523 m 211.621 56.523 l 209.402 52.961 l 210.512 52.961 l 211.25
 52.516 l 211.621 52.07 l 211.992 50.734 l 211.992 49.844 l 211.621 48.508
 l 210.879 47.617 l 209.77 47.172 l 208.66 47.172 l 207.551 47.617 l 207.184
 48.062 l 206.812 48.953 l S
219.758 56.523 m 214.578 47.172 l S
214.578 56.523 m 219.758 56.523 l S
214.578 47.172 m 219.758 47.172 l S
268.848 63.715 m 268.848 59.797 l S
0.666667 g
268.848 63.715 m 268.848 64.414 l S
268.848 70.012 m 268.848 70.711 l S
268.848 76.309 m 268.848 77.008 l S
268.848 82.605 m 268.848 83.305 l S
268.848 88.898 m 268.848 89.598 l S
268.848 95.195 m 268.848 95.895 l S
268.848 101.492 m 268.848 102.191 l S
268.848 107.789 m 268.848 108.488 l S
268.848 114.082 m 268.848 114.781 l S
268.848 120.379 m 268.848 121.078 l S
268.848 126.676 m 268.848 127.375 l S
268.848 132.973 m 268.848 133.672 l S
268.848 139.266 m 268.848 139.965 l S
268.848 145.562 m 268.848 146.262 l S
268.848 151.859 m 268.848 152.559 l S
268.848 158.156 m 268.848 158.855 l S
268.848 164.449 m 268.848 165.148 l S
268.848 170.746 m 268.848 171.445 l S
268.848 177.043 m 268.848 177.742 l S
268.848 183.34 m 268.848 184.039 l S
268.848 189.633 m 268.848 190.332 l S
268.848 195.93 m 268.848 196.629 l S
268.848 202.227 m 268.848 202.926 l S
268.848 208.523 m 268.848 209.223 l S
268.848 214.816 m 268.848 215.516 l S
268.848 221.113 m 268.848 221.812 l S
268.848 227.41 m 268.848 228.109 l S
268.848 233.707 m 268.848 234.406 l S
268.848 240 m 268.848 240.699 l S
268.848 246.297 m 268.848 246.996 l S
268.848 252.594 m 268.848 253.293 l S
268.848 258.891 m 268.848 259.59 l S
268.848 265.184 m 268.848 265.883 l S
268.848 271.48 m 268.848 272.18 l S
268.848 277.777 m 268.848 278.477 l S
268.848 284.074 m 268.848 284.773 l S
268.848 290.367 m 268.848 291.066 l S
268.848 296.664 m 268.848 297.363 l S
268.848 302.961 m 268.848 303.66 l S
268.848 309.258 m 268.848 309.957 l S
268.848 315.551 m 268.848 316.25 l S
268.848 321.848 m 268.848 322.547 l S
268.848 328.145 m 268.848 328.844 l S
268.848 334.441 m 268.848 335.141 l S
268.848 340.734 m 268.848 341.434 l S
268.848 347.031 m 268.848 347.73 l S
268.848 353.328 m 268.848 354.027 l S
268.848 359.625 m 268.848 360.324 l S
268.848 365.918 m 268.848 366.617 l S
268.848 372.215 m 268.848 372.914 l S
268.848 378.512 m 268.848 379.211 l S
268.848 384.809 m 268.848 385.508 l S
268.848 391.102 m 268.848 391.801 l S
268.848 397.398 m 268.848 398.098 l S
268.848 403.695 m 268.848 404.395 l S
268.848 409.992 m 268.848 410.691 l S
268.848 416.285 m 268.848 416.988 l S
268.848 422.582 m 268.848 423.281 l S
268.848 428.879 m 268.848 429.578 l S
268.848 435.176 m 268.848 435.875 l S
268.848 441.469 m 268.848 442.172 l S
268.848 447.766 m 268.848 448.465 l S
268.848 454.062 m 268.848 454.762 l S
268.848 460.359 m 268.848 461.059 l S
268.848 466.652 m 268.848 467.355 l S
268.848 472.949 m 268.848 473.648 l S
268.848 479.246 m 268.848 479.945 l S
268.848 485.543 m 268.848 486.242 l S
268.848 491.836 m 268.848 492.539 l S
268.848 498.133 m 268.848 498.832 l S
268.848 504.43 m 268.848 505.129 l S
268.848 510.727 m 268.848 511.426 l S
268.848 517.02 m 268.848 517.723 l S
268.848 523.316 m 268.848 524.016 l S
268.848 529.613 m 268.848 530.312 l S
268.848 535.91 m 268.848 536.609 l S
268.848 542.203 m 268.848 542.906 l S
268.848 548.5 m 268.848 549.199 l S
268.848 554.797 m 268.848 555.496 l S
268.848 561.094 m 268.848 561.793 l S
268.848 567.387 m 268.848 568.09 l S
268.848 573.684 m 268.848 574.383 l S
268.848 579.98 m 268.848 580.68 l S
268.848 586.277 m 268.848 586.977 l S
268.848 592.574 m 268.848 593.273 l S
268.848 598.867 m 268.848 599.566 l S
268.848 605.164 m 268.848 605.863 l S
268.848 611.461 m 268.848 612.16 l S
268.848 617.758 m 268.848 618.457 l S
268.848 624.051 m 268.848 624.75 l S
268.848 630.348 m 268.848 631.047 l S
268.848 636.645 m 268.848 637.344 l S
268.848 642.941 m 268.848 643.641 l S
268.848 649.234 m 268.848 649.934 l S
268.848 655.531 m 268.848 656.23 l S
268.848 661.828 m 268.848 662.527 l S
268.848 668.125 m 268.848 668.824 l S
268.848 674.418 m 268.848 675.117 l S
268.848 680.715 m 268.848 681.414 l S
268.848 687.012 m 268.848 687.711 l S
268.848 693.309 m 268.848 694.008 l S
268.848 699.602 m 268.848 700.301 l S
268.848 705.898 m 268.848 706.598 l S
268.848 712.195 m 268.848 712.895 l S
268.848 718.492 m 268.848 719.191 l S
268.848 724.785 m 268.848 725.484 l S
0 g
260.711 56.523 m 259.598 56.078 l 258.859 54.742 l 258.488 52.516 l 258.488
 51.18 l 258.859 48.953 l 259.598 47.617 l 260.711 47.172 l 261.449 47.172
 l 262.559 47.617 l 263.297 48.953 l 263.668 51.18 l 263.668 52.516 l 263.297
 54.742 l 262.559 56.078 l 261.449 56.523 l 260.711 56.523 l S
271.066 55.188 m 270.695 56.078 l 269.586 56.523 l 268.848 56.523 l 267.738
 56.078 l 266.996 54.742 l 266.629 52.516 l 266.629 50.289 l 266.996 48.508
 l 267.738 47.617 l 268.848 47.172 l 269.215 47.172 l 270.324 47.617 l 271.066
 48.508 l 271.438 49.844 l 271.438 50.289 l 271.066 51.625 l 270.324 52.516
 l 269.215 52.961 l 268.848 52.961 l 267.738 52.516 l 266.996 51.625 l 266.629
 50.289 l S
279.203 56.523 m 274.023 47.172 l S
274.023 56.523 m 279.203 56.523 l S
274.023 47.172 m 279.203 47.172 l S
328.293 63.715 m 328.293 59.797 l S
0.666667 g
328.293 63.715 m 328.293 64.414 l S
328.293 70.012 m 328.293 70.711 l S
328.293 76.309 m 328.293 77.008 l S
328.293 82.605 m 328.293 83.305 l S
328.293 88.898 m 328.293 89.598 l S
328.293 95.195 m 328.293 95.895 l S
328.293 101.492 m 328.293 102.191 l S
328.293 107.789 m 328.293 108.488 l S
328.293 114.082 m 328.293 114.781 l S
328.293 120.379 m 328.293 121.078 l S
328.293 126.676 m 328.293 127.375 l S
328.293 132.973 m 328.293 133.672 l S
328.293 139.266 m 328.293 139.965 l S
328.293 145.562 m 328.293 146.262 l S
328.293 151.859 m 328.293 152.559 l S
328.293 158.156 m 328.293 158.855 l S
328.293 164.449 m 328.293 165.148 l S
328.293 170.746 m 328.293 171.445 l S
328.293 177.043 m 328.293 177.742 l S
328.293 183.34 m 328.293 184.039 l S
328.293 189.633 m 328.293 190.332 l S
328.293 195.93 m 328.293 196.629 l S
328.293 202.227 m 328.293 202.926 l S
328.293 208.523 m 328.293 209.223 l S
328.293 214.816 m 328.293 215.516 l S
328.293 221.113 m 328.293 221.812 l S
328.293 227.41 m 328.293 228.109 l S
328.293 233.707 m 328.293 234.406 l S
328.293 240 m 328.293 240.699 l S
328.293 246.297 m 328.293 246.996 l S
328.293 252.594 m 328.293 253.293 l S
328.293 258.891 m 328.293 259.59 l S
328.293 265.184 m 328.293 265.883 l S
328.293 271.48 m 328.293 272.18 l S
328.293 277.777 m 328.293 278.477 l S
328.293 284.074 m 328.293 284.773 l S
328.293 290.367 m 328.293 291.066 l S
328.293 296.664 m 328.293 297.363 l S
328.293 302.961 m 328.293 303.66 l S
328.293 309.258 m 328.293 309.957 l S
328.293 315.551 m 328.293 316.25 l S
328.293 321.848 m 328.293 322.547 l S
328.293 328.145 m 328.293 328.844 l S
328.293 334.441 m 328.293 335.141 l S
328.293 340.734 m 328.293 341.434 l S
328.293 347.031 m 328.293 347.73 l S
328.293 353.328 m 328.293 354.027 l S
328.293 359.625 m 328.293 360.324 l S
328.293 365.918 m 328.293 366.617 l S
328.293 372.215 m 328.293 372.914 l S
328.293 378.512 m 328.293 379.211 l S
328.293 384.809 m 328.293 385.508 l S
328.293 391.102 m 328.293 391.801 l S
328.293 397.398 m 328.293 398.098 l S
328.293 403.695 m 328.293 404.395 l S
328.293 409.992 m 328.293 410.691 l S
328.293 416.285 m 328.293 416.988 l S
328.293 422.582 m 328.293 423.281 l S
328.293 428.879 m 328.293 429.578 l S
328.293 435.176 m 328.293 435.875 l S
328.293 441.469 m 328.293 442.172 l S
328.293 447.766 m 328.293 448.465 l S
328.293 454.062 m 328.293 454.762 l S
328.293 460.359 m 328.293 461.059 l S
328.293 466.652 m 328.293 467.355 l S
328.293 472.949 m 328.293 473.648 l S
328.293 479.246 m 328.293 479.945 l S
328.293 485.543 m 328.293 486.242 l S
328.293 491.836 m 328.293 492.539 l S
328.293 498.133 m 328.293 498.832 l S
328.293 504.43 m 328.293 505.129 l S
328.293 510.727 m 328.293 511.426 l S
328.293 517.02 m 328.293 517.723 l S
328.293 523.316 m 328.293 524.016 l S
328.293 529.613 m 328.293 530.312 l S
328.293 535.91 m 328.293 536.609 l S
328.293 542.203 m 328.293 542.906 l S
328.293 548.5 m 328.293 549.199 l S
328.293 554.797 m 328.293 555.496 l S
328.293 561.094 m 328.293 561.793 l S
328.293 567.387 m 328.293 568.09 l S
328.293 573.684 m 328.293 574.383 l S
328.293 579.98 m 328.293 580.68 l S
328.293 586.277 m 328.293 586.977 l S
328.293 592.574 m 328.293 593.273 l S
328.293 598.867 m 328.293 599.566 l S
328.293 605.164 m 328.293 605.863 l S
328.293 611.461 m 328.293 612.16 l S
328.293 617.758 m 328.293 618.457 l S
328.293 624.051 m 328.293 624.75 l S
328.293 630.348 m 328.293 631.047 l S
328.293 636.645 m 328.293 637.344 l S
328.293 642.941 m 328.293 643.641 l S
328.293 649.234 m 328.293 649.934 l S
328.293 655.531 m 328.293 656.23 l S
328.293 661.828 m 328.293 662.527 l S
328.293 668.125 m 328.293 668.824 l S
328.293 674.418 m 328.293 675.117 l S
328.293 680.715 m 328.293 681.414 l S
328.293 687.012 m 328.293 687.711 l S
328.293 693.309 m 328.293 694.008 l S
328.293 699.602 m 328.293 700.301 l S
328.293 705.898 m 328.293 706.598 l S
328.293 712.195 m 328.293 712.895 l S
328.293 718.492 m 328.293 719.191 l S
328.293 724.785 m 328.293 725.484 l S
0 g
320.156 56.523 m 319.047 56.078 l 318.305 54.742 l 317.934 52.516 l 317.934
 51.18 l 318.305 48.953 l 319.047 47.617 l 320.156 47.172 l 320.895 47.172
 l 322.004 47.617 l 322.742 48.953 l 323.113 51.18 l 323.113 52.516 l 322.742
 54.742 l 322.004 56.078 l 320.895 56.523 l 320.156 56.523 l S
330.512 53.406 m 330.141 52.07 l 329.402 51.18 l 328.293 50.734 l 327.922
 50.734 l 326.812 51.18 l 326.074 52.07 l 325.703 53.406 l 325.703 53.852
 l 326.074 55.188 l 326.812 56.078 l 327.922 56.523 l 328.293 56.523 l 329.402
 56.078 l 330.141 55.188 l 330.512 53.406 l 330.512 51.18 l 330.141 48.953
 l 329.402 47.617 l 328.293 47.172 l 327.551 47.172 l 326.441 47.617 l 326.074
 48.508 l S
338.648 56.523 m 333.469 47.172 l S
333.469 56.523 m 338.648 56.523 l S
333.469 47.172 m 338.648 47.172 l S
387.738 63.715 m 387.738 59.797 l S
0.666667 g
387.738 63.715 m 387.738 64.414 l S
387.738 70.012 m 387.738 70.711 l S
387.738 76.309 m 387.738 77.008 l S
387.738 82.605 m 387.738 83.305 l S
387.738 88.898 m 387.738 89.598 l S
387.738 95.195 m 387.738 95.895 l S
387.738 101.492 m 387.738 102.191 l S
387.738 107.789 m 387.738 108.488 l S
387.738 114.082 m 387.738 114.781 l S
387.738 120.379 m 387.738 121.078 l S
387.738 126.676 m 387.738 127.375 l S
387.738 132.973 m 387.738 133.672 l S
387.738 139.266 m 387.738 139.965 l S
387.738 145.562 m 387.738 146.262 l S
387.738 151.859 m 387.738 152.559 l S
387.738 158.156 m 387.738 158.855 l S
387.738 164.449 m 387.738 165.148 l S
387.738 170.746 m 387.738 171.445 l S
387.738 177.043 m 387.738 177.742 l S
387.738 183.34 m 387.738 184.039 l S
387.738 189.633 m 387.738 190.332 l S
387.738 195.93 m 387.738 196.629 l S
387.738 202.227 m 387.738 202.926 l S
387.738 208.523 m 387.738 209.223 l S
387.738 214.816 m 387.738 215.516 l S
387.738 221.113 m 387.738 221.812 l S
387.738 227.41 m 387.738 228.109 l S
387.738 233.707 m 387.738 234.406 l S
387.738 240 m 387.738 240.699 l S
387.738 246.297 m 387.738 246.996 l S
387.738 252.594 m 387.738 253.293 l S
387.738 258.891 m 387.738 259.59 l S
387.738 265.184 m 387.738 265.883 l S
387.738 271.48 m 387.738 272.18 l S
387.738 277.777 m 387.738 278.477 l S
387.738 284.074 m 387.738 284.773 l S
387.738 290.367 m 387.738 291.066 l S
387.738 296.664 m 387.738 297.363 l S
387.738 302.961 m 387.738 303.66 l S
387.738 309.258 m 387.738 309.957 l S
387.738 315.551 m 387.738 316.25 l S
387.738 321.848 m 387.738 322.547 l S
387.738 328.145 m 387.738 328.844 l S
387.738 334.441 m 387.738 335.141 l S
387.738 340.734 m 387.738 341.434 l S
387.738 347.031 m 387.738 347.73 l S
387.738 353.328 m 387.738 354.027 l S
387.738 359.625 m 387.738 360.324 l S
387.738 365.918 m 387.738 366.617 l S
387.738 372.215 m 387.738 372.914 l S
387.738 378.512 m 387.738 379.211 l S
387.738 384.809 m 387.738 385.508 l S
387.738 391.102 m 387.738 391.801 l S
387.738 397.398 m 387.738 398.098 l S
387.738 403.695 m 387.738 404.395 l S
387.738 409.992 m 387.738 410.691 l S
387.738 416.285 m 387.738 416.988 l S
387.738 422.582 m 387.738 423.281 l S
387.738 428.879 m 387.738 429.578 l S
387.738 435.176 m 387.738 435.875 l S
387.738 441.469 m 387.738 442.172 l S
387.738 447.766 m 387.738 448.465 l S
387.738 454.062 m 387.738 454.762 l S
387.738 460.359 m 387.738 461.059 l S
387.738 466.652 m 387.738 467.355 l S
387.738 472.949 m 387.738 473.648 l S
387.738 479.246 m 387.738 479.945 l S
387.738 485.543 m 387.738 486.242 l S
387.738 491.836 m 387.738 492.539 l S
387.738 498.133 m 387.738 498.832 l S
387.738 504.43 m 387.738 505.129 l S
387.738 510.727 m 387.738 511.426 l S
387.738 517.02 m 387.738 517.723 l S
387.738 523.316 m 387.738 524.016 l S
387.738 529.613 m 387.738 530.312 l S
387.738 535.91 m 387.738 536.609 l S
387.738 542.203 m 387.738 542.906 l S
387.738 548.5 m 387.738 549.199 l S
387.738 554.797 m 387.738 555.496 l S
387.738 561.094 m 387.738 561.793 l S
387.738 567.387 m 387.738 568.09 l S
387.738 573.684 m 387.738 574.383 l S
387.738 579.98 m 387.738 580.68 l S
387.738 586.277 m 387.738 586.977 l S
387.738 592.574 m 387.738 593.273 l S
387.738 598.867 m 387.738 599.566 l S
387.738 605.164 m 387.738 605.863 l S
387.738 611.461 m 387.738 612.16 l S
387.738 617.758 m 387.738 618.457 l S
387.738 624.051 m 387.738 624.75 l S
387.738 630.348 m 387.738 631.047 l S
387.738 636.645 m 387.738 637.344 l S
387.738 642.941 m 387.738 643.641 l S
387.738 649.234 m 387.738 649.934 l S
387.738 655.531 m 387.738 656.23 l S
387.738 661.828 m 387.738 662.527 l S
387.738 668.125 m 387.738 668.824 l S
387.738 674.418 m 387.738 675.117 l S
387.738 680.715 m 387.738 681.414 l S
387.738 687.012 m 387.738 687.711 l S
387.738 693.309 m 387.738 694.008 l S
387.738 699.602 m 387.738 700.301 l S
387.738 705.898 m 387.738 706.598 l S
387.738 712.195 m 387.738 712.895 l S
387.738 718.492 m 387.738 719.191 l S
387.738 724.785 m 387.738 725.484 l S
0 g
378.492 54.742 m 379.23 55.188 l 380.34 56.523 l 380.34 47.172 l S
385.52 54.297 m 385.52 54.742 l 385.887 55.633 l 386.258 56.078 l 386.996
 56.523 l 388.477 56.523 l 389.219 56.078 l 389.586 55.633 l 389.957 54.742
 l 389.957 53.852 l 389.586 52.961 l 388.848 51.625 l 385.148 47.172 l 390.328
 47.172 l S
398.094 56.523 m 392.914 47.172 l S
392.914 56.523 m 398.094 56.523 l S
392.914 47.172 m 398.094 47.172 l S
447.184 63.715 m 447.184 59.797 l S
0.666667 g
447.184 63.715 m 447.184 64.414 l S
447.184 70.012 m 447.184 70.711 l S
447.184 76.309 m 447.184 77.008 l S
447.184 82.605 m 447.184 83.305 l S
447.184 88.898 m 447.184 89.598 l S
447.184 95.195 m 447.184 95.895 l S
447.184 101.492 m 447.184 102.191 l S
447.184 107.789 m 447.184 108.488 l S
447.184 114.082 m 447.184 114.781 l S
447.184 120.379 m 447.184 121.078 l S
447.184 126.676 m 447.184 127.375 l S
447.184 132.973 m 447.184 133.672 l S
447.184 139.266 m 447.184 139.965 l S
447.184 145.562 m 447.184 146.262 l S
447.184 151.859 m 447.184 152.559 l S
447.184 158.156 m 447.184 158.855 l S
447.184 164.449 m 447.184 165.148 l S
447.184 170.746 m 447.184 171.445 l S
447.184 177.043 m 447.184 177.742 l S
447.184 183.34 m 447.184 184.039 l S
447.184 189.633 m 447.184 190.332 l S
447.184 195.93 m 447.184 196.629 l S
447.184 202.227 m 447.184 202.926 l S
447.184 208.523 m 447.184 209.223 l S
447.184 214.816 m 447.184 215.516 l S
447.184 221.113 m 447.184 221.812 l S
447.184 227.41 m 447.184 228.109 l S
447.184 233.707 m 447.184 234.406 l S
447.184 240 m 447.184 240.699 l S
447.184 246.297 m 447.184 246.996 l S
447.184 252.594 m 447.184 253.293 l S
447.184 258.891 m 447.184 259.59 l S
447.184 265.184 m 447.184 265.883 l S
447.184 271.48 m 447.184 272.18 l S
447.184 277.777 m 447.184 278.477 l S
447.184 284.074 m 447.184 284.773 l S
447.184 290.367 m 447.184 291.066 l S
447.184 296.664 m 447.184 297.363 l S
447.184 302.961 m 447.184 303.66 l S
447.184 309.258 m 447.184 309.957 l S
447.184 315.551 m 447.184 316.25 l S
447.184 321.848 m 447.184 322.547 l S
447.184 328.145 m 447.184 328.844 l S
447.184 334.441 m 447.184 335.141 l S
447.184 340.734 m 447.184 341.434 l S
447.184 347.031 m 447.184 347.73 l S
447.184 353.328 m 447.184 354.027 l S
447.184 359.625 m 447.184 360.324 l S
447.184 365.918 m 447.184 366.617 l S
447.184 372.215 m 447.184 372.914 l S
447.184 378.512 m 447.184 379.211 l S
447.184 384.809 m 447.184 385.508 l S
447.184 391.102 m 447.184 391.801 l S
447.184 397.398 m 447.184 398.098 l S
447.184 403.695 m 447.184 404.395 l S
447.184 409.992 m 447.184 410.691 l S
447.184 416.285 m 447.184 416.988 l S
447.184 422.582 m 447.184 423.281 l S
447.184 428.879 m 447.184 429.578 l S
447.184 435.176 m 447.184 435.875 l S
447.184 441.469 m 447.184 442.172 l S
447.184 447.766 m 447.184 448.465 l S
447.184 454.062 m 447.184 454.762 l S
447.184 460.359 m 447.184 461.059 l S
447.184 466.652 m 447.184 467.355 l S
447.184 472.949 m 447.184 473.648 l S
447.184 479.246 m 447.184 479.945 l S
447.184 485.543 m 447.184 486.242 l S
447.184 491.836 m 447.184 492.539 l S
447.184 498.133 m 447.184 498.832 l S
447.184 504.43 m 447.184 505.129 l S
447.184 510.727 m 447.184 511.426 l S
447.184 517.02 m 447.184 517.723 l S
447.184 523.316 m 447.184 524.016 l S
447.184 529.613 m 447.184 530.312 l S
447.184 535.91 m 447.184 536.609 l S
447.184 542.203 m 447.184 542.906 l S
447.184 548.5 m 447.184 549.199 l S
447.184 554.797 m 447.184 555.496 l S
447.184 561.094 m 447.184 561.793 l S
447.184 567.387 m 447.184 568.09 l S
447.184 573.684 m 447.184 574.383 l S
447.184 579.98 m 447.184 580.68 l S
447.184 586.277 m 447.184 586.977 l S
447.184 592.574 m 447.184 593.273 l S
447.184 598.867 m 447.184 599.566 l S
447.184 605.164 m 447.184 605.863 l S
447.184 611.461 m 447.184 612.16 l S
447.184 617.758 m 447.184 618.457 l S
447.184 624.051 m 447.184 624.75 l S
447.184 630.348 m 447.184 631.047 l S
447.184 636.645 m 447.184 637.344 l S
447.184 642.941 m 447.184 643.641 l S
447.184 649.234 m 447.184 649.934 l S
447.184 655.531 m 447.184 656.23 l S
447.184 661.828 m 447.184 662.527 l S
447.184 668.125 m 447.184 668.824 l S
447.184 674.418 m 447.184 675.117 l S
447.184 680.715 m 447.184 681.414 l S
447.184 687.012 m 447.184 687.711 l S
447.184 693.309 m 447.184 694.008 l S
447.184 699.602 m 447.184 700.301 l S
447.184 705.898 m 447.184 706.598 l S
447.184 712.195 m 447.184 712.895 l S
447.184 718.492 m 447.184 719.191 l S
447.184 724.785 m 447.184 725.484 l S
0 g
437.938 54.742 m 438.676 55.188 l 439.785 56.523 l 439.785 47.172 l S
449.031 56.523 m 445.332 56.523 l 444.965 52.516 l 445.332 52.961 l 446.441
 53.406 l 447.551 53.406 l 448.664 52.961 l 449.402 52.07 l 449.773 50.734
 l 449.773 49.844 l 449.402 48.508 l 448.664 47.617 l 447.551 47.172 l 446.441
 47.172 l 445.332 47.617 l 444.965 48.062 l 444.594 48.953 l S
457.539 56.523 m 452.359 47.172 l S
452.359 56.523 m 457.539 56.523 l S
452.359 47.172 m 457.539 47.172 l S
506.629 63.715 m 506.629 59.797 l S
0.666667 g
506.629 63.715 m 506.629 64.414 l S
506.629 70.012 m 506.629 70.711 l S
506.629 76.309 m 506.629 77.008 l S
506.629 82.605 m 506.629 83.305 l S
506.629 88.898 m 506.629 89.598 l S
506.629 95.195 m 506.629 95.895 l S
506.629 101.492 m 506.629 102.191 l S
506.629 107.789 m 506.629 108.488 l S
506.629 114.082 m 506.629 114.781 l S
506.629 120.379 m 506.629 121.078 l S
506.629 126.676 m 506.629 127.375 l S
506.629 132.973 m 506.629 133.672 l S
506.629 139.266 m 506.629 139.965 l S
506.629 145.562 m 506.629 146.262 l S
506.629 151.859 m 506.629 152.559 l S
506.629 158.156 m 506.629 158.855 l S
506.629 164.449 m 506.629 165.148 l S
506.629 170.746 m 506.629 171.445 l S
506.629 177.043 m 506.629 177.742 l S
506.629 183.34 m 506.629 184.039 l S
506.629 189.633 m 506.629 190.332 l S
506.629 195.93 m 506.629 196.629 l S
506.629 202.227 m 506.629 202.926 l S
506.629 208.523 m 506.629 209.223 l S
506.629 214.816 m 506.629 215.516 l S
506.629 221.113 m 506.629 221.812 l S
506.629 227.41 m 506.629 228.109 l S
506.629 233.707 m 506.629 234.406 l S
506.629 240 m 506.629 240.699 l S
506.629 246.297 m 506.629 246.996 l S
506.629 252.594 m 506.629 253.293 l S
506.629 258.891 m 506.629 259.59 l S
506.629 265.184 m 506.629 265.883 l S
506.629 271.48 m 506.629 272.18 l S
506.629 277.777 m 506.629 278.477 l S
506.629 284.074 m 506.629 284.773 l S
506.629 290.367 m 506.629 291.066 l S
506.629 296.664 m 506.629 297.363 l S
506.629 302.961 m 506.629 303.66 l S
506.629 309.258 m 506.629 309.957 l S
506.629 315.551 m 506.629 316.25 l S
506.629 321.848 m 506.629 322.547 l S
506.629 328.145 m 506.629 328.844 l S
506.629 334.441 m 506.629 335.141 l S
506.629 340.734 m 506.629 341.434 l S
506.629 347.031 m 506.629 347.73 l S
506.629 353.328 m 506.629 354.027 l S
506.629 359.625 m 506.629 360.324 l S
506.629 365.918 m 506.629 366.617 l S
506.629 372.215 m 506.629 372.914 l S
506.629 378.512 m 506.629 379.211 l S
506.629 384.809 m 506.629 385.508 l S
506.629 391.102 m 506.629 391.801 l S
506.629 397.398 m 506.629 398.098 l S
506.629 403.695 m 506.629 404.395 l S
506.629 409.992 m 506.629 410.691 l S
506.629 416.285 m 506.629 416.988 l S
506.629 422.582 m 506.629 423.281 l S
506.629 428.879 m 506.629 429.578 l S
506.629 435.176 m 506.629 435.875 l S
506.629 441.469 m 506.629 442.172 l S
506.629 447.766 m 506.629 448.465 l S
506.629 454.062 m 506.629 454.762 l S
506.629 460.359 m 506.629 461.059 l S
506.629 466.652 m 506.629 467.355 l S
506.629 472.949 m 506.629 473.648 l S
506.629 479.246 m 506.629 479.945 l S
506.629 485.543 m 506.629 486.242 l S
506.629 491.836 m 506.629 492.539 l S
506.629 498.133 m 506.629 498.832 l S
506.629 504.43 m 506.629 505.129 l S
506.629 510.727 m 506.629 511.426 l S
506.629 517.02 m 506.629 517.723 l S
506.629 523.316 m 506.629 524.016 l S
506.629 529.613 m 506.629 530.312 l S
506.629 535.91 m 506.629 536.609 l S
506.629 542.203 m 506.629 542.906 l S
506.629 548.5 m 506.629 549.199 l S
506.629 554.797 m 506.629 555.496 l S
506.629 561.094 m 506.629 561.793 l S
506.629 567.387 m 506.629 568.09 l S
506.629 573.684 m 506.629 574.383 l S
506.629 579.98 m 506.629 580.68 l S
506.629 586.277 m 506.629 586.977 l S
506.629 592.574 m 506.629 593.273 l S
506.629 598.867 m 506.629 599.566 l S
506.629 605.164 m 506.629 605.863 l S
506.629 611.461 m 506.629 612.16 l S
506.629 617.758 m 506.629 618.457 l S
506.629 624.051 m 506.629 624.75 l S
506.629 630.348 m 506.629 631.047 l S
506.629 636.645 m 506.629 637.344 l S
506.629 642.941 m 506.629 643.641 l S
506.629 649.234 m 506.629 649.934 l S
506.629 655.531 m 506.629 656.23 l S
506.629 661.828 m 506.629 662.527 l S
506.629 668.125 m 506.629 668.824 l S
506.629 674.418 m 506.629 675.117 l S
506.629 680.715 m 506.629 681.414 l S
506.629 687.012 m 506.629 687.711 l S
506.629 693.309 m 506.629 694.008 l S
506.629 699.602 m 506.629 700.301 l S
506.629 705.898 m 506.629 706.598 l S
506.629 712.195 m 506.629 712.895 l S
506.629 718.492 m 506.629 719.191 l S
506.629 724.785 m 506.629 725.484 l S
0 g
497.383 54.742 m 498.121 55.188 l 499.23 56.523 l 499.23 47.172 l S
505.887 56.523 m 504.777 56.078 l 504.41 55.188 l 504.41 54.297 l 504.777
 53.406 l 505.52 52.961 l 506.996 52.516 l 508.109 52.07 l 508.848 51.18
 l 509.219 50.289 l 509.219 48.953 l 508.848 48.062 l 508.477 47.617 l 507.367
 47.172 l 505.887 47.172 l 504.777 47.617 l 504.41 48.062 l 504.039 48.953
 l 504.039 50.289 l 504.41 51.18 l 505.148 52.07 l 506.258 52.516 l 507.738
 52.961 l 508.477 53.406 l 508.848 54.297 l 508.848 55.188 l 508.477 56.078
 l 507.367 56.523 l 505.887 56.523 l S
516.984 56.523 m 511.805 47.172 l S
511.805 56.523 m 516.984 56.523 l S
511.805 47.172 m 516.984 47.172 l S
566.074 63.715 m 566.074 59.797 l S
0.666667 g
566.074 63.715 m 566.074 64.414 l S
566.074 70.012 m 566.074 70.711 l S
566.074 76.309 m 566.074 77.008 l S
566.074 82.605 m 566.074 83.305 l S
566.074 88.898 m 566.074 89.598 l S
566.074 95.195 m 566.074 95.895 l S
566.074 101.492 m 566.074 102.191 l S
566.074 107.789 m 566.074 108.488 l S
566.074 114.082 m 566.074 114.781 l S
566.074 120.379 m 566.074 121.078 l S
566.074 126.676 m 566.074 127.375 l S
566.074 132.973 m 566.074 133.672 l S
566.074 139.266 m 566.074 139.965 l S
566.074 145.562 m 566.074 146.262 l S
566.074 151.859 m 566.074 152.559 l S
566.074 158.156 m 566.074 158.855 l S
566.074 164.449 m 566.074 165.148 l S
566.074 170.746 m 566.074 171.445 l S
566.074 177.043 m 566.074 177.742 l S
566.074 183.34 m 566.074 184.039 l S
566.074 189.633 m 566.074 190.332 l S
566.074 195.93 m 566.074 196.629 l S
566.074 202.227 m 566.074 202.926 l S
566.074 208.523 m 566.074 209.223 l S
566.074 214.816 m 566.074 215.516 l S
566.074 221.113 m 566.074 221.812 l S
566.074 227.41 m 566.074 228.109 l S
566.074 233.707 m 566.074 234.406 l S
566.074 240 m 566.074 240.699 l S
566.074 246.297 m 566.074 246.996 l S
566.074 252.594 m 566.074 253.293 l S
566.074 258.891 m 566.074 259.59 l S
566.074 265.184 m 566.074 265.883 l S
566.074 271.48 m 566.074 272.18 l S
566.074 277.777 m 566.074 278.477 l S
566.074 284.074 m 566.074 284.773 l S
566.074 290.367 m 566.074 291.066 l S
566.074 296.664 m 566.074 297.363 l S
566.074 302.961 m 566.074 303.66 l S
566.074 309.258 m 566.074 309.957 l S
566.074 315.551 m 566.074 316.25 l S
566.074 321.848 m 566.074 322.547 l S
566.074 328.145 m 566.074 328.844 l S
566.074 334.441 m 566.074 335.141 l S
566.074 340.734 m 566.074 341.434 l S
566.074 347.031 m 566.074 347.73 l S
566.074 353.328 m 566.074 354.027 l S
566.074 359.625 m 566.074 360.324 l S
566.074 365.918 m 566.074 366.617 l S
566.074 372.215 m 566.074 372.914 l S
566.074 378.512 m 566.074 379.211 l S
566.074 384.809 m 566.074 385.508 l S
566.074 391.102 m 566.074 391.801 l S
566.074 397.398 m 566.074 398.098 l S
566.074 403.695 m 566.074 404.395 l S
566.074 409.992 m 566.074 410.691 l S
566.074 416.285 m 566.074 416.988 l S
566.074 422.582 m 566.074 423.281 l S
566.074 428.879 m 566.074 429.578 l S
566.074 435.176 m 566.074 435.875 l S
566.074 441.469 m 566.074 442.172 l S
566.074 447.766 m 566.074 448.465 l S
566.074 454.062 m 566.074 454.762 l S
566.074 460.359 m 566.074 461.059 l S
566.074 466.652 m 566.074 467.355 l S
566.074 472.949 m 566.074 473.648 l S
566.074 479.246 m 566.074 479.945 l S
566.074 485.543 m 566.074 486.242 l S
566.074 491.836 m 566.074 492.539 l S
566.074 498.133 m 566.074 498.832 l S
566.074 504.43 m 566.074 505.129 l S
566.074 510.727 m 566.074 511.426 l S
566.074 517.02 m 566.074 517.723 l S
566.074 523.316 m 566.074 524.016 l S
566.074 529.613 m 566.074 530.312 l S
566.074 535.91 m 566.074 536.609 l S
566.074 542.203 m 566.074 542.906 l S
566.074 548.5 m 566.074 549.199 l S
566.074 554.797 m 566.074 555.496 l S
566.074 561.094 m 566.074 561.793 l S
566.074 567.387 m 566.074 568.09 l S
566.074 573.684 m 566.074 574.383 l S
566.074 579.98 m 566.074 580.68 l S
566.074 586.277 m 566.074 586.977 l S
566.074 592.574 m 566.074 593.273 l S
566.074 598.867 m 566.074 599.566 l S
566.074 605.164 m 566.074 605.863 l S
566.074 611.461 m 566.074 612.16 l S
566.074 617.758 m 566.074 618.457 l S
566.074 624.051 m 566.074 624.75 l S
566.074 630.348 m 566.074 631.047 l S
566.074 636.645 m 566.074 637.344 l S
566.074 642.941 m 566.074 643.641 l S
566.074 649.234 m 566.074 649.934 l S
566.074 655.531 m 566.074 656.23 l S
566.074 661.828 m 566.074 662.527 l S
566.074 668.125 m 566.074 668.824 l S
566.074 674.418 m 566.074 675.117 l S
566.074 680.715 m 566.074 681.414 l S
566.074 687.012 m 566.074 687.711 l S
566.074 693.309 m 566.074 694.008 l S
566.074 699.602 m 566.074 700.301 l S
566.074 705.898 m 566.074 706.598 l S
566.074 712.195 m 566.074 712.895 l S
566.074 718.492 m 566.074 719.191 l S
566.074 724.785 m 566.074 725.484 l S
0 g
556.086 54.297 m 556.086 54.742 l 556.457 55.633 l 556.828 56.078 l 557.566
 56.523 l 559.047 56.523 l 559.785 56.078 l 560.156 55.633 l 560.523 54.742
 l 560.523 53.852 l 560.156 52.961 l 559.414 51.625 l 555.719 47.172 l 560.895
 47.172 l S
564.594 54.742 m 565.332 55.188 l 566.445 56.523 l 566.445 47.172 l S
576.43 56.523 m 571.25 47.172 l S
571.25 56.523 m 576.43 56.523 l S
571.25 47.172 m 576.43 47.172 l S
149.957 63.715 m 146.07 63.715 l S
0.666667 g
149.957 63.715 m 150.648 63.715 l S
156.199 63.715 m 156.891 63.715 l S
162.438 63.715 m 163.133 63.715 l S
168.68 63.715 m 169.375 63.715 l S
174.922 63.715 m 175.617 63.715 l S
181.164 63.715 m 181.859 63.715 l S
187.406 63.715 m 188.102 63.715 l S
193.648 63.715 m 194.34 63.715 l S
199.891 63.715 m 200.582 63.715 l S
206.133 63.715 m 206.824 63.715 l S
212.375 63.715 m 213.066 63.715 l S
218.617 63.715 m 219.309 63.715 l S
224.855 63.715 m 225.551 63.715 l S
231.098 63.715 m 231.793 63.715 l S
237.34 63.715 m 238.035 63.715 l S
243.582 63.715 m 244.277 63.715 l S
249.824 63.715 m 250.52 63.715 l S
256.066 63.715 m 256.758 63.715 l S
262.309 63.715 m 263 63.715 l S
268.551 63.715 m 269.242 63.715 l S
274.793 63.715 m 275.484 63.715 l S
281.031 63.715 m 281.727 63.715 l S
287.273 63.715 m 287.969 63.715 l S
293.516 63.715 m 294.211 63.715 l S
299.758 63.715 m 300.453 63.715 l S
306 63.715 m 306.695 63.715 l S
312.242 63.715 m 312.934 63.715 l S
318.484 63.715 m 319.176 63.715 l S
324.727 63.715 m 325.418 63.715 l S
330.969 63.715 m 331.66 63.715 l S
337.207 63.715 m 337.902 63.715 l S
343.449 63.715 m 344.145 63.715 l S
349.691 63.715 m 350.387 63.715 l S
355.934 63.715 m 356.629 63.715 l S
362.176 63.715 m 362.871 63.715 l S
368.418 63.715 m 369.109 63.715 l S
374.66 63.715 m 375.352 63.715 l S
380.902 63.715 m 381.594 63.715 l S
387.145 63.715 m 387.836 63.715 l S
393.383 63.715 m 394.078 63.715 l S
399.625 63.715 m 400.32 63.715 l S
405.867 63.715 m 406.562 63.715 l S
412.109 63.715 m 412.805 63.715 l S
418.352 63.715 m 419.047 63.715 l S
424.594 63.715 m 425.285 63.715 l S
430.836 63.715 m 431.527 63.715 l S
437.078 63.715 m 437.77 63.715 l S
443.32 63.715 m 444.012 63.715 l S
449.562 63.715 m 450.254 63.715 l S
455.801 63.715 m 456.496 63.715 l S
462.043 63.715 m 462.738 63.715 l S
468.285 63.715 m 468.98 63.715 l S
474.527 63.715 m 475.223 63.715 l S
480.77 63.715 m 481.465 63.715 l S
487.012 63.715 m 487.703 63.715 l S
493.254 63.715 m 493.945 63.715 l S
499.496 63.715 m 500.188 63.715 l S
505.738 63.715 m 506.43 63.715 l S
511.977 63.715 m 512.672 63.715 l S
518.219 63.715 m 518.914 63.715 l S
524.461 63.715 m 525.156 63.715 l S
530.703 63.715 m 531.398 63.715 l S
536.945 63.715 m 537.641 63.715 l S
543.188 63.715 m 543.879 63.715 l S
549.43 63.715 m 550.121 63.715 l S
555.672 63.715 m 556.363 63.715 l S
561.914 63.715 m 562.605 63.715 l S
0 g
129.059 66.492 m 129.797 66.938 l 130.906 68.273 l 130.906 58.926 l S
137.934 68.273 m 136.824 67.828 l 136.086 66.492 l 135.715 64.27 l 135.715
 62.934 l 136.086 60.707 l 136.824 59.371 l 137.934 58.926 l 138.676 58.926
 l 139.785 59.371 l 140.523 60.707 l 140.895 62.934 l 140.895 64.27 l 140.523
 66.492 l 139.785 67.828 l 138.676 68.273 l 137.934 68.273 l S
149.957 124.133 m 146.07 124.133 l S
0.666667 g
149.957 124.133 m 150.648 124.133 l S
156.199 124.133 m 156.891 124.133 l S
162.438 124.133 m 163.133 124.133 l S
168.68 124.133 m 169.375 124.133 l S
174.922 124.133 m 175.617 124.133 l S
181.164 124.133 m 181.859 124.133 l S
187.406 124.133 m 188.102 124.133 l S
193.648 124.133 m 194.34 124.133 l S
199.891 124.133 m 200.582 124.133 l S
206.133 124.133 m 206.824 124.133 l S
212.375 124.133 m 213.066 124.133 l S
218.617 124.133 m 219.309 124.133 l S
224.855 124.133 m 225.551 124.133 l S
231.098 124.133 m 231.793 124.133 l S
237.34 124.133 m 238.035 124.133 l S
243.582 124.133 m 244.277 124.133 l S
249.824 124.133 m 250.52 124.133 l S
256.066 124.133 m 256.758 124.133 l S
262.309 124.133 m 263 124.133 l S
268.551 124.133 m 269.242 124.133 l S
274.793 124.133 m 275.484 124.133 l S
281.031 124.133 m 281.727 124.133 l S
287.273 124.133 m 287.969 124.133 l S
293.516 124.133 m 294.211 124.133 l S
299.758 124.133 m 300.453 124.133 l S
306 124.133 m 306.695 124.133 l S
312.242 124.133 m 312.934 124.133 l S
318.484 124.133 m 319.176 124.133 l S
324.727 124.133 m 325.418 124.133 l S
330.969 124.133 m 331.66 124.133 l S
337.207 124.133 m 337.902 124.133 l S
343.449 124.133 m 344.145 124.133 l S
349.691 124.133 m 350.387 124.133 l S
355.934 124.133 m 356.629 124.133 l S
362.176 124.133 m 362.871 124.133 l S
368.418 124.133 m 369.109 124.133 l S
374.66 124.133 m 375.352 124.133 l S
380.902 124.133 m 381.594 124.133 l S
387.145 124.133 m 387.836 124.133 l S
393.383 124.133 m 394.078 124.133 l S
399.625 124.133 m 400.32 124.133 l S
405.867 124.133 m 406.562 124.133 l S
412.109 124.133 m 412.805 124.133 l S
418.352 124.133 m 419.047 124.133 l S
424.594 124.133 m 425.285 124.133 l S
430.836 124.133 m 431.527 124.133 l S
437.078 124.133 m 437.77 124.133 l S
443.32 124.133 m 444.012 124.133 l S
449.562 124.133 m 450.254 124.133 l S
455.801 124.133 m 456.496 124.133 l S
462.043 124.133 m 462.738 124.133 l S
468.285 124.133 m 468.98 124.133 l S
474.527 124.133 m 475.223 124.133 l S
480.77 124.133 m 481.465 124.133 l S
487.012 124.133 m 487.703 124.133 l S
493.254 124.133 m 493.945 124.133 l S
499.496 124.133 m 500.188 124.133 l S
505.738 124.133 m 506.43 124.133 l S
511.977 124.133 m 512.672 124.133 l S
518.219 124.133 m 518.914 124.133 l S
524.461 124.133 m 525.156 124.133 l S
530.703 124.133 m 531.398 124.133 l S
536.945 124.133 m 537.641 124.133 l S
543.188 124.133 m 543.879 124.133 l S
549.43 124.133 m 550.121 124.133 l S
555.672 124.133 m 556.363 124.133 l S
561.914 124.133 m 562.605 124.133 l S
0 g
129.059 126.91 m 129.797 127.355 l 130.906 128.691 l 130.906 119.34 l S
136.086 126.465 m 136.086 126.91 l 136.457 127.801 l 136.824 128.246 l 
137.566 128.691 l 139.043 128.691 l 139.785 128.246 l 140.152 127.801 l 
140.523 126.91 l 140.523 126.02 l 140.152 125.129 l 139.414 123.793 l 135.715
 119.34 l 140.895 119.34 l S
149.957 184.547 m 146.07 184.547 l S
0.666667 g
149.957 184.547 m 150.648 184.547 l S
156.199 184.547 m 156.891 184.547 l S
162.438 184.547 m 163.133 184.547 l S
168.68 184.547 m 169.375 184.547 l S
174.922 184.547 m 175.617 184.547 l S
181.164 184.547 m 181.859 184.547 l S
187.406 184.547 m 188.102 184.547 l S
193.648 184.547 m 194.34 184.547 l S
199.891 184.547 m 200.582 184.547 l S
206.133 184.547 m 206.824 184.547 l S
212.375 184.547 m 213.066 184.547 l S
218.617 184.547 m 219.309 184.547 l S
224.855 184.547 m 225.551 184.547 l S
231.098 184.547 m 231.793 184.547 l S
237.34 184.547 m 238.035 184.547 l S
243.582 184.547 m 244.277 184.547 l S
249.824 184.547 m 250.52 184.547 l S
256.066 184.547 m 256.758 184.547 l S
262.309 184.547 m 263 184.547 l S
268.551 184.547 m 269.242 184.547 l S
274.793 184.547 m 275.484 184.547 l S
281.031 184.547 m 281.727 184.547 l S
287.273 184.547 m 287.969 184.547 l S
293.516 184.547 m 294.211 184.547 l S
299.758 184.547 m 300.453 184.547 l S
306 184.547 m 306.695 184.547 l S
312.242 184.547 m 312.934 184.547 l S
318.484 184.547 m 319.176 184.547 l S
324.727 184.547 m 325.418 184.547 l S
330.969 184.547 m 331.66 184.547 l S
337.207 184.547 m 337.902 184.547 l S
343.449 184.547 m 344.145 184.547 l S
349.691 184.547 m 350.387 184.547 l S
355.934 184.547 m 356.629 184.547 l S
362.176 184.547 m 362.871 184.547 l S
368.418 184.547 m 369.109 184.547 l S
374.66 184.547 m 375.352 184.547 l S
380.902 184.547 m 381.594 184.547 l S
387.145 184.547 m 387.836 184.547 l S
393.383 184.547 m 394.078 184.547 l S
399.625 184.547 m 400.32 184.547 l S
405.867 184.547 m 406.562 184.547 l S
412.109 184.547 m 412.805 184.547 l S
418.352 184.547 m 419.047 184.547 l S
424.594 184.547 m 425.285 184.547 l S
430.836 184.547 m 431.527 184.547 l S
437.078 184.547 m 437.77 184.547 l S
443.32 184.547 m 444.012 184.547 l S
449.562 184.547 m 450.254 184.547 l S
455.801 184.547 m 456.496 184.547 l S
462.043 184.547 m 462.738 184.547 l S
468.285 184.547 m 468.98 184.547 l S
474.527 184.547 m 475.223 184.547 l S
480.77 184.547 m 481.465 184.547 l S
487.012 184.547 m 487.703 184.547 l S
493.254 184.547 m 493.945 184.547 l S
499.496 184.547 m 500.188 184.547 l S
505.738 184.547 m 506.43 184.547 l S
511.977 184.547 m 512.672 184.547 l S
518.219 184.547 m 518.914 184.547 l S
524.461 184.547 m 525.156 184.547 l S
530.703 184.547 m 531.398 184.547 l S
536.945 184.547 m 537.641 184.547 l S
543.188 184.547 m 543.879 184.547 l S
549.43 184.547 m 550.121 184.547 l S
555.672 184.547 m 556.363 184.547 l S
561.914 184.547 m 562.605 184.547 l S
0 g
129.059 187.324 m 129.797 187.77 l 130.906 189.105 l 130.906 179.758 l S
139.414 189.105 m 135.715 182.871 l 141.262 182.871 l S
139.414 189.105 m 139.414 179.758 l S
149.957 244.961 m 146.07 244.961 l S
0.666667 g
149.957 244.961 m 150.648 244.961 l S
156.199 244.961 m 156.891 244.961 l S
162.438 244.961 m 163.133 244.961 l S
168.68 244.961 m 169.375 244.961 l S
174.922 244.961 m 175.617 244.961 l S
181.164 244.961 m 181.859 244.961 l S
187.406 244.961 m 188.102 244.961 l S
193.648 244.961 m 194.34 244.961 l S
199.891 244.961 m 200.582 244.961 l S
206.133 244.961 m 206.824 244.961 l S
212.375 244.961 m 213.066 244.961 l S
218.617 244.961 m 219.309 244.961 l S
224.855 244.961 m 225.551 244.961 l S
231.098 244.961 m 231.793 244.961 l S
237.34 244.961 m 238.035 244.961 l S
243.582 244.961 m 244.277 244.961 l S
249.824 244.961 m 250.52 244.961 l S
256.066 244.961 m 256.758 244.961 l S
262.309 244.961 m 263 244.961 l S
268.551 244.961 m 269.242 244.961 l S
274.793 244.961 m 275.484 244.961 l S
281.031 244.961 m 281.727 244.961 l S
287.273 244.961 m 287.969 244.961 l S
293.516 244.961 m 294.211 244.961 l S
299.758 244.961 m 300.453 244.961 l S
306 244.961 m 306.695 244.961 l S
312.242 244.961 m 312.934 244.961 l S
318.484 244.961 m 319.176 244.961 l S
324.727 244.961 m 325.418 244.961 l S
330.969 244.961 m 331.66 244.961 l S
337.207 244.961 m 337.902 244.961 l S
343.449 244.961 m 344.145 244.961 l S
349.691 244.961 m 350.387 244.961 l S
355.934 244.961 m 356.629 244.961 l S
362.176 244.961 m 362.871 244.961 l S
368.418 244.961 m 369.109 244.961 l S
374.66 244.961 m 375.352 244.961 l S
380.902 244.961 m 381.594 244.961 l S
387.145 244.961 m 387.836 244.961 l S
393.383 244.961 m 394.078 244.961 l S
399.625 244.961 m 400.32 244.961 l S
405.867 244.961 m 406.562 244.961 l S
412.109 244.961 m 412.805 244.961 l S
418.352 244.961 m 419.047 244.961 l S
424.594 244.961 m 425.285 244.961 l S
430.836 244.961 m 431.527 244.961 l S
437.078 244.961 m 437.77 244.961 l S
443.32 244.961 m 444.012 244.961 l S
449.562 244.961 m 450.254 244.961 l S
455.801 244.961 m 456.496 244.961 l S
462.043 244.961 m 462.738 244.961 l S
468.285 244.961 m 468.98 244.961 l S
474.527 244.961 m 475.223 244.961 l S
480.77 244.961 m 481.465 244.961 l S
487.012 244.961 m 487.703 244.961 l S
493.254 244.961 m 493.945 244.961 l S
499.496 244.961 m 500.188 244.961 l S
505.738 244.961 m 506.43 244.961 l S
511.977 244.961 m 512.672 244.961 l S
518.219 244.961 m 518.914 244.961 l S
524.461 244.961 m 525.156 244.961 l S
530.703 244.961 m 531.398 244.961 l S
536.945 244.961 m 537.641 244.961 l S
543.188 244.961 m 543.879 244.961 l S
549.43 244.961 m 550.121 244.961 l S
555.672 244.961 m 556.363 244.961 l S
561.914 244.961 m 562.605 244.961 l S
0 g
129.059 247.738 m 129.797 248.184 l 130.906 249.52 l 130.906 240.172 l S
140.523 248.184 m 140.152 249.074 l 139.043 249.52 l 138.305 249.52 l 137.195
 249.074 l 136.457 247.738 l 136.086 245.516 l 136.086 243.289 l 136.457
 241.508 l 137.195 240.617 l 138.305 240.172 l 138.676 240.172 l 139.785
 240.617 l 140.523 241.508 l 140.895 242.844 l 140.895 243.289 l 140.523
 244.625 l 139.785 245.516 l 138.676 245.957 l 138.305 245.957 l 137.195
 245.516 l 136.457 244.625 l 136.086 243.289 l S
149.957 305.379 m 146.07 305.379 l S
0.666667 g
149.957 305.379 m 150.648 305.379 l S
156.199 305.379 m 156.891 305.379 l S
162.438 305.379 m 163.133 305.379 l S
168.68 305.379 m 169.375 305.379 l S
174.922 305.379 m 175.617 305.379 l S
181.164 305.379 m 181.859 305.379 l S
187.406 305.379 m 188.102 305.379 l S
193.648 305.379 m 194.34 305.379 l S
199.891 305.379 m 200.582 305.379 l S
206.133 305.379 m 206.824 305.379 l S
212.375 305.379 m 213.066 305.379 l S
218.617 305.379 m 219.309 305.379 l S
224.855 305.379 m 225.551 305.379 l S
231.098 305.379 m 231.793 305.379 l S
237.34 305.379 m 238.035 305.379 l S
243.582 305.379 m 244.277 305.379 l S
249.824 305.379 m 250.52 305.379 l S
256.066 305.379 m 256.758 305.379 l S
262.309 305.379 m 263 305.379 l S
268.551 305.379 m 269.242 305.379 l S
274.793 305.379 m 275.484 305.379 l S
281.031 305.379 m 281.727 305.379 l S
287.273 305.379 m 287.969 305.379 l S
293.516 305.379 m 294.211 305.379 l S
299.758 305.379 m 300.453 305.379 l S
306 305.379 m 306.695 305.379 l S
312.242 305.379 m 312.934 305.379 l S
318.484 305.379 m 319.176 305.379 l S
324.727 305.379 m 325.418 305.379 l S
330.969 305.379 m 331.66 305.379 l S
337.207 305.379 m 337.902 305.379 l S
343.449 305.379 m 344.145 305.379 l S
349.691 305.379 m 350.387 305.379 l S
355.934 305.379 m 356.629 305.379 l S
362.176 305.379 m 362.871 305.379 l S
368.418 305.379 m 369.109 305.379 l S
374.66 305.379 m 375.352 305.379 l S
380.902 305.379 m 381.594 305.379 l S
387.145 305.379 m 387.836 305.379 l S
393.383 305.379 m 394.078 305.379 l S
399.625 305.379 m 400.32 305.379 l S
405.867 305.379 m 406.562 305.379 l S
412.109 305.379 m 412.805 305.379 l S
418.352 305.379 m 419.047 305.379 l S
424.594 305.379 m 425.285 305.379 l S
430.836 305.379 m 431.527 305.379 l S
437.078 305.379 m 437.77 305.379 l S
443.32 305.379 m 444.012 305.379 l S
449.562 305.379 m 450.254 305.379 l S
455.801 305.379 m 456.496 305.379 l S
462.043 305.379 m 462.738 305.379 l S
468.285 305.379 m 468.98 305.379 l S
474.527 305.379 m 475.223 305.379 l S
480.77 305.379 m 481.465 305.379 l S
487.012 305.379 m 487.703 305.379 l S
493.254 305.379 m 493.945 305.379 l S
499.496 305.379 m 500.188 305.379 l S
505.738 305.379 m 506.43 305.379 l S
511.977 305.379 m 512.672 305.379 l S
518.219 305.379 m 518.914 305.379 l S
524.461 305.379 m 525.156 305.379 l S
530.703 305.379 m 531.398 305.379 l S
536.945 305.379 m 537.641 305.379 l S
543.188 305.379 m 543.879 305.379 l S
549.43 305.379 m 550.121 305.379 l S
555.672 305.379 m 556.363 305.379 l S
561.914 305.379 m 562.605 305.379 l S
0 g
129.059 308.156 m 129.797 308.602 l 130.906 309.938 l 130.906 300.586 l
 S
137.566 309.938 m 136.457 309.492 l 136.086 308.602 l 136.086 307.711 l
 136.457 306.82 l 137.195 306.375 l 138.676 305.93 l 139.785 305.484 l 140.523
 304.594 l 140.895 303.703 l 140.895 302.367 l 140.523 301.477 l 140.152
 301.031 l 139.043 300.586 l 137.566 300.586 l 136.457 301.031 l 136.086
 301.477 l 135.715 302.367 l 135.715 303.703 l 136.086 304.594 l 136.824
 305.484 l 137.934 305.93 l 139.414 306.375 l 140.152 306.82 l 140.523 307.711
 l 140.523 308.602 l 140.152 309.492 l 139.043 309.938 l 137.566 309.938
 l S
149.957 365.793 m 146.07 365.793 l S
0.666667 g
149.957 365.793 m 150.648 365.793 l S
156.199 365.793 m 156.891 365.793 l S
162.438 365.793 m 163.133 365.793 l S
168.68 365.793 m 169.375 365.793 l S
174.922 365.793 m 175.617 365.793 l S
181.164 365.793 m 181.859 365.793 l S
187.406 365.793 m 188.102 365.793 l S
193.648 365.793 m 194.34 365.793 l S
199.891 365.793 m 200.582 365.793 l S
206.133 365.793 m 206.824 365.793 l S
212.375 365.793 m 213.066 365.793 l S
218.617 365.793 m 219.309 365.793 l S
224.855 365.793 m 225.551 365.793 l S
231.098 365.793 m 231.793 365.793 l S
237.34 365.793 m 238.035 365.793 l S
243.582 365.793 m 244.277 365.793 l S
249.824 365.793 m 250.52 365.793 l S
256.066 365.793 m 256.758 365.793 l S
262.309 365.793 m 263 365.793 l S
268.551 365.793 m 269.242 365.793 l S
274.793 365.793 m 275.484 365.793 l S
281.031 365.793 m 281.727 365.793 l S
287.273 365.793 m 287.969 365.793 l S
293.516 365.793 m 294.211 365.793 l S
299.758 365.793 m 300.453 365.793 l S
306 365.793 m 306.695 365.793 l S
312.242 365.793 m 312.934 365.793 l S
318.484 365.793 m 319.176 365.793 l S
324.727 365.793 m 325.418 365.793 l S
330.969 365.793 m 331.66 365.793 l S
337.207 365.793 m 337.902 365.793 l S
343.449 365.793 m 344.145 365.793 l S
349.691 365.793 m 350.387 365.793 l S
355.934 365.793 m 356.629 365.793 l S
362.176 365.793 m 362.871 365.793 l S
368.418 365.793 m 369.109 365.793 l S
374.66 365.793 m 375.352 365.793 l S
380.902 365.793 m 381.594 365.793 l S
387.145 365.793 m 387.836 365.793 l S
393.383 365.793 m 394.078 365.793 l S
399.625 365.793 m 400.32 365.793 l S
405.867 365.793 m 406.562 365.793 l S
412.109 365.793 m 412.805 365.793 l S
418.352 365.793 m 419.047 365.793 l S
424.594 365.793 m 425.285 365.793 l S
430.836 365.793 m 431.527 365.793 l S
437.078 365.793 m 437.77 365.793 l S
443.32 365.793 m 444.012 365.793 l S
449.562 365.793 m 450.254 365.793 l S
455.801 365.793 m 456.496 365.793 l S
462.043 365.793 m 462.738 365.793 l S
468.285 365.793 m 468.98 365.793 l S
474.527 365.793 m 475.223 365.793 l S
480.77 365.793 m 481.465 365.793 l S
487.012 365.793 m 487.703 365.793 l S
493.254 365.793 m 493.945 365.793 l S
499.496 365.793 m 500.188 365.793 l S
505.738 365.793 m 506.43 365.793 l S
511.977 365.793 m 512.672 365.793 l S
518.219 365.793 m 518.914 365.793 l S
524.461 365.793 m 525.156 365.793 l S
530.703 365.793 m 531.398 365.793 l S
536.945 365.793 m 537.641 365.793 l S
543.188 365.793 m 543.879 365.793 l S
549.43 365.793 m 550.121 365.793 l S
555.672 365.793 m 556.363 365.793 l S
561.914 365.793 m 562.605 365.793 l S
0 g
128.316 368.125 m 128.316 368.57 l 128.688 369.461 l 129.059 369.906 l 
129.797 370.352 l 131.277 370.352 l 132.016 369.906 l 132.387 369.461 l 
132.758 368.57 l 132.758 367.68 l 132.387 366.789 l 131.648 365.453 l 127.949
 361.004 l 133.125 361.004 l S
137.934 370.352 m 136.824 369.906 l 136.086 368.57 l 135.715 366.344 l 
135.715 365.008 l 136.086 362.781 l 136.824 361.449 l 137.934 361.004 l 
138.676 361.004 l 139.785 361.449 l 140.523 362.781 l 140.895 365.008 l 
140.895 366.344 l 140.523 368.57 l 139.785 369.906 l 138.676 370.352 l 137.934
 370.352 l S
149.957 426.207 m 146.07 426.207 l S
0.666667 g
149.957 426.207 m 150.648 426.207 l S
156.199 426.207 m 156.891 426.207 l S
162.438 426.207 m 163.133 426.207 l S
168.68 426.207 m 169.375 426.207 l S
174.922 426.207 m 175.617 426.207 l S
181.164 426.207 m 181.859 426.207 l S
187.406 426.207 m 188.102 426.207 l S
193.648 426.207 m 194.34 426.207 l S
199.891 426.207 m 200.582 426.207 l S
206.133 426.207 m 206.824 426.207 l S
212.375 426.207 m 213.066 426.207 l S
218.617 426.207 m 219.309 426.207 l S
224.855 426.207 m 225.551 426.207 l S
231.098 426.207 m 231.793 426.207 l S
237.34 426.207 m 238.035 426.207 l S
243.582 426.207 m 244.277 426.207 l S
249.824 426.207 m 250.52 426.207 l S
256.066 426.207 m 256.758 426.207 l S
262.309 426.207 m 263 426.207 l S
268.551 426.207 m 269.242 426.207 l S
274.793 426.207 m 275.484 426.207 l S
281.031 426.207 m 281.727 426.207 l S
287.273 426.207 m 287.969 426.207 l S
293.516 426.207 m 294.211 426.207 l S
299.758 426.207 m 300.453 426.207 l S
306 426.207 m 306.695 426.207 l S
312.242 426.207 m 312.934 426.207 l S
318.484 426.207 m 319.176 426.207 l S
324.727 426.207 m 325.418 426.207 l S
330.969 426.207 m 331.66 426.207 l S
337.207 426.207 m 337.902 426.207 l S
343.449 426.207 m 344.145 426.207 l S
349.691 426.207 m 350.387 426.207 l S
355.934 426.207 m 356.629 426.207 l S
362.176 426.207 m 362.871 426.207 l S
368.418 426.207 m 369.109 426.207 l S
374.66 426.207 m 375.352 426.207 l S
380.902 426.207 m 381.594 426.207 l S
387.145 426.207 m 387.836 426.207 l S
393.383 426.207 m 394.078 426.207 l S
399.625 426.207 m 400.32 426.207 l S
405.867 426.207 m 406.562 426.207 l S
412.109 426.207 m 412.805 426.207 l S
418.352 426.207 m 419.047 426.207 l S
424.594 426.207 m 425.285 426.207 l S
430.836 426.207 m 431.527 426.207 l S
437.078 426.207 m 437.77 426.207 l S
443.32 426.207 m 444.012 426.207 l S
449.562 426.207 m 450.254 426.207 l S
455.801 426.207 m 456.496 426.207 l S
462.043 426.207 m 462.738 426.207 l S
468.285 426.207 m 468.98 426.207 l S
474.527 426.207 m 475.223 426.207 l S
480.77 426.207 m 481.465 426.207 l S
487.012 426.207 m 487.703 426.207 l S
493.254 426.207 m 493.945 426.207 l S
499.496 426.207 m 500.188 426.207 l S
505.738 426.207 m 506.43 426.207 l S
511.977 426.207 m 512.672 426.207 l S
518.219 426.207 m 518.914 426.207 l S
524.461 426.207 m 525.156 426.207 l S
530.703 426.207 m 531.398 426.207 l S
536.945 426.207 m 537.641 426.207 l S
543.188 426.207 m 543.879 426.207 l S
549.43 426.207 m 550.121 426.207 l S
555.672 426.207 m 556.363 426.207 l S
561.914 426.207 m 562.605 426.207 l S
0 g
128.316 428.539 m 128.316 428.984 l 128.688 429.875 l 129.059 430.32 l 
129.797 430.766 l 131.277 430.766 l 132.016 430.32 l 132.387 429.875 l 132.758
 428.984 l 132.758 428.094 l 132.387 427.203 l 131.648 425.871 l 127.949
 421.418 l 133.125 421.418 l S
136.086 428.539 m 136.086 428.984 l 136.457 429.875 l 136.824 430.32 l 
137.566 430.766 l 139.043 430.766 l 139.785 430.32 l 140.152 429.875 l 140.523
 428.984 l 140.523 428.094 l 140.152 427.203 l 139.414 425.871 l 135.715
 421.418 l 140.895 421.418 l S
149.957 486.621 m 146.07 486.621 l S
0.666667 g
149.957 486.621 m 150.648 486.621 l S
156.199 486.621 m 156.891 486.621 l S
162.438 486.621 m 163.133 486.621 l S
168.68 486.621 m 169.375 486.621 l S
174.922 486.621 m 175.617 486.621 l S
181.164 486.621 m 181.859 486.621 l S
187.406 486.621 m 188.102 486.621 l S
193.648 486.621 m 194.34 486.621 l S
199.891 486.621 m 200.582 486.621 l S
206.133 486.621 m 206.824 486.621 l S
212.375 486.621 m 213.066 486.621 l S
218.617 486.621 m 219.309 486.621 l S
224.855 486.621 m 225.551 486.621 l S
231.098 486.621 m 231.793 486.621 l S
237.34 486.621 m 238.035 486.621 l S
243.582 486.621 m 244.277 486.621 l S
249.824 486.621 m 250.52 486.621 l S
256.066 486.621 m 256.758 486.621 l S
262.309 486.621 m 263 486.621 l S
268.551 486.621 m 269.242 486.621 l S
274.793 486.621 m 275.484 486.621 l S
281.031 486.621 m 281.727 486.621 l S
287.273 486.621 m 287.969 486.621 l S
293.516 486.621 m 294.211 486.621 l S
299.758 486.621 m 300.453 486.621 l S
306 486.621 m 306.695 486.621 l S
312.242 486.621 m 312.934 486.621 l S
318.484 486.621 m 319.176 486.621 l S
324.727 486.621 m 325.418 486.621 l S
330.969 486.621 m 331.66 486.621 l S
337.207 486.621 m 337.902 486.621 l S
343.449 486.621 m 344.145 486.621 l S
349.691 486.621 m 350.387 486.621 l S
355.934 486.621 m 356.629 486.621 l S
362.176 486.621 m 362.871 486.621 l S
368.418 486.621 m 369.109 486.621 l S
374.66 486.621 m 375.352 486.621 l S
380.902 486.621 m 381.594 486.621 l S
387.145 486.621 m 387.836 486.621 l S
393.383 486.621 m 394.078 486.621 l S
399.625 486.621 m 400.32 486.621 l S
405.867 486.621 m 406.562 486.621 l S
412.109 486.621 m 412.805 486.621 l S
418.352 486.621 m 419.047 486.621 l S
424.594 486.621 m 425.285 486.621 l S
430.836 486.621 m 431.527 486.621 l S
437.078 486.621 m 437.77 486.621 l S
443.32 486.621 m 444.012 486.621 l S
449.562 486.621 m 450.254 486.621 l S
455.801 486.621 m 456.496 486.621 l S
462.043 486.621 m 462.738 486.621 l S
468.285 486.621 m 468.98 486.621 l S
474.527 486.621 m 475.223 486.621 l S
480.77 486.621 m 481.465 486.621 l S
487.012 486.621 m 487.703 486.621 l S
493.254 486.621 m 493.945 486.621 l S
499.496 486.621 m 500.188 486.621 l S
505.738 486.621 m 506.43 486.621 l S
511.977 486.621 m 512.672 486.621 l S
518.219 486.621 m 518.914 486.621 l S
524.461 486.621 m 525.156 486.621 l S
530.703 486.621 m 531.398 486.621 l S
536.945 486.621 m 537.641 486.621 l S
543.188 486.621 m 543.879 486.621 l S
549.43 486.621 m 550.121 486.621 l S
555.672 486.621 m 556.363 486.621 l S
561.914 486.621 m 562.605 486.621 l S
0 g
128.316 488.957 m 128.316 489.402 l 128.688 490.293 l 129.059 490.734 l
 129.797 491.18 l 131.277 491.18 l 132.016 490.734 l 132.387 490.293 l 132.758
 489.402 l 132.758 488.512 l 132.387 487.621 l 131.648 486.285 l 127.949
 481.832 l 133.125 481.832 l S
139.414 491.18 m 135.715 484.949 l 141.262 484.949 l S
139.414 491.18 m 139.414 481.832 l S
149.957 547.039 m 146.07 547.039 l S
0.666667 g
149.957 547.039 m 150.648 547.039 l S
156.199 547.039 m 156.891 547.039 l S
162.438 547.039 m 163.133 547.039 l S
168.68 547.039 m 169.375 547.039 l S
174.922 547.039 m 175.617 547.039 l S
181.164 547.039 m 181.859 547.039 l S
187.406 547.039 m 188.102 547.039 l S
193.648 547.039 m 194.34 547.039 l S
199.891 547.039 m 200.582 547.039 l S
206.133 547.039 m 206.824 547.039 l S
212.375 547.039 m 213.066 547.039 l S
218.617 547.039 m 219.309 547.039 l S
224.855 547.039 m 225.551 547.039 l S
231.098 547.039 m 231.793 547.039 l S
237.34 547.039 m 238.035 547.039 l S
243.582 547.039 m 244.277 547.039 l S
249.824 547.039 m 250.52 547.039 l S
256.066 547.039 m 256.758 547.039 l S
262.309 547.039 m 263 547.039 l S
268.551 547.039 m 269.242 547.039 l S
274.793 547.039 m 275.484 547.039 l S
281.031 547.039 m 281.727 547.039 l S
287.273 547.039 m 287.969 547.039 l S
293.516 547.039 m 294.211 547.039 l S
299.758 547.039 m 300.453 547.039 l S
306 547.039 m 306.695 547.039 l S
312.242 547.039 m 312.934 547.039 l S
318.484 547.039 m 319.176 547.039 l S
324.727 547.039 m 325.418 547.039 l S
330.969 547.039 m 331.66 547.039 l S
337.207 547.039 m 337.902 547.039 l S
343.449 547.039 m 344.145 547.039 l S
349.691 547.039 m 350.387 547.039 l S
355.934 547.039 m 356.629 547.039 l S
362.176 547.039 m 362.871 547.039 l S
368.418 547.039 m 369.109 547.039 l S
374.66 547.039 m 375.352 547.039 l S
380.902 547.039 m 381.594 547.039 l S
387.145 547.039 m 387.836 547.039 l S
393.383 547.039 m 394.078 547.039 l S
399.625 547.039 m 400.32 547.039 l S
405.867 547.039 m 406.562 547.039 l S
412.109 547.039 m 412.805 547.039 l S
418.352 547.039 m 419.047 547.039 l S
424.594 547.039 m 425.285 547.039 l S
430.836 547.039 m 431.527 547.039 l S
437.078 547.039 m 437.77 547.039 l S
443.32 547.039 m 444.012 547.039 l S
449.562 547.039 m 450.254 547.039 l S
455.801 547.039 m 456.496 547.039 l S
462.043 547.039 m 462.738 547.039 l S
468.285 547.039 m 468.98 547.039 l S
474.527 547.039 m 475.223 547.039 l S
480.77 547.039 m 481.465 547.039 l S
487.012 547.039 m 487.703 547.039 l S
493.254 547.039 m 493.945 547.039 l S
499.496 547.039 m 500.188 547.039 l S
505.738 547.039 m 506.43 547.039 l S
511.977 547.039 m 512.672 547.039 l S
518.219 547.039 m 518.914 547.039 l S
524.461 547.039 m 525.156 547.039 l S
530.703 547.039 m 531.398 547.039 l S
536.945 547.039 m 537.641 547.039 l S
543.188 547.039 m 543.879 547.039 l S
549.43 547.039 m 550.121 547.039 l S
555.672 547.039 m 556.363 547.039 l S
561.914 547.039 m 562.605 547.039 l S
0 g
128.316 549.371 m 128.316 549.816 l 128.688 550.707 l 129.059 551.152 l
 129.797 551.598 l 131.277 551.598 l 132.016 551.152 l 132.387 550.707 l
 132.758 549.816 l 132.758 548.926 l 132.387 548.035 l 131.648 546.699 l
 127.949 542.25 l 133.125 542.25 l S
140.523 550.262 m 140.152 551.152 l 139.043 551.598 l 138.305 551.598 l
 137.195 551.152 l 136.457 549.816 l 136.086 547.59 l 136.086 545.363 l 
136.457 543.582 l 137.195 542.695 l 138.305 542.25 l 138.676 542.25 l 139.785
 542.695 l 140.523 543.582 l 140.895 544.918 l 140.895 545.363 l 140.523
 546.699 l 139.785 547.59 l 138.676 548.035 l 138.305 548.035 l 137.195 
547.59 l 136.457 546.699 l 136.086 545.363 l S
149.957 607.453 m 146.07 607.453 l S
0.666667 g
149.957 607.453 m 150.648 607.453 l S
156.199 607.453 m 156.891 607.453 l S
162.438 607.453 m 163.133 607.453 l S
168.68 607.453 m 169.375 607.453 l S
174.922 607.453 m 175.617 607.453 l S
181.164 607.453 m 181.859 607.453 l S
187.406 607.453 m 188.102 607.453 l S
193.648 607.453 m 194.34 607.453 l S
199.891 607.453 m 200.582 607.453 l S
206.133 607.453 m 206.824 607.453 l S
212.375 607.453 m 213.066 607.453 l S
218.617 607.453 m 219.309 607.453 l S
224.855 607.453 m 225.551 607.453 l S
231.098 607.453 m 231.793 607.453 l S
237.34 607.453 m 238.035 607.453 l S
243.582 607.453 m 244.277 607.453 l S
249.824 607.453 m 250.52 607.453 l S
256.066 607.453 m 256.758 607.453 l S
262.309 607.453 m 263 607.453 l S
268.551 607.453 m 269.242 607.453 l S
274.793 607.453 m 275.484 607.453 l S
281.031 607.453 m 281.727 607.453 l S
287.273 607.453 m 287.969 607.453 l S
293.516 607.453 m 294.211 607.453 l S
299.758 607.453 m 300.453 607.453 l S
306 607.453 m 306.695 607.453 l S
312.242 607.453 m 312.934 607.453 l S
318.484 607.453 m 319.176 607.453 l S
324.727 607.453 m 325.418 607.453 l S
330.969 607.453 m 331.66 607.453 l S
337.207 607.453 m 337.902 607.453 l S
343.449 607.453 m 344.145 607.453 l S
349.691 607.453 m 350.387 607.453 l S
355.934 607.453 m 356.629 607.453 l S
362.176 607.453 m 362.871 607.453 l S
368.418 607.453 m 369.109 607.453 l S
374.66 607.453 m 375.352 607.453 l S
380.902 607.453 m 381.594 607.453 l S
387.145 607.453 m 387.836 607.453 l S
393.383 607.453 m 394.078 607.453 l S
399.625 607.453 m 400.32 607.453 l S
405.867 607.453 m 406.562 607.453 l S
412.109 607.453 m 412.805 607.453 l S
418.352 607.453 m 419.047 607.453 l S
424.594 607.453 m 425.285 607.453 l S
430.836 607.453 m 431.527 607.453 l S
437.078 607.453 m 437.77 607.453 l S
443.32 607.453 m 444.012 607.453 l S
449.562 607.453 m 450.254 607.453 l S
455.801 607.453 m 456.496 607.453 l S
462.043 607.453 m 462.738 607.453 l S
468.285 607.453 m 468.98 607.453 l S
474.527 607.453 m 475.223 607.453 l S
480.77 607.453 m 481.465 607.453 l S
487.012 607.453 m 487.703 607.453 l S
493.254 607.453 m 493.945 607.453 l S
499.496 607.453 m 500.188 607.453 l S
505.738 607.453 m 506.43 607.453 l S
511.977 607.453 m 512.672 607.453 l S
518.219 607.453 m 518.914 607.453 l S
524.461 607.453 m 525.156 607.453 l S
530.703 607.453 m 531.398 607.453 l S
536.945 607.453 m 537.641 607.453 l S
543.188 607.453 m 543.879 607.453 l S
549.43 607.453 m 550.121 607.453 l S
555.672 607.453 m 556.363 607.453 l S
561.914 607.453 m 562.605 607.453 l S
0 g
128.316 609.785 m 128.316 610.23 l 128.688 611.121 l 129.059 611.566 l 
129.797 612.012 l 131.277 612.012 l 132.016 611.566 l 132.387 611.121 l 
132.758 610.23 l 132.758 609.34 l 132.387 608.449 l 131.648 607.113 l 127.949
 602.664 l 133.125 602.664 l S
137.566 612.012 m 136.457 611.566 l 136.086 610.676 l 136.086 609.785 l
 136.457 608.895 l 137.195 608.449 l 138.676 608.004 l 139.785 607.559 l
 140.523 606.672 l 140.895 605.781 l 140.895 604.445 l 140.523 603.555 l
 140.152 603.109 l 139.043 602.664 l 137.566 602.664 l 136.457 603.109 l
 136.086 603.555 l 135.715 604.445 l 135.715 605.781 l 136.086 606.672 l
 136.824 607.559 l 137.934 608.004 l 139.414 608.449 l 140.152 608.895 l
 140.523 609.785 l 140.523 610.676 l 140.152 611.566 l 139.043 612.012 l
 137.566 612.012 l S
149.957 667.867 m 146.07 667.867 l S
0.666667 g
149.957 667.867 m 150.648 667.867 l S
156.199 667.867 m 156.891 667.867 l S
162.438 667.867 m 163.133 667.867 l S
168.68 667.867 m 169.375 667.867 l S
174.922 667.867 m 175.617 667.867 l S
181.164 667.867 m 181.859 667.867 l S
187.406 667.867 m 188.102 667.867 l S
193.648 667.867 m 194.34 667.867 l S
199.891 667.867 m 200.582 667.867 l S
206.133 667.867 m 206.824 667.867 l S
212.375 667.867 m 213.066 667.867 l S
218.617 667.867 m 219.309 667.867 l S
224.855 667.867 m 225.551 667.867 l S
231.098 667.867 m 231.793 667.867 l S
237.34 667.867 m 238.035 667.867 l S
243.582 667.867 m 244.277 667.867 l S
249.824 667.867 m 250.52 667.867 l S
256.066 667.867 m 256.758 667.867 l S
262.309 667.867 m 263 667.867 l S
268.551 667.867 m 269.242 667.867 l S
274.793 667.867 m 275.484 667.867 l S
281.031 667.867 m 281.727 667.867 l S
287.273 667.867 m 287.969 667.867 l S
293.516 667.867 m 294.211 667.867 l S
299.758 667.867 m 300.453 667.867 l S
306 667.867 m 306.695 667.867 l S
312.242 667.867 m 312.934 667.867 l S
318.484 667.867 m 319.176 667.867 l S
324.727 667.867 m 325.418 667.867 l S
330.969 667.867 m 331.66 667.867 l S
337.207 667.867 m 337.902 667.867 l S
343.449 667.867 m 344.145 667.867 l S
349.691 667.867 m 350.387 667.867 l S
355.934 667.867 m 356.629 667.867 l S
362.176 667.867 m 362.871 667.867 l S
368.418 667.867 m 369.109 667.867 l S
374.66 667.867 m 375.352 667.867 l S
380.902 667.867 m 381.594 667.867 l S
387.145 667.867 m 387.836 667.867 l S
393.383 667.867 m 394.078 667.867 l S
399.625 667.867 m 400.32 667.867 l S
405.867 667.867 m 406.562 667.867 l S
412.109 667.867 m 412.805 667.867 l S
418.352 667.867 m 419.047 667.867 l S
424.594 667.867 m 425.285 667.867 l S
430.836 667.867 m 431.527 667.867 l S
437.078 667.867 m 437.77 667.867 l S
443.32 667.867 m 444.012 667.867 l S
449.562 667.867 m 450.254 667.867 l S
455.801 667.867 m 456.496 667.867 l S
462.043 667.867 m 462.738 667.867 l S
468.285 667.867 m 468.98 667.867 l S
474.527 667.867 m 475.223 667.867 l S
480.77 667.867 m 481.465 667.867 l S
487.012 667.867 m 487.703 667.867 l S
493.254 667.867 m 493.945 667.867 l S
499.496 667.867 m 500.188 667.867 l S
505.738 667.867 m 506.43 667.867 l S
511.977 667.867 m 512.672 667.867 l S
518.219 667.867 m 518.914 667.867 l S
524.461 667.867 m 525.156 667.867 l S
530.703 667.867 m 531.398 667.867 l S
536.945 667.867 m 537.641 667.867 l S
543.188 667.867 m 543.879 667.867 l S
549.43 667.867 m 550.121 667.867 l S
555.672 667.867 m 556.363 667.867 l S
561.914 667.867 m 562.605 667.867 l S
0 g
128.688 672.426 m 132.758 672.426 l 130.535 668.867 l 131.648 668.867 l
 132.387 668.422 l 132.758 667.977 l 133.125 666.641 l 133.125 665.75 l 
132.758 664.414 l 132.016 663.523 l 130.906 663.078 l 129.797 663.078 l 
128.688 663.523 l 128.316 663.969 l 127.949 664.859 l S
137.934 672.426 m 136.824 671.98 l 136.086 670.648 l 135.715 668.422 l 
135.715 667.086 l 136.086 664.859 l 136.824 663.523 l 137.934 663.078 l 
138.676 663.078 l 139.785 663.523 l 140.523 664.859 l 140.895 667.086 l 
140.895 668.422 l 140.523 670.648 l 139.785 671.98 l 138.676 672.426 l 137.934
 672.426 l S
149.957 728.285 m 146.07 728.285 l S
0.666667 g
149.957 728.285 m 150.648 728.285 l S
156.199 728.285 m 156.891 728.285 l S
162.438 728.285 m 163.133 728.285 l S
168.68 728.285 m 169.375 728.285 l S
174.922 728.285 m 175.617 728.285 l S
181.164 728.285 m 181.859 728.285 l S
187.406 728.285 m 188.102 728.285 l S
193.648 728.285 m 194.34 728.285 l S
199.891 728.285 m 200.582 728.285 l S
206.133 728.285 m 206.824 728.285 l S
212.375 728.285 m 213.066 728.285 l S
218.617 728.285 m 219.309 728.285 l S
224.855 728.285 m 225.551 728.285 l S
231.098 728.285 m 231.793 728.285 l S
237.34 728.285 m 238.035 728.285 l S
243.582 728.285 m 244.277 728.285 l S
249.824 728.285 m 250.52 728.285 l S
256.066 728.285 m 256.758 728.285 l S
262.309 728.285 m 263 728.285 l S
268.551 728.285 m 269.242 728.285 l S
274.793 728.285 m 275.484 728.285 l S
281.031 728.285 m 281.727 728.285 l S
287.273 728.285 m 287.969 728.285 l S
293.516 728.285 m 294.211 728.285 l S
299.758 728.285 m 300.453 728.285 l S
306 728.285 m 306.695 728.285 l S
312.242 728.285 m 312.934 728.285 l S
318.484 728.285 m 319.176 728.285 l S
324.727 728.285 m 325.418 728.285 l S
330.969 728.285 m 331.66 728.285 l S
337.207 728.285 m 337.902 728.285 l S
343.449 728.285 m 344.145 728.285 l S
349.691 728.285 m 350.387 728.285 l S
355.934 728.285 m 356.629 728.285 l S
362.176 728.285 m 362.871 728.285 l S
368.418 728.285 m 369.109 728.285 l S
374.66 728.285 m 375.352 728.285 l S
380.902 728.285 m 381.594 728.285 l S
387.145 728.285 m 387.836 728.285 l S
393.383 728.285 m 394.078 728.285 l S
399.625 728.285 m 400.32 728.285 l S
405.867 728.285 m 406.562 728.285 l S
412.109 728.285 m 412.805 728.285 l S
418.352 728.285 m 419.047 728.285 l S
424.594 728.285 m 425.285 728.285 l S
430.836 728.285 m 431.527 728.285 l S
437.078 728.285 m 437.77 728.285 l S
443.32 728.285 m 444.012 728.285 l S
449.562 728.285 m 450.254 728.285 l S
455.801 728.285 m 456.496 728.285 l S
462.043 728.285 m 462.738 728.285 l S
468.285 728.285 m 468.98 728.285 l S
474.527 728.285 m 475.223 728.285 l S
480.77 728.285 m 481.465 728.285 l S
487.012 728.285 m 487.703 728.285 l S
493.254 728.285 m 493.945 728.285 l S
499.496 728.285 m 500.188 728.285 l S
505.738 728.285 m 506.43 728.285 l S
511.977 728.285 m 512.672 728.285 l S
518.219 728.285 m 518.914 728.285 l S
524.461 728.285 m 525.156 728.285 l S
530.703 728.285 m 531.398 728.285 l S
536.945 728.285 m 537.641 728.285 l S
543.188 728.285 m 543.879 728.285 l S
549.43 728.285 m 550.121 728.285 l S
555.672 728.285 m 556.363 728.285 l S
561.914 728.285 m 562.605 728.285 l S
0 g
128.688 732.844 m 132.758 732.844 l 130.535 729.281 l 131.648 729.281 l
 132.387 728.836 l 132.758 728.391 l 133.125 727.055 l 133.125 726.164 l
 132.758 724.828 l 132.016 723.938 l 130.906 723.492 l 129.797 723.492 l
 128.688 723.938 l 128.316 724.383 l 127.949 725.273 l S
136.086 730.617 m 136.086 731.062 l 136.457 731.953 l 136.824 732.398 l
 137.566 732.844 l 139.043 732.844 l 139.785 732.398 l 140.152 731.953 l
 140.523 731.062 l 140.523 730.172 l 140.152 729.281 l 139.414 727.945 l
 135.715 723.492 l 140.895 723.492 l S
20.371 19.91 m 20.074 20.547 l 19.48 21.184 l 18.887 21.5 l 17.699 21.5
 l 17.102 21.184 l 16.508 20.547 l 16.211 19.91 l 15.914 18.957 l 15.914
 17.367 l 16.211 16.414 l 16.508 15.777 l 17.102 15.141 l 17.699 14.824 
l 18.887 14.824 l 19.48 15.141 l 20.074 15.777 l 20.371 16.414 l 20.371 
17.367 l S
18.887 17.367 m 20.371 17.367 l S
22.41 19.277 m 22.41 14.824 l S
22.41 17.367 m 22.707 18.32 l 23.301 18.957 l 23.895 19.277 l 24.785 19.277
 l S
28.137 21.5 m 25.758 14.824 l S
28.137 21.5 m 30.516 14.824 l S
26.652 17.051 m 29.625 17.051 l S
32.141 21.5 m 32.141 14.824 l S
32.141 21.5 m 34.223 21.5 l 35.113 21.184 l 35.711 20.547 l 36.008 19.91
 l 36.305 18.957 l 36.305 17.367 l 36.008 16.414 l 35.711 15.777 l 35.113
 15.141 l 34.223 14.824 l 32.141 14.824 l S
42.703 20.547 m 42.105 21.184 l 41.215 21.5 l 40.027 21.5 l 39.137 21.184
 l 38.539 20.547 l 38.539 19.91 l 38.836 19.277 l 39.137 18.957 l 39.73 
18.641 l 41.512 18.004 l 42.105 17.688 l 42.406 17.367 l 42.703 16.73 l 
42.703 15.777 l 42.105 15.141 l 41.215 14.824 l 40.027 14.824 l 39.137 15.141
 l 38.539 15.777 l S
49.852 22.773 m 44.5 12.598 l S
56.262 19.91 m 55.965 20.547 l 55.371 21.184 l 54.777 21.5 l 53.586 21.5
 l 52.992 21.184 l 52.398 20.547 l 52.102 19.91 l 51.805 18.957 l 51.805
 17.367 l 52.102 16.414 l 52.398 15.777 l 52.992 15.141 l 53.586 14.824 
l 54.777 14.824 l 55.371 15.141 l 55.965 15.777 l 56.262 16.414 l S
60 21.5 m 59.406 21.184 l 58.812 20.547 l 58.516 19.91 l 58.219 18.957 
l 58.219 17.367 l 58.516 16.414 l 58.812 15.777 l 59.406 15.141 l 60 14.824
 l 61.188 14.824 l 61.785 15.141 l 62.379 15.777 l 62.676 16.414 l 62.973
 17.367 l 62.973 18.957 l 62.676 19.91 l 62.379 20.547 l 61.785 21.184 l
 61.188 21.5 l 60 21.5 l S
64.898 21.5 m 64.898 14.824 l S
64.898 14.824 m 68.465 14.824 l S
72.141 21.5 m 69.766 14.824 l S
72.141 21.5 m 74.52 14.824 l S
70.656 17.051 m 73.629 17.051 l S
484.188 19.91 m 484.188 20.23 l 484.484 20.867 l 484.781 21.184 l 485.375
 21.5 l 486.566 21.5 l 487.16 21.184 l 487.457 20.867 l 487.754 20.23 l 
487.754 19.594 l 487.457 18.957 l 486.863 18.004 l 483.891 14.824 l 488.051
 14.824 l S
491.914 21.5 m 491.023 21.184 l 490.43 20.23 l 490.133 18.641 l 490.133
 17.688 l 490.43 16.098 l 491.023 15.141 l 491.914 14.824 l 492.512 14.824
 l 493.402 15.141 l 493.996 16.098 l 494.293 17.688 l 494.293 18.641 l 493.996
 20.23 l 493.402 21.184 l 492.512 21.5 l 491.914 21.5 l S
496.672 19.91 m 496.672 20.23 l 496.969 20.867 l 497.266 21.184 l 497.859
 21.5 l 499.051 21.5 l 499.645 21.184 l 499.941 20.867 l 500.238 20.23 l
 500.238 19.594 l 499.941 18.957 l 499.348 18.004 l 496.375 14.824 l 500.535
 14.824 l S
502.914 19.91 m 502.914 20.23 l 503.211 20.867 l 503.508 21.184 l 504.102
 21.5 l 505.289 21.5 l 505.887 21.184 l 506.184 20.867 l 506.48 20.23 l 
506.48 19.594 l 506.184 18.957 l 505.586 18.004 l 502.617 14.824 l 506.777
 14.824 l S
509.199 17.688 m 514.551 17.688 l S
517.863 20.23 m 518.457 20.547 l 519.348 21.5 l 519.348 14.824 l S
524.996 21.5 m 524.105 21.184 l 523.512 20.23 l 523.215 18.641 l 523.215
 17.688 l 523.512 16.098 l 524.105 15.141 l 524.996 14.824 l 525.59 14.824
 l 526.484 15.141 l 527.078 16.098 l 527.375 17.688 l 527.375 18.641 l 527.078
 20.23 l 526.484 21.184 l 525.59 21.5 l 524.996 21.5 l S
529.797 17.688 m 535.148 17.688 l S
537.867 19.91 m 537.867 20.23 l 538.164 20.867 l 538.461 21.184 l 539.055
 21.5 l 540.246 21.5 l 540.84 21.184 l 541.137 20.867 l 541.434 20.23 l 
541.434 19.594 l 541.137 18.957 l 540.543 18.004 l 537.57 14.824 l 541.73
 14.824 l S
544.703 20.23 m 545.297 20.547 l 546.188 21.5 l 546.188 14.824 l S
550.395 17.688 m 555.746 17.688 l S
558.465 19.91 m 558.465 20.23 l 558.762 20.867 l 559.059 21.184 l 559.652
 21.5 l 560.844 21.5 l 561.438 21.184 l 561.734 20.867 l 562.031 20.23 l
 562.031 19.594 l 561.734 18.957 l 561.141 18.004 l 558.168 14.824 l 562.328
 14.824 l S
566.191 21.5 m 565.301 21.184 l 564.707 20.23 l 564.41 18.641 l 564.41 
17.688 l 564.707 16.098 l 565.301 15.141 l 566.191 14.824 l 566.785 14.824
 l 567.68 15.141 l 568.273 16.098 l 568.57 17.688 l 568.57 18.641 l 568.273
 20.23 l 567.68 21.184 l 566.785 21.5 l 566.191 21.5 l S
571.172 19.277 m 570.875 18.957 l 571.172 18.641 l 571.469 18.957 l 571.172
 19.277 l S
571.172 15.461 m 570.875 15.141 l 571.172 14.824 l 571.469 15.141 l 571.172
 15.461 l S
575.555 21.5 m 574.664 21.184 l 574.07 20.23 l 573.773 18.641 l 573.773
 17.688 l 574.07 16.098 l 574.664 15.141 l 575.555 14.824 l 576.148 14.824
 l 577.043 15.141 l 577.637 16.098 l 577.934 17.688 l 577.934 18.641 l 577.637
 20.23 l 577.043 21.184 l 576.148 21.5 l 575.555 21.5 l S
580.312 19.91 m 580.312 20.23 l 580.609 20.867 l 580.906 21.184 l 581.5
 21.5 l 582.688 21.5 l 583.281 21.184 l 583.582 20.867 l 583.879 20.23 l
 583.879 19.594 l 583.582 18.957 l 582.984 18.004 l 580.012 14.824 l 584.176
 14.824 l S
1.5 w
128.918 754.797 m 127.598 756.32 l 125.617 757.086 l 122.973 757.086 l 
120.992 756.32 l 119.672 754.797 l 119.672 753.27 l 120.332 751.742 l 120.992
 750.98 l 122.312 750.215 l 126.277 748.691 l 127.598 747.926 l 128.258 
747.164 l 128.918 745.637 l 128.918 743.348 l 127.598 741.82 l 125.617 741.059
 l 122.973 741.059 l 120.992 741.82 l 119.672 743.348 l S
133.891 757.086 m 133.891 741.059 l S
133.891 757.086 m 138.512 757.086 l 140.496 756.32 l 141.816 754.797 l 
142.477 753.27 l 143.137 750.98 l 143.137 747.164 l 142.477 744.875 l 141.816
 743.348 l 140.496 741.82 l 138.512 741.059 l 133.891 741.059 l S
148.074 757.086 m 148.074 741.059 l S
148.074 757.086 m 156.66 757.086 l S
148.074 749.453 m 153.359 749.453 l S
164.586 757.086 m 163.266 756.32 l 161.945 754.797 l 161.285 753.27 l 160.621
 750.98 l 160.621 747.164 l 161.285 744.875 l 161.945 743.348 l 163.266 
741.82 l 164.586 741.059 l 167.227 741.059 l 168.551 741.82 l 169.871 743.348
 l 170.531 744.875 l 171.191 747.164 l 171.191 750.98 l 170.531 753.27 l
 169.871 754.797 l 168.551 756.32 l 167.227 757.086 l 164.586 757.086 l S
176.195 757.086 m 176.195 741.059 l S
176.195 757.086 m 182.141 757.086 l 184.121 756.32 l 184.781 755.559 l 
185.441 754.031 l 185.441 751.742 l 184.781 750.215 l 184.121 749.453 l 
182.141 748.691 l 176.195 748.691 l S
190.727 757.086 m 190.727 741.059 l S
190.727 757.086 m 199.312 757.086 l S
190.727 749.453 m 196.008 749.453 l S
190.727 741.059 m 199.312 741.059 l S
204.281 757.086 m 204.281 741.059 l S
204.281 757.086 m 213.531 741.059 l S
213.531 757.086 m 213.531 741.059 l S
234.566 757.086 m 234.566 741.059 l S
229.941 757.086 m 239.191 757.086 l S
244.406 754.031 m 245.73 754.797 l 247.711 757.086 l 247.711 741.059 l S
260.262 757.086 m 258.277 756.32 l 256.957 754.031 l 256.297 750.215 l 
256.297 747.926 l 256.957 744.113 l 258.277 741.82 l 260.262 741.059 l 261.582
 741.059 l 263.562 741.82 l 264.883 744.113 l 265.543 747.926 l 265.543 
750.215 l 264.883 754.031 l 263.562 756.32 l 261.582 757.086 l 260.262 757.086
 l S
274.129 757.086 m 272.148 756.32 l 270.828 754.031 l 270.168 750.215 l 
270.168 747.926 l 270.828 744.113 l 272.148 741.82 l 274.129 741.059 l 275.453
 741.059 l 277.434 741.82 l 278.754 744.113 l 279.414 747.926 l 279.414 
750.215 l 278.754 754.031 l 277.434 756.32 l 275.453 757.086 l 274.129 757.086
 l S
288 757.086 m 286.02 756.32 l 284.699 754.031 l 284.039 750.215 l 284.039
 747.926 l 284.699 744.113 l 286.02 741.82 l 288 741.059 l 289.324 741.059
 l 291.305 741.82 l 292.625 744.113 l 293.285 747.926 l 293.285 750.215 
l 292.625 754.031 l 291.305 756.32 l 289.324 757.086 l 288 757.086 l S
311.715 757.086 m 318.98 757.086 l 315.016 750.98 l 316.996 750.98 l 318.32
 750.215 l 318.98 749.453 l 319.641 747.164 l 319.641 745.637 l 318.98 743.348
 l 317.656 741.82 l 315.676 741.059 l 313.695 741.059 l 311.715 741.82 l
 311.055 742.586 l 310.391 744.113 l S
326.246 754.031 m 327.566 754.797 l 329.547 757.086 l 329.547 741.059 l
 S
339.289 742.586 m 338.629 741.82 l 339.289 741.059 l 339.949 741.82 l 339.289
 742.586 l S
353.656 751.742 m 352.996 749.453 l 351.676 747.926 l 349.691 747.164 l
 349.031 747.164 l 347.051 747.926 l 345.73 749.453 l 345.07 751.742 l 345.07
 752.508 l 345.73 754.797 l 347.051 756.32 l 349.031 757.086 l 349.691 757.086
 l 351.676 756.32 l 352.996 754.797 l 353.656 751.742 l 353.656 747.926 
l 352.996 744.113 l 351.676 741.82 l 349.691 741.059 l 348.371 741.059 l
 346.391 741.82 l 345.73 743.348 l S
367.527 751.742 m 366.867 749.453 l 365.543 747.926 l 363.562 747.164 l
 362.902 747.164 l 360.922 747.926 l 359.602 749.453 l 358.938 751.742 l
 358.938 752.508 l 359.602 754.797 l 360.922 756.32 l 362.902 757.086 l 
363.562 757.086 l 365.543 756.32 l 366.867 754.797 l 367.527 751.742 l 367.527
 747.926 l 366.867 744.113 l 365.543 741.82 l 363.562 741.059 l 362.242 
741.059 l 360.262 741.82 l 359.602 743.348 l S
376.113 757.086 m 374.133 756.32 l 373.469 754.797 l 373.469 753.27 l 374.133
 751.742 l 375.453 750.98 l 378.094 750.215 l 380.074 749.453 l 381.398 
747.926 l 382.059 746.402 l 382.059 744.113 l 381.398 742.586 l 380.734 
741.82 l 378.754 741.059 l 376.113 741.059 l 374.133 741.82 l 373.469 742.586
 l 372.809 744.113 l 372.809 746.402 l 373.469 747.926 l 374.793 749.453
 l 376.773 750.215 l 379.414 750.98 l 380.734 751.742 l 381.398 753.27 l
 381.398 754.797 l 380.734 756.32 l 378.754 757.086 l 376.113 757.086 l S
390.645 757.086 m 388.66 756.32 l 387.34 754.031 l 386.68 750.215 l 386.68
 747.926 l 387.34 744.113 l 388.66 741.82 l 390.645 741.059 l 391.965 741.059
 l 393.945 741.82 l 395.266 744.113 l 395.926 747.926 l 395.926 750.215 
l 395.266 754.031 l 393.945 756.32 l 391.965 757.086 l 390.645 757.086 l
 S
408.477 757.086 m 401.871 757.086 l 401.211 750.215 l 401.871 750.98 l 
403.855 751.742 l 405.836 751.742 l 407.816 750.98 l 409.137 749.453 l 409.797
 747.164 l 409.797 745.637 l 409.137 743.348 l 407.816 741.82 l 405.836 
741.059 l 403.855 741.059 l 401.871 741.82 l 401.211 742.586 l 400.551 744.113
 l S
423.008 754.797 m 422.348 756.32 l 420.367 757.086 l 419.047 757.086 l 
417.062 756.32 l 415.742 754.031 l 415.082 750.215 l 415.082 746.402 l 415.742
 743.348 l 417.062 741.82 l 419.047 741.059 l 419.707 741.059 l 421.688 
741.82 l 423.008 743.348 l 423.668 745.637 l 423.668 746.402 l 423.008 748.691
 l 421.688 750.215 l 419.707 750.98 l 419.047 750.98 l 417.062 750.215 l
 415.742 748.691 l 415.082 746.402 l S
428.984 757.086 m 428.984 741.059 l S
428.984 757.086 m 438.234 741.059 l S
438.234 757.086 m 438.234 741.059 l S
458.016 754.031 m 459.336 754.797 l 461.316 757.086 l 461.316 741.059 l
 S
470.566 753.27 m 470.566 754.031 l 471.227 755.559 l 471.887 756.32 l 473.207
 757.086 l 475.848 757.086 l 477.168 756.32 l 477.832 755.559 l 478.492 
754.031 l 478.492 752.508 l 477.832 750.98 l 476.508 748.691 l 469.902 741.059
 l 479.152 741.059 l S
487.078 757.086 m 485.094 756.32 l 484.434 754.797 l 484.434 753.27 l 485.094
 751.742 l 486.418 750.98 l 489.059 750.215 l 491.039 749.453 l 492.359 
747.926 l 493.023 746.402 l 493.023 744.113 l 492.359 742.586 l 491.699 
741.82 l 489.719 741.059 l 487.078 741.059 l 485.094 741.82 l 484.434 742.586
 l 483.773 744.113 l 483.773 746.402 l 484.434 747.926 l 485.758 749.453
 l 487.738 750.215 l 490.379 750.98 l 491.699 751.742 l 492.359 753.27 l
 492.359 754.797 l 491.699 756.32 l 489.719 757.086 l 487.078 757.086 l S
498.801 742.586 m 498.141 741.82 l 498.801 741.059 l 499.461 741.82 l 498.801
 742.586 l S
505.902 757.086 m 513.168 757.086 l 509.203 750.98 l 511.188 750.98 l 512.508
 750.215 l 513.168 749.453 l 513.828 747.164 l 513.828 745.637 l 513.168
 743.348 l 511.848 741.82 l 509.863 741.059 l 507.883 741.059 l 505.902 
741.82 l 505.242 742.586 l 504.582 744.113 l S
526.379 757.086 m 519.773 757.086 l 519.113 750.215 l 519.773 750.98 l 
521.754 751.742 l 523.734 751.742 l 525.715 750.98 l 527.039 749.453 l 527.699
 747.164 l 527.699 745.637 l 527.039 743.348 l 525.715 741.82 l 523.734 
741.059 l 521.754 741.059 l 519.773 741.82 l 519.113 742.586 l 518.453 744.113
 l S
536.285 757.086 m 534.305 756.32 l 532.98 754.031 l 532.32 750.215 l 532.32
 747.926 l 532.98 744.113 l 534.305 741.82 l 536.285 741.059 l 537.605 741.059
 l 539.586 741.82 l 540.91 744.113 l 541.57 747.926 l 541.57 750.215 l 540.91
 754.031 l 539.586 756.32 l 537.605 757.086 l 536.285 757.086 l S
549.496 757.086 m 547.512 756.32 l 546.852 754.797 l 546.852 753.27 l 547.512
 751.742 l 548.836 750.98 l 551.477 750.215 l 553.457 749.453 l 554.777 
747.926 l 555.438 746.402 l 555.438 744.113 l 554.777 742.586 l 554.117 
741.82 l 552.137 741.059 l 549.496 741.059 l 547.512 741.82 l 546.852 742.586
 l 546.191 744.113 l 546.191 746.402 l 546.852 747.926 l 548.176 749.453
 l 550.156 750.215 l 552.797 750.98 l 554.117 751.742 l 554.777 753.27 l
 554.777 754.797 l 554.117 756.32 l 552.137 757.086 l 549.496 757.086 l S
561.383 757.086 m 568.648 757.086 l 564.688 750.98 l 566.668 750.98 l 567.988
 750.215 l 568.648 749.453 l 569.309 747.164 l 569.309 745.637 l 568.648
 743.348 l 567.328 741.82 l 565.348 741.059 l 563.367 741.059 l 561.383 
741.82 l 560.723 742.586 l 560.062 744.113 l S
575.254 757.086 m 582.52 757.086 l 578.559 750.98 l 580.539 750.98 l 581.859
 750.215 l 582.52 749.453 l 583.18 747.164 l 583.18 745.637 l 582.52 743.348
 l 581.199 741.82 l 579.219 741.059 l 577.234 741.059 l 575.254 741.82 l
 574.594 742.586 l 573.934 744.113 l S
588.117 757.086 m 588.117 741.059 l S
588.117 757.086 m 596.703 757.086 l S
588.117 749.453 m 593.402 749.453 l S
588.117 741.059 m 596.703 741.059 l S
Q Q
showpage
%%Trailer
end restore
%%EOF
