%!PS-Adobe-3.0 EPSF-3.0
%%Creator: cairo 1.12.16 (http://cairographics.org)
%%CreationDate: Thu Dec  8 16:11:15 2022
%%Pages: 1
%%DocumentData: Clean7Bit
%%LanguageLevel: 2
%%BoundingBox: 0 0 612 792
%%EndComments
%%BeginProlog
save
50 dict begin
/q { gsave } bind def
/Q { grestore } bind def
/cm { 6 array astore concat } bind def
/w { setlinewidth } bind def
/J { setlinecap } bind def
/j { setlinejoin } bind def
/M { setmiterlimit } bind def
/d { setdash } bind def
/m { moveto } bind def
/l { lineto } bind def
/c { curveto } bind def
/h { closepath } bind def
/re { exch dup neg 3 1 roll 5 3 roll moveto 0 rlineto
      0 exch rlineto 0 rlineto closepath } bind def
/S { stroke } bind def
/f { fill } bind def
/f* { eofill } bind def
/n { newpath } bind def
/W { clip } bind def
/W* { eoclip } bind def
/BT { } bind def
/ET { } bind def
/pdfmark where { pop globaldict /?pdfmark /exec load put }
    { globaldict begin /?pdfmark /pop load def /pdfmark
    /cleartomark load def end } ifelse
/BDC { mark 3 1 roll /BDC pdfmark } bind def
/EMC { mark /EMC pdfmark } bind def
/cairo_store_point { /cairo_point_y exch def /cairo_point_x exch def } def
/Tj { show currentpoint cairo_store_point } bind def
/TJ {
  {
    dup
    type /stringtype eq
    { show } { -0.001 mul 0 cairo_font_matrix dtransform rmoveto } ifelse
  } forall
  currentpoint cairo_store_point
} bind def
/cairo_selectfont { cairo_font_matrix aload pop pop pop 0 0 6 array astore
    cairo_font exch selectfont cairo_point_x cairo_point_y moveto } bind def
/Tf { pop /cairo_font exch def /cairo_font_matrix where
      { pop cairo_selectfont } if } bind def
/Td { matrix translate cairo_font_matrix matrix concatmatrix dup
      /cairo_font_matrix exch def dup 4 get exch 5 get cairo_store_point
      /cairo_font where { pop cairo_selectfont } if } bind def
/Tm { 2 copy 8 2 roll 6 array astore /cairo_font_matrix exch def
      cairo_store_point /cairo_font where { pop cairo_selectfont } if } bind def
/g { setgray } bind def
/rg { setrgbcolor } bind def
/d1 { setcachedevice } bind def
%%EndProlog
%%Page: 1 1
%%BeginPageSetup
%%PageBoundingBox: 0 0 612 792
%%EndPageSetup
q 0 0 612 792 rectclip q
1 g
0 0 612 792 rectfill
0 g
1.5 w
1 J
1 j
[] 0.0 d
10 M 149.957 728.285 416.117 -664.57 re S
1.25 w
149.957 359.352 m 168.871 218.035 l 187.785 245.812 l 206.699 433.328 l
 225.613 641.031 l 244.527 584.938 l 263.441 628.566 l 282.355 625.449 l
 301.27 221.832 l 320.188 164.113 l 339.102 164.113 l 358.016 155.035 l 
376.93 157.473 l 395.844 153.68 l 414.758 154.086 l 433.672 154.762 l 452.586
 154.762 l 471.5 152.324 l 490.414 152.461 l 509.332 153.41 l 528.246 152.73
 l 547.16 152.73 l 566.074 153.004 l S
187.785 63.715 m 187.785 59.797 l S
179.648 56.523 m 178.539 56.078 l 177.797 54.742 l 177.43 52.516 l 177.43
 51.18 l 177.797 48.953 l 178.539 47.617 l 179.648 47.172 l 180.387 47.172
 l 181.496 47.617 l 182.238 48.953 l 182.605 51.18 l 182.605 52.516 l 182.238
 54.742 l 181.496 56.078 l 180.387 56.523 l 179.648 56.523 l S
185.934 56.523 m 190.004 56.523 l 187.785 52.961 l 188.895 52.961 l 189.633
 52.516 l 190.004 52.07 l 190.375 50.734 l 190.375 49.844 l 190.004 48.508
 l 189.266 47.617 l 188.156 47.172 l 187.047 47.172 l 185.934 47.617 l 185.566
 48.062 l 185.195 48.953 l S
198.141 56.523 m 192.965 47.172 l S
192.965 56.523 m 198.141 56.523 l S
192.965 47.172 m 198.141 47.172 l S
170.574 41.031 m 171.316 41.477 l 172.426 42.812 l 172.426 33.461 l S
180.934 42.812 m 177.234 36.578 l 182.781 36.578 l S
180.934 42.812 m 180.934 33.461 l S
187.203 42.812 m 184.242 33.461 l S
187.203 42.812 m 190.16 33.461 l S
185.352 36.578 m 189.051 36.578 l S
192.379 42.812 m 192.379 36.133 l 192.75 34.797 l 193.488 33.906 l 194.602
 33.461 l 195.34 33.461 l 196.449 33.906 l 197.188 34.797 l 197.559 36.133
 l 197.559 42.812 l S
206.277 40.586 m 205.91 41.477 l 205.168 42.367 l 204.43 42.812 l 202.949
 42.812 l 202.211 42.367 l 201.469 41.477 l 201.102 40.586 l 200.73 39.25
 l 200.73 37.023 l 201.102 35.688 l 201.469 34.797 l 202.211 33.906 l 202.949
 33.461 l 204.43 33.461 l 205.168 33.906 l 205.91 34.797 l 206.277 35.688
 l 206.277 37.023 l S
204.43 37.023 m 206.277 37.023 l S
173.914 26.875 m 173.914 27.32 l 174.285 28.211 l 174.652 28.656 l 175.395
 29.102 l 176.875 29.102 l 177.613 28.656 l 177.984 28.211 l 178.352 27.32
 l 178.352 26.43 l 177.984 25.539 l 177.242 24.203 l 173.543 19.75 l 178.723
 19.75 l S
183.531 29.102 m 182.422 28.656 l 181.684 27.32 l 181.312 25.094 l 181.312
 23.758 l 181.684 21.531 l 182.422 20.195 l 183.531 19.75 l 184.27 19.75
 l 185.379 20.195 l 186.121 21.531 l 186.488 23.758 l 186.488 25.094 l 186.121
 27.32 l 185.379 28.656 l 184.27 29.102 l 183.531 29.102 l S
189.449 26.875 m 189.449 27.32 l 189.82 28.211 l 190.188 28.656 l 190.93
 29.102 l 192.41 29.102 l 193.148 28.656 l 193.52 28.211 l 193.887 27.32
 l 193.887 26.43 l 193.52 25.539 l 192.777 24.203 l 189.078 19.75 l 194.258
 19.75 l S
197.957 27.32 m 198.695 27.766 l 199.805 29.102 l 199.805 19.75 l S
244.527 63.715 m 244.527 59.797 l S
236.391 56.523 m 235.281 56.078 l 234.543 54.742 l 234.172 52.516 l 234.172
 51.18 l 234.543 48.953 l 235.281 47.617 l 236.391 47.172 l 237.129 47.172
 l 238.238 47.617 l 238.98 48.953 l 239.352 51.18 l 239.352 52.516 l 238.98
 54.742 l 238.238 56.078 l 237.129 56.523 l 236.391 56.523 l S
246.746 55.188 m 246.379 56.078 l 245.27 56.523 l 244.527 56.523 l 243.418
 56.078 l 242.68 54.742 l 242.309 52.516 l 242.309 50.289 l 242.68 48.508
 l 243.418 47.617 l 244.527 47.172 l 244.898 47.172 l 246.008 47.617 l 246.746
 48.508 l 247.117 49.844 l 247.117 50.289 l 246.746 51.625 l 246.008 52.516
 l 244.898 52.961 l 244.527 52.961 l 243.418 52.516 l 242.68 51.625 l 242.309
 50.289 l S
254.887 56.523 m 249.707 47.172 l S
249.707 56.523 m 254.887 56.523 l S
249.707 47.172 m 254.887 47.172 l S
301.27 63.715 m 301.27 59.797 l S
293.133 56.523 m 292.023 56.078 l 291.285 54.742 l 290.914 52.516 l 290.914
 51.18 l 291.285 48.953 l 292.023 47.617 l 293.133 47.172 l 293.875 47.172
 l 294.984 47.617 l 295.723 48.953 l 296.094 51.18 l 296.094 52.516 l 295.723
 54.742 l 294.984 56.078 l 293.875 56.523 l 293.133 56.523 l S
303.492 53.406 m 303.121 52.07 l 302.383 51.18 l 301.27 50.734 l 300.902
 50.734 l 299.793 51.18 l 299.051 52.07 l 298.684 53.406 l 298.684 53.852
 l 299.051 55.188 l 299.793 56.078 l 300.902 56.523 l 301.27 56.523 l 302.383
 56.078 l 303.121 55.188 l 303.492 53.406 l 303.492 51.18 l 303.121 48.953
 l 302.383 47.617 l 301.27 47.172 l 300.531 47.172 l 299.422 47.617 l 299.051
 48.508 l S
311.629 56.523 m 306.449 47.172 l S
306.449 56.523 m 311.629 56.523 l S
306.449 47.172 m 311.629 47.172 l S
358.016 63.715 m 358.016 59.797 l S
348.77 54.742 m 349.508 55.188 l 350.617 56.523 l 350.617 47.172 l S
355.797 54.297 m 355.797 54.742 l 356.164 55.633 l 356.535 56.078 l 357.273
 56.523 l 358.754 56.523 l 359.496 56.078 l 359.863 55.633 l 360.234 54.742
 l 360.234 53.852 l 359.863 52.961 l 359.125 51.625 l 355.426 47.172 l 360.605
 47.172 l S
368.371 56.523 m 363.191 47.172 l S
363.191 56.523 m 368.371 56.523 l S
363.191 47.172 m 368.371 47.172 l S
414.758 63.715 m 414.758 59.797 l S
405.512 54.742 m 406.25 55.188 l 407.359 56.523 l 407.359 47.172 l S
416.609 56.523 m 412.91 56.523 l 412.539 52.516 l 412.91 52.961 l 414.02
 53.406 l 415.129 53.406 l 416.238 52.961 l 416.977 52.07 l 417.348 50.734
 l 417.348 49.844 l 416.977 48.508 l 416.238 47.617 l 415.129 47.172 l 414.02
 47.172 l 412.91 47.617 l 412.539 48.062 l 412.168 48.953 l S
425.113 56.523 m 419.938 47.172 l S
419.938 56.523 m 425.113 56.523 l S
419.938 47.172 m 425.113 47.172 l S
471.5 63.715 m 471.5 59.797 l S
462.254 54.742 m 462.992 55.188 l 464.105 56.523 l 464.105 47.172 l S
470.762 56.523 m 469.652 56.078 l 469.281 55.188 l 469.281 54.297 l 469.652
 53.406 l 470.391 52.961 l 471.871 52.516 l 472.98 52.07 l 473.719 51.18
 l 474.09 50.289 l 474.09 48.953 l 473.719 48.062 l 473.352 47.617 l 472.242
 47.172 l 470.762 47.172 l 469.652 47.617 l 469.281 48.062 l 468.914 48.953
 l 468.914 50.289 l 469.281 51.18 l 470.023 52.07 l 471.133 52.516 l 472.609
 52.961 l 473.352 53.406 l 473.719 54.297 l 473.719 55.188 l 473.352 56.078
 l 472.242 56.523 l 470.762 56.523 l S
481.859 56.523 m 476.68 47.172 l S
476.68 56.523 m 481.859 56.523 l S
476.68 47.172 m 481.859 47.172 l S
528.246 63.715 m 528.246 59.797 l S
518.258 54.297 m 518.258 54.742 l 518.629 55.633 l 518.996 56.078 l 519.738
 56.523 l 521.219 56.523 l 521.957 56.078 l 522.328 55.633 l 522.695 54.742
 l 522.695 53.852 l 522.328 52.961 l 521.586 51.625 l 517.887 47.172 l 523.066
 47.172 l S
526.766 54.742 m 527.504 55.188 l 528.613 56.523 l 528.613 47.172 l S
538.602 56.523 m 533.422 47.172 l S
533.422 56.523 m 538.602 56.523 l S
533.422 47.172 m 538.602 47.172 l S
149.957 85.867 m 146.07 85.867 l S
126.043 85.086 m 132.699 85.086 l S
136.457 90.426 m 140.523 90.426 l 138.305 86.867 l 139.414 86.867 l 140.152
 86.422 l 140.523 85.977 l 140.895 84.641 l 140.895 83.75 l 140.523 82.414
 l 139.785 81.523 l 138.676 81.078 l 137.566 81.078 l 136.457 81.523 l 136.086
 81.969 l 135.715 82.859 l S
149.957 152.324 m 146.07 152.324 l S
137.934 156.883 m 136.824 156.438 l 136.086 155.102 l 135.715 152.879 l
 135.715 151.543 l 136.086 149.316 l 136.824 147.98 l 137.934 147.535 l 
138.676 147.535 l 139.785 147.98 l 140.523 149.316 l 140.895 151.543 l 140.895
 152.879 l 140.523 155.102 l 139.785 156.438 l 138.676 156.883 l 137.934
 156.883 l S
149.957 218.781 m 146.07 218.781 l S
136.457 223.34 m 140.523 223.34 l 138.305 219.777 l 139.414 219.777 l 140.152
 219.332 l 140.523 218.887 l 140.895 217.555 l 140.895 216.664 l 140.523
 215.328 l 139.785 214.438 l 138.676 213.992 l 137.566 213.992 l 136.457
 214.438 l 136.086 214.883 l 135.715 215.773 l S
149.957 285.238 m 146.07 285.238 l S
140.523 288.461 m 140.152 289.352 l 139.043 289.797 l 138.305 289.797 l
 137.195 289.352 l 136.457 288.016 l 136.086 285.789 l 136.086 283.566 l
 136.457 281.785 l 137.195 280.895 l 138.305 280.449 l 138.676 280.449 l
 139.785 280.895 l 140.523 281.785 l 140.895 283.121 l 140.895 283.566 l
 140.523 284.898 l 139.785 285.789 l 138.676 286.234 l 138.305 286.234 l
 137.195 285.789 l 136.457 284.898 l 136.086 283.566 l S
149.957 351.695 m 146.07 351.695 l S
140.523 353.137 m 140.152 351.801 l 139.414 350.91 l 138.305 350.465 l 
137.934 350.465 l 136.824 350.91 l 136.086 351.801 l 135.715 353.137 l 135.715
 353.582 l 136.086 354.918 l 136.824 355.809 l 137.934 356.254 l 138.305
 356.254 l 139.414 355.809 l 140.152 354.918 l 140.523 353.137 l 140.523
 350.91 l 140.152 348.688 l 139.414 347.352 l 138.305 346.906 l 137.566 
346.906 l 136.457 347.352 l 136.086 348.242 l S
149.957 418.152 m 146.07 418.152 l S
129.059 420.93 m 129.797 421.375 l 130.906 422.711 l 130.906 413.363 l S
136.086 420.484 m 136.086 420.93 l 136.457 421.82 l 136.824 422.266 l 137.566
 422.711 l 139.043 422.711 l 139.785 422.266 l 140.152 421.82 l 140.523 
420.93 l 140.523 420.039 l 140.152 419.148 l 139.414 417.812 l 135.715 413.363
 l 140.895 413.363 l S
149.957 484.609 m 146.07 484.609 l S
129.059 487.387 m 129.797 487.832 l 130.906 489.168 l 130.906 479.82 l S
140.152 489.168 m 136.457 489.168 l 136.086 485.16 l 136.457 485.605 l 
137.566 486.051 l 138.676 486.051 l 139.785 485.605 l 140.523 484.715 l 
140.895 483.379 l 140.895 482.488 l 140.523 481.156 l 139.785 480.266 l 
138.676 479.82 l 137.566 479.82 l 136.457 480.266 l 136.086 480.711 l 135.715
 481.602 l S
149.957 551.066 m 146.07 551.066 l S
129.059 553.844 m 129.797 554.289 l 130.906 555.625 l 130.906 546.277 l
 S
137.566 555.625 m 136.457 555.18 l 136.086 554.289 l 136.086 553.398 l 
136.457 552.508 l 137.195 552.062 l 138.676 551.617 l 139.785 551.172 l 
140.523 550.281 l 140.895 549.391 l 140.895 548.055 l 140.523 547.168 l 
140.152 546.723 l 139.043 546.277 l 137.566 546.277 l 136.457 546.723 l 
136.086 547.168 l 135.715 548.055 l 135.715 549.391 l 136.086 550.281 l 
136.824 551.172 l 137.934 551.617 l 139.414 552.062 l 140.152 552.508 l 
140.523 553.398 l 140.523 554.289 l 140.152 555.18 l 139.043 555.625 l 137.566
 555.625 l S
149.957 617.523 m 146.07 617.523 l S
128.316 619.855 m 128.316 620.301 l 128.688 621.191 l 129.059 621.637 l
 129.797 622.082 l 131.277 622.082 l 132.016 621.637 l 132.387 621.191 l
 132.758 620.301 l 132.758 619.41 l 132.387 618.52 l 131.648 617.184 l 127.949
 612.734 l 133.125 612.734 l S
136.824 620.301 m 137.566 620.746 l 138.676 622.082 l 138.676 612.734 l
 S
149.957 683.98 m 146.07 683.98 l S
128.316 686.312 m 128.316 686.758 l 128.688 687.648 l 129.059 688.094 l
 129.797 688.539 l 131.277 688.539 l 132.016 688.094 l 132.387 687.648 l
 132.758 686.758 l 132.758 685.867 l 132.387 684.977 l 131.648 683.641 l
 127.949 679.191 l 133.125 679.191 l S
139.414 688.539 m 135.715 682.305 l 141.262 682.305 l S
139.414 688.539 m 139.414 679.191 l S
1.5 w
320.73 757.086 m 327.996 757.086 l 324.031 750.98 l 326.012 750.98 l 327.336
 750.215 l 327.996 749.453 l 328.656 747.164 l 328.656 745.637 l 327.996
 743.348 l 326.672 741.82 l 324.691 741.059 l 322.711 741.059 l 320.73 741.82
 l 320.07 742.586 l 319.41 744.113 l S
334.602 757.086 m 341.867 757.086 l 337.902 750.98 l 339.883 750.98 l 341.203
 750.215 l 341.867 749.453 l 342.527 747.164 l 342.527 745.637 l 341.867
 743.348 l 340.543 741.82 l 338.562 741.059 l 336.582 741.059 l 334.602 
741.82 l 333.938 742.586 l 333.277 744.113 l S
361.613 754.031 m 362.934 754.797 l 364.918 757.086 l 364.918 741.059 l
 S
374.164 753.27 m 374.164 754.031 l 374.824 755.559 l 375.484 756.32 l 376.805
 757.086 l 379.449 757.086 l 380.77 756.32 l 381.43 755.559 l 382.09 754.031
 l 382.09 752.508 l 381.43 750.98 l 380.109 748.691 l 373.504 741.059 l 
382.75 741.059 l S
395.961 751.742 m 395.301 749.453 l 393.98 747.926 l 391.996 747.164 l 
391.336 747.164 l 389.355 747.926 l 388.035 749.453 l 387.375 751.742 l 
387.375 752.508 l 388.035 754.797 l 389.355 756.32 l 391.336 757.086 l 391.996
 757.086 l 393.98 756.32 l 395.301 754.797 l 395.961 751.742 l 395.961 747.926
 l 395.301 744.113 l 393.98 741.82 l 391.996 741.059 l 390.676 741.059 l
 388.695 741.82 l 388.035 743.348 l S
Q Q
showpage
%%Trailer
end restore
%%EOF
