
Variable: z
Type: double
Total Size: 1024 bytes
            128 values
Number of Dimensions: 4
Dimensions and sizes:	[time | 8] x [p | 16] x [lat | 1] x [lon | 1]
Coordinates: 
            time: [ 0..21]
            p: [1000..100]
            lat: [31.9980555556..31.9980555556]
            lon: [128.350833333..128.350833333]
Number Of Attributes: 3
  standard_name :	geopotential_height
  long_name :	geopotential height
  units :	m

Variable: z1D
Type: double
Total Size: 128 bytes
            16 values
Number of Dimensions: 1
Dimensions and sizes:	[p | 16]
Coordinates: 
            p: [1000..100]
Number Of Attributes: 6
  lon :	128.350833333
  lat :	31.9980555556
  time :	 0
  units :	m
  long_name :	geopotential height
  standard_name :	geopotential_height
TIME_UTC=2022 06 20 00 
p=1000 z=45.19390087876351 u=4.26911
p=975 z=265.7548613685057 u=4.76453
p=950 z=491.0460069928404 u=4.11621
zOBS=100 uITP=4.39222 vITP=-0.331461 wdir=274.316 wspd=4.40471

TIME_UTC=2022 06 20 03 
p=1000 z=53.35712833110792 u=4.70948
p=975 z=273.7615891812018 u=5.00306
p=950 z=499.2299616073087 u=4.34862
zOBS=100 uITP=4.78243 vITP=1.10029 wdir=257.043 wspd=4.90737

TIME_UTC=2022 06 20 06 
p=1000 z=50.58370335366151 u=2.61162
p=975 z=271.0426974884273 u=3.20489
p=950 z=496.6777121811294 u=4.01223
zOBS=100 uITP=2.75904 vITP=2.43544 wdir=228.565 wspd=3.68017

TIME_UTC=2022 06 20 09 
p=1000 z=48.44124656848633 u=-1.07034
p=975 z=269.0878793142707 u=1.21713
p=950 z=495.0796951285577 u=5.7737
zOBS=100 uITP=-0.501936 vITP=3.84261 wdir=172.558 wspd=3.87525

TIME_UTC=2022 06 20 12 
p=1000 z=43.12858763956448 u=-3.22936
p=975 z=264.2200004551691 u=-1.5841
p=950 z=490.1723864340149 u=0.385321
zOBS=100 uITP=-2.82054 vITP=2.48833 wdir=131.419 wspd=3.76128

TIME_UTC=2022 06 20 15 
p=1000 z=39.38097066775212 u=-5.03364
p=975 z=261.3043089277009 u=-2.61774
p=950 z=488.5855354675712 u=1.96942
zOBS=100 uITP=-4.43332 vITP=6.31082 wdir=144.912 wspd=7.71238

TIME_UTC=2022 06 20 18 
p=1000 z=13.42223071960364 u=0.764526
p=975 z=236.0295381779334 u=4.99083
p=950 z=463.2042868700028 u=8.06116
zOBS=100 uITP=1.8147 vITP=7.80299 wdir=193.092 wspd=8.01122

TIME_UTC=2022 06 20 21 
p=1000 z=13.09177475547333 u=5.83486
p=975 z=235.441071268409 u=9.30275
p=950 z=462.6464250380913 u=11.2232
zOBS=100 uITP=6.69658 vITP=5.70112 wdir=229.591 wspd=8.79471

