%!PS-Adobe-3.0 EPSF-3.0
%%Creator: cairo 1.12.16 (http://cairographics.org)
%%CreationDate: Fri Oct 21 17:43:46 2022
%%Pages: 1
%%DocumentData: Clean7Bit
%%LanguageLevel: 2
%%BoundingBox: 0 0 612 792
%%EndComments
%%BeginProlog
save
50 dict begin
/q { gsave } bind def
/Q { grestore } bind def
/cm { 6 array astore concat } bind def
/w { setlinewidth } bind def
/J { setlinecap } bind def
/j { setlinejoin } bind def
/M { setmiterlimit } bind def
/d { setdash } bind def
/m { moveto } bind def
/l { lineto } bind def
/c { curveto } bind def
/h { closepath } bind def
/re { exch dup neg 3 1 roll 5 3 roll moveto 0 rlineto
      0 exch rlineto 0 rlineto closepath } bind def
/S { stroke } bind def
/f { fill } bind def
/f* { eofill } bind def
/n { newpath } bind def
/W { clip } bind def
/W* { eoclip } bind def
/BT { } bind def
/ET { } bind def
/pdfmark where { pop globaldict /?pdfmark /exec load put }
    { globaldict begin /?pdfmark /pop load def /pdfmark
    /cleartomark load def end } ifelse
/BDC { mark 3 1 roll /BDC pdfmark } bind def
/EMC { mark /EMC pdfmark } bind def
/cairo_store_point { /cairo_point_y exch def /cairo_point_x exch def } def
/Tj { show currentpoint cairo_store_point } bind def
/TJ {
  {
    dup
    type /stringtype eq
    { show } { -0.001 mul 0 cairo_font_matrix dtransform rmoveto } ifelse
  } forall
  currentpoint cairo_store_point
} bind def
/cairo_selectfont { cairo_font_matrix aload pop pop pop 0 0 6 array astore
    cairo_font exch selectfont cairo_point_x cairo_point_y moveto } bind def
/Tf { pop /cairo_font exch def /cairo_font_matrix where
      { pop cairo_selectfont } if } bind def
/Td { matrix translate cairo_font_matrix matrix concatmatrix dup
      /cairo_font_matrix exch def dup 4 get exch 5 get cairo_store_point
      /cairo_font where { pop cairo_selectfont } if } bind def
/Tm { 2 copy 8 2 roll 6 array astore /cairo_font_matrix exch def
      cairo_store_point /cairo_font where { pop cairo_selectfont } if } bind def
/g { setgray } bind def
/rg { setrgbcolor } bind def
/d1 { setcachedevice } bind def
%%EndProlog
%%Page: 1 1
%%BeginPageSetup
%%PageBoundingBox: 0 0 612 792
%%EndPageSetup
q 0 0 612 792 rectclip q
1 g
0 0 612 792 rectfill
0 g
1.5 w
1 J
1 j
[] 0.0 d
10 M 149.957 728.285 416.117 -664.57 re S
1.25 w
149.957 574.441 m 177.695 668.707 l 205.438 654.574 l 233.18 580.84 l 260.922
 542.074 l 288.66 520.207 l 316.402 499.207 l 344.145 515.152 l 371.887 
563.785 l 399.625 638.469 l 427.367 679.129 l 455.109 594.18 l 482.852 499.207
 l 510.59 475.918 l 538.332 448.363 l 566.074 449.863 l S
1 g
151.344 576.867 m 149.957 577.242 l 149.262 577.055 l 149.262 571.832 l
 149.957 571.645 l 151.344 572.02 l 152.359 573.043 l 152.73 574.441 l 152.359
 575.844 l 151.344 576.867 l f
0 g
151.344 576.867 m 149.957 577.242 l 149.262 577.055 l S
149.262 571.832 m 149.957 571.645 l 151.344 572.02 l 152.359 573.043 l 
152.73 574.441 l 152.359 575.844 l 151.344 576.867 l S
1 g
179.086 671.129 m 177.695 671.504 l 176.309 671.129 l 175.293 670.105 l
 174.922 668.707 l 175.293 667.309 l 176.309 666.285 l 177.695 665.91 l 
179.086 666.285 l 180.098 667.309 l 180.473 668.707 l 180.098 670.105 l 
179.086 671.129 l f
0 g
179.086 671.129 m 177.695 671.504 l 176.309 671.129 l 175.293 670.105 l
 174.922 668.707 l 175.293 667.309 l 176.309 666.285 l 177.695 665.91 l 
179.086 666.285 l 180.098 667.309 l 180.473 668.707 l 180.098 670.105 l 
179.086 671.129 l S
1 g
206.824 657 m 205.438 657.375 l 204.051 657 l 203.035 655.973 l 202.664
 654.574 l 203.035 653.176 l 204.051 652.152 l 205.438 651.777 l 206.824
 652.152 l 207.84 653.176 l 208.211 654.574 l 207.84 655.973 l 206.824 657
 l f
0 g
206.824 657 m 205.438 657.375 l 204.051 657 l 203.035 655.973 l 202.664
 654.574 l 203.035 653.176 l 204.051 652.152 l 205.438 651.777 l 206.824
 652.152 l 207.84 653.176 l 208.211 654.574 l 207.84 655.973 l 206.824 657
 l S
1 g
234.566 583.262 m 233.18 583.637 l 231.793 583.262 l 230.777 582.238 l 
230.406 580.84 l 230.777 579.438 l 231.793 578.414 l 233.18 578.039 l 234.566
 578.414 l 235.582 579.438 l 235.953 580.84 l 235.582 582.238 l 234.566 
583.262 l f
0 g
234.566 583.262 m 233.18 583.637 l 231.793 583.262 l 230.777 582.238 l 
230.406 580.84 l 230.777 579.438 l 231.793 578.414 l 233.18 578.039 l 234.566
 578.414 l 235.582 579.438 l 235.953 580.84 l 235.582 582.238 l 234.566 
583.262 l S
1 g
262.309 544.5 m 260.922 544.875 l 259.535 544.5 l 258.52 543.473 l 258.145
 542.074 l 258.52 540.676 l 259.535 539.652 l 260.922 539.277 l 262.309 
539.652 l 263.324 540.676 l 263.695 542.074 l 263.324 543.473 l 262.309 
544.5 l f
0 g
262.309 544.5 m 260.922 544.875 l 259.535 544.5 l 258.52 543.473 l 258.145
 542.074 l 258.52 540.676 l 259.535 539.652 l 260.922 539.277 l 262.309 
539.652 l 263.324 540.676 l 263.695 542.074 l 263.324 543.473 l 262.309 
544.5 l S
1 g
290.047 522.629 m 288.66 523.004 l 287.273 522.629 l 286.258 521.605 l 
285.887 520.207 l 286.258 518.809 l 287.273 517.781 l 288.66 517.41 l 290.047
 517.781 l 291.062 518.809 l 291.438 520.207 l 291.062 521.605 l 290.047
 522.629 l f
0 g
290.047 522.629 m 288.66 523.004 l 287.273 522.629 l 286.258 521.605 l 
285.887 520.207 l 286.258 518.809 l 287.273 517.781 l 288.66 517.41 l 290.047
 517.781 l 291.062 518.809 l 291.438 520.207 l 291.062 521.605 l 290.047
 522.629 l S
1 g
317.789 501.629 m 316.402 502.004 l 315.016 501.629 l 314 500.605 l 313.629
 499.207 l 314 497.809 l 315.016 496.781 l 316.402 496.41 l 317.789 496.781
 l 318.805 497.809 l 319.176 499.207 l 318.805 500.605 l 317.789 501.629
 l f
0 g
317.789 501.629 m 316.402 502.004 l 315.016 501.629 l 314 500.605 l 313.629
 499.207 l 314 497.809 l 315.016 496.781 l 316.402 496.41 l 317.789 496.781
 l 318.805 497.809 l 319.176 499.207 l 318.805 500.605 l 317.789 501.629
 l S
1 g
345.531 517.578 m 344.145 517.953 l 342.758 517.578 l 341.742 516.555 l
 341.371 515.152 l 341.742 513.754 l 342.758 512.73 l 344.145 512.355 l 
345.531 512.73 l 346.547 513.754 l 346.918 515.152 l 346.547 516.555 l 345.531
 517.578 l f
0 g
345.531 517.578 m 344.145 517.953 l 342.758 517.578 l 341.742 516.555 l
 341.371 515.152 l 341.742 513.754 l 342.758 512.73 l 344.145 512.355 l 
345.531 512.73 l 346.547 513.754 l 346.918 515.152 l 346.547 516.555 l 345.531
 517.578 l S
1 g
373.273 566.207 m 371.887 566.582 l 370.5 566.207 l 369.484 565.184 l 369.109
 563.785 l 369.484 562.387 l 370.5 561.363 l 371.887 560.988 l 373.273 561.363
 l 374.289 562.387 l 374.66 563.785 l 374.289 565.184 l 373.273 566.207 
l f
0 g
373.273 566.207 m 371.887 566.582 l 370.5 566.207 l 369.484 565.184 l 369.109
 563.785 l 369.484 562.387 l 370.5 561.363 l 371.887 560.988 l 373.273 561.363
 l 374.289 562.387 l 374.66 563.785 l 374.289 565.184 l 373.273 566.207 
l S
1 g
401.012 640.895 m 399.625 641.27 l 398.238 640.895 l 397.223 639.867 l 
396.852 638.469 l 397.223 637.07 l 398.238 636.047 l 399.625 635.672 l 401.012
 636.047 l 402.027 637.07 l 402.402 638.469 l 402.027 639.867 l 401.012 
640.895 l f
0 g
401.012 640.895 m 399.625 641.27 l 398.238 640.895 l 397.223 639.867 l 
396.852 638.469 l 397.223 637.07 l 398.238 636.047 l 399.625 635.672 l 401.012
 636.047 l 402.027 637.07 l 402.402 638.469 l 402.027 639.867 l 401.012 
640.895 l S
1 g
428.754 681.551 m 427.367 681.926 l 425.98 681.551 l 424.965 680.527 l 
424.594 679.129 l 424.965 677.73 l 425.98 676.703 l 427.367 676.328 l 428.754
 676.703 l 429.77 677.73 l 430.141 679.129 l 429.77 680.527 l 428.754 681.551
 l f
0 g
428.754 681.551 m 427.367 681.926 l 425.98 681.551 l 424.965 680.527 l 
424.594 679.129 l 424.965 677.73 l 425.98 676.703 l 427.367 676.328 l 428.754
 676.703 l 429.77 677.73 l 430.141 679.129 l 429.77 680.527 l 428.754 681.551
 l S
1 g
456.496 596.602 m 455.109 596.977 l 453.723 596.602 l 452.707 595.578 l
 452.336 594.18 l 452.707 592.781 l 453.723 591.758 l 455.109 591.383 l 
456.496 591.758 l 457.512 592.781 l 457.883 594.18 l 457.512 595.578 l 456.496
 596.602 l f
0 g
456.496 596.602 m 455.109 596.977 l 453.723 596.602 l 452.707 595.578 l
 452.336 594.18 l 452.707 592.781 l 453.723 591.758 l 455.109 591.383 l 
456.496 591.758 l 457.512 592.781 l 457.883 594.18 l 457.512 595.578 l 456.496
 596.602 l S
1 g
484.238 501.629 m 482.852 502.004 l 481.465 501.629 l 480.449 500.605 l
 480.074 499.207 l 480.449 497.809 l 481.465 496.781 l 482.852 496.41 l 
484.238 496.781 l 485.254 497.809 l 485.625 499.207 l 485.254 500.605 l 
484.238 501.629 l f
0 g
484.238 501.629 m 482.852 502.004 l 481.465 501.629 l 480.449 500.605 l
 480.074 499.207 l 480.449 497.809 l 481.465 496.781 l 482.852 496.41 l 
484.238 496.781 l 485.254 497.809 l 485.625 499.207 l 485.254 500.605 l 
484.238 501.629 l S
1 g
511.977 478.34 m 510.59 478.715 l 509.203 478.34 l 508.188 477.316 l 507.816
 475.918 l 508.188 474.52 l 509.203 473.492 l 510.59 473.117 l 511.977 473.492
 l 512.992 474.52 l 513.367 475.918 l 512.992 477.316 l 511.977 478.34 l
 f
0 g
511.977 478.34 m 510.59 478.715 l 509.203 478.34 l 508.188 477.316 l 507.816
 475.918 l 508.188 474.52 l 509.203 473.492 l 510.59 473.117 l 511.977 473.492
 l 512.992 474.52 l 513.367 475.918 l 512.992 477.316 l 511.977 478.34 l
 S
1 g
539.719 450.789 m 538.332 451.164 l 536.945 450.789 l 535.93 449.762 l 
535.559 448.363 l 535.93 446.965 l 536.945 445.941 l 538.332 445.566 l 539.719
 445.941 l 540.734 446.965 l 541.105 448.363 l 540.734 449.762 l 539.719
 450.789 l f
0 g
539.719 450.789 m 538.332 451.164 l 536.945 450.789 l 535.93 449.762 l 
535.559 448.363 l 535.93 446.965 l 536.945 445.941 l 538.332 445.566 l 539.719
 445.941 l 540.734 446.965 l 541.105 448.363 l 540.734 449.762 l 539.719
 450.789 l S
1 g
566.766 452.289 m 566.766 452.477 l 566.074 452.664 l 564.688 452.289 l
 563.672 451.262 l 563.301 449.863 l 563.672 448.465 l 564.688 447.441 l
 566.074 447.066 l 566.766 447.254 l 566.766 452.289 l f
0 g
566.766 452.477 m 566.074 452.664 l 564.688 452.289 l 563.672 451.262 l
 563.301 449.863 l 563.672 448.465 l 564.688 447.441 l 566.074 447.066 l
 566.766 447.254 l S
149.957 63.715 m 149.957 59.797 l S
0.666667 g
149.957 63.715 m 149.957 64.414 l S
149.957 70.012 m 149.957 70.711 l S
149.957 76.309 m 149.957 77.008 l S
149.957 82.605 m 149.957 83.305 l S
149.957 88.898 m 149.957 89.598 l S
149.957 95.195 m 149.957 95.895 l S
149.957 101.492 m 149.957 102.191 l S
149.957 107.789 m 149.957 108.488 l S
149.957 114.082 m 149.957 114.781 l S
149.957 120.379 m 149.957 121.078 l S
149.957 126.676 m 149.957 127.375 l S
149.957 132.973 m 149.957 133.672 l S
149.957 139.266 m 149.957 139.965 l S
149.957 145.562 m 149.957 146.262 l S
149.957 151.859 m 149.957 152.559 l S
149.957 158.156 m 149.957 158.855 l S
149.957 164.449 m 149.957 165.148 l S
149.957 170.746 m 149.957 171.445 l S
149.957 177.043 m 149.957 177.742 l S
149.957 183.34 m 149.957 184.039 l S
149.957 189.633 m 149.957 190.332 l S
149.957 195.93 m 149.957 196.629 l S
149.957 202.227 m 149.957 202.926 l S
149.957 208.523 m 149.957 209.223 l S
149.957 214.816 m 149.957 215.516 l S
149.957 221.113 m 149.957 221.812 l S
149.957 227.41 m 149.957 228.109 l S
149.957 233.707 m 149.957 234.406 l S
149.957 240 m 149.957 240.699 l S
149.957 246.297 m 149.957 246.996 l S
149.957 252.594 m 149.957 253.293 l S
149.957 258.891 m 149.957 259.59 l S
149.957 265.184 m 149.957 265.883 l S
149.957 271.48 m 149.957 272.18 l S
149.957 277.777 m 149.957 278.477 l S
149.957 284.074 m 149.957 284.773 l S
149.957 290.367 m 149.957 291.066 l S
149.957 296.664 m 149.957 297.363 l S
149.957 302.961 m 149.957 303.66 l S
149.957 309.258 m 149.957 309.957 l S
149.957 315.551 m 149.957 316.25 l S
149.957 321.848 m 149.957 322.547 l S
149.957 328.145 m 149.957 328.844 l S
149.957 334.441 m 149.957 335.141 l S
149.957 340.734 m 149.957 341.434 l S
149.957 347.031 m 149.957 347.73 l S
149.957 353.328 m 149.957 354.027 l S
149.957 359.625 m 149.957 360.324 l S
149.957 365.918 m 149.957 366.617 l S
149.957 372.215 m 149.957 372.914 l S
149.957 378.512 m 149.957 379.211 l S
149.957 384.809 m 149.957 385.508 l S
149.957 391.102 m 149.957 391.801 l S
149.957 397.398 m 149.957 398.098 l S
149.957 403.695 m 149.957 404.395 l S
149.957 409.992 m 149.957 410.691 l S
149.957 416.285 m 149.957 416.988 l S
149.957 422.582 m 149.957 423.281 l S
149.957 428.879 m 149.957 429.578 l S
149.957 435.176 m 149.957 435.875 l S
149.957 441.469 m 149.957 442.172 l S
149.957 447.766 m 149.957 448.465 l S
149.957 454.062 m 149.957 454.762 l S
149.957 460.359 m 149.957 461.059 l S
149.957 466.652 m 149.957 467.355 l S
149.957 472.949 m 149.957 473.648 l S
149.957 479.246 m 149.957 479.945 l S
149.957 485.543 m 149.957 486.242 l S
149.957 491.836 m 149.957 492.539 l S
149.957 498.133 m 149.957 498.832 l S
149.957 504.43 m 149.957 505.129 l S
149.957 510.727 m 149.957 511.426 l S
149.957 517.02 m 149.957 517.723 l S
149.957 523.316 m 149.957 524.016 l S
149.957 529.613 m 149.957 530.312 l S
149.957 535.91 m 149.957 536.609 l S
149.957 542.203 m 149.957 542.906 l S
149.957 548.5 m 149.957 549.199 l S
149.957 554.797 m 149.957 555.496 l S
149.957 561.094 m 149.957 561.793 l S
149.957 567.387 m 149.957 568.09 l S
149.957 573.684 m 149.957 574.383 l S
149.957 579.98 m 149.957 580.68 l S
149.957 586.277 m 149.957 586.977 l S
149.957 592.574 m 149.957 593.273 l S
149.957 598.867 m 149.957 599.566 l S
149.957 605.164 m 149.957 605.863 l S
149.957 611.461 m 149.957 612.16 l S
149.957 617.758 m 149.957 618.457 l S
149.957 624.051 m 149.957 624.75 l S
149.957 630.348 m 149.957 631.047 l S
149.957 636.645 m 149.957 637.344 l S
149.957 642.941 m 149.957 643.641 l S
149.957 649.234 m 149.957 649.934 l S
149.957 655.531 m 149.957 656.23 l S
149.957 661.828 m 149.957 662.527 l S
149.957 668.125 m 149.957 668.824 l S
149.957 674.418 m 149.957 675.117 l S
149.957 680.715 m 149.957 681.414 l S
149.957 687.012 m 149.957 687.711 l S
149.957 693.309 m 149.957 694.008 l S
149.957 699.602 m 149.957 700.301 l S
149.957 705.898 m 149.957 706.598 l S
149.957 712.195 m 149.957 712.895 l S
149.957 718.492 m 149.957 719.191 l S
149.957 724.785 m 149.957 725.484 l S
0 g
141.82 56.523 m 140.707 56.078 l 139.969 54.742 l 139.598 52.516 l 139.598
 51.18 l 139.969 48.953 l 140.707 47.617 l 141.82 47.172 l 142.559 47.172
 l 143.668 47.617 l 144.406 48.953 l 144.777 51.18 l 144.777 52.516 l 144.406
 54.742 l 143.668 56.078 l 142.559 56.523 l 141.82 56.523 l S
149.586 56.523 m 148.477 56.078 l 147.738 54.742 l 147.367 52.516 l 147.367
 51.18 l 147.738 48.953 l 148.477 47.617 l 149.586 47.172 l 150.324 47.172
 l 151.434 47.617 l 152.176 48.953 l 152.547 51.18 l 152.547 52.516 l 152.176
 54.742 l 151.434 56.078 l 150.324 56.523 l 149.586 56.523 l S
160.312 56.523 m 155.133 47.172 l S
155.133 56.523 m 160.312 56.523 l S
155.133 47.172 m 160.312 47.172 l S
140.387 42.812 m 136.688 36.578 l 142.234 36.578 l S
140.387 42.812 m 140.387 33.461 l S
147.746 42.812 m 147.746 35.688 l 147.375 34.352 l 147.008 33.906 l 146.266
 33.461 l 145.527 33.461 l 144.785 33.906 l 144.418 34.352 l 144.047 35.688
 l 144.047 36.578 l S
151.055 42.812 m 151.055 36.133 l 151.426 34.797 l 152.164 33.906 l 153.277
 33.461 l 154.016 33.461 l 155.125 33.906 l 155.863 34.797 l 156.234 36.133
 l 156.234 42.812 l S
159 42.812 m 159 33.461 l S
159 33.461 m 163.438 33.461 l S
136.086 26.875 m 136.086 27.32 l 136.457 28.211 l 136.824 28.656 l 137.566
 29.102 l 139.043 29.102 l 139.785 28.656 l 140.152 28.211 l 140.523 27.32
 l 140.523 26.43 l 140.152 25.539 l 139.414 24.203 l 135.715 19.75 l 140.895
 19.75 l S
145.703 29.102 m 144.594 28.656 l 143.852 27.32 l 143.484 25.094 l 143.484
 23.758 l 143.852 21.531 l 144.594 20.195 l 145.703 19.75 l 146.441 19.75
 l 147.551 20.195 l 148.293 21.531 l 148.66 23.758 l 148.66 25.094 l 148.293
 27.32 l 147.551 28.656 l 146.441 29.102 l 145.703 29.102 l S
151.621 26.875 m 151.621 27.32 l 151.992 28.211 l 152.359 28.656 l 153.102
 29.102 l 154.578 29.102 l 155.32 28.656 l 155.688 28.211 l 156.059 27.32
 l 156.059 26.43 l 155.688 25.539 l 154.949 24.203 l 151.25 19.75 l 156.43
 19.75 l S
159.387 26.875 m 159.387 27.32 l 159.758 28.211 l 160.129 28.656 l 160.867
 29.102 l 162.348 29.102 l 163.086 28.656 l 163.457 28.211 l 163.828 27.32
 l 163.828 26.43 l 163.457 25.539 l 162.719 24.203 l 159.02 19.75 l 164.195
 19.75 l S
205.438 63.715 m 205.438 59.797 l S
0.666667 g
205.438 63.715 m 205.438 64.414 l S
205.438 70.012 m 205.438 70.711 l S
205.438 76.309 m 205.438 77.008 l S
205.438 82.605 m 205.438 83.305 l S
205.438 88.898 m 205.438 89.598 l S
205.438 95.195 m 205.438 95.895 l S
205.438 101.492 m 205.438 102.191 l S
205.438 107.789 m 205.438 108.488 l S
205.438 114.082 m 205.438 114.781 l S
205.438 120.379 m 205.438 121.078 l S
205.438 126.676 m 205.438 127.375 l S
205.438 132.973 m 205.438 133.672 l S
205.438 139.266 m 205.438 139.965 l S
205.438 145.562 m 205.438 146.262 l S
205.438 151.859 m 205.438 152.559 l S
205.438 158.156 m 205.438 158.855 l S
205.438 164.449 m 205.438 165.148 l S
205.438 170.746 m 205.438 171.445 l S
205.438 177.043 m 205.438 177.742 l S
205.438 183.34 m 205.438 184.039 l S
205.438 189.633 m 205.438 190.332 l S
205.438 195.93 m 205.438 196.629 l S
205.438 202.227 m 205.438 202.926 l S
205.438 208.523 m 205.438 209.223 l S
205.438 214.816 m 205.438 215.516 l S
205.438 221.113 m 205.438 221.812 l S
205.438 227.41 m 205.438 228.109 l S
205.438 233.707 m 205.438 234.406 l S
205.438 240 m 205.438 240.699 l S
205.438 246.297 m 205.438 246.996 l S
205.438 252.594 m 205.438 253.293 l S
205.438 258.891 m 205.438 259.59 l S
205.438 265.184 m 205.438 265.883 l S
205.438 271.48 m 205.438 272.18 l S
205.438 277.777 m 205.438 278.477 l S
205.438 284.074 m 205.438 284.773 l S
205.438 290.367 m 205.438 291.066 l S
205.438 296.664 m 205.438 297.363 l S
205.438 302.961 m 205.438 303.66 l S
205.438 309.258 m 205.438 309.957 l S
205.438 315.551 m 205.438 316.25 l S
205.438 321.848 m 205.438 322.547 l S
205.438 328.145 m 205.438 328.844 l S
205.438 334.441 m 205.438 335.141 l S
205.438 340.734 m 205.438 341.434 l S
205.438 347.031 m 205.438 347.73 l S
205.438 353.328 m 205.438 354.027 l S
205.438 359.625 m 205.438 360.324 l S
205.438 365.918 m 205.438 366.617 l S
205.438 372.215 m 205.438 372.914 l S
205.438 378.512 m 205.438 379.211 l S
205.438 384.809 m 205.438 385.508 l S
205.438 391.102 m 205.438 391.801 l S
205.438 397.398 m 205.438 398.098 l S
205.438 403.695 m 205.438 404.395 l S
205.438 409.992 m 205.438 410.691 l S
205.438 416.285 m 205.438 416.988 l S
205.438 422.582 m 205.438 423.281 l S
205.438 428.879 m 205.438 429.578 l S
205.438 435.176 m 205.438 435.875 l S
205.438 441.469 m 205.438 442.172 l S
205.438 447.766 m 205.438 448.465 l S
205.438 454.062 m 205.438 454.762 l S
205.438 460.359 m 205.438 461.059 l S
205.438 466.652 m 205.438 467.355 l S
205.438 472.949 m 205.438 473.648 l S
205.438 479.246 m 205.438 479.945 l S
205.438 485.543 m 205.438 486.242 l S
205.438 491.836 m 205.438 492.539 l S
205.438 498.133 m 205.438 498.832 l S
205.438 504.43 m 205.438 505.129 l S
205.438 510.727 m 205.438 511.426 l S
205.438 517.02 m 205.438 517.723 l S
205.438 523.316 m 205.438 524.016 l S
205.438 529.613 m 205.438 530.312 l S
205.438 535.91 m 205.438 536.609 l S
205.438 542.203 m 205.438 542.906 l S
205.438 548.5 m 205.438 549.199 l S
205.438 554.797 m 205.438 555.496 l S
205.438 561.094 m 205.438 561.793 l S
205.438 567.387 m 205.438 568.09 l S
205.438 573.684 m 205.438 574.383 l S
205.438 579.98 m 205.438 580.68 l S
205.438 586.277 m 205.438 586.977 l S
205.438 592.574 m 205.438 593.273 l S
205.438 598.867 m 205.438 599.566 l S
205.438 605.164 m 205.438 605.863 l S
205.438 611.461 m 205.438 612.16 l S
205.438 617.758 m 205.438 618.457 l S
205.438 624.051 m 205.438 624.75 l S
205.438 630.348 m 205.438 631.047 l S
205.438 636.645 m 205.438 637.344 l S
205.438 642.941 m 205.438 643.641 l S
205.438 649.234 m 205.438 649.934 l S
205.438 655.531 m 205.438 656.23 l S
205.438 661.828 m 205.438 662.527 l S
205.438 668.125 m 205.438 668.824 l S
205.438 674.418 m 205.438 675.117 l S
205.438 680.715 m 205.438 681.414 l S
205.438 687.012 m 205.438 687.711 l S
205.438 693.309 m 205.438 694.008 l S
205.438 699.602 m 205.438 700.301 l S
205.438 705.898 m 205.438 706.598 l S
205.438 712.195 m 205.438 712.895 l S
205.438 718.492 m 205.438 719.191 l S
205.438 724.785 m 205.438 725.484 l S
0 g
197.301 56.523 m 196.191 56.078 l 195.453 54.742 l 195.082 52.516 l 195.082
 51.18 l 195.453 48.953 l 196.191 47.617 l 197.301 47.172 l 198.039 47.172
 l 199.148 47.617 l 199.891 48.953 l 200.262 51.18 l 200.262 52.516 l 199.891
 54.742 l 199.148 56.078 l 198.039 56.523 l 197.301 56.523 l S
207.656 55.188 m 207.289 56.078 l 206.18 56.523 l 205.438 56.523 l 204.328
 56.078 l 203.59 54.742 l 203.219 52.516 l 203.219 50.289 l 203.59 48.508
 l 204.328 47.617 l 205.438 47.172 l 205.809 47.172 l 206.918 47.617 l 207.656
 48.508 l 208.027 49.844 l 208.027 50.289 l 207.656 51.625 l 206.918 52.516
 l 205.809 52.961 l 205.438 52.961 l 204.328 52.516 l 203.59 51.625 l 203.219
 50.289 l S
215.797 56.523 m 210.617 47.172 l S
210.617 56.523 m 215.797 56.523 l S
210.617 47.172 m 215.797 47.172 l S
260.922 63.715 m 260.922 59.797 l S
0.666667 g
260.922 63.715 m 260.922 64.414 l S
260.922 70.012 m 260.922 70.711 l S
260.922 76.309 m 260.922 77.008 l S
260.922 82.605 m 260.922 83.305 l S
260.922 88.898 m 260.922 89.598 l S
260.922 95.195 m 260.922 95.895 l S
260.922 101.492 m 260.922 102.191 l S
260.922 107.789 m 260.922 108.488 l S
260.922 114.082 m 260.922 114.781 l S
260.922 120.379 m 260.922 121.078 l S
260.922 126.676 m 260.922 127.375 l S
260.922 132.973 m 260.922 133.672 l S
260.922 139.266 m 260.922 139.965 l S
260.922 145.562 m 260.922 146.262 l S
260.922 151.859 m 260.922 152.559 l S
260.922 158.156 m 260.922 158.855 l S
260.922 164.449 m 260.922 165.148 l S
260.922 170.746 m 260.922 171.445 l S
260.922 177.043 m 260.922 177.742 l S
260.922 183.34 m 260.922 184.039 l S
260.922 189.633 m 260.922 190.332 l S
260.922 195.93 m 260.922 196.629 l S
260.922 202.227 m 260.922 202.926 l S
260.922 208.523 m 260.922 209.223 l S
260.922 214.816 m 260.922 215.516 l S
260.922 221.113 m 260.922 221.812 l S
260.922 227.41 m 260.922 228.109 l S
260.922 233.707 m 260.922 234.406 l S
260.922 240 m 260.922 240.699 l S
260.922 246.297 m 260.922 246.996 l S
260.922 252.594 m 260.922 253.293 l S
260.922 258.891 m 260.922 259.59 l S
260.922 265.184 m 260.922 265.883 l S
260.922 271.48 m 260.922 272.18 l S
260.922 277.777 m 260.922 278.477 l S
260.922 284.074 m 260.922 284.773 l S
260.922 290.367 m 260.922 291.066 l S
260.922 296.664 m 260.922 297.363 l S
260.922 302.961 m 260.922 303.66 l S
260.922 309.258 m 260.922 309.957 l S
260.922 315.551 m 260.922 316.25 l S
260.922 321.848 m 260.922 322.547 l S
260.922 328.145 m 260.922 328.844 l S
260.922 334.441 m 260.922 335.141 l S
260.922 340.734 m 260.922 341.434 l S
260.922 347.031 m 260.922 347.73 l S
260.922 353.328 m 260.922 354.027 l S
260.922 359.625 m 260.922 360.324 l S
260.922 365.918 m 260.922 366.617 l S
260.922 372.215 m 260.922 372.914 l S
260.922 378.512 m 260.922 379.211 l S
260.922 384.809 m 260.922 385.508 l S
260.922 391.102 m 260.922 391.801 l S
260.922 397.398 m 260.922 398.098 l S
260.922 403.695 m 260.922 404.395 l S
260.922 409.992 m 260.922 410.691 l S
260.922 416.285 m 260.922 416.988 l S
260.922 422.582 m 260.922 423.281 l S
260.922 428.879 m 260.922 429.578 l S
260.922 435.176 m 260.922 435.875 l S
260.922 441.469 m 260.922 442.172 l S
260.922 447.766 m 260.922 448.465 l S
260.922 454.062 m 260.922 454.762 l S
260.922 460.359 m 260.922 461.059 l S
260.922 466.652 m 260.922 467.355 l S
260.922 472.949 m 260.922 473.648 l S
260.922 479.246 m 260.922 479.945 l S
260.922 485.543 m 260.922 486.242 l S
260.922 491.836 m 260.922 492.539 l S
260.922 498.133 m 260.922 498.832 l S
260.922 504.43 m 260.922 505.129 l S
260.922 510.727 m 260.922 511.426 l S
260.922 517.02 m 260.922 517.723 l S
260.922 523.316 m 260.922 524.016 l S
260.922 529.613 m 260.922 530.312 l S
260.922 535.91 m 260.922 536.609 l S
260.922 542.203 m 260.922 542.906 l S
260.922 548.5 m 260.922 549.199 l S
260.922 554.797 m 260.922 555.496 l S
260.922 561.094 m 260.922 561.793 l S
260.922 567.387 m 260.922 568.09 l S
260.922 573.684 m 260.922 574.383 l S
260.922 579.98 m 260.922 580.68 l S
260.922 586.277 m 260.922 586.977 l S
260.922 592.574 m 260.922 593.273 l S
260.922 598.867 m 260.922 599.566 l S
260.922 605.164 m 260.922 605.863 l S
260.922 611.461 m 260.922 612.16 l S
260.922 617.758 m 260.922 618.457 l S
260.922 624.051 m 260.922 624.75 l S
260.922 630.348 m 260.922 631.047 l S
260.922 636.645 m 260.922 637.344 l S
260.922 642.941 m 260.922 643.641 l S
260.922 649.234 m 260.922 649.934 l S
260.922 655.531 m 260.922 656.23 l S
260.922 661.828 m 260.922 662.527 l S
260.922 668.125 m 260.922 668.824 l S
260.922 674.418 m 260.922 675.117 l S
260.922 680.715 m 260.922 681.414 l S
260.922 687.012 m 260.922 687.711 l S
260.922 693.309 m 260.922 694.008 l S
260.922 699.602 m 260.922 700.301 l S
260.922 705.898 m 260.922 706.598 l S
260.922 712.195 m 260.922 712.895 l S
260.922 718.492 m 260.922 719.191 l S
260.922 724.785 m 260.922 725.484 l S
0 g
251.672 54.742 m 252.414 55.188 l 253.523 56.523 l 253.523 47.172 l S
258.703 54.297 m 258.703 54.742 l 259.07 55.633 l 259.441 56.078 l 260.18
 56.523 l 261.66 56.523 l 262.398 56.078 l 262.77 55.633 l 263.141 54.742
 l 263.141 53.852 l 262.77 52.961 l 262.031 51.625 l 258.332 47.172 l 263.512
 47.172 l S
271.277 56.523 m 266.098 47.172 l S
266.098 56.523 m 271.277 56.523 l S
266.098 47.172 m 271.277 47.172 l S
316.402 63.715 m 316.402 59.797 l S
0.666667 g
316.402 63.715 m 316.402 64.414 l S
316.402 70.012 m 316.402 70.711 l S
316.402 76.309 m 316.402 77.008 l S
316.402 82.605 m 316.402 83.305 l S
316.402 88.898 m 316.402 89.598 l S
316.402 95.195 m 316.402 95.895 l S
316.402 101.492 m 316.402 102.191 l S
316.402 107.789 m 316.402 108.488 l S
316.402 114.082 m 316.402 114.781 l S
316.402 120.379 m 316.402 121.078 l S
316.402 126.676 m 316.402 127.375 l S
316.402 132.973 m 316.402 133.672 l S
316.402 139.266 m 316.402 139.965 l S
316.402 145.562 m 316.402 146.262 l S
316.402 151.859 m 316.402 152.559 l S
316.402 158.156 m 316.402 158.855 l S
316.402 164.449 m 316.402 165.148 l S
316.402 170.746 m 316.402 171.445 l S
316.402 177.043 m 316.402 177.742 l S
316.402 183.34 m 316.402 184.039 l S
316.402 189.633 m 316.402 190.332 l S
316.402 195.93 m 316.402 196.629 l S
316.402 202.227 m 316.402 202.926 l S
316.402 208.523 m 316.402 209.223 l S
316.402 214.816 m 316.402 215.516 l S
316.402 221.113 m 316.402 221.812 l S
316.402 227.41 m 316.402 228.109 l S
316.402 233.707 m 316.402 234.406 l S
316.402 240 m 316.402 240.699 l S
316.402 246.297 m 316.402 246.996 l S
316.402 252.594 m 316.402 253.293 l S
316.402 258.891 m 316.402 259.59 l S
316.402 265.184 m 316.402 265.883 l S
316.402 271.48 m 316.402 272.18 l S
316.402 277.777 m 316.402 278.477 l S
316.402 284.074 m 316.402 284.773 l S
316.402 290.367 m 316.402 291.066 l S
316.402 296.664 m 316.402 297.363 l S
316.402 302.961 m 316.402 303.66 l S
316.402 309.258 m 316.402 309.957 l S
316.402 315.551 m 316.402 316.25 l S
316.402 321.848 m 316.402 322.547 l S
316.402 328.145 m 316.402 328.844 l S
316.402 334.441 m 316.402 335.141 l S
316.402 340.734 m 316.402 341.434 l S
316.402 347.031 m 316.402 347.73 l S
316.402 353.328 m 316.402 354.027 l S
316.402 359.625 m 316.402 360.324 l S
316.402 365.918 m 316.402 366.617 l S
316.402 372.215 m 316.402 372.914 l S
316.402 378.512 m 316.402 379.211 l S
316.402 384.809 m 316.402 385.508 l S
316.402 391.102 m 316.402 391.801 l S
316.402 397.398 m 316.402 398.098 l S
316.402 403.695 m 316.402 404.395 l S
316.402 409.992 m 316.402 410.691 l S
316.402 416.285 m 316.402 416.988 l S
316.402 422.582 m 316.402 423.281 l S
316.402 428.879 m 316.402 429.578 l S
316.402 435.176 m 316.402 435.875 l S
316.402 441.469 m 316.402 442.172 l S
316.402 447.766 m 316.402 448.465 l S
316.402 454.062 m 316.402 454.762 l S
316.402 460.359 m 316.402 461.059 l S
316.402 466.652 m 316.402 467.355 l S
316.402 472.949 m 316.402 473.648 l S
316.402 479.246 m 316.402 479.945 l S
316.402 485.543 m 316.402 486.242 l S
316.402 491.836 m 316.402 492.539 l S
316.402 498.133 m 316.402 498.832 l S
316.402 504.43 m 316.402 505.129 l S
316.402 510.727 m 316.402 511.426 l S
316.402 517.02 m 316.402 517.723 l S
316.402 523.316 m 316.402 524.016 l S
316.402 529.613 m 316.402 530.312 l S
316.402 535.91 m 316.402 536.609 l S
316.402 542.203 m 316.402 542.906 l S
316.402 548.5 m 316.402 549.199 l S
316.402 554.797 m 316.402 555.496 l S
316.402 561.094 m 316.402 561.793 l S
316.402 567.387 m 316.402 568.09 l S
316.402 573.684 m 316.402 574.383 l S
316.402 579.98 m 316.402 580.68 l S
316.402 586.277 m 316.402 586.977 l S
316.402 592.574 m 316.402 593.273 l S
316.402 598.867 m 316.402 599.566 l S
316.402 605.164 m 316.402 605.863 l S
316.402 611.461 m 316.402 612.16 l S
316.402 617.758 m 316.402 618.457 l S
316.402 624.051 m 316.402 624.75 l S
316.402 630.348 m 316.402 631.047 l S
316.402 636.645 m 316.402 637.344 l S
316.402 642.941 m 316.402 643.641 l S
316.402 649.234 m 316.402 649.934 l S
316.402 655.531 m 316.402 656.23 l S
316.402 661.828 m 316.402 662.527 l S
316.402 668.125 m 316.402 668.824 l S
316.402 674.418 m 316.402 675.117 l S
316.402 680.715 m 316.402 681.414 l S
316.402 687.012 m 316.402 687.711 l S
316.402 693.309 m 316.402 694.008 l S
316.402 699.602 m 316.402 700.301 l S
316.402 705.898 m 316.402 706.598 l S
316.402 712.195 m 316.402 712.895 l S
316.402 718.492 m 316.402 719.191 l S
316.402 724.785 m 316.402 725.484 l S
0 g
307.156 54.742 m 307.895 55.188 l 309.004 56.523 l 309.004 47.172 l S
315.664 56.523 m 314.555 56.078 l 314.184 55.188 l 314.184 54.297 l 314.555
 53.406 l 315.293 52.961 l 316.773 52.516 l 317.883 52.07 l 318.621 51.18
 l 318.992 50.289 l 318.992 48.953 l 318.621 48.062 l 318.254 47.617 l 317.145
 47.172 l 315.664 47.172 l 314.555 47.617 l 314.184 48.062 l 313.812 48.953
 l 313.812 50.289 l 314.184 51.18 l 314.922 52.07 l 316.031 52.516 l 317.512
 52.961 l 318.254 53.406 l 318.621 54.297 l 318.621 55.188 l 318.254 56.078
 l 317.145 56.523 l 315.664 56.523 l S
326.758 56.523 m 321.582 47.172 l S
321.582 56.523 m 326.758 56.523 l S
321.582 47.172 m 326.758 47.172 l S
371.887 63.715 m 371.887 59.797 l S
0.666667 g
371.887 63.715 m 371.887 64.414 l S
371.887 70.012 m 371.887 70.711 l S
371.887 76.309 m 371.887 77.008 l S
371.887 82.605 m 371.887 83.305 l S
371.887 88.898 m 371.887 89.598 l S
371.887 95.195 m 371.887 95.895 l S
371.887 101.492 m 371.887 102.191 l S
371.887 107.789 m 371.887 108.488 l S
371.887 114.082 m 371.887 114.781 l S
371.887 120.379 m 371.887 121.078 l S
371.887 126.676 m 371.887 127.375 l S
371.887 132.973 m 371.887 133.672 l S
371.887 139.266 m 371.887 139.965 l S
371.887 145.562 m 371.887 146.262 l S
371.887 151.859 m 371.887 152.559 l S
371.887 158.156 m 371.887 158.855 l S
371.887 164.449 m 371.887 165.148 l S
371.887 170.746 m 371.887 171.445 l S
371.887 177.043 m 371.887 177.742 l S
371.887 183.34 m 371.887 184.039 l S
371.887 189.633 m 371.887 190.332 l S
371.887 195.93 m 371.887 196.629 l S
371.887 202.227 m 371.887 202.926 l S
371.887 208.523 m 371.887 209.223 l S
371.887 214.816 m 371.887 215.516 l S
371.887 221.113 m 371.887 221.812 l S
371.887 227.41 m 371.887 228.109 l S
371.887 233.707 m 371.887 234.406 l S
371.887 240 m 371.887 240.699 l S
371.887 246.297 m 371.887 246.996 l S
371.887 252.594 m 371.887 253.293 l S
371.887 258.891 m 371.887 259.59 l S
371.887 265.184 m 371.887 265.883 l S
371.887 271.48 m 371.887 272.18 l S
371.887 277.777 m 371.887 278.477 l S
371.887 284.074 m 371.887 284.773 l S
371.887 290.367 m 371.887 291.066 l S
371.887 296.664 m 371.887 297.363 l S
371.887 302.961 m 371.887 303.66 l S
371.887 309.258 m 371.887 309.957 l S
371.887 315.551 m 371.887 316.25 l S
371.887 321.848 m 371.887 322.547 l S
371.887 328.145 m 371.887 328.844 l S
371.887 334.441 m 371.887 335.141 l S
371.887 340.734 m 371.887 341.434 l S
371.887 347.031 m 371.887 347.73 l S
371.887 353.328 m 371.887 354.027 l S
371.887 359.625 m 371.887 360.324 l S
371.887 365.918 m 371.887 366.617 l S
371.887 372.215 m 371.887 372.914 l S
371.887 378.512 m 371.887 379.211 l S
371.887 384.809 m 371.887 385.508 l S
371.887 391.102 m 371.887 391.801 l S
371.887 397.398 m 371.887 398.098 l S
371.887 403.695 m 371.887 404.395 l S
371.887 409.992 m 371.887 410.691 l S
371.887 416.285 m 371.887 416.988 l S
371.887 422.582 m 371.887 423.281 l S
371.887 428.879 m 371.887 429.578 l S
371.887 435.176 m 371.887 435.875 l S
371.887 441.469 m 371.887 442.172 l S
371.887 447.766 m 371.887 448.465 l S
371.887 454.062 m 371.887 454.762 l S
371.887 460.359 m 371.887 461.059 l S
371.887 466.652 m 371.887 467.355 l S
371.887 472.949 m 371.887 473.648 l S
371.887 479.246 m 371.887 479.945 l S
371.887 485.543 m 371.887 486.242 l S
371.887 491.836 m 371.887 492.539 l S
371.887 498.133 m 371.887 498.832 l S
371.887 504.43 m 371.887 505.129 l S
371.887 510.727 m 371.887 511.426 l S
371.887 517.02 m 371.887 517.723 l S
371.887 523.316 m 371.887 524.016 l S
371.887 529.613 m 371.887 530.312 l S
371.887 535.91 m 371.887 536.609 l S
371.887 542.203 m 371.887 542.906 l S
371.887 548.5 m 371.887 549.199 l S
371.887 554.797 m 371.887 555.496 l S
371.887 561.094 m 371.887 561.793 l S
371.887 567.387 m 371.887 568.09 l S
371.887 573.684 m 371.887 574.383 l S
371.887 579.98 m 371.887 580.68 l S
371.887 586.277 m 371.887 586.977 l S
371.887 592.574 m 371.887 593.273 l S
371.887 598.867 m 371.887 599.566 l S
371.887 605.164 m 371.887 605.863 l S
371.887 611.461 m 371.887 612.16 l S
371.887 617.758 m 371.887 618.457 l S
371.887 624.051 m 371.887 624.75 l S
371.887 630.348 m 371.887 631.047 l S
371.887 636.645 m 371.887 637.344 l S
371.887 642.941 m 371.887 643.641 l S
371.887 649.234 m 371.887 649.934 l S
371.887 655.531 m 371.887 656.23 l S
371.887 661.828 m 371.887 662.527 l S
371.887 668.125 m 371.887 668.824 l S
371.887 674.418 m 371.887 675.117 l S
371.887 680.715 m 371.887 681.414 l S
371.887 687.012 m 371.887 687.711 l S
371.887 693.309 m 371.887 694.008 l S
371.887 699.602 m 371.887 700.301 l S
371.887 705.898 m 371.887 706.598 l S
371.887 712.195 m 371.887 712.895 l S
371.887 718.492 m 371.887 719.191 l S
371.887 724.785 m 371.887 725.484 l S
0 g
363.746 56.523 m 362.637 56.078 l 361.898 54.742 l 361.527 52.516 l 361.527
 51.18 l 361.898 48.953 l 362.637 47.617 l 363.746 47.172 l 364.488 47.172
 l 365.598 47.617 l 366.336 48.953 l 366.707 51.18 l 366.707 52.516 l 366.336
 54.742 l 365.598 56.078 l 364.488 56.523 l 363.746 56.523 l S
371.516 56.523 m 370.406 56.078 l 369.664 54.742 l 369.297 52.516 l 369.297
 51.18 l 369.664 48.953 l 370.406 47.617 l 371.516 47.172 l 372.254 47.172
 l 373.363 47.617 l 374.105 48.953 l 374.473 51.18 l 374.473 52.516 l 374.105
 54.742 l 373.363 56.078 l 372.254 56.523 l 371.516 56.523 l S
382.242 56.523 m 377.062 47.172 l S
377.062 56.523 m 382.242 56.523 l S
377.062 47.172 m 382.242 47.172 l S
363.055 42.812 m 359.355 42.812 l 358.984 38.805 l 359.355 39.25 l 360.465
 39.695 l 361.574 39.695 l 362.684 39.25 l 363.426 38.359 l 363.793 37.023
 l 363.793 36.133 l 363.426 34.797 l 362.684 33.906 l 361.574 33.461 l 360.465
 33.461 l 359.355 33.906 l 358.984 34.352 l 358.617 35.242 l S
369.676 42.812 m 369.676 35.688 l 369.305 34.352 l 368.934 33.906 l 368.195
 33.461 l 367.457 33.461 l 366.715 33.906 l 366.348 34.352 l 365.977 35.688
 l 365.977 36.578 l S
372.984 42.812 m 372.984 36.133 l 373.355 34.797 l 374.094 33.906 l 375.203
 33.461 l 375.945 33.461 l 377.055 33.906 l 377.793 34.797 l 378.164 36.133
 l 378.164 42.812 l S
380.93 42.812 m 380.93 33.461 l S
380.93 33.461 m 385.367 33.461 l S
427.367 63.715 m 427.367 59.797 l S
0.666667 g
427.367 63.715 m 427.367 64.414 l S
427.367 70.012 m 427.367 70.711 l S
427.367 76.309 m 427.367 77.008 l S
427.367 82.605 m 427.367 83.305 l S
427.367 88.898 m 427.367 89.598 l S
427.367 95.195 m 427.367 95.895 l S
427.367 101.492 m 427.367 102.191 l S
427.367 107.789 m 427.367 108.488 l S
427.367 114.082 m 427.367 114.781 l S
427.367 120.379 m 427.367 121.078 l S
427.367 126.676 m 427.367 127.375 l S
427.367 132.973 m 427.367 133.672 l S
427.367 139.266 m 427.367 139.965 l S
427.367 145.562 m 427.367 146.262 l S
427.367 151.859 m 427.367 152.559 l S
427.367 158.156 m 427.367 158.855 l S
427.367 164.449 m 427.367 165.148 l S
427.367 170.746 m 427.367 171.445 l S
427.367 177.043 m 427.367 177.742 l S
427.367 183.34 m 427.367 184.039 l S
427.367 189.633 m 427.367 190.332 l S
427.367 195.93 m 427.367 196.629 l S
427.367 202.227 m 427.367 202.926 l S
427.367 208.523 m 427.367 209.223 l S
427.367 214.816 m 427.367 215.516 l S
427.367 221.113 m 427.367 221.812 l S
427.367 227.41 m 427.367 228.109 l S
427.367 233.707 m 427.367 234.406 l S
427.367 240 m 427.367 240.699 l S
427.367 246.297 m 427.367 246.996 l S
427.367 252.594 m 427.367 253.293 l S
427.367 258.891 m 427.367 259.59 l S
427.367 265.184 m 427.367 265.883 l S
427.367 271.48 m 427.367 272.18 l S
427.367 277.777 m 427.367 278.477 l S
427.367 284.074 m 427.367 284.773 l S
427.367 290.367 m 427.367 291.066 l S
427.367 296.664 m 427.367 297.363 l S
427.367 302.961 m 427.367 303.66 l S
427.367 309.258 m 427.367 309.957 l S
427.367 315.551 m 427.367 316.25 l S
427.367 321.848 m 427.367 322.547 l S
427.367 328.145 m 427.367 328.844 l S
427.367 334.441 m 427.367 335.141 l S
427.367 340.734 m 427.367 341.434 l S
427.367 347.031 m 427.367 347.73 l S
427.367 353.328 m 427.367 354.027 l S
427.367 359.625 m 427.367 360.324 l S
427.367 365.918 m 427.367 366.617 l S
427.367 372.215 m 427.367 372.914 l S
427.367 378.512 m 427.367 379.211 l S
427.367 384.809 m 427.367 385.508 l S
427.367 391.102 m 427.367 391.801 l S
427.367 397.398 m 427.367 398.098 l S
427.367 403.695 m 427.367 404.395 l S
427.367 409.992 m 427.367 410.691 l S
427.367 416.285 m 427.367 416.988 l S
427.367 422.582 m 427.367 423.281 l S
427.367 428.879 m 427.367 429.578 l S
427.367 435.176 m 427.367 435.875 l S
427.367 441.469 m 427.367 442.172 l S
427.367 447.766 m 427.367 448.465 l S
427.367 454.062 m 427.367 454.762 l S
427.367 460.359 m 427.367 461.059 l S
427.367 466.652 m 427.367 467.355 l S
427.367 472.949 m 427.367 473.648 l S
427.367 479.246 m 427.367 479.945 l S
427.367 485.543 m 427.367 486.242 l S
427.367 491.836 m 427.367 492.539 l S
427.367 498.133 m 427.367 498.832 l S
427.367 504.43 m 427.367 505.129 l S
427.367 510.727 m 427.367 511.426 l S
427.367 517.02 m 427.367 517.723 l S
427.367 523.316 m 427.367 524.016 l S
427.367 529.613 m 427.367 530.312 l S
427.367 535.91 m 427.367 536.609 l S
427.367 542.203 m 427.367 542.906 l S
427.367 548.5 m 427.367 549.199 l S
427.367 554.797 m 427.367 555.496 l S
427.367 561.094 m 427.367 561.793 l S
427.367 567.387 m 427.367 568.09 l S
427.367 573.684 m 427.367 574.383 l S
427.367 579.98 m 427.367 580.68 l S
427.367 586.277 m 427.367 586.977 l S
427.367 592.574 m 427.367 593.273 l S
427.367 598.867 m 427.367 599.566 l S
427.367 605.164 m 427.367 605.863 l S
427.367 611.461 m 427.367 612.16 l S
427.367 617.758 m 427.367 618.457 l S
427.367 624.051 m 427.367 624.75 l S
427.367 630.348 m 427.367 631.047 l S
427.367 636.645 m 427.367 637.344 l S
427.367 642.941 m 427.367 643.641 l S
427.367 649.234 m 427.367 649.934 l S
427.367 655.531 m 427.367 656.23 l S
427.367 661.828 m 427.367 662.527 l S
427.367 668.125 m 427.367 668.824 l S
427.367 674.418 m 427.367 675.117 l S
427.367 680.715 m 427.367 681.414 l S
427.367 687.012 m 427.367 687.711 l S
427.367 693.309 m 427.367 694.008 l S
427.367 699.602 m 427.367 700.301 l S
427.367 705.898 m 427.367 706.598 l S
427.367 712.195 m 427.367 712.895 l S
427.367 718.492 m 427.367 719.191 l S
427.367 724.785 m 427.367 725.484 l S
0 g
419.23 56.523 m 418.121 56.078 l 417.379 54.742 l 417.012 52.516 l 417.012
 51.18 l 417.379 48.953 l 418.121 47.617 l 419.23 47.172 l 419.969 47.172
 l 421.078 47.617 l 421.82 48.953 l 422.188 51.18 l 422.188 52.516 l 421.82
 54.742 l 421.078 56.078 l 419.969 56.523 l 419.23 56.523 l S
429.586 55.188 m 429.219 56.078 l 428.109 56.523 l 427.367 56.523 l 426.258
 56.078 l 425.52 54.742 l 425.148 52.516 l 425.148 50.289 l 425.52 48.508
 l 426.258 47.617 l 427.367 47.172 l 427.738 47.172 l 428.848 47.617 l 429.586
 48.508 l 429.957 49.844 l 429.957 50.289 l 429.586 51.625 l 428.848 52.516
 l 427.738 52.961 l 427.367 52.961 l 426.258 52.516 l 425.52 51.625 l 425.148
 50.289 l S
437.723 56.523 m 432.547 47.172 l S
432.547 56.523 m 437.723 56.523 l S
432.547 47.172 m 437.723 47.172 l S
482.852 63.715 m 482.852 59.797 l S
0.666667 g
482.852 63.715 m 482.852 64.414 l S
482.852 70.012 m 482.852 70.711 l S
482.852 76.309 m 482.852 77.008 l S
482.852 82.605 m 482.852 83.305 l S
482.852 88.898 m 482.852 89.598 l S
482.852 95.195 m 482.852 95.895 l S
482.852 101.492 m 482.852 102.191 l S
482.852 107.789 m 482.852 108.488 l S
482.852 114.082 m 482.852 114.781 l S
482.852 120.379 m 482.852 121.078 l S
482.852 126.676 m 482.852 127.375 l S
482.852 132.973 m 482.852 133.672 l S
482.852 139.266 m 482.852 139.965 l S
482.852 145.562 m 482.852 146.262 l S
482.852 151.859 m 482.852 152.559 l S
482.852 158.156 m 482.852 158.855 l S
482.852 164.449 m 482.852 165.148 l S
482.852 170.746 m 482.852 171.445 l S
482.852 177.043 m 482.852 177.742 l S
482.852 183.34 m 482.852 184.039 l S
482.852 189.633 m 482.852 190.332 l S
482.852 195.93 m 482.852 196.629 l S
482.852 202.227 m 482.852 202.926 l S
482.852 208.523 m 482.852 209.223 l S
482.852 214.816 m 482.852 215.516 l S
482.852 221.113 m 482.852 221.812 l S
482.852 227.41 m 482.852 228.109 l S
482.852 233.707 m 482.852 234.406 l S
482.852 240 m 482.852 240.699 l S
482.852 246.297 m 482.852 246.996 l S
482.852 252.594 m 482.852 253.293 l S
482.852 258.891 m 482.852 259.59 l S
482.852 265.184 m 482.852 265.883 l S
482.852 271.48 m 482.852 272.18 l S
482.852 277.777 m 482.852 278.477 l S
482.852 284.074 m 482.852 284.773 l S
482.852 290.367 m 482.852 291.066 l S
482.852 296.664 m 482.852 297.363 l S
482.852 302.961 m 482.852 303.66 l S
482.852 309.258 m 482.852 309.957 l S
482.852 315.551 m 482.852 316.25 l S
482.852 321.848 m 482.852 322.547 l S
482.852 328.145 m 482.852 328.844 l S
482.852 334.441 m 482.852 335.141 l S
482.852 340.734 m 482.852 341.434 l S
482.852 347.031 m 482.852 347.73 l S
482.852 353.328 m 482.852 354.027 l S
482.852 359.625 m 482.852 360.324 l S
482.852 365.918 m 482.852 366.617 l S
482.852 372.215 m 482.852 372.914 l S
482.852 378.512 m 482.852 379.211 l S
482.852 384.809 m 482.852 385.508 l S
482.852 391.102 m 482.852 391.801 l S
482.852 397.398 m 482.852 398.098 l S
482.852 403.695 m 482.852 404.395 l S
482.852 409.992 m 482.852 410.691 l S
482.852 416.285 m 482.852 416.988 l S
482.852 422.582 m 482.852 423.281 l S
482.852 428.879 m 482.852 429.578 l S
482.852 435.176 m 482.852 435.875 l S
482.852 441.469 m 482.852 442.172 l S
482.852 447.766 m 482.852 448.465 l S
482.852 454.062 m 482.852 454.762 l S
482.852 460.359 m 482.852 461.059 l S
482.852 466.652 m 482.852 467.355 l S
482.852 472.949 m 482.852 473.648 l S
482.852 479.246 m 482.852 479.945 l S
482.852 485.543 m 482.852 486.242 l S
482.852 491.836 m 482.852 492.539 l S
482.852 498.133 m 482.852 498.832 l S
482.852 504.43 m 482.852 505.129 l S
482.852 510.727 m 482.852 511.426 l S
482.852 517.02 m 482.852 517.723 l S
482.852 523.316 m 482.852 524.016 l S
482.852 529.613 m 482.852 530.312 l S
482.852 535.91 m 482.852 536.609 l S
482.852 542.203 m 482.852 542.906 l S
482.852 548.5 m 482.852 549.199 l S
482.852 554.797 m 482.852 555.496 l S
482.852 561.094 m 482.852 561.793 l S
482.852 567.387 m 482.852 568.09 l S
482.852 573.684 m 482.852 574.383 l S
482.852 579.98 m 482.852 580.68 l S
482.852 586.277 m 482.852 586.977 l S
482.852 592.574 m 482.852 593.273 l S
482.852 598.867 m 482.852 599.566 l S
482.852 605.164 m 482.852 605.863 l S
482.852 611.461 m 482.852 612.16 l S
482.852 617.758 m 482.852 618.457 l S
482.852 624.051 m 482.852 624.75 l S
482.852 630.348 m 482.852 631.047 l S
482.852 636.645 m 482.852 637.344 l S
482.852 642.941 m 482.852 643.641 l S
482.852 649.234 m 482.852 649.934 l S
482.852 655.531 m 482.852 656.23 l S
482.852 661.828 m 482.852 662.527 l S
482.852 668.125 m 482.852 668.824 l S
482.852 674.418 m 482.852 675.117 l S
482.852 680.715 m 482.852 681.414 l S
482.852 687.012 m 482.852 687.711 l S
482.852 693.309 m 482.852 694.008 l S
482.852 699.602 m 482.852 700.301 l S
482.852 705.898 m 482.852 706.598 l S
482.852 712.195 m 482.852 712.895 l S
482.852 718.492 m 482.852 719.191 l S
482.852 724.785 m 482.852 725.484 l S
0 g
473.602 54.742 m 474.344 55.188 l 475.453 56.523 l 475.453 47.172 l S
480.629 54.297 m 480.629 54.742 l 481 55.633 l 481.371 56.078 l 482.109
 56.523 l 483.59 56.523 l 484.328 56.078 l 484.699 55.633 l 485.07 54.742
 l 485.07 53.852 l 484.699 52.961 l 483.961 51.625 l 480.262 47.172 l 485.438
 47.172 l S
493.207 56.523 m 488.027 47.172 l S
488.027 56.523 m 493.207 56.523 l S
488.027 47.172 m 493.207 47.172 l S
538.332 63.715 m 538.332 59.797 l S
0.666667 g
538.332 63.715 m 538.332 64.414 l S
538.332 70.012 m 538.332 70.711 l S
538.332 76.309 m 538.332 77.008 l S
538.332 82.605 m 538.332 83.305 l S
538.332 88.898 m 538.332 89.598 l S
538.332 95.195 m 538.332 95.895 l S
538.332 101.492 m 538.332 102.191 l S
538.332 107.789 m 538.332 108.488 l S
538.332 114.082 m 538.332 114.781 l S
538.332 120.379 m 538.332 121.078 l S
538.332 126.676 m 538.332 127.375 l S
538.332 132.973 m 538.332 133.672 l S
538.332 139.266 m 538.332 139.965 l S
538.332 145.562 m 538.332 146.262 l S
538.332 151.859 m 538.332 152.559 l S
538.332 158.156 m 538.332 158.855 l S
538.332 164.449 m 538.332 165.148 l S
538.332 170.746 m 538.332 171.445 l S
538.332 177.043 m 538.332 177.742 l S
538.332 183.34 m 538.332 184.039 l S
538.332 189.633 m 538.332 190.332 l S
538.332 195.93 m 538.332 196.629 l S
538.332 202.227 m 538.332 202.926 l S
538.332 208.523 m 538.332 209.223 l S
538.332 214.816 m 538.332 215.516 l S
538.332 221.113 m 538.332 221.812 l S
538.332 227.41 m 538.332 228.109 l S
538.332 233.707 m 538.332 234.406 l S
538.332 240 m 538.332 240.699 l S
538.332 246.297 m 538.332 246.996 l S
538.332 252.594 m 538.332 253.293 l S
538.332 258.891 m 538.332 259.59 l S
538.332 265.184 m 538.332 265.883 l S
538.332 271.48 m 538.332 272.18 l S
538.332 277.777 m 538.332 278.477 l S
538.332 284.074 m 538.332 284.773 l S
538.332 290.367 m 538.332 291.066 l S
538.332 296.664 m 538.332 297.363 l S
538.332 302.961 m 538.332 303.66 l S
538.332 309.258 m 538.332 309.957 l S
538.332 315.551 m 538.332 316.25 l S
538.332 321.848 m 538.332 322.547 l S
538.332 328.145 m 538.332 328.844 l S
538.332 334.441 m 538.332 335.141 l S
538.332 340.734 m 538.332 341.434 l S
538.332 347.031 m 538.332 347.73 l S
538.332 353.328 m 538.332 354.027 l S
538.332 359.625 m 538.332 360.324 l S
538.332 365.918 m 538.332 366.617 l S
538.332 372.215 m 538.332 372.914 l S
538.332 378.512 m 538.332 379.211 l S
538.332 384.809 m 538.332 385.508 l S
538.332 391.102 m 538.332 391.801 l S
538.332 397.398 m 538.332 398.098 l S
538.332 403.695 m 538.332 404.395 l S
538.332 409.992 m 538.332 410.691 l S
538.332 416.285 m 538.332 416.988 l S
538.332 422.582 m 538.332 423.281 l S
538.332 428.879 m 538.332 429.578 l S
538.332 435.176 m 538.332 435.875 l S
538.332 441.469 m 538.332 442.172 l S
538.332 447.766 m 538.332 448.465 l S
538.332 454.062 m 538.332 454.762 l S
538.332 460.359 m 538.332 461.059 l S
538.332 466.652 m 538.332 467.355 l S
538.332 472.949 m 538.332 473.648 l S
538.332 479.246 m 538.332 479.945 l S
538.332 485.543 m 538.332 486.242 l S
538.332 491.836 m 538.332 492.539 l S
538.332 498.133 m 538.332 498.832 l S
538.332 504.43 m 538.332 505.129 l S
538.332 510.727 m 538.332 511.426 l S
538.332 517.02 m 538.332 517.723 l S
538.332 523.316 m 538.332 524.016 l S
538.332 529.613 m 538.332 530.312 l S
538.332 535.91 m 538.332 536.609 l S
538.332 542.203 m 538.332 542.906 l S
538.332 548.5 m 538.332 549.199 l S
538.332 554.797 m 538.332 555.496 l S
538.332 561.094 m 538.332 561.793 l S
538.332 567.387 m 538.332 568.09 l S
538.332 573.684 m 538.332 574.383 l S
538.332 579.98 m 538.332 580.68 l S
538.332 586.277 m 538.332 586.977 l S
538.332 592.574 m 538.332 593.273 l S
538.332 598.867 m 538.332 599.566 l S
538.332 605.164 m 538.332 605.863 l S
538.332 611.461 m 538.332 612.16 l S
538.332 617.758 m 538.332 618.457 l S
538.332 624.051 m 538.332 624.75 l S
538.332 630.348 m 538.332 631.047 l S
538.332 636.645 m 538.332 637.344 l S
538.332 642.941 m 538.332 643.641 l S
538.332 649.234 m 538.332 649.934 l S
538.332 655.531 m 538.332 656.23 l S
538.332 661.828 m 538.332 662.527 l S
538.332 668.125 m 538.332 668.824 l S
538.332 674.418 m 538.332 675.117 l S
538.332 680.715 m 538.332 681.414 l S
538.332 687.012 m 538.332 687.711 l S
538.332 693.309 m 538.332 694.008 l S
538.332 699.602 m 538.332 700.301 l S
538.332 705.898 m 538.332 706.598 l S
538.332 712.195 m 538.332 712.895 l S
538.332 718.492 m 538.332 719.191 l S
538.332 724.785 m 538.332 725.484 l S
0 g
529.086 54.742 m 529.824 55.188 l 530.934 56.523 l 530.934 47.172 l S
537.594 56.523 m 536.484 56.078 l 536.113 55.188 l 536.113 54.297 l 536.484
 53.406 l 537.223 52.961 l 538.703 52.516 l 539.812 52.07 l 540.551 51.18
 l 540.922 50.289 l 540.922 48.953 l 540.551 48.062 l 540.184 47.617 l 539.07
 47.172 l 537.594 47.172 l 536.484 47.617 l 536.113 48.062 l 535.742 48.953
 l 535.742 50.289 l 536.113 51.18 l 536.852 52.07 l 537.961 52.516 l 539.441
 52.961 l 540.184 53.406 l 540.551 54.297 l 540.551 55.188 l 540.184 56.078
 l 539.07 56.523 l 537.594 56.523 l S
548.688 56.523 m 543.512 47.172 l S
543.512 56.523 m 548.688 56.523 l S
543.512 47.172 m 548.688 47.172 l S
149.957 63.715 m 146.07 63.715 l S
0.666667 g
149.957 63.715 m 150.648 63.715 l S
156.199 63.715 m 156.891 63.715 l S
162.438 63.715 m 163.133 63.715 l S
168.68 63.715 m 169.375 63.715 l S
174.922 63.715 m 175.617 63.715 l S
181.164 63.715 m 181.859 63.715 l S
187.406 63.715 m 188.102 63.715 l S
193.648 63.715 m 194.34 63.715 l S
199.891 63.715 m 200.582 63.715 l S
206.133 63.715 m 206.824 63.715 l S
212.375 63.715 m 213.066 63.715 l S
218.617 63.715 m 219.309 63.715 l S
224.855 63.715 m 225.551 63.715 l S
231.098 63.715 m 231.793 63.715 l S
237.34 63.715 m 238.035 63.715 l S
243.582 63.715 m 244.277 63.715 l S
249.824 63.715 m 250.52 63.715 l S
256.066 63.715 m 256.758 63.715 l S
262.309 63.715 m 263 63.715 l S
268.551 63.715 m 269.242 63.715 l S
274.793 63.715 m 275.484 63.715 l S
281.031 63.715 m 281.727 63.715 l S
287.273 63.715 m 287.969 63.715 l S
293.516 63.715 m 294.211 63.715 l S
299.758 63.715 m 300.453 63.715 l S
306 63.715 m 306.695 63.715 l S
312.242 63.715 m 312.934 63.715 l S
318.484 63.715 m 319.176 63.715 l S
324.727 63.715 m 325.418 63.715 l S
330.969 63.715 m 331.66 63.715 l S
337.207 63.715 m 337.902 63.715 l S
343.449 63.715 m 344.145 63.715 l S
349.691 63.715 m 350.387 63.715 l S
355.934 63.715 m 356.629 63.715 l S
362.176 63.715 m 362.871 63.715 l S
368.418 63.715 m 369.109 63.715 l S
374.66 63.715 m 375.352 63.715 l S
380.902 63.715 m 381.594 63.715 l S
387.145 63.715 m 387.836 63.715 l S
393.383 63.715 m 394.078 63.715 l S
399.625 63.715 m 400.32 63.715 l S
405.867 63.715 m 406.562 63.715 l S
412.109 63.715 m 412.805 63.715 l S
418.352 63.715 m 419.047 63.715 l S
424.594 63.715 m 425.285 63.715 l S
430.836 63.715 m 431.527 63.715 l S
437.078 63.715 m 437.77 63.715 l S
443.32 63.715 m 444.012 63.715 l S
449.562 63.715 m 450.254 63.715 l S
455.801 63.715 m 456.496 63.715 l S
462.043 63.715 m 462.738 63.715 l S
468.285 63.715 m 468.98 63.715 l S
474.527 63.715 m 475.223 63.715 l S
480.77 63.715 m 481.465 63.715 l S
487.012 63.715 m 487.703 63.715 l S
493.254 63.715 m 493.945 63.715 l S
499.496 63.715 m 500.188 63.715 l S
505.738 63.715 m 506.43 63.715 l S
511.977 63.715 m 512.672 63.715 l S
518.219 63.715 m 518.914 63.715 l S
524.461 63.715 m 525.156 63.715 l S
530.703 63.715 m 531.398 63.715 l S
536.945 63.715 m 537.641 63.715 l S
543.188 63.715 m 543.879 63.715 l S
549.43 63.715 m 550.121 63.715 l S
555.672 63.715 m 556.363 63.715 l S
561.914 63.715 m 562.605 63.715 l S
0 g
129.059 66.492 m 129.797 66.938 l 130.906 68.273 l 130.906 58.926 l S
137.934 68.273 m 136.824 67.828 l 136.086 66.492 l 135.715 64.27 l 135.715
 62.934 l 136.086 60.707 l 136.824 59.371 l 137.934 58.926 l 138.676 58.926
 l 139.785 59.371 l 140.523 60.707 l 140.895 62.934 l 140.895 64.27 l 140.523
 66.492 l 139.785 67.828 l 138.676 68.273 l 137.934 68.273 l S
149.957 124.133 m 146.07 124.133 l S
0.666667 g
149.957 124.133 m 150.648 124.133 l S
156.199 124.133 m 156.891 124.133 l S
162.438 124.133 m 163.133 124.133 l S
168.68 124.133 m 169.375 124.133 l S
174.922 124.133 m 175.617 124.133 l S
181.164 124.133 m 181.859 124.133 l S
187.406 124.133 m 188.102 124.133 l S
193.648 124.133 m 194.34 124.133 l S
199.891 124.133 m 200.582 124.133 l S
206.133 124.133 m 206.824 124.133 l S
212.375 124.133 m 213.066 124.133 l S
218.617 124.133 m 219.309 124.133 l S
224.855 124.133 m 225.551 124.133 l S
231.098 124.133 m 231.793 124.133 l S
237.34 124.133 m 238.035 124.133 l S
243.582 124.133 m 244.277 124.133 l S
249.824 124.133 m 250.52 124.133 l S
256.066 124.133 m 256.758 124.133 l S
262.309 124.133 m 263 124.133 l S
268.551 124.133 m 269.242 124.133 l S
274.793 124.133 m 275.484 124.133 l S
281.031 124.133 m 281.727 124.133 l S
287.273 124.133 m 287.969 124.133 l S
293.516 124.133 m 294.211 124.133 l S
299.758 124.133 m 300.453 124.133 l S
306 124.133 m 306.695 124.133 l S
312.242 124.133 m 312.934 124.133 l S
318.484 124.133 m 319.176 124.133 l S
324.727 124.133 m 325.418 124.133 l S
330.969 124.133 m 331.66 124.133 l S
337.207 124.133 m 337.902 124.133 l S
343.449 124.133 m 344.145 124.133 l S
349.691 124.133 m 350.387 124.133 l S
355.934 124.133 m 356.629 124.133 l S
362.176 124.133 m 362.871 124.133 l S
368.418 124.133 m 369.109 124.133 l S
374.66 124.133 m 375.352 124.133 l S
380.902 124.133 m 381.594 124.133 l S
387.145 124.133 m 387.836 124.133 l S
393.383 124.133 m 394.078 124.133 l S
399.625 124.133 m 400.32 124.133 l S
405.867 124.133 m 406.562 124.133 l S
412.109 124.133 m 412.805 124.133 l S
418.352 124.133 m 419.047 124.133 l S
424.594 124.133 m 425.285 124.133 l S
430.836 124.133 m 431.527 124.133 l S
437.078 124.133 m 437.77 124.133 l S
443.32 124.133 m 444.012 124.133 l S
449.562 124.133 m 450.254 124.133 l S
455.801 124.133 m 456.496 124.133 l S
462.043 124.133 m 462.738 124.133 l S
468.285 124.133 m 468.98 124.133 l S
474.527 124.133 m 475.223 124.133 l S
480.77 124.133 m 481.465 124.133 l S
487.012 124.133 m 487.703 124.133 l S
493.254 124.133 m 493.945 124.133 l S
499.496 124.133 m 500.188 124.133 l S
505.738 124.133 m 506.43 124.133 l S
511.977 124.133 m 512.672 124.133 l S
518.219 124.133 m 518.914 124.133 l S
524.461 124.133 m 525.156 124.133 l S
530.703 124.133 m 531.398 124.133 l S
536.945 124.133 m 537.641 124.133 l S
543.188 124.133 m 543.879 124.133 l S
549.43 124.133 m 550.121 124.133 l S
555.672 124.133 m 556.363 124.133 l S
561.914 124.133 m 562.605 124.133 l S
0 g
129.059 126.91 m 129.797 127.355 l 130.906 128.691 l 130.906 119.34 l S
136.086 126.465 m 136.086 126.91 l 136.457 127.801 l 136.824 128.246 l 
137.566 128.691 l 139.043 128.691 l 139.785 128.246 l 140.152 127.801 l 
140.523 126.91 l 140.523 126.02 l 140.152 125.129 l 139.414 123.793 l 135.715
 119.34 l 140.895 119.34 l S
149.957 184.547 m 146.07 184.547 l S
0.666667 g
149.957 184.547 m 150.648 184.547 l S
156.199 184.547 m 156.891 184.547 l S
162.438 184.547 m 163.133 184.547 l S
168.68 184.547 m 169.375 184.547 l S
174.922 184.547 m 175.617 184.547 l S
181.164 184.547 m 181.859 184.547 l S
187.406 184.547 m 188.102 184.547 l S
193.648 184.547 m 194.34 184.547 l S
199.891 184.547 m 200.582 184.547 l S
206.133 184.547 m 206.824 184.547 l S
212.375 184.547 m 213.066 184.547 l S
218.617 184.547 m 219.309 184.547 l S
224.855 184.547 m 225.551 184.547 l S
231.098 184.547 m 231.793 184.547 l S
237.34 184.547 m 238.035 184.547 l S
243.582 184.547 m 244.277 184.547 l S
249.824 184.547 m 250.52 184.547 l S
256.066 184.547 m 256.758 184.547 l S
262.309 184.547 m 263 184.547 l S
268.551 184.547 m 269.242 184.547 l S
274.793 184.547 m 275.484 184.547 l S
281.031 184.547 m 281.727 184.547 l S
287.273 184.547 m 287.969 184.547 l S
293.516 184.547 m 294.211 184.547 l S
299.758 184.547 m 300.453 184.547 l S
306 184.547 m 306.695 184.547 l S
312.242 184.547 m 312.934 184.547 l S
318.484 184.547 m 319.176 184.547 l S
324.727 184.547 m 325.418 184.547 l S
330.969 184.547 m 331.66 184.547 l S
337.207 184.547 m 337.902 184.547 l S
343.449 184.547 m 344.145 184.547 l S
349.691 184.547 m 350.387 184.547 l S
355.934 184.547 m 356.629 184.547 l S
362.176 184.547 m 362.871 184.547 l S
368.418 184.547 m 369.109 184.547 l S
374.66 184.547 m 375.352 184.547 l S
380.902 184.547 m 381.594 184.547 l S
387.145 184.547 m 387.836 184.547 l S
393.383 184.547 m 394.078 184.547 l S
399.625 184.547 m 400.32 184.547 l S
405.867 184.547 m 406.562 184.547 l S
412.109 184.547 m 412.805 184.547 l S
418.352 184.547 m 419.047 184.547 l S
424.594 184.547 m 425.285 184.547 l S
430.836 184.547 m 431.527 184.547 l S
437.078 184.547 m 437.77 184.547 l S
443.32 184.547 m 444.012 184.547 l S
449.562 184.547 m 450.254 184.547 l S
455.801 184.547 m 456.496 184.547 l S
462.043 184.547 m 462.738 184.547 l S
468.285 184.547 m 468.98 184.547 l S
474.527 184.547 m 475.223 184.547 l S
480.77 184.547 m 481.465 184.547 l S
487.012 184.547 m 487.703 184.547 l S
493.254 184.547 m 493.945 184.547 l S
499.496 184.547 m 500.188 184.547 l S
505.738 184.547 m 506.43 184.547 l S
511.977 184.547 m 512.672 184.547 l S
518.219 184.547 m 518.914 184.547 l S
524.461 184.547 m 525.156 184.547 l S
530.703 184.547 m 531.398 184.547 l S
536.945 184.547 m 537.641 184.547 l S
543.188 184.547 m 543.879 184.547 l S
549.43 184.547 m 550.121 184.547 l S
555.672 184.547 m 556.363 184.547 l S
561.914 184.547 m 562.605 184.547 l S
0 g
129.059 187.324 m 129.797 187.77 l 130.906 189.105 l 130.906 179.758 l S
139.414 189.105 m 135.715 182.871 l 141.262 182.871 l S
139.414 189.105 m 139.414 179.758 l S
149.957 244.961 m 146.07 244.961 l S
0.666667 g
149.957 244.961 m 150.648 244.961 l S
156.199 244.961 m 156.891 244.961 l S
162.438 244.961 m 163.133 244.961 l S
168.68 244.961 m 169.375 244.961 l S
174.922 244.961 m 175.617 244.961 l S
181.164 244.961 m 181.859 244.961 l S
187.406 244.961 m 188.102 244.961 l S
193.648 244.961 m 194.34 244.961 l S
199.891 244.961 m 200.582 244.961 l S
206.133 244.961 m 206.824 244.961 l S
212.375 244.961 m 213.066 244.961 l S
218.617 244.961 m 219.309 244.961 l S
224.855 244.961 m 225.551 244.961 l S
231.098 244.961 m 231.793 244.961 l S
237.34 244.961 m 238.035 244.961 l S
243.582 244.961 m 244.277 244.961 l S
249.824 244.961 m 250.52 244.961 l S
256.066 244.961 m 256.758 244.961 l S
262.309 244.961 m 263 244.961 l S
268.551 244.961 m 269.242 244.961 l S
274.793 244.961 m 275.484 244.961 l S
281.031 244.961 m 281.727 244.961 l S
287.273 244.961 m 287.969 244.961 l S
293.516 244.961 m 294.211 244.961 l S
299.758 244.961 m 300.453 244.961 l S
306 244.961 m 306.695 244.961 l S
312.242 244.961 m 312.934 244.961 l S
318.484 244.961 m 319.176 244.961 l S
324.727 244.961 m 325.418 244.961 l S
330.969 244.961 m 331.66 244.961 l S
337.207 244.961 m 337.902 244.961 l S
343.449 244.961 m 344.145 244.961 l S
349.691 244.961 m 350.387 244.961 l S
355.934 244.961 m 356.629 244.961 l S
362.176 244.961 m 362.871 244.961 l S
368.418 244.961 m 369.109 244.961 l S
374.66 244.961 m 375.352 244.961 l S
380.902 244.961 m 381.594 244.961 l S
387.145 244.961 m 387.836 244.961 l S
393.383 244.961 m 394.078 244.961 l S
399.625 244.961 m 400.32 244.961 l S
405.867 244.961 m 406.562 244.961 l S
412.109 244.961 m 412.805 244.961 l S
418.352 244.961 m 419.047 244.961 l S
424.594 244.961 m 425.285 244.961 l S
430.836 244.961 m 431.527 244.961 l S
437.078 244.961 m 437.77 244.961 l S
443.32 244.961 m 444.012 244.961 l S
449.562 244.961 m 450.254 244.961 l S
455.801 244.961 m 456.496 244.961 l S
462.043 244.961 m 462.738 244.961 l S
468.285 244.961 m 468.98 244.961 l S
474.527 244.961 m 475.223 244.961 l S
480.77 244.961 m 481.465 244.961 l S
487.012 244.961 m 487.703 244.961 l S
493.254 244.961 m 493.945 244.961 l S
499.496 244.961 m 500.188 244.961 l S
505.738 244.961 m 506.43 244.961 l S
511.977 244.961 m 512.672 244.961 l S
518.219 244.961 m 518.914 244.961 l S
524.461 244.961 m 525.156 244.961 l S
530.703 244.961 m 531.398 244.961 l S
536.945 244.961 m 537.641 244.961 l S
543.188 244.961 m 543.879 244.961 l S
549.43 244.961 m 550.121 244.961 l S
555.672 244.961 m 556.363 244.961 l S
561.914 244.961 m 562.605 244.961 l S
0 g
129.059 247.738 m 129.797 248.184 l 130.906 249.52 l 130.906 240.172 l S
140.523 248.184 m 140.152 249.074 l 139.043 249.52 l 138.305 249.52 l 137.195
 249.074 l 136.457 247.738 l 136.086 245.516 l 136.086 243.289 l 136.457
 241.508 l 137.195 240.617 l 138.305 240.172 l 138.676 240.172 l 139.785
 240.617 l 140.523 241.508 l 140.895 242.844 l 140.895 243.289 l 140.523
 244.625 l 139.785 245.516 l 138.676 245.957 l 138.305 245.957 l 137.195
 245.516 l 136.457 244.625 l 136.086 243.289 l S
149.957 305.379 m 146.07 305.379 l S
0.666667 g
149.957 305.379 m 150.648 305.379 l S
156.199 305.379 m 156.891 305.379 l S
162.438 305.379 m 163.133 305.379 l S
168.68 305.379 m 169.375 305.379 l S
174.922 305.379 m 175.617 305.379 l S
181.164 305.379 m 181.859 305.379 l S
187.406 305.379 m 188.102 305.379 l S
193.648 305.379 m 194.34 305.379 l S
199.891 305.379 m 200.582 305.379 l S
206.133 305.379 m 206.824 305.379 l S
212.375 305.379 m 213.066 305.379 l S
218.617 305.379 m 219.309 305.379 l S
224.855 305.379 m 225.551 305.379 l S
231.098 305.379 m 231.793 305.379 l S
237.34 305.379 m 238.035 305.379 l S
243.582 305.379 m 244.277 305.379 l S
249.824 305.379 m 250.52 305.379 l S
256.066 305.379 m 256.758 305.379 l S
262.309 305.379 m 263 305.379 l S
268.551 305.379 m 269.242 305.379 l S
274.793 305.379 m 275.484 305.379 l S
281.031 305.379 m 281.727 305.379 l S
287.273 305.379 m 287.969 305.379 l S
293.516 305.379 m 294.211 305.379 l S
299.758 305.379 m 300.453 305.379 l S
306 305.379 m 306.695 305.379 l S
312.242 305.379 m 312.934 305.379 l S
318.484 305.379 m 319.176 305.379 l S
324.727 305.379 m 325.418 305.379 l S
330.969 305.379 m 331.66 305.379 l S
337.207 305.379 m 337.902 305.379 l S
343.449 305.379 m 344.145 305.379 l S
349.691 305.379 m 350.387 305.379 l S
355.934 305.379 m 356.629 305.379 l S
362.176 305.379 m 362.871 305.379 l S
368.418 305.379 m 369.109 305.379 l S
374.66 305.379 m 375.352 305.379 l S
380.902 305.379 m 381.594 305.379 l S
387.145 305.379 m 387.836 305.379 l S
393.383 305.379 m 394.078 305.379 l S
399.625 305.379 m 400.32 305.379 l S
405.867 305.379 m 406.562 305.379 l S
412.109 305.379 m 412.805 305.379 l S
418.352 305.379 m 419.047 305.379 l S
424.594 305.379 m 425.285 305.379 l S
430.836 305.379 m 431.527 305.379 l S
437.078 305.379 m 437.77 305.379 l S
443.32 305.379 m 444.012 305.379 l S
449.562 305.379 m 450.254 305.379 l S
455.801 305.379 m 456.496 305.379 l S
462.043 305.379 m 462.738 305.379 l S
468.285 305.379 m 468.98 305.379 l S
474.527 305.379 m 475.223 305.379 l S
480.77 305.379 m 481.465 305.379 l S
487.012 305.379 m 487.703 305.379 l S
493.254 305.379 m 493.945 305.379 l S
499.496 305.379 m 500.188 305.379 l S
505.738 305.379 m 506.43 305.379 l S
511.977 305.379 m 512.672 305.379 l S
518.219 305.379 m 518.914 305.379 l S
524.461 305.379 m 525.156 305.379 l S
530.703 305.379 m 531.398 305.379 l S
536.945 305.379 m 537.641 305.379 l S
543.188 305.379 m 543.879 305.379 l S
549.43 305.379 m 550.121 305.379 l S
555.672 305.379 m 556.363 305.379 l S
561.914 305.379 m 562.605 305.379 l S
0 g
129.059 308.156 m 129.797 308.602 l 130.906 309.938 l 130.906 300.586 l
 S
137.566 309.938 m 136.457 309.492 l 136.086 308.602 l 136.086 307.711 l
 136.457 306.82 l 137.195 306.375 l 138.676 305.93 l 139.785 305.484 l 140.523
 304.594 l 140.895 303.703 l 140.895 302.367 l 140.523 301.477 l 140.152
 301.031 l 139.043 300.586 l 137.566 300.586 l 136.457 301.031 l 136.086
 301.477 l 135.715 302.367 l 135.715 303.703 l 136.086 304.594 l 136.824
 305.484 l 137.934 305.93 l 139.414 306.375 l 140.152 306.82 l 140.523 307.711
 l 140.523 308.602 l 140.152 309.492 l 139.043 309.938 l 137.566 309.938
 l S
149.957 365.793 m 146.07 365.793 l S
0.666667 g
149.957 365.793 m 150.648 365.793 l S
156.199 365.793 m 156.891 365.793 l S
162.438 365.793 m 163.133 365.793 l S
168.68 365.793 m 169.375 365.793 l S
174.922 365.793 m 175.617 365.793 l S
181.164 365.793 m 181.859 365.793 l S
187.406 365.793 m 188.102 365.793 l S
193.648 365.793 m 194.34 365.793 l S
199.891 365.793 m 200.582 365.793 l S
206.133 365.793 m 206.824 365.793 l S
212.375 365.793 m 213.066 365.793 l S
218.617 365.793 m 219.309 365.793 l S
224.855 365.793 m 225.551 365.793 l S
231.098 365.793 m 231.793 365.793 l S
237.34 365.793 m 238.035 365.793 l S
243.582 365.793 m 244.277 365.793 l S
249.824 365.793 m 250.52 365.793 l S
256.066 365.793 m 256.758 365.793 l S
262.309 365.793 m 263 365.793 l S
268.551 365.793 m 269.242 365.793 l S
274.793 365.793 m 275.484 365.793 l S
281.031 365.793 m 281.727 365.793 l S
287.273 365.793 m 287.969 365.793 l S
293.516 365.793 m 294.211 365.793 l S
299.758 365.793 m 300.453 365.793 l S
306 365.793 m 306.695 365.793 l S
312.242 365.793 m 312.934 365.793 l S
318.484 365.793 m 319.176 365.793 l S
324.727 365.793 m 325.418 365.793 l S
330.969 365.793 m 331.66 365.793 l S
337.207 365.793 m 337.902 365.793 l S
343.449 365.793 m 344.145 365.793 l S
349.691 365.793 m 350.387 365.793 l S
355.934 365.793 m 356.629 365.793 l S
362.176 365.793 m 362.871 365.793 l S
368.418 365.793 m 369.109 365.793 l S
374.66 365.793 m 375.352 365.793 l S
380.902 365.793 m 381.594 365.793 l S
387.145 365.793 m 387.836 365.793 l S
393.383 365.793 m 394.078 365.793 l S
399.625 365.793 m 400.32 365.793 l S
405.867 365.793 m 406.562 365.793 l S
412.109 365.793 m 412.805 365.793 l S
418.352 365.793 m 419.047 365.793 l S
424.594 365.793 m 425.285 365.793 l S
430.836 365.793 m 431.527 365.793 l S
437.078 365.793 m 437.77 365.793 l S
443.32 365.793 m 444.012 365.793 l S
449.562 365.793 m 450.254 365.793 l S
455.801 365.793 m 456.496 365.793 l S
462.043 365.793 m 462.738 365.793 l S
468.285 365.793 m 468.98 365.793 l S
474.527 365.793 m 475.223 365.793 l S
480.77 365.793 m 481.465 365.793 l S
487.012 365.793 m 487.703 365.793 l S
493.254 365.793 m 493.945 365.793 l S
499.496 365.793 m 500.188 365.793 l S
505.738 365.793 m 506.43 365.793 l S
511.977 365.793 m 512.672 365.793 l S
518.219 365.793 m 518.914 365.793 l S
524.461 365.793 m 525.156 365.793 l S
530.703 365.793 m 531.398 365.793 l S
536.945 365.793 m 537.641 365.793 l S
543.188 365.793 m 543.879 365.793 l S
549.43 365.793 m 550.121 365.793 l S
555.672 365.793 m 556.363 365.793 l S
561.914 365.793 m 562.605 365.793 l S
0 g
128.316 368.125 m 128.316 368.57 l 128.688 369.461 l 129.059 369.906 l 
129.797 370.352 l 131.277 370.352 l 132.016 369.906 l 132.387 369.461 l 
132.758 368.57 l 132.758 367.68 l 132.387 366.789 l 131.648 365.453 l 127.949
 361.004 l 133.125 361.004 l S
137.934 370.352 m 136.824 369.906 l 136.086 368.57 l 135.715 366.344 l 
135.715 365.008 l 136.086 362.781 l 136.824 361.449 l 137.934 361.004 l 
138.676 361.004 l 139.785 361.449 l 140.523 362.781 l 140.895 365.008 l 
140.895 366.344 l 140.523 368.57 l 139.785 369.906 l 138.676 370.352 l 137.934
 370.352 l S
149.957 426.207 m 146.07 426.207 l S
0.666667 g
149.957 426.207 m 150.648 426.207 l S
156.199 426.207 m 156.891 426.207 l S
162.438 426.207 m 163.133 426.207 l S
168.68 426.207 m 169.375 426.207 l S
174.922 426.207 m 175.617 426.207 l S
181.164 426.207 m 181.859 426.207 l S
187.406 426.207 m 188.102 426.207 l S
193.648 426.207 m 194.34 426.207 l S
199.891 426.207 m 200.582 426.207 l S
206.133 426.207 m 206.824 426.207 l S
212.375 426.207 m 213.066 426.207 l S
218.617 426.207 m 219.309 426.207 l S
224.855 426.207 m 225.551 426.207 l S
231.098 426.207 m 231.793 426.207 l S
237.34 426.207 m 238.035 426.207 l S
243.582 426.207 m 244.277 426.207 l S
249.824 426.207 m 250.52 426.207 l S
256.066 426.207 m 256.758 426.207 l S
262.309 426.207 m 263 426.207 l S
268.551 426.207 m 269.242 426.207 l S
274.793 426.207 m 275.484 426.207 l S
281.031 426.207 m 281.727 426.207 l S
287.273 426.207 m 287.969 426.207 l S
293.516 426.207 m 294.211 426.207 l S
299.758 426.207 m 300.453 426.207 l S
306 426.207 m 306.695 426.207 l S
312.242 426.207 m 312.934 426.207 l S
318.484 426.207 m 319.176 426.207 l S
324.727 426.207 m 325.418 426.207 l S
330.969 426.207 m 331.66 426.207 l S
337.207 426.207 m 337.902 426.207 l S
343.449 426.207 m 344.145 426.207 l S
349.691 426.207 m 350.387 426.207 l S
355.934 426.207 m 356.629 426.207 l S
362.176 426.207 m 362.871 426.207 l S
368.418 426.207 m 369.109 426.207 l S
374.66 426.207 m 375.352 426.207 l S
380.902 426.207 m 381.594 426.207 l S
387.145 426.207 m 387.836 426.207 l S
393.383 426.207 m 394.078 426.207 l S
399.625 426.207 m 400.32 426.207 l S
405.867 426.207 m 406.562 426.207 l S
412.109 426.207 m 412.805 426.207 l S
418.352 426.207 m 419.047 426.207 l S
424.594 426.207 m 425.285 426.207 l S
430.836 426.207 m 431.527 426.207 l S
437.078 426.207 m 437.77 426.207 l S
443.32 426.207 m 444.012 426.207 l S
449.562 426.207 m 450.254 426.207 l S
455.801 426.207 m 456.496 426.207 l S
462.043 426.207 m 462.738 426.207 l S
468.285 426.207 m 468.98 426.207 l S
474.527 426.207 m 475.223 426.207 l S
480.77 426.207 m 481.465 426.207 l S
487.012 426.207 m 487.703 426.207 l S
493.254 426.207 m 493.945 426.207 l S
499.496 426.207 m 500.188 426.207 l S
505.738 426.207 m 506.43 426.207 l S
511.977 426.207 m 512.672 426.207 l S
518.219 426.207 m 518.914 426.207 l S
524.461 426.207 m 525.156 426.207 l S
530.703 426.207 m 531.398 426.207 l S
536.945 426.207 m 537.641 426.207 l S
543.188 426.207 m 543.879 426.207 l S
549.43 426.207 m 550.121 426.207 l S
555.672 426.207 m 556.363 426.207 l S
561.914 426.207 m 562.605 426.207 l S
0 g
128.316 428.539 m 128.316 428.984 l 128.688 429.875 l 129.059 430.32 l 
129.797 430.766 l 131.277 430.766 l 132.016 430.32 l 132.387 429.875 l 132.758
 428.984 l 132.758 428.094 l 132.387 427.203 l 131.648 425.871 l 127.949
 421.418 l 133.125 421.418 l S
136.086 428.539 m 136.086 428.984 l 136.457 429.875 l 136.824 430.32 l 
137.566 430.766 l 139.043 430.766 l 139.785 430.32 l 140.152 429.875 l 140.523
 428.984 l 140.523 428.094 l 140.152 427.203 l 139.414 425.871 l 135.715
 421.418 l 140.895 421.418 l S
149.957 486.621 m 146.07 486.621 l S
0.666667 g
149.957 486.621 m 150.648 486.621 l S
156.199 486.621 m 156.891 486.621 l S
162.438 486.621 m 163.133 486.621 l S
168.68 486.621 m 169.375 486.621 l S
174.922 486.621 m 175.617 486.621 l S
181.164 486.621 m 181.859 486.621 l S
187.406 486.621 m 188.102 486.621 l S
193.648 486.621 m 194.34 486.621 l S
199.891 486.621 m 200.582 486.621 l S
206.133 486.621 m 206.824 486.621 l S
212.375 486.621 m 213.066 486.621 l S
218.617 486.621 m 219.309 486.621 l S
224.855 486.621 m 225.551 486.621 l S
231.098 486.621 m 231.793 486.621 l S
237.34 486.621 m 238.035 486.621 l S
243.582 486.621 m 244.277 486.621 l S
249.824 486.621 m 250.52 486.621 l S
256.066 486.621 m 256.758 486.621 l S
262.309 486.621 m 263 486.621 l S
268.551 486.621 m 269.242 486.621 l S
274.793 486.621 m 275.484 486.621 l S
281.031 486.621 m 281.727 486.621 l S
287.273 486.621 m 287.969 486.621 l S
293.516 486.621 m 294.211 486.621 l S
299.758 486.621 m 300.453 486.621 l S
306 486.621 m 306.695 486.621 l S
312.242 486.621 m 312.934 486.621 l S
318.484 486.621 m 319.176 486.621 l S
324.727 486.621 m 325.418 486.621 l S
330.969 486.621 m 331.66 486.621 l S
337.207 486.621 m 337.902 486.621 l S
343.449 486.621 m 344.145 486.621 l S
349.691 486.621 m 350.387 486.621 l S
355.934 486.621 m 356.629 486.621 l S
362.176 486.621 m 362.871 486.621 l S
368.418 486.621 m 369.109 486.621 l S
374.66 486.621 m 375.352 486.621 l S
380.902 486.621 m 381.594 486.621 l S
387.145 486.621 m 387.836 486.621 l S
393.383 486.621 m 394.078 486.621 l S
399.625 486.621 m 400.32 486.621 l S
405.867 486.621 m 406.562 486.621 l S
412.109 486.621 m 412.805 486.621 l S
418.352 486.621 m 419.047 486.621 l S
424.594 486.621 m 425.285 486.621 l S
430.836 486.621 m 431.527 486.621 l S
437.078 486.621 m 437.77 486.621 l S
443.32 486.621 m 444.012 486.621 l S
449.562 486.621 m 450.254 486.621 l S
455.801 486.621 m 456.496 486.621 l S
462.043 486.621 m 462.738 486.621 l S
468.285 486.621 m 468.98 486.621 l S
474.527 486.621 m 475.223 486.621 l S
480.77 486.621 m 481.465 486.621 l S
487.012 486.621 m 487.703 486.621 l S
493.254 486.621 m 493.945 486.621 l S
499.496 486.621 m 500.188 486.621 l S
505.738 486.621 m 506.43 486.621 l S
511.977 486.621 m 512.672 486.621 l S
518.219 486.621 m 518.914 486.621 l S
524.461 486.621 m 525.156 486.621 l S
530.703 486.621 m 531.398 486.621 l S
536.945 486.621 m 537.641 486.621 l S
543.188 486.621 m 543.879 486.621 l S
549.43 486.621 m 550.121 486.621 l S
555.672 486.621 m 556.363 486.621 l S
561.914 486.621 m 562.605 486.621 l S
0 g
128.316 488.957 m 128.316 489.402 l 128.688 490.293 l 129.059 490.734 l
 129.797 491.18 l 131.277 491.18 l 132.016 490.734 l 132.387 490.293 l 132.758
 489.402 l 132.758 488.512 l 132.387 487.621 l 131.648 486.285 l 127.949
 481.832 l 133.125 481.832 l S
139.414 491.18 m 135.715 484.949 l 141.262 484.949 l S
139.414 491.18 m 139.414 481.832 l S
149.957 547.039 m 146.07 547.039 l S
0.666667 g
149.957 547.039 m 150.648 547.039 l S
156.199 547.039 m 156.891 547.039 l S
162.438 547.039 m 163.133 547.039 l S
168.68 547.039 m 169.375 547.039 l S
174.922 547.039 m 175.617 547.039 l S
181.164 547.039 m 181.859 547.039 l S
187.406 547.039 m 188.102 547.039 l S
193.648 547.039 m 194.34 547.039 l S
199.891 547.039 m 200.582 547.039 l S
206.133 547.039 m 206.824 547.039 l S
212.375 547.039 m 213.066 547.039 l S
218.617 547.039 m 219.309 547.039 l S
224.855 547.039 m 225.551 547.039 l S
231.098 547.039 m 231.793 547.039 l S
237.34 547.039 m 238.035 547.039 l S
243.582 547.039 m 244.277 547.039 l S
249.824 547.039 m 250.52 547.039 l S
256.066 547.039 m 256.758 547.039 l S
262.309 547.039 m 263 547.039 l S
268.551 547.039 m 269.242 547.039 l S
274.793 547.039 m 275.484 547.039 l S
281.031 547.039 m 281.727 547.039 l S
287.273 547.039 m 287.969 547.039 l S
293.516 547.039 m 294.211 547.039 l S
299.758 547.039 m 300.453 547.039 l S
306 547.039 m 306.695 547.039 l S
312.242 547.039 m 312.934 547.039 l S
318.484 547.039 m 319.176 547.039 l S
324.727 547.039 m 325.418 547.039 l S
330.969 547.039 m 331.66 547.039 l S
337.207 547.039 m 337.902 547.039 l S
343.449 547.039 m 344.145 547.039 l S
349.691 547.039 m 350.387 547.039 l S
355.934 547.039 m 356.629 547.039 l S
362.176 547.039 m 362.871 547.039 l S
368.418 547.039 m 369.109 547.039 l S
374.66 547.039 m 375.352 547.039 l S
380.902 547.039 m 381.594 547.039 l S
387.145 547.039 m 387.836 547.039 l S
393.383 547.039 m 394.078 547.039 l S
399.625 547.039 m 400.32 547.039 l S
405.867 547.039 m 406.562 547.039 l S
412.109 547.039 m 412.805 547.039 l S
418.352 547.039 m 419.047 547.039 l S
424.594 547.039 m 425.285 547.039 l S
430.836 547.039 m 431.527 547.039 l S
437.078 547.039 m 437.77 547.039 l S
443.32 547.039 m 444.012 547.039 l S
449.562 547.039 m 450.254 547.039 l S
455.801 547.039 m 456.496 547.039 l S
462.043 547.039 m 462.738 547.039 l S
468.285 547.039 m 468.98 547.039 l S
474.527 547.039 m 475.223 547.039 l S
480.77 547.039 m 481.465 547.039 l S
487.012 547.039 m 487.703 547.039 l S
493.254 547.039 m 493.945 547.039 l S
499.496 547.039 m 500.188 547.039 l S
505.738 547.039 m 506.43 547.039 l S
511.977 547.039 m 512.672 547.039 l S
518.219 547.039 m 518.914 547.039 l S
524.461 547.039 m 525.156 547.039 l S
530.703 547.039 m 531.398 547.039 l S
536.945 547.039 m 537.641 547.039 l S
543.188 547.039 m 543.879 547.039 l S
549.43 547.039 m 550.121 547.039 l S
555.672 547.039 m 556.363 547.039 l S
561.914 547.039 m 562.605 547.039 l S
0 g
128.316 549.371 m 128.316 549.816 l 128.688 550.707 l 129.059 551.152 l
 129.797 551.598 l 131.277 551.598 l 132.016 551.152 l 132.387 550.707 l
 132.758 549.816 l 132.758 548.926 l 132.387 548.035 l 131.648 546.699 l
 127.949 542.25 l 133.125 542.25 l S
140.523 550.262 m 140.152 551.152 l 139.043 551.598 l 138.305 551.598 l
 137.195 551.152 l 136.457 549.816 l 136.086 547.59 l 136.086 545.363 l 
136.457 543.582 l 137.195 542.695 l 138.305 542.25 l 138.676 542.25 l 139.785
 542.695 l 140.523 543.582 l 140.895 544.918 l 140.895 545.363 l 140.523
 546.699 l 139.785 547.59 l 138.676 548.035 l 138.305 548.035 l 137.195 
547.59 l 136.457 546.699 l 136.086 545.363 l S
149.957 607.453 m 146.07 607.453 l S
0.666667 g
149.957 607.453 m 150.648 607.453 l S
156.199 607.453 m 156.891 607.453 l S
162.438 607.453 m 163.133 607.453 l S
168.68 607.453 m 169.375 607.453 l S
174.922 607.453 m 175.617 607.453 l S
181.164 607.453 m 181.859 607.453 l S
187.406 607.453 m 188.102 607.453 l S
193.648 607.453 m 194.34 607.453 l S
199.891 607.453 m 200.582 607.453 l S
206.133 607.453 m 206.824 607.453 l S
212.375 607.453 m 213.066 607.453 l S
218.617 607.453 m 219.309 607.453 l S
224.855 607.453 m 225.551 607.453 l S
231.098 607.453 m 231.793 607.453 l S
237.34 607.453 m 238.035 607.453 l S
243.582 607.453 m 244.277 607.453 l S
249.824 607.453 m 250.52 607.453 l S
256.066 607.453 m 256.758 607.453 l S
262.309 607.453 m 263 607.453 l S
268.551 607.453 m 269.242 607.453 l S
274.793 607.453 m 275.484 607.453 l S
281.031 607.453 m 281.727 607.453 l S
287.273 607.453 m 287.969 607.453 l S
293.516 607.453 m 294.211 607.453 l S
299.758 607.453 m 300.453 607.453 l S
306 607.453 m 306.695 607.453 l S
312.242 607.453 m 312.934 607.453 l S
318.484 607.453 m 319.176 607.453 l S
324.727 607.453 m 325.418 607.453 l S
330.969 607.453 m 331.66 607.453 l S
337.207 607.453 m 337.902 607.453 l S
343.449 607.453 m 344.145 607.453 l S
349.691 607.453 m 350.387 607.453 l S
355.934 607.453 m 356.629 607.453 l S
362.176 607.453 m 362.871 607.453 l S
368.418 607.453 m 369.109 607.453 l S
374.66 607.453 m 375.352 607.453 l S
380.902 607.453 m 381.594 607.453 l S
387.145 607.453 m 387.836 607.453 l S
393.383 607.453 m 394.078 607.453 l S
399.625 607.453 m 400.32 607.453 l S
405.867 607.453 m 406.562 607.453 l S
412.109 607.453 m 412.805 607.453 l S
418.352 607.453 m 419.047 607.453 l S
424.594 607.453 m 425.285 607.453 l S
430.836 607.453 m 431.527 607.453 l S
437.078 607.453 m 437.77 607.453 l S
443.32 607.453 m 444.012 607.453 l S
449.562 607.453 m 450.254 607.453 l S
455.801 607.453 m 456.496 607.453 l S
462.043 607.453 m 462.738 607.453 l S
468.285 607.453 m 468.98 607.453 l S
474.527 607.453 m 475.223 607.453 l S
480.77 607.453 m 481.465 607.453 l S
487.012 607.453 m 487.703 607.453 l S
493.254 607.453 m 493.945 607.453 l S
499.496 607.453 m 500.188 607.453 l S
505.738 607.453 m 506.43 607.453 l S
511.977 607.453 m 512.672 607.453 l S
518.219 607.453 m 518.914 607.453 l S
524.461 607.453 m 525.156 607.453 l S
530.703 607.453 m 531.398 607.453 l S
536.945 607.453 m 537.641 607.453 l S
543.188 607.453 m 543.879 607.453 l S
549.43 607.453 m 550.121 607.453 l S
555.672 607.453 m 556.363 607.453 l S
561.914 607.453 m 562.605 607.453 l S
0 g
128.316 609.785 m 128.316 610.23 l 128.688 611.121 l 129.059 611.566 l 
129.797 612.012 l 131.277 612.012 l 132.016 611.566 l 132.387 611.121 l 
132.758 610.23 l 132.758 609.34 l 132.387 608.449 l 131.648 607.113 l 127.949
 602.664 l 133.125 602.664 l S
137.566 612.012 m 136.457 611.566 l 136.086 610.676 l 136.086 609.785 l
 136.457 608.895 l 137.195 608.449 l 138.676 608.004 l 139.785 607.559 l
 140.523 606.672 l 140.895 605.781 l 140.895 604.445 l 140.523 603.555 l
 140.152 603.109 l 139.043 602.664 l 137.566 602.664 l 136.457 603.109 l
 136.086 603.555 l 135.715 604.445 l 135.715 605.781 l 136.086 606.672 l
 136.824 607.559 l 137.934 608.004 l 139.414 608.449 l 140.152 608.895 l
 140.523 609.785 l 140.523 610.676 l 140.152 611.566 l 139.043 612.012 l
 137.566 612.012 l S
149.957 667.867 m 146.07 667.867 l S
0.666667 g
149.957 667.867 m 150.648 667.867 l S
156.199 667.867 m 156.891 667.867 l S
162.438 667.867 m 163.133 667.867 l S
168.68 667.867 m 169.375 667.867 l S
174.922 667.867 m 175.617 667.867 l S
181.164 667.867 m 181.859 667.867 l S
187.406 667.867 m 188.102 667.867 l S
193.648 667.867 m 194.34 667.867 l S
199.891 667.867 m 200.582 667.867 l S
206.133 667.867 m 206.824 667.867 l S
212.375 667.867 m 213.066 667.867 l S
218.617 667.867 m 219.309 667.867 l S
224.855 667.867 m 225.551 667.867 l S
231.098 667.867 m 231.793 667.867 l S
237.34 667.867 m 238.035 667.867 l S
243.582 667.867 m 244.277 667.867 l S
249.824 667.867 m 250.52 667.867 l S
256.066 667.867 m 256.758 667.867 l S
262.309 667.867 m 263 667.867 l S
268.551 667.867 m 269.242 667.867 l S
274.793 667.867 m 275.484 667.867 l S
281.031 667.867 m 281.727 667.867 l S
287.273 667.867 m 287.969 667.867 l S
293.516 667.867 m 294.211 667.867 l S
299.758 667.867 m 300.453 667.867 l S
306 667.867 m 306.695 667.867 l S
312.242 667.867 m 312.934 667.867 l S
318.484 667.867 m 319.176 667.867 l S
324.727 667.867 m 325.418 667.867 l S
330.969 667.867 m 331.66 667.867 l S
337.207 667.867 m 337.902 667.867 l S
343.449 667.867 m 344.145 667.867 l S
349.691 667.867 m 350.387 667.867 l S
355.934 667.867 m 356.629 667.867 l S
362.176 667.867 m 362.871 667.867 l S
368.418 667.867 m 369.109 667.867 l S
374.66 667.867 m 375.352 667.867 l S
380.902 667.867 m 381.594 667.867 l S
387.145 667.867 m 387.836 667.867 l S
393.383 667.867 m 394.078 667.867 l S
399.625 667.867 m 400.32 667.867 l S
405.867 667.867 m 406.562 667.867 l S
412.109 667.867 m 412.805 667.867 l S
418.352 667.867 m 419.047 667.867 l S
424.594 667.867 m 425.285 667.867 l S
430.836 667.867 m 431.527 667.867 l S
437.078 667.867 m 437.77 667.867 l S
443.32 667.867 m 444.012 667.867 l S
449.562 667.867 m 450.254 667.867 l S
455.801 667.867 m 456.496 667.867 l S
462.043 667.867 m 462.738 667.867 l S
468.285 667.867 m 468.98 667.867 l S
474.527 667.867 m 475.223 667.867 l S
480.77 667.867 m 481.465 667.867 l S
487.012 667.867 m 487.703 667.867 l S
493.254 667.867 m 493.945 667.867 l S
499.496 667.867 m 500.188 667.867 l S
505.738 667.867 m 506.43 667.867 l S
511.977 667.867 m 512.672 667.867 l S
518.219 667.867 m 518.914 667.867 l S
524.461 667.867 m 525.156 667.867 l S
530.703 667.867 m 531.398 667.867 l S
536.945 667.867 m 537.641 667.867 l S
543.188 667.867 m 543.879 667.867 l S
549.43 667.867 m 550.121 667.867 l S
555.672 667.867 m 556.363 667.867 l S
561.914 667.867 m 562.605 667.867 l S
0 g
128.688 672.426 m 132.758 672.426 l 130.535 668.867 l 131.648 668.867 l
 132.387 668.422 l 132.758 667.977 l 133.125 666.641 l 133.125 665.75 l 
132.758 664.414 l 132.016 663.523 l 130.906 663.078 l 129.797 663.078 l 
128.688 663.523 l 128.316 663.969 l 127.949 664.859 l S
137.934 672.426 m 136.824 671.98 l 136.086 670.648 l 135.715 668.422 l 
135.715 667.086 l 136.086 664.859 l 136.824 663.523 l 137.934 663.078 l 
138.676 663.078 l 139.785 663.523 l 140.523 664.859 l 140.895 667.086 l 
140.895 668.422 l 140.523 670.648 l 139.785 671.98 l 138.676 672.426 l 137.934
 672.426 l S
149.957 728.285 m 146.07 728.285 l S
0.666667 g
149.957 728.285 m 150.648 728.285 l S
156.199 728.285 m 156.891 728.285 l S
162.438 728.285 m 163.133 728.285 l S
168.68 728.285 m 169.375 728.285 l S
174.922 728.285 m 175.617 728.285 l S
181.164 728.285 m 181.859 728.285 l S
187.406 728.285 m 188.102 728.285 l S
193.648 728.285 m 194.34 728.285 l S
199.891 728.285 m 200.582 728.285 l S
206.133 728.285 m 206.824 728.285 l S
212.375 728.285 m 213.066 728.285 l S
218.617 728.285 m 219.309 728.285 l S
224.855 728.285 m 225.551 728.285 l S
231.098 728.285 m 231.793 728.285 l S
237.34 728.285 m 238.035 728.285 l S
243.582 728.285 m 244.277 728.285 l S
249.824 728.285 m 250.52 728.285 l S
256.066 728.285 m 256.758 728.285 l S
262.309 728.285 m 263 728.285 l S
268.551 728.285 m 269.242 728.285 l S
274.793 728.285 m 275.484 728.285 l S
281.031 728.285 m 281.727 728.285 l S
287.273 728.285 m 287.969 728.285 l S
293.516 728.285 m 294.211 728.285 l S
299.758 728.285 m 300.453 728.285 l S
306 728.285 m 306.695 728.285 l S
312.242 728.285 m 312.934 728.285 l S
318.484 728.285 m 319.176 728.285 l S
324.727 728.285 m 325.418 728.285 l S
330.969 728.285 m 331.66 728.285 l S
337.207 728.285 m 337.902 728.285 l S
343.449 728.285 m 344.145 728.285 l S
349.691 728.285 m 350.387 728.285 l S
355.934 728.285 m 356.629 728.285 l S
362.176 728.285 m 362.871 728.285 l S
368.418 728.285 m 369.109 728.285 l S
374.66 728.285 m 375.352 728.285 l S
380.902 728.285 m 381.594 728.285 l S
387.145 728.285 m 387.836 728.285 l S
393.383 728.285 m 394.078 728.285 l S
399.625 728.285 m 400.32 728.285 l S
405.867 728.285 m 406.562 728.285 l S
412.109 728.285 m 412.805 728.285 l S
418.352 728.285 m 419.047 728.285 l S
424.594 728.285 m 425.285 728.285 l S
430.836 728.285 m 431.527 728.285 l S
437.078 728.285 m 437.77 728.285 l S
443.32 728.285 m 444.012 728.285 l S
449.562 728.285 m 450.254 728.285 l S
455.801 728.285 m 456.496 728.285 l S
462.043 728.285 m 462.738 728.285 l S
468.285 728.285 m 468.98 728.285 l S
474.527 728.285 m 475.223 728.285 l S
480.77 728.285 m 481.465 728.285 l S
487.012 728.285 m 487.703 728.285 l S
493.254 728.285 m 493.945 728.285 l S
499.496 728.285 m 500.188 728.285 l S
505.738 728.285 m 506.43 728.285 l S
511.977 728.285 m 512.672 728.285 l S
518.219 728.285 m 518.914 728.285 l S
524.461 728.285 m 525.156 728.285 l S
530.703 728.285 m 531.398 728.285 l S
536.945 728.285 m 537.641 728.285 l S
543.188 728.285 m 543.879 728.285 l S
549.43 728.285 m 550.121 728.285 l S
555.672 728.285 m 556.363 728.285 l S
561.914 728.285 m 562.605 728.285 l S
0 g
128.688 732.844 m 132.758 732.844 l 130.535 729.281 l 131.648 729.281 l
 132.387 728.836 l 132.758 728.391 l 133.125 727.055 l 133.125 726.164 l
 132.758 724.828 l 132.016 723.938 l 130.906 723.492 l 129.797 723.492 l
 128.688 723.938 l 128.316 724.383 l 127.949 725.273 l S
136.086 730.617 m 136.086 731.062 l 136.457 731.953 l 136.824 732.398 l
 137.566 732.844 l 139.043 732.844 l 139.785 732.398 l 140.152 731.953 l
 140.523 731.062 l 140.523 730.172 l 140.152 729.281 l 139.414 727.945 l
 135.715 723.492 l 140.895 723.492 l S
20.371 19.91 m 20.074 20.547 l 19.48 21.184 l 18.887 21.5 l 17.699 21.5
 l 17.102 21.184 l 16.508 20.547 l 16.211 19.91 l 15.914 18.957 l 15.914
 17.367 l 16.211 16.414 l 16.508 15.777 l 17.102 15.141 l 17.699 14.824 
l 18.887 14.824 l 19.48 15.141 l 20.074 15.777 l 20.371 16.414 l 20.371 
17.367 l S
18.887 17.367 m 20.371 17.367 l S
22.41 19.277 m 22.41 14.824 l S
22.41 17.367 m 22.707 18.32 l 23.301 18.957 l 23.895 19.277 l 24.785 19.277
 l S
28.137 21.5 m 25.758 14.824 l S
28.137 21.5 m 30.516 14.824 l S
26.652 17.051 m 29.625 17.051 l S
32.141 21.5 m 32.141 14.824 l S
32.141 21.5 m 34.223 21.5 l 35.113 21.184 l 35.711 20.547 l 36.008 19.91
 l 36.305 18.957 l 36.305 17.367 l 36.008 16.414 l 35.711 15.777 l 35.113
 15.141 l 34.223 14.824 l 32.141 14.824 l S
42.703 20.547 m 42.105 21.184 l 41.215 21.5 l 40.027 21.5 l 39.137 21.184
 l 38.539 20.547 l 38.539 19.91 l 38.836 19.277 l 39.137 18.957 l 39.73 
18.641 l 41.512 18.004 l 42.105 17.688 l 42.406 17.367 l 42.703 16.73 l 
42.703 15.777 l 42.105 15.141 l 41.215 14.824 l 40.027 14.824 l 39.137 15.141
 l 38.539 15.777 l S
49.852 22.773 m 44.5 12.598 l S
56.262 19.91 m 55.965 20.547 l 55.371 21.184 l 54.777 21.5 l 53.586 21.5
 l 52.992 21.184 l 52.398 20.547 l 52.102 19.91 l 51.805 18.957 l 51.805
 17.367 l 52.102 16.414 l 52.398 15.777 l 52.992 15.141 l 53.586 14.824 
l 54.777 14.824 l 55.371 15.141 l 55.965 15.777 l 56.262 16.414 l S
60 21.5 m 59.406 21.184 l 58.812 20.547 l 58.516 19.91 l 58.219 18.957 
l 58.219 17.367 l 58.516 16.414 l 58.812 15.777 l 59.406 15.141 l 60 14.824
 l 61.188 14.824 l 61.785 15.141 l 62.379 15.777 l 62.676 16.414 l 62.973
 17.367 l 62.973 18.957 l 62.676 19.91 l 62.379 20.547 l 61.785 21.184 l
 61.188 21.5 l 60 21.5 l S
64.898 21.5 m 64.898 14.824 l S
64.898 14.824 m 68.465 14.824 l S
72.141 21.5 m 69.766 14.824 l S
72.141 21.5 m 74.52 14.824 l S
70.656 17.051 m 73.629 17.051 l S
484.188 19.91 m 484.188 20.23 l 484.484 20.867 l 484.781 21.184 l 485.375
 21.5 l 486.566 21.5 l 487.16 21.184 l 487.457 20.867 l 487.754 20.23 l 
487.754 19.594 l 487.457 18.957 l 486.863 18.004 l 483.891 14.824 l 488.051
 14.824 l S
491.914 21.5 m 491.023 21.184 l 490.43 20.23 l 490.133 18.641 l 490.133
 17.688 l 490.43 16.098 l 491.023 15.141 l 491.914 14.824 l 492.512 14.824
 l 493.402 15.141 l 493.996 16.098 l 494.293 17.688 l 494.293 18.641 l 493.996
 20.23 l 493.402 21.184 l 492.512 21.5 l 491.914 21.5 l S
496.672 19.91 m 496.672 20.23 l 496.969 20.867 l 497.266 21.184 l 497.859
 21.5 l 499.051 21.5 l 499.645 21.184 l 499.941 20.867 l 500.238 20.23 l
 500.238 19.594 l 499.941 18.957 l 499.348 18.004 l 496.375 14.824 l 500.535
 14.824 l S
502.914 19.91 m 502.914 20.23 l 503.211 20.867 l 503.508 21.184 l 504.102
 21.5 l 505.289 21.5 l 505.887 21.184 l 506.184 20.867 l 506.48 20.23 l 
506.48 19.594 l 506.184 18.957 l 505.586 18.004 l 502.617 14.824 l 506.777
 14.824 l S
509.199 17.688 m 514.551 17.688 l S
517.863 20.23 m 518.457 20.547 l 519.348 21.5 l 519.348 14.824 l S
524.996 21.5 m 524.105 21.184 l 523.512 20.23 l 523.215 18.641 l 523.215
 17.688 l 523.512 16.098 l 524.105 15.141 l 524.996 14.824 l 525.59 14.824
 l 526.484 15.141 l 527.078 16.098 l 527.375 17.688 l 527.375 18.641 l 527.078
 20.23 l 526.484 21.184 l 525.59 21.5 l 524.996 21.5 l S
529.797 17.688 m 535.148 17.688 l S
537.867 19.91 m 537.867 20.23 l 538.164 20.867 l 538.461 21.184 l 539.055
 21.5 l 540.246 21.5 l 540.84 21.184 l 541.137 20.867 l 541.434 20.23 l 
541.434 19.594 l 541.137 18.957 l 540.543 18.004 l 537.57 14.824 l 541.73
 14.824 l S
544.703 20.23 m 545.297 20.547 l 546.188 21.5 l 546.188 14.824 l S
550.395 17.688 m 555.746 17.688 l S
559.059 20.23 m 559.652 20.547 l 560.547 21.5 l 560.547 14.824 l S
568.57 21.5 m 565.598 14.824 l S
564.41 21.5 m 568.57 21.5 l S
571.172 19.277 m 570.875 18.957 l 571.172 18.641 l 571.469 18.957 l 571.172
 19.277 l S
571.172 15.461 m 570.875 15.141 l 571.172 14.824 l 571.469 15.141 l 571.172
 15.461 l S
576.742 21.5 m 573.773 17.051 l 578.23 17.051 l S
576.742 21.5 m 576.742 14.824 l S
580.609 21.5 m 583.879 21.5 l 582.094 18.957 l 582.984 18.957 l 583.582
 18.641 l 583.879 18.32 l 584.176 17.367 l 584.176 16.73 l 583.879 15.777
 l 583.281 15.141 l 582.391 14.824 l 581.5 14.824 l 580.609 15.141 l 580.312
 15.461 l 580.012 16.098 l S
1.5 w
250.93 757.086 m 249.609 756.32 l 248.289 754.797 l 247.629 753.27 l 246.969
 750.98 l 246.969 747.164 l 247.629 744.875 l 248.289 743.348 l 249.609 
741.82 l 250.93 741.059 l 253.574 741.059 l 254.895 741.82 l 256.215 743.348
 l 256.875 744.875 l 257.535 747.164 l 257.535 750.98 l 256.875 753.27 l
 256.215 754.797 l 254.895 756.32 l 253.574 757.086 l 250.93 757.086 l S
252.91 744.113 m 256.875 739.531 l S
260.84 757.086 m 266.121 741.059 l S
271.406 757.086 m 266.121 741.059 l S
276.656 754.031 m 277.977 754.797 l 279.961 757.086 l 279.961 741.059 l
 S
292.508 757.086 m 290.527 756.32 l 289.207 754.031 l 288.547 750.215 l 
288.547 747.926 l 289.207 744.113 l 290.527 741.82 l 292.508 741.059 l 293.832
 741.059 l 295.812 741.82 l 297.133 744.113 l 297.793 747.926 l 297.793 
750.215 l 297.133 754.031 l 295.812 756.32 l 293.832 757.086 l 292.508 757.086
 l S
306.379 757.086 m 304.398 756.32 l 303.078 754.031 l 302.418 750.215 l 
302.418 747.926 l 303.078 744.113 l 304.398 741.82 l 306.379 741.059 l 307.699
 741.059 l 309.684 741.82 l 311.004 744.113 l 311.664 747.926 l 311.664 
750.215 l 311.004 754.031 l 309.684 756.32 l 307.699 757.086 l 306.379 757.086
 l S
320.25 757.086 m 318.27 756.32 l 316.949 754.031 l 316.289 750.215 l 316.289
 747.926 l 316.949 744.113 l 318.27 741.82 l 320.25 741.059 l 321.57 741.059
 l 323.555 741.82 l 324.875 744.113 l 325.535 747.926 l 325.535 750.215 
l 324.875 754.031 l 323.555 756.32 l 321.57 757.086 l 320.25 757.086 l S
343.961 757.086 m 351.227 757.086 l 347.266 750.98 l 349.246 750.98 l 350.566
 750.215 l 351.227 749.453 l 351.887 747.164 l 351.887 745.637 l 351.227
 743.348 l 349.906 741.82 l 347.926 741.059 l 345.945 741.059 l 343.961 
741.82 l 343.301 742.586 l 342.641 744.113 l S
357.172 753.27 m 357.172 754.031 l 357.832 755.559 l 358.492 756.32 l 359.816
 757.086 l 362.457 757.086 l 363.777 756.32 l 364.438 755.559 l 365.098 
754.031 l 365.098 752.508 l 364.438 750.98 l 363.117 748.691 l 356.512 741.059
 l 365.758 741.059 l S
371.078 757.086 m 371.078 741.059 l S
371.078 757.086 m 380.324 741.059 l S
380.324 757.086 m 380.324 741.059 l S
400.105 754.031 m 401.426 754.797 l 403.406 757.086 l 403.406 741.059 l
 S
412.656 753.27 m 412.656 754.031 l 413.316 755.559 l 413.977 756.32 l 415.297
 757.086 l 417.938 757.086 l 419.262 756.32 l 419.922 755.559 l 420.582 
754.031 l 420.582 752.508 l 419.922 750.98 l 418.598 748.691 l 411.996 741.059
 l 421.242 741.059 l S
429.168 757.086 m 427.188 756.32 l 426.527 754.797 l 426.527 753.27 l 427.188
 751.742 l 428.508 750.98 l 431.148 750.215 l 433.129 749.453 l 434.453 
747.926 l 435.113 746.402 l 435.113 744.113 l 434.453 742.586 l 433.793 
741.82 l 431.809 741.059 l 429.168 741.059 l 427.188 741.82 l 426.527 742.586
 l 425.863 744.113 l 425.863 746.402 l 426.527 747.926 l 427.848 749.453
 l 429.828 750.215 l 432.469 750.98 l 433.793 751.742 l 434.453 753.27 l
 434.453 754.797 l 433.793 756.32 l 431.809 757.086 l 429.168 757.086 l S
440.891 742.586 m 440.23 741.82 l 440.891 741.059 l 441.551 741.82 l 440.891
 742.586 l S
447.992 757.086 m 455.258 757.086 l 451.293 750.98 l 453.277 750.98 l 454.598
 750.215 l 455.258 749.453 l 455.918 747.164 l 455.918 745.637 l 455.258
 743.348 l 453.938 741.82 l 451.953 741.059 l 449.973 741.059 l 447.992 
741.82 l 447.332 742.586 l 446.672 744.113 l S
460.855 757.086 m 460.855 741.059 l S
460.855 757.086 m 469.441 757.086 l S
460.855 749.453 m 466.141 749.453 l S
460.855 741.059 m 469.441 741.059 l S
Q Q
showpage
%%Trailer
end restore
%%EOF
