%!PS-Adobe-3.0 EPSF-3.0
%%Creator: cairo 1.12.16 (http://cairographics.org)
%%CreationDate: Fri Oct 21 06:24:15 2022
%%Pages: 1
%%DocumentData: Clean7Bit
%%LanguageLevel: 2
%%BoundingBox: 0 0 612 792
%%EndComments
%%BeginProlog
save
50 dict begin
/q { gsave } bind def
/Q { grestore } bind def
/cm { 6 array astore concat } bind def
/w { setlinewidth } bind def
/J { setlinecap } bind def
/j { setlinejoin } bind def
/M { setmiterlimit } bind def
/d { setdash } bind def
/m { moveto } bind def
/l { lineto } bind def
/c { curveto } bind def
/h { closepath } bind def
/re { exch dup neg 3 1 roll 5 3 roll moveto 0 rlineto
      0 exch rlineto 0 rlineto closepath } bind def
/S { stroke } bind def
/f { fill } bind def
/f* { eofill } bind def
/n { newpath } bind def
/W { clip } bind def
/W* { eoclip } bind def
/BT { } bind def
/ET { } bind def
/pdfmark where { pop globaldict /?pdfmark /exec load put }
    { globaldict begin /?pdfmark /pop load def /pdfmark
    /cleartomark load def end } ifelse
/BDC { mark 3 1 roll /BDC pdfmark } bind def
/EMC { mark /EMC pdfmark } bind def
/cairo_store_point { /cairo_point_y exch def /cairo_point_x exch def } def
/Tj { show currentpoint cairo_store_point } bind def
/TJ {
  {
    dup
    type /stringtype eq
    { show } { -0.001 mul 0 cairo_font_matrix dtransform rmoveto } ifelse
  } forall
  currentpoint cairo_store_point
} bind def
/cairo_selectfont { cairo_font_matrix aload pop pop pop 0 0 6 array astore
    cairo_font exch selectfont cairo_point_x cairo_point_y moveto } bind def
/Tf { pop /cairo_font exch def /cairo_font_matrix where
      { pop cairo_selectfont } if } bind def
/Td { matrix translate cairo_font_matrix matrix concatmatrix dup
      /cairo_font_matrix exch def dup 4 get exch 5 get cairo_store_point
      /cairo_font where { pop cairo_selectfont } if } bind def
/Tm { 2 copy 8 2 roll 6 array astore /cairo_font_matrix exch def
      cairo_store_point /cairo_font where { pop cairo_selectfont } if } bind def
/g { setgray } bind def
/rg { setrgbcolor } bind def
/d1 { setcachedevice } bind def
%%EndProlog
%%Page: 1 1
%%BeginPageSetup
%%PageBoundingBox: 0 0 612 792
%%EndPageSetup
q 0 0 612 792 rectclip q
1 g
0 0 612 792 rectfill
0 g
1.5 w
1 J
1 j
[] 0.0 d
10 M 149.957 728.285 416.117 -664.57 re S
1.25 w
149.957 514.918 m 233.18 540.91 l 316.402 517.582 l 399.625 509.066 l 482.852
 497.285 l 566.074 508.477 l S
1 g
151.344 517.34 m 149.957 517.715 l 149.262 517.527 l 149.262 512.305 l 
149.957 512.117 l 151.344 512.492 l 152.359 513.52 l 152.73 514.918 l 152.359
 516.316 l 151.344 517.34 l f
0 g
151.344 517.34 m 149.957 517.715 l 149.262 517.527 l S
149.262 512.305 m 149.957 512.117 l 151.344 512.492 l 152.359 513.52 l 
152.73 514.918 l 152.359 516.316 l 151.344 517.34 l S
1 g
234.566 543.332 m 233.18 543.707 l 231.793 543.332 l 230.777 542.309 l 
230.406 540.91 l 230.777 539.512 l 231.793 538.484 l 233.18 538.109 l 234.566
 538.484 l 235.582 539.512 l 235.953 540.91 l 235.582 542.309 l 234.566 
543.332 l f
0 g
234.566 543.332 m 233.18 543.707 l 231.793 543.332 l 230.777 542.309 l 
230.406 540.91 l 230.777 539.512 l 231.793 538.484 l 233.18 538.109 l 234.566
 538.484 l 235.582 539.512 l 235.953 540.91 l 235.582 542.309 l 234.566 
543.332 l S
1 g
317.789 520.004 m 316.402 520.379 l 315.016 520.004 l 314 518.98 l 313.629
 517.582 l 314 516.184 l 315.016 515.156 l 316.402 514.781 l 317.789 515.156
 l 318.805 516.184 l 319.176 517.582 l 318.805 518.98 l 317.789 520.004 
l f
0 g
317.789 520.004 m 316.402 520.379 l 315.016 520.004 l 314 518.98 l 313.629
 517.582 l 314 516.184 l 315.016 515.156 l 316.402 514.781 l 317.789 515.156
 l 318.805 516.184 l 319.176 517.582 l 318.805 518.98 l 317.789 520.004 
l S
1 g
401.012 511.488 m 399.625 511.863 l 398.238 511.488 l 397.223 510.465 l
 396.852 509.066 l 397.223 507.668 l 398.238 506.645 l 399.625 506.27 l 
401.012 506.645 l 402.027 507.668 l 402.402 509.066 l 402.027 510.465 l 
401.012 511.488 l f
0 g
401.012 511.488 m 399.625 511.863 l 398.238 511.488 l 397.223 510.465 l
 396.852 509.066 l 397.223 507.668 l 398.238 506.645 l 399.625 506.27 l 
401.012 506.645 l 402.027 507.668 l 402.402 509.066 l 402.027 510.465 l 
401.012 511.488 l S
1 g
484.238 499.707 m 482.852 500.082 l 481.465 499.707 l 480.449 498.684 l
 480.074 497.285 l 480.449 495.887 l 481.465 494.863 l 482.852 494.488 l
 484.238 494.863 l 485.254 495.887 l 485.625 497.285 l 485.254 498.684 l
 484.238 499.707 l f
0 g
484.238 499.707 m 482.852 500.082 l 481.465 499.707 l 480.449 498.684 l
 480.074 497.285 l 480.449 495.887 l 481.465 494.863 l 482.852 494.488 l
 484.238 494.863 l 485.254 495.887 l 485.625 497.285 l 485.254 498.684 l
 484.238 499.707 l S
1 g
566.766 510.898 m 566.766 511.086 l 566.074 511.273 l 564.688 510.898 l
 563.672 509.875 l 563.301 508.477 l 563.672 507.078 l 564.688 506.051 l
 566.074 505.676 l 566.766 505.863 l 566.766 510.898 l f
0 g
566.766 511.086 m 566.074 511.273 l 564.688 510.898 l 563.672 509.875 l
 563.301 508.477 l 563.672 507.078 l 564.688 506.051 l 566.074 505.676 l
 566.766 505.863 l S
149.957 63.715 m 149.957 59.797 l S
0.666667 g
149.957 63.715 m 149.957 64.414 l S
149.957 70.012 m 149.957 70.711 l S
149.957 76.309 m 149.957 77.008 l S
149.957 82.605 m 149.957 83.305 l S
149.957 88.898 m 149.957 89.598 l S
149.957 95.195 m 149.957 95.895 l S
149.957 101.492 m 149.957 102.191 l S
149.957 107.789 m 149.957 108.488 l S
149.957 114.082 m 149.957 114.781 l S
149.957 120.379 m 149.957 121.078 l S
149.957 126.676 m 149.957 127.375 l S
149.957 132.973 m 149.957 133.672 l S
149.957 139.266 m 149.957 139.965 l S
149.957 145.562 m 149.957 146.262 l S
149.957 151.859 m 149.957 152.559 l S
149.957 158.156 m 149.957 158.855 l S
149.957 164.449 m 149.957 165.148 l S
149.957 170.746 m 149.957 171.445 l S
149.957 177.043 m 149.957 177.742 l S
149.957 183.34 m 149.957 184.039 l S
149.957 189.633 m 149.957 190.332 l S
149.957 195.93 m 149.957 196.629 l S
149.957 202.227 m 149.957 202.926 l S
149.957 208.523 m 149.957 209.223 l S
149.957 214.816 m 149.957 215.516 l S
149.957 221.113 m 149.957 221.812 l S
149.957 227.41 m 149.957 228.109 l S
149.957 233.707 m 149.957 234.406 l S
149.957 240 m 149.957 240.699 l S
149.957 246.297 m 149.957 246.996 l S
149.957 252.594 m 149.957 253.293 l S
149.957 258.891 m 149.957 259.59 l S
149.957 265.184 m 149.957 265.883 l S
149.957 271.48 m 149.957 272.18 l S
149.957 277.777 m 149.957 278.477 l S
149.957 284.074 m 149.957 284.773 l S
149.957 290.367 m 149.957 291.066 l S
149.957 296.664 m 149.957 297.363 l S
149.957 302.961 m 149.957 303.66 l S
149.957 309.258 m 149.957 309.957 l S
149.957 315.551 m 149.957 316.25 l S
149.957 321.848 m 149.957 322.547 l S
149.957 328.145 m 149.957 328.844 l S
149.957 334.441 m 149.957 335.141 l S
149.957 340.734 m 149.957 341.434 l S
149.957 347.031 m 149.957 347.73 l S
149.957 353.328 m 149.957 354.027 l S
149.957 359.625 m 149.957 360.324 l S
149.957 365.918 m 149.957 366.617 l S
149.957 372.215 m 149.957 372.914 l S
149.957 378.512 m 149.957 379.211 l S
149.957 384.809 m 149.957 385.508 l S
149.957 391.102 m 149.957 391.801 l S
149.957 397.398 m 149.957 398.098 l S
149.957 403.695 m 149.957 404.395 l S
149.957 409.992 m 149.957 410.691 l S
149.957 416.285 m 149.957 416.988 l S
149.957 422.582 m 149.957 423.281 l S
149.957 428.879 m 149.957 429.578 l S
149.957 435.176 m 149.957 435.875 l S
149.957 441.469 m 149.957 442.172 l S
149.957 447.766 m 149.957 448.465 l S
149.957 454.062 m 149.957 454.762 l S
149.957 460.359 m 149.957 461.059 l S
149.957 466.652 m 149.957 467.355 l S
149.957 472.949 m 149.957 473.648 l S
149.957 479.246 m 149.957 479.945 l S
149.957 485.543 m 149.957 486.242 l S
149.957 491.836 m 149.957 492.539 l S
149.957 498.133 m 149.957 498.832 l S
149.957 504.43 m 149.957 505.129 l S
149.957 510.727 m 149.957 511.426 l S
149.957 517.02 m 149.957 517.723 l S
149.957 523.316 m 149.957 524.016 l S
149.957 529.613 m 149.957 530.312 l S
149.957 535.91 m 149.957 536.609 l S
149.957 542.203 m 149.957 542.906 l S
149.957 548.5 m 149.957 549.199 l S
149.957 554.797 m 149.957 555.496 l S
149.957 561.094 m 149.957 561.793 l S
149.957 567.387 m 149.957 568.09 l S
149.957 573.684 m 149.957 574.383 l S
149.957 579.98 m 149.957 580.68 l S
149.957 586.277 m 149.957 586.977 l S
149.957 592.574 m 149.957 593.273 l S
149.957 598.867 m 149.957 599.566 l S
149.957 605.164 m 149.957 605.863 l S
149.957 611.461 m 149.957 612.16 l S
149.957 617.758 m 149.957 618.457 l S
149.957 624.051 m 149.957 624.75 l S
149.957 630.348 m 149.957 631.047 l S
149.957 636.645 m 149.957 637.344 l S
149.957 642.941 m 149.957 643.641 l S
149.957 649.234 m 149.957 649.934 l S
149.957 655.531 m 149.957 656.23 l S
149.957 661.828 m 149.957 662.527 l S
149.957 668.125 m 149.957 668.824 l S
149.957 674.418 m 149.957 675.117 l S
149.957 680.715 m 149.957 681.414 l S
149.957 687.012 m 149.957 687.711 l S
149.957 693.309 m 149.957 694.008 l S
149.957 699.602 m 149.957 700.301 l S
149.957 705.898 m 149.957 706.598 l S
149.957 712.195 m 149.957 712.895 l S
149.957 718.492 m 149.957 719.191 l S
149.957 724.785 m 149.957 725.484 l S
0 g
141.82 56.523 m 140.707 56.078 l 139.969 54.742 l 139.598 52.516 l 139.598
 51.18 l 139.969 48.953 l 140.707 47.617 l 141.82 47.172 l 142.559 47.172
 l 143.668 47.617 l 144.406 48.953 l 144.777 51.18 l 144.777 52.516 l 144.406
 54.742 l 143.668 56.078 l 142.559 56.523 l 141.82 56.523 l S
152.176 55.188 m 151.805 56.078 l 150.695 56.523 l 149.957 56.523 l 148.848
 56.078 l 148.105 54.742 l 147.738 52.516 l 147.738 50.289 l 148.105 48.508
 l 148.848 47.617 l 149.957 47.172 l 150.324 47.172 l 151.434 47.617 l 152.176
 48.508 l 152.547 49.844 l 152.547 50.289 l 152.176 51.625 l 151.434 52.516
 l 150.324 52.961 l 149.957 52.961 l 148.848 52.516 l 148.105 51.625 l 147.738
 50.289 l S
160.312 56.523 m 155.133 47.172 l S
155.133 56.523 m 160.312 56.523 l S
155.133 47.172 m 160.312 47.172 l S
141.125 42.812 m 137.426 42.812 l 137.055 38.805 l 137.426 39.25 l 138.535
 39.695 l 139.645 39.695 l 140.754 39.25 l 141.496 38.359 l 141.863 37.023
 l 141.863 36.133 l 141.496 34.797 l 140.754 33.906 l 139.645 33.461 l 138.535
 33.461 l 137.426 33.906 l 137.055 34.352 l 136.688 35.242 l S
147.746 42.812 m 147.746 35.688 l 147.375 34.352 l 147.008 33.906 l 146.266
 33.461 l 145.527 33.461 l 144.785 33.906 l 144.418 34.352 l 144.047 35.688
 l 144.047 36.578 l S
151.055 42.812 m 151.055 36.133 l 151.426 34.797 l 152.164 33.906 l 153.277
 33.461 l 154.016 33.461 l 155.125 33.906 l 155.863 34.797 l 156.234 36.133
 l 156.234 42.812 l S
159 42.812 m 159 33.461 l S
159 33.461 m 163.438 33.461 l S
136.086 26.875 m 136.086 27.32 l 136.457 28.211 l 136.824 28.656 l 137.566
 29.102 l 139.043 29.102 l 139.785 28.656 l 140.152 28.211 l 140.523 27.32
 l 140.523 26.43 l 140.152 25.539 l 139.414 24.203 l 135.715 19.75 l 140.895
 19.75 l S
145.703 29.102 m 144.594 28.656 l 143.852 27.32 l 143.484 25.094 l 143.484
 23.758 l 143.852 21.531 l 144.594 20.195 l 145.703 19.75 l 146.441 19.75
 l 147.551 20.195 l 148.293 21.531 l 148.66 23.758 l 148.66 25.094 l 148.293
 27.32 l 147.551 28.656 l 146.441 29.102 l 145.703 29.102 l S
151.621 26.875 m 151.621 27.32 l 151.992 28.211 l 152.359 28.656 l 153.102
 29.102 l 154.578 29.102 l 155.32 28.656 l 155.688 28.211 l 156.059 27.32
 l 156.059 26.43 l 155.688 25.539 l 154.949 24.203 l 151.25 19.75 l 156.43
 19.75 l S
159.387 26.875 m 159.387 27.32 l 159.758 28.211 l 160.129 28.656 l 160.867
 29.102 l 162.348 29.102 l 163.086 28.656 l 163.457 28.211 l 163.828 27.32
 l 163.828 26.43 l 163.457 25.539 l 162.719 24.203 l 159.02 19.75 l 164.195
 19.75 l S
233.18 63.715 m 233.18 59.797 l S
0.666667 g
233.18 63.715 m 233.18 64.414 l S
233.18 70.012 m 233.18 70.711 l S
233.18 76.309 m 233.18 77.008 l S
233.18 82.605 m 233.18 83.305 l S
233.18 88.898 m 233.18 89.598 l S
233.18 95.195 m 233.18 95.895 l S
233.18 101.492 m 233.18 102.191 l S
233.18 107.789 m 233.18 108.488 l S
233.18 114.082 m 233.18 114.781 l S
233.18 120.379 m 233.18 121.078 l S
233.18 126.676 m 233.18 127.375 l S
233.18 132.973 m 233.18 133.672 l S
233.18 139.266 m 233.18 139.965 l S
233.18 145.562 m 233.18 146.262 l S
233.18 151.859 m 233.18 152.559 l S
233.18 158.156 m 233.18 158.855 l S
233.18 164.449 m 233.18 165.148 l S
233.18 170.746 m 233.18 171.445 l S
233.18 177.043 m 233.18 177.742 l S
233.18 183.34 m 233.18 184.039 l S
233.18 189.633 m 233.18 190.332 l S
233.18 195.93 m 233.18 196.629 l S
233.18 202.227 m 233.18 202.926 l S
233.18 208.523 m 233.18 209.223 l S
233.18 214.816 m 233.18 215.516 l S
233.18 221.113 m 233.18 221.812 l S
233.18 227.41 m 233.18 228.109 l S
233.18 233.707 m 233.18 234.406 l S
233.18 240 m 233.18 240.699 l S
233.18 246.297 m 233.18 246.996 l S
233.18 252.594 m 233.18 253.293 l S
233.18 258.891 m 233.18 259.59 l S
233.18 265.184 m 233.18 265.883 l S
233.18 271.48 m 233.18 272.18 l S
233.18 277.777 m 233.18 278.477 l S
233.18 284.074 m 233.18 284.773 l S
233.18 290.367 m 233.18 291.066 l S
233.18 296.664 m 233.18 297.363 l S
233.18 302.961 m 233.18 303.66 l S
233.18 309.258 m 233.18 309.957 l S
233.18 315.551 m 233.18 316.25 l S
233.18 321.848 m 233.18 322.547 l S
233.18 328.145 m 233.18 328.844 l S
233.18 334.441 m 233.18 335.141 l S
233.18 340.734 m 233.18 341.434 l S
233.18 347.031 m 233.18 347.73 l S
233.18 353.328 m 233.18 354.027 l S
233.18 359.625 m 233.18 360.324 l S
233.18 365.918 m 233.18 366.617 l S
233.18 372.215 m 233.18 372.914 l S
233.18 378.512 m 233.18 379.211 l S
233.18 384.809 m 233.18 385.508 l S
233.18 391.102 m 233.18 391.801 l S
233.18 397.398 m 233.18 398.098 l S
233.18 403.695 m 233.18 404.395 l S
233.18 409.992 m 233.18 410.691 l S
233.18 416.285 m 233.18 416.988 l S
233.18 422.582 m 233.18 423.281 l S
233.18 428.879 m 233.18 429.578 l S
233.18 435.176 m 233.18 435.875 l S
233.18 441.469 m 233.18 442.172 l S
233.18 447.766 m 233.18 448.465 l S
233.18 454.062 m 233.18 454.762 l S
233.18 460.359 m 233.18 461.059 l S
233.18 466.652 m 233.18 467.355 l S
233.18 472.949 m 233.18 473.648 l S
233.18 479.246 m 233.18 479.945 l S
233.18 485.543 m 233.18 486.242 l S
233.18 491.836 m 233.18 492.539 l S
233.18 498.133 m 233.18 498.832 l S
233.18 504.43 m 233.18 505.129 l S
233.18 510.727 m 233.18 511.426 l S
233.18 517.02 m 233.18 517.723 l S
233.18 523.316 m 233.18 524.016 l S
233.18 529.613 m 233.18 530.312 l S
233.18 535.91 m 233.18 536.609 l S
233.18 542.203 m 233.18 542.906 l S
233.18 548.5 m 233.18 549.199 l S
233.18 554.797 m 233.18 555.496 l S
233.18 561.094 m 233.18 561.793 l S
233.18 567.387 m 233.18 568.09 l S
233.18 573.684 m 233.18 574.383 l S
233.18 579.98 m 233.18 580.68 l S
233.18 586.277 m 233.18 586.977 l S
233.18 592.574 m 233.18 593.273 l S
233.18 598.867 m 233.18 599.566 l S
233.18 605.164 m 233.18 605.863 l S
233.18 611.461 m 233.18 612.16 l S
233.18 617.758 m 233.18 618.457 l S
233.18 624.051 m 233.18 624.75 l S
233.18 630.348 m 233.18 631.047 l S
233.18 636.645 m 233.18 637.344 l S
233.18 642.941 m 233.18 643.641 l S
233.18 649.234 m 233.18 649.934 l S
233.18 655.531 m 233.18 656.23 l S
233.18 661.828 m 233.18 662.527 l S
233.18 668.125 m 233.18 668.824 l S
233.18 674.418 m 233.18 675.117 l S
233.18 680.715 m 233.18 681.414 l S
233.18 687.012 m 233.18 687.711 l S
233.18 693.309 m 233.18 694.008 l S
233.18 699.602 m 233.18 700.301 l S
233.18 705.898 m 233.18 706.598 l S
233.18 712.195 m 233.18 712.895 l S
233.18 718.492 m 233.18 719.191 l S
233.18 724.785 m 233.18 725.484 l S
0 g
225.043 56.523 m 223.934 56.078 l 223.191 54.742 l 222.824 52.516 l 222.824
 51.18 l 223.191 48.953 l 223.934 47.617 l 225.043 47.172 l 225.781 47.172
 l 226.891 47.617 l 227.633 48.953 l 228 51.18 l 228 52.516 l 227.633 54.742
 l 226.891 56.078 l 225.781 56.523 l 225.043 56.523 l S
235.398 53.406 m 235.027 52.07 l 234.289 51.18 l 233.18 50.734 l 232.809
 50.734 l 231.699 51.18 l 230.961 52.07 l 230.59 53.406 l 230.59 53.852 
l 230.961 55.188 l 231.699 56.078 l 232.809 56.523 l 233.18 56.523 l 234.289
 56.078 l 235.027 55.188 l 235.398 53.406 l 235.398 51.18 l 235.027 48.953
 l 234.289 47.617 l 233.18 47.172 l 232.441 47.172 l 231.328 47.617 l 230.961
 48.508 l S
243.535 56.523 m 238.359 47.172 l S
238.359 56.523 m 243.535 56.523 l S
238.359 47.172 m 243.535 47.172 l S
316.402 63.715 m 316.402 59.797 l S
0.666667 g
316.402 63.715 m 316.402 64.414 l S
316.402 70.012 m 316.402 70.711 l S
316.402 76.309 m 316.402 77.008 l S
316.402 82.605 m 316.402 83.305 l S
316.402 88.898 m 316.402 89.598 l S
316.402 95.195 m 316.402 95.895 l S
316.402 101.492 m 316.402 102.191 l S
316.402 107.789 m 316.402 108.488 l S
316.402 114.082 m 316.402 114.781 l S
316.402 120.379 m 316.402 121.078 l S
316.402 126.676 m 316.402 127.375 l S
316.402 132.973 m 316.402 133.672 l S
316.402 139.266 m 316.402 139.965 l S
316.402 145.562 m 316.402 146.262 l S
316.402 151.859 m 316.402 152.559 l S
316.402 158.156 m 316.402 158.855 l S
316.402 164.449 m 316.402 165.148 l S
316.402 170.746 m 316.402 171.445 l S
316.402 177.043 m 316.402 177.742 l S
316.402 183.34 m 316.402 184.039 l S
316.402 189.633 m 316.402 190.332 l S
316.402 195.93 m 316.402 196.629 l S
316.402 202.227 m 316.402 202.926 l S
316.402 208.523 m 316.402 209.223 l S
316.402 214.816 m 316.402 215.516 l S
316.402 221.113 m 316.402 221.812 l S
316.402 227.41 m 316.402 228.109 l S
316.402 233.707 m 316.402 234.406 l S
316.402 240 m 316.402 240.699 l S
316.402 246.297 m 316.402 246.996 l S
316.402 252.594 m 316.402 253.293 l S
316.402 258.891 m 316.402 259.59 l S
316.402 265.184 m 316.402 265.883 l S
316.402 271.48 m 316.402 272.18 l S
316.402 277.777 m 316.402 278.477 l S
316.402 284.074 m 316.402 284.773 l S
316.402 290.367 m 316.402 291.066 l S
316.402 296.664 m 316.402 297.363 l S
316.402 302.961 m 316.402 303.66 l S
316.402 309.258 m 316.402 309.957 l S
316.402 315.551 m 316.402 316.25 l S
316.402 321.848 m 316.402 322.547 l S
316.402 328.145 m 316.402 328.844 l S
316.402 334.441 m 316.402 335.141 l S
316.402 340.734 m 316.402 341.434 l S
316.402 347.031 m 316.402 347.73 l S
316.402 353.328 m 316.402 354.027 l S
316.402 359.625 m 316.402 360.324 l S
316.402 365.918 m 316.402 366.617 l S
316.402 372.215 m 316.402 372.914 l S
316.402 378.512 m 316.402 379.211 l S
316.402 384.809 m 316.402 385.508 l S
316.402 391.102 m 316.402 391.801 l S
316.402 397.398 m 316.402 398.098 l S
316.402 403.695 m 316.402 404.395 l S
316.402 409.992 m 316.402 410.691 l S
316.402 416.285 m 316.402 416.988 l S
316.402 422.582 m 316.402 423.281 l S
316.402 428.879 m 316.402 429.578 l S
316.402 435.176 m 316.402 435.875 l S
316.402 441.469 m 316.402 442.172 l S
316.402 447.766 m 316.402 448.465 l S
316.402 454.062 m 316.402 454.762 l S
316.402 460.359 m 316.402 461.059 l S
316.402 466.652 m 316.402 467.355 l S
316.402 472.949 m 316.402 473.648 l S
316.402 479.246 m 316.402 479.945 l S
316.402 485.543 m 316.402 486.242 l S
316.402 491.836 m 316.402 492.539 l S
316.402 498.133 m 316.402 498.832 l S
316.402 504.43 m 316.402 505.129 l S
316.402 510.727 m 316.402 511.426 l S
316.402 517.02 m 316.402 517.723 l S
316.402 523.316 m 316.402 524.016 l S
316.402 529.613 m 316.402 530.312 l S
316.402 535.91 m 316.402 536.609 l S
316.402 542.203 m 316.402 542.906 l S
316.402 548.5 m 316.402 549.199 l S
316.402 554.797 m 316.402 555.496 l S
316.402 561.094 m 316.402 561.793 l S
316.402 567.387 m 316.402 568.09 l S
316.402 573.684 m 316.402 574.383 l S
316.402 579.98 m 316.402 580.68 l S
316.402 586.277 m 316.402 586.977 l S
316.402 592.574 m 316.402 593.273 l S
316.402 598.867 m 316.402 599.566 l S
316.402 605.164 m 316.402 605.863 l S
316.402 611.461 m 316.402 612.16 l S
316.402 617.758 m 316.402 618.457 l S
316.402 624.051 m 316.402 624.75 l S
316.402 630.348 m 316.402 631.047 l S
316.402 636.645 m 316.402 637.344 l S
316.402 642.941 m 316.402 643.641 l S
316.402 649.234 m 316.402 649.934 l S
316.402 655.531 m 316.402 656.23 l S
316.402 661.828 m 316.402 662.527 l S
316.402 668.125 m 316.402 668.824 l S
316.402 674.418 m 316.402 675.117 l S
316.402 680.715 m 316.402 681.414 l S
316.402 687.012 m 316.402 687.711 l S
316.402 693.309 m 316.402 694.008 l S
316.402 699.602 m 316.402 700.301 l S
316.402 705.898 m 316.402 706.598 l S
316.402 712.195 m 316.402 712.895 l S
316.402 718.492 m 316.402 719.191 l S
316.402 724.785 m 316.402 725.484 l S
0 g
307.156 54.742 m 307.895 55.188 l 309.004 56.523 l 309.004 47.172 l S
314.184 54.297 m 314.184 54.742 l 314.555 55.633 l 314.922 56.078 l 315.664
 56.523 l 317.145 56.523 l 317.883 56.078 l 318.254 55.633 l 318.621 54.742
 l 318.621 53.852 l 318.254 52.961 l 317.512 51.625 l 313.812 47.172 l 318.992
 47.172 l S
326.758 56.523 m 321.582 47.172 l S
321.582 56.523 m 326.758 56.523 l S
321.582 47.172 m 326.758 47.172 l S
399.625 63.715 m 399.625 59.797 l S
0.666667 g
399.625 63.715 m 399.625 64.414 l S
399.625 70.012 m 399.625 70.711 l S
399.625 76.309 m 399.625 77.008 l S
399.625 82.605 m 399.625 83.305 l S
399.625 88.898 m 399.625 89.598 l S
399.625 95.195 m 399.625 95.895 l S
399.625 101.492 m 399.625 102.191 l S
399.625 107.789 m 399.625 108.488 l S
399.625 114.082 m 399.625 114.781 l S
399.625 120.379 m 399.625 121.078 l S
399.625 126.676 m 399.625 127.375 l S
399.625 132.973 m 399.625 133.672 l S
399.625 139.266 m 399.625 139.965 l S
399.625 145.562 m 399.625 146.262 l S
399.625 151.859 m 399.625 152.559 l S
399.625 158.156 m 399.625 158.855 l S
399.625 164.449 m 399.625 165.148 l S
399.625 170.746 m 399.625 171.445 l S
399.625 177.043 m 399.625 177.742 l S
399.625 183.34 m 399.625 184.039 l S
399.625 189.633 m 399.625 190.332 l S
399.625 195.93 m 399.625 196.629 l S
399.625 202.227 m 399.625 202.926 l S
399.625 208.523 m 399.625 209.223 l S
399.625 214.816 m 399.625 215.516 l S
399.625 221.113 m 399.625 221.812 l S
399.625 227.41 m 399.625 228.109 l S
399.625 233.707 m 399.625 234.406 l S
399.625 240 m 399.625 240.699 l S
399.625 246.297 m 399.625 246.996 l S
399.625 252.594 m 399.625 253.293 l S
399.625 258.891 m 399.625 259.59 l S
399.625 265.184 m 399.625 265.883 l S
399.625 271.48 m 399.625 272.18 l S
399.625 277.777 m 399.625 278.477 l S
399.625 284.074 m 399.625 284.773 l S
399.625 290.367 m 399.625 291.066 l S
399.625 296.664 m 399.625 297.363 l S
399.625 302.961 m 399.625 303.66 l S
399.625 309.258 m 399.625 309.957 l S
399.625 315.551 m 399.625 316.25 l S
399.625 321.848 m 399.625 322.547 l S
399.625 328.145 m 399.625 328.844 l S
399.625 334.441 m 399.625 335.141 l S
399.625 340.734 m 399.625 341.434 l S
399.625 347.031 m 399.625 347.73 l S
399.625 353.328 m 399.625 354.027 l S
399.625 359.625 m 399.625 360.324 l S
399.625 365.918 m 399.625 366.617 l S
399.625 372.215 m 399.625 372.914 l S
399.625 378.512 m 399.625 379.211 l S
399.625 384.809 m 399.625 385.508 l S
399.625 391.102 m 399.625 391.801 l S
399.625 397.398 m 399.625 398.098 l S
399.625 403.695 m 399.625 404.395 l S
399.625 409.992 m 399.625 410.691 l S
399.625 416.285 m 399.625 416.988 l S
399.625 422.582 m 399.625 423.281 l S
399.625 428.879 m 399.625 429.578 l S
399.625 435.176 m 399.625 435.875 l S
399.625 441.469 m 399.625 442.172 l S
399.625 447.766 m 399.625 448.465 l S
399.625 454.062 m 399.625 454.762 l S
399.625 460.359 m 399.625 461.059 l S
399.625 466.652 m 399.625 467.355 l S
399.625 472.949 m 399.625 473.648 l S
399.625 479.246 m 399.625 479.945 l S
399.625 485.543 m 399.625 486.242 l S
399.625 491.836 m 399.625 492.539 l S
399.625 498.133 m 399.625 498.832 l S
399.625 504.43 m 399.625 505.129 l S
399.625 510.727 m 399.625 511.426 l S
399.625 517.02 m 399.625 517.723 l S
399.625 523.316 m 399.625 524.016 l S
399.625 529.613 m 399.625 530.312 l S
399.625 535.91 m 399.625 536.609 l S
399.625 542.203 m 399.625 542.906 l S
399.625 548.5 m 399.625 549.199 l S
399.625 554.797 m 399.625 555.496 l S
399.625 561.094 m 399.625 561.793 l S
399.625 567.387 m 399.625 568.09 l S
399.625 573.684 m 399.625 574.383 l S
399.625 579.98 m 399.625 580.68 l S
399.625 586.277 m 399.625 586.977 l S
399.625 592.574 m 399.625 593.273 l S
399.625 598.867 m 399.625 599.566 l S
399.625 605.164 m 399.625 605.863 l S
399.625 611.461 m 399.625 612.16 l S
399.625 617.758 m 399.625 618.457 l S
399.625 624.051 m 399.625 624.75 l S
399.625 630.348 m 399.625 631.047 l S
399.625 636.645 m 399.625 637.344 l S
399.625 642.941 m 399.625 643.641 l S
399.625 649.234 m 399.625 649.934 l S
399.625 655.531 m 399.625 656.23 l S
399.625 661.828 m 399.625 662.527 l S
399.625 668.125 m 399.625 668.824 l S
399.625 674.418 m 399.625 675.117 l S
399.625 680.715 m 399.625 681.414 l S
399.625 687.012 m 399.625 687.711 l S
399.625 693.309 m 399.625 694.008 l S
399.625 699.602 m 399.625 700.301 l S
399.625 705.898 m 399.625 706.598 l S
399.625 712.195 m 399.625 712.895 l S
399.625 718.492 m 399.625 719.191 l S
399.625 724.785 m 399.625 725.484 l S
0 g
390.379 54.742 m 391.121 55.188 l 392.23 56.523 l 392.23 47.172 l S
401.477 56.523 m 397.777 56.523 l 397.406 52.516 l 397.777 52.961 l 398.887
 53.406 l 399.996 53.406 l 401.105 52.961 l 401.848 52.07 l 402.215 50.734
 l 402.215 49.844 l 401.848 48.508 l 401.105 47.617 l 399.996 47.172 l 398.887
 47.172 l 397.777 47.617 l 397.406 48.062 l 397.039 48.953 l S
409.984 56.523 m 404.805 47.172 l S
404.805 56.523 m 409.984 56.523 l S
404.805 47.172 m 409.984 47.172 l S
482.852 63.715 m 482.852 59.797 l S
0.666667 g
482.852 63.715 m 482.852 64.414 l S
482.852 70.012 m 482.852 70.711 l S
482.852 76.309 m 482.852 77.008 l S
482.852 82.605 m 482.852 83.305 l S
482.852 88.898 m 482.852 89.598 l S
482.852 95.195 m 482.852 95.895 l S
482.852 101.492 m 482.852 102.191 l S
482.852 107.789 m 482.852 108.488 l S
482.852 114.082 m 482.852 114.781 l S
482.852 120.379 m 482.852 121.078 l S
482.852 126.676 m 482.852 127.375 l S
482.852 132.973 m 482.852 133.672 l S
482.852 139.266 m 482.852 139.965 l S
482.852 145.562 m 482.852 146.262 l S
482.852 151.859 m 482.852 152.559 l S
482.852 158.156 m 482.852 158.855 l S
482.852 164.449 m 482.852 165.148 l S
482.852 170.746 m 482.852 171.445 l S
482.852 177.043 m 482.852 177.742 l S
482.852 183.34 m 482.852 184.039 l S
482.852 189.633 m 482.852 190.332 l S
482.852 195.93 m 482.852 196.629 l S
482.852 202.227 m 482.852 202.926 l S
482.852 208.523 m 482.852 209.223 l S
482.852 214.816 m 482.852 215.516 l S
482.852 221.113 m 482.852 221.812 l S
482.852 227.41 m 482.852 228.109 l S
482.852 233.707 m 482.852 234.406 l S
482.852 240 m 482.852 240.699 l S
482.852 246.297 m 482.852 246.996 l S
482.852 252.594 m 482.852 253.293 l S
482.852 258.891 m 482.852 259.59 l S
482.852 265.184 m 482.852 265.883 l S
482.852 271.48 m 482.852 272.18 l S
482.852 277.777 m 482.852 278.477 l S
482.852 284.074 m 482.852 284.773 l S
482.852 290.367 m 482.852 291.066 l S
482.852 296.664 m 482.852 297.363 l S
482.852 302.961 m 482.852 303.66 l S
482.852 309.258 m 482.852 309.957 l S
482.852 315.551 m 482.852 316.25 l S
482.852 321.848 m 482.852 322.547 l S
482.852 328.145 m 482.852 328.844 l S
482.852 334.441 m 482.852 335.141 l S
482.852 340.734 m 482.852 341.434 l S
482.852 347.031 m 482.852 347.73 l S
482.852 353.328 m 482.852 354.027 l S
482.852 359.625 m 482.852 360.324 l S
482.852 365.918 m 482.852 366.617 l S
482.852 372.215 m 482.852 372.914 l S
482.852 378.512 m 482.852 379.211 l S
482.852 384.809 m 482.852 385.508 l S
482.852 391.102 m 482.852 391.801 l S
482.852 397.398 m 482.852 398.098 l S
482.852 403.695 m 482.852 404.395 l S
482.852 409.992 m 482.852 410.691 l S
482.852 416.285 m 482.852 416.988 l S
482.852 422.582 m 482.852 423.281 l S
482.852 428.879 m 482.852 429.578 l S
482.852 435.176 m 482.852 435.875 l S
482.852 441.469 m 482.852 442.172 l S
482.852 447.766 m 482.852 448.465 l S
482.852 454.062 m 482.852 454.762 l S
482.852 460.359 m 482.852 461.059 l S
482.852 466.652 m 482.852 467.355 l S
482.852 472.949 m 482.852 473.648 l S
482.852 479.246 m 482.852 479.945 l S
482.852 485.543 m 482.852 486.242 l S
482.852 491.836 m 482.852 492.539 l S
482.852 498.133 m 482.852 498.832 l S
482.852 504.43 m 482.852 505.129 l S
482.852 510.727 m 482.852 511.426 l S
482.852 517.02 m 482.852 517.723 l S
482.852 523.316 m 482.852 524.016 l S
482.852 529.613 m 482.852 530.312 l S
482.852 535.91 m 482.852 536.609 l S
482.852 542.203 m 482.852 542.906 l S
482.852 548.5 m 482.852 549.199 l S
482.852 554.797 m 482.852 555.496 l S
482.852 561.094 m 482.852 561.793 l S
482.852 567.387 m 482.852 568.09 l S
482.852 573.684 m 482.852 574.383 l S
482.852 579.98 m 482.852 580.68 l S
482.852 586.277 m 482.852 586.977 l S
482.852 592.574 m 482.852 593.273 l S
482.852 598.867 m 482.852 599.566 l S
482.852 605.164 m 482.852 605.863 l S
482.852 611.461 m 482.852 612.16 l S
482.852 617.758 m 482.852 618.457 l S
482.852 624.051 m 482.852 624.75 l S
482.852 630.348 m 482.852 631.047 l S
482.852 636.645 m 482.852 637.344 l S
482.852 642.941 m 482.852 643.641 l S
482.852 649.234 m 482.852 649.934 l S
482.852 655.531 m 482.852 656.23 l S
482.852 661.828 m 482.852 662.527 l S
482.852 668.125 m 482.852 668.824 l S
482.852 674.418 m 482.852 675.117 l S
482.852 680.715 m 482.852 681.414 l S
482.852 687.012 m 482.852 687.711 l S
482.852 693.309 m 482.852 694.008 l S
482.852 699.602 m 482.852 700.301 l S
482.852 705.898 m 482.852 706.598 l S
482.852 712.195 m 482.852 712.895 l S
482.852 718.492 m 482.852 719.191 l S
482.852 724.785 m 482.852 725.484 l S
0 g
473.602 54.742 m 474.344 55.188 l 475.453 56.523 l 475.453 47.172 l S
482.109 56.523 m 481 56.078 l 480.629 55.188 l 480.629 54.297 l 481 53.406
 l 481.742 52.961 l 483.219 52.516 l 484.328 52.07 l 485.07 51.18 l 485.438
 50.289 l 485.438 48.953 l 485.07 48.062 l 484.699 47.617 l 483.59 47.172
 l 482.109 47.172 l 481 47.617 l 480.629 48.062 l 480.262 48.953 l 480.262
 50.289 l 480.629 51.18 l 481.371 52.07 l 482.48 52.516 l 483.961 52.961
 l 484.699 53.406 l 485.07 54.297 l 485.07 55.188 l 484.699 56.078 l 483.59
 56.523 l 482.109 56.523 l S
493.207 56.523 m 488.027 47.172 l S
488.027 56.523 m 493.207 56.523 l S
488.027 47.172 m 493.207 47.172 l S
566.074 63.715 m 566.074 59.797 l S
0.666667 g
566.074 63.715 m 566.074 64.414 l S
566.074 70.012 m 566.074 70.711 l S
566.074 76.309 m 566.074 77.008 l S
566.074 82.605 m 566.074 83.305 l S
566.074 88.898 m 566.074 89.598 l S
566.074 95.195 m 566.074 95.895 l S
566.074 101.492 m 566.074 102.191 l S
566.074 107.789 m 566.074 108.488 l S
566.074 114.082 m 566.074 114.781 l S
566.074 120.379 m 566.074 121.078 l S
566.074 126.676 m 566.074 127.375 l S
566.074 132.973 m 566.074 133.672 l S
566.074 139.266 m 566.074 139.965 l S
566.074 145.562 m 566.074 146.262 l S
566.074 151.859 m 566.074 152.559 l S
566.074 158.156 m 566.074 158.855 l S
566.074 164.449 m 566.074 165.148 l S
566.074 170.746 m 566.074 171.445 l S
566.074 177.043 m 566.074 177.742 l S
566.074 183.34 m 566.074 184.039 l S
566.074 189.633 m 566.074 190.332 l S
566.074 195.93 m 566.074 196.629 l S
566.074 202.227 m 566.074 202.926 l S
566.074 208.523 m 566.074 209.223 l S
566.074 214.816 m 566.074 215.516 l S
566.074 221.113 m 566.074 221.812 l S
566.074 227.41 m 566.074 228.109 l S
566.074 233.707 m 566.074 234.406 l S
566.074 240 m 566.074 240.699 l S
566.074 246.297 m 566.074 246.996 l S
566.074 252.594 m 566.074 253.293 l S
566.074 258.891 m 566.074 259.59 l S
566.074 265.184 m 566.074 265.883 l S
566.074 271.48 m 566.074 272.18 l S
566.074 277.777 m 566.074 278.477 l S
566.074 284.074 m 566.074 284.773 l S
566.074 290.367 m 566.074 291.066 l S
566.074 296.664 m 566.074 297.363 l S
566.074 302.961 m 566.074 303.66 l S
566.074 309.258 m 566.074 309.957 l S
566.074 315.551 m 566.074 316.25 l S
566.074 321.848 m 566.074 322.547 l S
566.074 328.145 m 566.074 328.844 l S
566.074 334.441 m 566.074 335.141 l S
566.074 340.734 m 566.074 341.434 l S
566.074 347.031 m 566.074 347.73 l S
566.074 353.328 m 566.074 354.027 l S
566.074 359.625 m 566.074 360.324 l S
566.074 365.918 m 566.074 366.617 l S
566.074 372.215 m 566.074 372.914 l S
566.074 378.512 m 566.074 379.211 l S
566.074 384.809 m 566.074 385.508 l S
566.074 391.102 m 566.074 391.801 l S
566.074 397.398 m 566.074 398.098 l S
566.074 403.695 m 566.074 404.395 l S
566.074 409.992 m 566.074 410.691 l S
566.074 416.285 m 566.074 416.988 l S
566.074 422.582 m 566.074 423.281 l S
566.074 428.879 m 566.074 429.578 l S
566.074 435.176 m 566.074 435.875 l S
566.074 441.469 m 566.074 442.172 l S
566.074 447.766 m 566.074 448.465 l S
566.074 454.062 m 566.074 454.762 l S
566.074 460.359 m 566.074 461.059 l S
566.074 466.652 m 566.074 467.355 l S
566.074 472.949 m 566.074 473.648 l S
566.074 479.246 m 566.074 479.945 l S
566.074 485.543 m 566.074 486.242 l S
566.074 491.836 m 566.074 492.539 l S
566.074 498.133 m 566.074 498.832 l S
566.074 504.43 m 566.074 505.129 l S
566.074 510.727 m 566.074 511.426 l S
566.074 517.02 m 566.074 517.723 l S
566.074 523.316 m 566.074 524.016 l S
566.074 529.613 m 566.074 530.312 l S
566.074 535.91 m 566.074 536.609 l S
566.074 542.203 m 566.074 542.906 l S
566.074 548.5 m 566.074 549.199 l S
566.074 554.797 m 566.074 555.496 l S
566.074 561.094 m 566.074 561.793 l S
566.074 567.387 m 566.074 568.09 l S
566.074 573.684 m 566.074 574.383 l S
566.074 579.98 m 566.074 580.68 l S
566.074 586.277 m 566.074 586.977 l S
566.074 592.574 m 566.074 593.273 l S
566.074 598.867 m 566.074 599.566 l S
566.074 605.164 m 566.074 605.863 l S
566.074 611.461 m 566.074 612.16 l S
566.074 617.758 m 566.074 618.457 l S
566.074 624.051 m 566.074 624.75 l S
566.074 630.348 m 566.074 631.047 l S
566.074 636.645 m 566.074 637.344 l S
566.074 642.941 m 566.074 643.641 l S
566.074 649.234 m 566.074 649.934 l S
566.074 655.531 m 566.074 656.23 l S
566.074 661.828 m 566.074 662.527 l S
566.074 668.125 m 566.074 668.824 l S
566.074 674.418 m 566.074 675.117 l S
566.074 680.715 m 566.074 681.414 l S
566.074 687.012 m 566.074 687.711 l S
566.074 693.309 m 566.074 694.008 l S
566.074 699.602 m 566.074 700.301 l S
566.074 705.898 m 566.074 706.598 l S
566.074 712.195 m 566.074 712.895 l S
566.074 718.492 m 566.074 719.191 l S
566.074 724.785 m 566.074 725.484 l S
0 g
556.086 54.297 m 556.086 54.742 l 556.457 55.633 l 556.828 56.078 l 557.566
 56.523 l 559.047 56.523 l 559.785 56.078 l 560.156 55.633 l 560.523 54.742
 l 560.523 53.852 l 560.156 52.961 l 559.414 51.625 l 555.719 47.172 l 560.895
 47.172 l S
564.594 54.742 m 565.332 55.188 l 566.445 56.523 l 566.445 47.172 l S
576.43 56.523 m 571.25 47.172 l S
571.25 56.523 m 576.43 56.523 l S
571.25 47.172 m 576.43 47.172 l S
149.957 63.715 m 146.07 63.715 l S
0.666667 g
149.957 63.715 m 150.648 63.715 l S
156.199 63.715 m 156.891 63.715 l S
162.438 63.715 m 163.133 63.715 l S
168.68 63.715 m 169.375 63.715 l S
174.922 63.715 m 175.617 63.715 l S
181.164 63.715 m 181.859 63.715 l S
187.406 63.715 m 188.102 63.715 l S
193.648 63.715 m 194.34 63.715 l S
199.891 63.715 m 200.582 63.715 l S
206.133 63.715 m 206.824 63.715 l S
212.375 63.715 m 213.066 63.715 l S
218.617 63.715 m 219.309 63.715 l S
224.855 63.715 m 225.551 63.715 l S
231.098 63.715 m 231.793 63.715 l S
237.34 63.715 m 238.035 63.715 l S
243.582 63.715 m 244.277 63.715 l S
249.824 63.715 m 250.52 63.715 l S
256.066 63.715 m 256.758 63.715 l S
262.309 63.715 m 263 63.715 l S
268.551 63.715 m 269.242 63.715 l S
274.793 63.715 m 275.484 63.715 l S
281.031 63.715 m 281.727 63.715 l S
287.273 63.715 m 287.969 63.715 l S
293.516 63.715 m 294.211 63.715 l S
299.758 63.715 m 300.453 63.715 l S
306 63.715 m 306.695 63.715 l S
312.242 63.715 m 312.934 63.715 l S
318.484 63.715 m 319.176 63.715 l S
324.727 63.715 m 325.418 63.715 l S
330.969 63.715 m 331.66 63.715 l S
337.207 63.715 m 337.902 63.715 l S
343.449 63.715 m 344.145 63.715 l S
349.691 63.715 m 350.387 63.715 l S
355.934 63.715 m 356.629 63.715 l S
362.176 63.715 m 362.871 63.715 l S
368.418 63.715 m 369.109 63.715 l S
374.66 63.715 m 375.352 63.715 l S
380.902 63.715 m 381.594 63.715 l S
387.145 63.715 m 387.836 63.715 l S
393.383 63.715 m 394.078 63.715 l S
399.625 63.715 m 400.32 63.715 l S
405.867 63.715 m 406.562 63.715 l S
412.109 63.715 m 412.805 63.715 l S
418.352 63.715 m 419.047 63.715 l S
424.594 63.715 m 425.285 63.715 l S
430.836 63.715 m 431.527 63.715 l S
437.078 63.715 m 437.77 63.715 l S
443.32 63.715 m 444.012 63.715 l S
449.562 63.715 m 450.254 63.715 l S
455.801 63.715 m 456.496 63.715 l S
462.043 63.715 m 462.738 63.715 l S
468.285 63.715 m 468.98 63.715 l S
474.527 63.715 m 475.223 63.715 l S
480.77 63.715 m 481.465 63.715 l S
487.012 63.715 m 487.703 63.715 l S
493.254 63.715 m 493.945 63.715 l S
499.496 63.715 m 500.188 63.715 l S
505.738 63.715 m 506.43 63.715 l S
511.977 63.715 m 512.672 63.715 l S
518.219 63.715 m 518.914 63.715 l S
524.461 63.715 m 525.156 63.715 l S
530.703 63.715 m 531.398 63.715 l S
536.945 63.715 m 537.641 63.715 l S
543.188 63.715 m 543.879 63.715 l S
549.43 63.715 m 550.121 63.715 l S
555.672 63.715 m 556.363 63.715 l S
561.914 63.715 m 562.605 63.715 l S
0 g
140.152 68.273 m 136.457 68.273 l 136.086 64.27 l 136.457 64.715 l 137.566
 65.16 l 138.676 65.16 l 139.785 64.715 l 140.523 63.824 l 140.895 62.488
 l 140.895 61.598 l 140.523 60.262 l 139.785 59.371 l 138.676 58.926 l 137.566
 58.926 l 136.457 59.371 l 136.086 59.816 l 135.715 60.707 l S
149.957 108.02 m 146.07 108.02 l S
0.666667 g
149.957 108.02 m 150.648 108.02 l S
156.199 108.02 m 156.891 108.02 l S
162.438 108.02 m 163.133 108.02 l S
168.68 108.02 m 169.375 108.02 l S
174.922 108.02 m 175.617 108.02 l S
181.164 108.02 m 181.859 108.02 l S
187.406 108.02 m 188.102 108.02 l S
193.648 108.02 m 194.34 108.02 l S
199.891 108.02 m 200.582 108.02 l S
206.133 108.02 m 206.824 108.02 l S
212.375 108.02 m 213.066 108.02 l S
218.617 108.02 m 219.309 108.02 l S
224.855 108.02 m 225.551 108.02 l S
231.098 108.02 m 231.793 108.02 l S
237.34 108.02 m 238.035 108.02 l S
243.582 108.02 m 244.277 108.02 l S
249.824 108.02 m 250.52 108.02 l S
256.066 108.02 m 256.758 108.02 l S
262.309 108.02 m 263 108.02 l S
268.551 108.02 m 269.242 108.02 l S
274.793 108.02 m 275.484 108.02 l S
281.031 108.02 m 281.727 108.02 l S
287.273 108.02 m 287.969 108.02 l S
293.516 108.02 m 294.211 108.02 l S
299.758 108.02 m 300.453 108.02 l S
306 108.02 m 306.695 108.02 l S
312.242 108.02 m 312.934 108.02 l S
318.484 108.02 m 319.176 108.02 l S
324.727 108.02 m 325.418 108.02 l S
330.969 108.02 m 331.66 108.02 l S
337.207 108.02 m 337.902 108.02 l S
343.449 108.02 m 344.145 108.02 l S
349.691 108.02 m 350.387 108.02 l S
355.934 108.02 m 356.629 108.02 l S
362.176 108.02 m 362.871 108.02 l S
368.418 108.02 m 369.109 108.02 l S
374.66 108.02 m 375.352 108.02 l S
380.902 108.02 m 381.594 108.02 l S
387.145 108.02 m 387.836 108.02 l S
393.383 108.02 m 394.078 108.02 l S
399.625 108.02 m 400.32 108.02 l S
405.867 108.02 m 406.562 108.02 l S
412.109 108.02 m 412.805 108.02 l S
418.352 108.02 m 419.047 108.02 l S
424.594 108.02 m 425.285 108.02 l S
430.836 108.02 m 431.527 108.02 l S
437.078 108.02 m 437.77 108.02 l S
443.32 108.02 m 444.012 108.02 l S
449.562 108.02 m 450.254 108.02 l S
455.801 108.02 m 456.496 108.02 l S
462.043 108.02 m 462.738 108.02 l S
468.285 108.02 m 468.98 108.02 l S
474.527 108.02 m 475.223 108.02 l S
480.77 108.02 m 481.465 108.02 l S
487.012 108.02 m 487.703 108.02 l S
493.254 108.02 m 493.945 108.02 l S
499.496 108.02 m 500.188 108.02 l S
505.738 108.02 m 506.43 108.02 l S
511.977 108.02 m 512.672 108.02 l S
518.219 108.02 m 518.914 108.02 l S
524.461 108.02 m 525.156 108.02 l S
530.703 108.02 m 531.398 108.02 l S
536.945 108.02 m 537.641 108.02 l S
543.188 108.02 m 543.879 108.02 l S
549.43 108.02 m 550.121 108.02 l S
555.672 108.02 m 556.363 108.02 l S
561.914 108.02 m 562.605 108.02 l S
0 g
140.523 111.242 m 140.152 112.133 l 139.043 112.578 l 138.305 112.578 l
 137.195 112.133 l 136.457 110.797 l 136.086 108.574 l 136.086 106.348 l
 136.457 104.566 l 137.195 103.676 l 138.305 103.23 l 138.676 103.23 l 139.785
 103.676 l 140.523 104.566 l 140.895 105.902 l 140.895 106.348 l 140.523
 107.684 l 139.785 108.574 l 138.676 109.02 l 138.305 109.02 l 137.195 108.574
 l 136.457 107.684 l 136.086 106.348 l S
149.957 152.324 m 146.07 152.324 l S
0.666667 g
149.957 152.324 m 150.648 152.324 l S
156.199 152.324 m 156.891 152.324 l S
162.438 152.324 m 163.133 152.324 l S
168.68 152.324 m 169.375 152.324 l S
174.922 152.324 m 175.617 152.324 l S
181.164 152.324 m 181.859 152.324 l S
187.406 152.324 m 188.102 152.324 l S
193.648 152.324 m 194.34 152.324 l S
199.891 152.324 m 200.582 152.324 l S
206.133 152.324 m 206.824 152.324 l S
212.375 152.324 m 213.066 152.324 l S
218.617 152.324 m 219.309 152.324 l S
224.855 152.324 m 225.551 152.324 l S
231.098 152.324 m 231.793 152.324 l S
237.34 152.324 m 238.035 152.324 l S
243.582 152.324 m 244.277 152.324 l S
249.824 152.324 m 250.52 152.324 l S
256.066 152.324 m 256.758 152.324 l S
262.309 152.324 m 263 152.324 l S
268.551 152.324 m 269.242 152.324 l S
274.793 152.324 m 275.484 152.324 l S
281.031 152.324 m 281.727 152.324 l S
287.273 152.324 m 287.969 152.324 l S
293.516 152.324 m 294.211 152.324 l S
299.758 152.324 m 300.453 152.324 l S
306 152.324 m 306.695 152.324 l S
312.242 152.324 m 312.934 152.324 l S
318.484 152.324 m 319.176 152.324 l S
324.727 152.324 m 325.418 152.324 l S
330.969 152.324 m 331.66 152.324 l S
337.207 152.324 m 337.902 152.324 l S
343.449 152.324 m 344.145 152.324 l S
349.691 152.324 m 350.387 152.324 l S
355.934 152.324 m 356.629 152.324 l S
362.176 152.324 m 362.871 152.324 l S
368.418 152.324 m 369.109 152.324 l S
374.66 152.324 m 375.352 152.324 l S
380.902 152.324 m 381.594 152.324 l S
387.145 152.324 m 387.836 152.324 l S
393.383 152.324 m 394.078 152.324 l S
399.625 152.324 m 400.32 152.324 l S
405.867 152.324 m 406.562 152.324 l S
412.109 152.324 m 412.805 152.324 l S
418.352 152.324 m 419.047 152.324 l S
424.594 152.324 m 425.285 152.324 l S
430.836 152.324 m 431.527 152.324 l S
437.078 152.324 m 437.77 152.324 l S
443.32 152.324 m 444.012 152.324 l S
449.562 152.324 m 450.254 152.324 l S
455.801 152.324 m 456.496 152.324 l S
462.043 152.324 m 462.738 152.324 l S
468.285 152.324 m 468.98 152.324 l S
474.527 152.324 m 475.223 152.324 l S
480.77 152.324 m 481.465 152.324 l S
487.012 152.324 m 487.703 152.324 l S
493.254 152.324 m 493.945 152.324 l S
499.496 152.324 m 500.188 152.324 l S
505.738 152.324 m 506.43 152.324 l S
511.977 152.324 m 512.672 152.324 l S
518.219 152.324 m 518.914 152.324 l S
524.461 152.324 m 525.156 152.324 l S
530.703 152.324 m 531.398 152.324 l S
536.945 152.324 m 537.641 152.324 l S
543.188 152.324 m 543.879 152.324 l S
549.43 152.324 m 550.121 152.324 l S
555.672 152.324 m 556.363 152.324 l S
561.914 152.324 m 562.605 152.324 l S
0 g
140.895 156.883 m 137.195 147.535 l S
135.715 156.883 m 140.895 156.883 l S
149.957 196.629 m 146.07 196.629 l S
0.666667 g
149.957 196.629 m 150.648 196.629 l S
156.199 196.629 m 156.891 196.629 l S
162.438 196.629 m 163.133 196.629 l S
168.68 196.629 m 169.375 196.629 l S
174.922 196.629 m 175.617 196.629 l S
181.164 196.629 m 181.859 196.629 l S
187.406 196.629 m 188.102 196.629 l S
193.648 196.629 m 194.34 196.629 l S
199.891 196.629 m 200.582 196.629 l S
206.133 196.629 m 206.824 196.629 l S
212.375 196.629 m 213.066 196.629 l S
218.617 196.629 m 219.309 196.629 l S
224.855 196.629 m 225.551 196.629 l S
231.098 196.629 m 231.793 196.629 l S
237.34 196.629 m 238.035 196.629 l S
243.582 196.629 m 244.277 196.629 l S
249.824 196.629 m 250.52 196.629 l S
256.066 196.629 m 256.758 196.629 l S
262.309 196.629 m 263 196.629 l S
268.551 196.629 m 269.242 196.629 l S
274.793 196.629 m 275.484 196.629 l S
281.031 196.629 m 281.727 196.629 l S
287.273 196.629 m 287.969 196.629 l S
293.516 196.629 m 294.211 196.629 l S
299.758 196.629 m 300.453 196.629 l S
306 196.629 m 306.695 196.629 l S
312.242 196.629 m 312.934 196.629 l S
318.484 196.629 m 319.176 196.629 l S
324.727 196.629 m 325.418 196.629 l S
330.969 196.629 m 331.66 196.629 l S
337.207 196.629 m 337.902 196.629 l S
343.449 196.629 m 344.145 196.629 l S
349.691 196.629 m 350.387 196.629 l S
355.934 196.629 m 356.629 196.629 l S
362.176 196.629 m 362.871 196.629 l S
368.418 196.629 m 369.109 196.629 l S
374.66 196.629 m 375.352 196.629 l S
380.902 196.629 m 381.594 196.629 l S
387.145 196.629 m 387.836 196.629 l S
393.383 196.629 m 394.078 196.629 l S
399.625 196.629 m 400.32 196.629 l S
405.867 196.629 m 406.562 196.629 l S
412.109 196.629 m 412.805 196.629 l S
418.352 196.629 m 419.047 196.629 l S
424.594 196.629 m 425.285 196.629 l S
430.836 196.629 m 431.527 196.629 l S
437.078 196.629 m 437.77 196.629 l S
443.32 196.629 m 444.012 196.629 l S
449.562 196.629 m 450.254 196.629 l S
455.801 196.629 m 456.496 196.629 l S
462.043 196.629 m 462.738 196.629 l S
468.285 196.629 m 468.98 196.629 l S
474.527 196.629 m 475.223 196.629 l S
480.77 196.629 m 481.465 196.629 l S
487.012 196.629 m 487.703 196.629 l S
493.254 196.629 m 493.945 196.629 l S
499.496 196.629 m 500.188 196.629 l S
505.738 196.629 m 506.43 196.629 l S
511.977 196.629 m 512.672 196.629 l S
518.219 196.629 m 518.914 196.629 l S
524.461 196.629 m 525.156 196.629 l S
530.703 196.629 m 531.398 196.629 l S
536.945 196.629 m 537.641 196.629 l S
543.188 196.629 m 543.879 196.629 l S
549.43 196.629 m 550.121 196.629 l S
555.672 196.629 m 556.363 196.629 l S
561.914 196.629 m 562.605 196.629 l S
0 g
137.566 201.188 m 136.457 200.742 l 136.086 199.852 l 136.086 198.961 l
 136.457 198.07 l 137.195 197.625 l 138.676 197.18 l 139.785 196.738 l 140.523
 195.848 l 140.895 194.957 l 140.895 193.621 l 140.523 192.73 l 140.152 
192.285 l 139.043 191.84 l 137.566 191.84 l 136.457 192.285 l 136.086 192.73
 l 135.715 193.621 l 135.715 194.957 l 136.086 195.848 l 136.824 196.738
 l 137.934 197.18 l 139.414 197.625 l 140.152 198.07 l 140.523 198.961 l
 140.523 199.852 l 140.152 200.742 l 139.043 201.188 l 137.566 201.188 l
 S
149.957 240.934 m 146.07 240.934 l S
0.666667 g
149.957 240.934 m 150.648 240.934 l S
156.199 240.934 m 156.891 240.934 l S
162.438 240.934 m 163.133 240.934 l S
168.68 240.934 m 169.375 240.934 l S
174.922 240.934 m 175.617 240.934 l S
181.164 240.934 m 181.859 240.934 l S
187.406 240.934 m 188.102 240.934 l S
193.648 240.934 m 194.34 240.934 l S
199.891 240.934 m 200.582 240.934 l S
206.133 240.934 m 206.824 240.934 l S
212.375 240.934 m 213.066 240.934 l S
218.617 240.934 m 219.309 240.934 l S
224.855 240.934 m 225.551 240.934 l S
231.098 240.934 m 231.793 240.934 l S
237.34 240.934 m 238.035 240.934 l S
243.582 240.934 m 244.277 240.934 l S
249.824 240.934 m 250.52 240.934 l S
256.066 240.934 m 256.758 240.934 l S
262.309 240.934 m 263 240.934 l S
268.551 240.934 m 269.242 240.934 l S
274.793 240.934 m 275.484 240.934 l S
281.031 240.934 m 281.727 240.934 l S
287.273 240.934 m 287.969 240.934 l S
293.516 240.934 m 294.211 240.934 l S
299.758 240.934 m 300.453 240.934 l S
306 240.934 m 306.695 240.934 l S
312.242 240.934 m 312.934 240.934 l S
318.484 240.934 m 319.176 240.934 l S
324.727 240.934 m 325.418 240.934 l S
330.969 240.934 m 331.66 240.934 l S
337.207 240.934 m 337.902 240.934 l S
343.449 240.934 m 344.145 240.934 l S
349.691 240.934 m 350.387 240.934 l S
355.934 240.934 m 356.629 240.934 l S
362.176 240.934 m 362.871 240.934 l S
368.418 240.934 m 369.109 240.934 l S
374.66 240.934 m 375.352 240.934 l S
380.902 240.934 m 381.594 240.934 l S
387.145 240.934 m 387.836 240.934 l S
393.383 240.934 m 394.078 240.934 l S
399.625 240.934 m 400.32 240.934 l S
405.867 240.934 m 406.562 240.934 l S
412.109 240.934 m 412.805 240.934 l S
418.352 240.934 m 419.047 240.934 l S
424.594 240.934 m 425.285 240.934 l S
430.836 240.934 m 431.527 240.934 l S
437.078 240.934 m 437.77 240.934 l S
443.32 240.934 m 444.012 240.934 l S
449.562 240.934 m 450.254 240.934 l S
455.801 240.934 m 456.496 240.934 l S
462.043 240.934 m 462.738 240.934 l S
468.285 240.934 m 468.98 240.934 l S
474.527 240.934 m 475.223 240.934 l S
480.77 240.934 m 481.465 240.934 l S
487.012 240.934 m 487.703 240.934 l S
493.254 240.934 m 493.945 240.934 l S
499.496 240.934 m 500.188 240.934 l S
505.738 240.934 m 506.43 240.934 l S
511.977 240.934 m 512.672 240.934 l S
518.219 240.934 m 518.914 240.934 l S
524.461 240.934 m 525.156 240.934 l S
530.703 240.934 m 531.398 240.934 l S
536.945 240.934 m 537.641 240.934 l S
543.188 240.934 m 543.879 240.934 l S
549.43 240.934 m 550.121 240.934 l S
555.672 240.934 m 556.363 240.934 l S
561.914 240.934 m 562.605 240.934 l S
0 g
140.523 242.375 m 140.152 241.039 l 139.414 240.152 l 138.305 239.707 l
 137.934 239.707 l 136.824 240.152 l 136.086 241.039 l 135.715 242.375 l
 135.715 242.82 l 136.086 244.156 l 136.824 245.047 l 137.934 245.492 l 
138.305 245.492 l 139.414 245.047 l 140.152 244.156 l 140.523 242.375 l 
140.523 240.152 l 140.152 237.926 l 139.414 236.59 l 138.305 236.145 l 137.566
 236.145 l 136.457 236.59 l 136.086 237.48 l S
149.957 285.238 m 146.07 285.238 l S
0.666667 g
149.957 285.238 m 150.648 285.238 l S
156.199 285.238 m 156.891 285.238 l S
162.438 285.238 m 163.133 285.238 l S
168.68 285.238 m 169.375 285.238 l S
174.922 285.238 m 175.617 285.238 l S
181.164 285.238 m 181.859 285.238 l S
187.406 285.238 m 188.102 285.238 l S
193.648 285.238 m 194.34 285.238 l S
199.891 285.238 m 200.582 285.238 l S
206.133 285.238 m 206.824 285.238 l S
212.375 285.238 m 213.066 285.238 l S
218.617 285.238 m 219.309 285.238 l S
224.855 285.238 m 225.551 285.238 l S
231.098 285.238 m 231.793 285.238 l S
237.34 285.238 m 238.035 285.238 l S
243.582 285.238 m 244.277 285.238 l S
249.824 285.238 m 250.52 285.238 l S
256.066 285.238 m 256.758 285.238 l S
262.309 285.238 m 263 285.238 l S
268.551 285.238 m 269.242 285.238 l S
274.793 285.238 m 275.484 285.238 l S
281.031 285.238 m 281.727 285.238 l S
287.273 285.238 m 287.969 285.238 l S
293.516 285.238 m 294.211 285.238 l S
299.758 285.238 m 300.453 285.238 l S
306 285.238 m 306.695 285.238 l S
312.242 285.238 m 312.934 285.238 l S
318.484 285.238 m 319.176 285.238 l S
324.727 285.238 m 325.418 285.238 l S
330.969 285.238 m 331.66 285.238 l S
337.207 285.238 m 337.902 285.238 l S
343.449 285.238 m 344.145 285.238 l S
349.691 285.238 m 350.387 285.238 l S
355.934 285.238 m 356.629 285.238 l S
362.176 285.238 m 362.871 285.238 l S
368.418 285.238 m 369.109 285.238 l S
374.66 285.238 m 375.352 285.238 l S
380.902 285.238 m 381.594 285.238 l S
387.145 285.238 m 387.836 285.238 l S
393.383 285.238 m 394.078 285.238 l S
399.625 285.238 m 400.32 285.238 l S
405.867 285.238 m 406.562 285.238 l S
412.109 285.238 m 412.805 285.238 l S
418.352 285.238 m 419.047 285.238 l S
424.594 285.238 m 425.285 285.238 l S
430.836 285.238 m 431.527 285.238 l S
437.078 285.238 m 437.77 285.238 l S
443.32 285.238 m 444.012 285.238 l S
449.562 285.238 m 450.254 285.238 l S
455.801 285.238 m 456.496 285.238 l S
462.043 285.238 m 462.738 285.238 l S
468.285 285.238 m 468.98 285.238 l S
474.527 285.238 m 475.223 285.238 l S
480.77 285.238 m 481.465 285.238 l S
487.012 285.238 m 487.703 285.238 l S
493.254 285.238 m 493.945 285.238 l S
499.496 285.238 m 500.188 285.238 l S
505.738 285.238 m 506.43 285.238 l S
511.977 285.238 m 512.672 285.238 l S
518.219 285.238 m 518.914 285.238 l S
524.461 285.238 m 525.156 285.238 l S
530.703 285.238 m 531.398 285.238 l S
536.945 285.238 m 537.641 285.238 l S
543.188 285.238 m 543.879 285.238 l S
549.43 285.238 m 550.121 285.238 l S
555.672 285.238 m 556.363 285.238 l S
561.914 285.238 m 562.605 285.238 l S
0 g
129.059 288.016 m 129.797 288.461 l 130.906 289.797 l 130.906 280.449 l
 S
137.934 289.797 m 136.824 289.352 l 136.086 288.016 l 135.715 285.789 l
 135.715 284.457 l 136.086 282.23 l 136.824 280.895 l 137.934 280.449 l 
138.676 280.449 l 139.785 280.895 l 140.523 282.23 l 140.895 284.457 l 140.895
 285.789 l 140.523 288.016 l 139.785 289.352 l 138.676 289.797 l 137.934
 289.797 l S
149.957 329.543 m 146.07 329.543 l S
0.666667 g
149.957 329.543 m 150.648 329.543 l S
156.199 329.543 m 156.891 329.543 l S
162.438 329.543 m 163.133 329.543 l S
168.68 329.543 m 169.375 329.543 l S
174.922 329.543 m 175.617 329.543 l S
181.164 329.543 m 181.859 329.543 l S
187.406 329.543 m 188.102 329.543 l S
193.648 329.543 m 194.34 329.543 l S
199.891 329.543 m 200.582 329.543 l S
206.133 329.543 m 206.824 329.543 l S
212.375 329.543 m 213.066 329.543 l S
218.617 329.543 m 219.309 329.543 l S
224.855 329.543 m 225.551 329.543 l S
231.098 329.543 m 231.793 329.543 l S
237.34 329.543 m 238.035 329.543 l S
243.582 329.543 m 244.277 329.543 l S
249.824 329.543 m 250.52 329.543 l S
256.066 329.543 m 256.758 329.543 l S
262.309 329.543 m 263 329.543 l S
268.551 329.543 m 269.242 329.543 l S
274.793 329.543 m 275.484 329.543 l S
281.031 329.543 m 281.727 329.543 l S
287.273 329.543 m 287.969 329.543 l S
293.516 329.543 m 294.211 329.543 l S
299.758 329.543 m 300.453 329.543 l S
306 329.543 m 306.695 329.543 l S
312.242 329.543 m 312.934 329.543 l S
318.484 329.543 m 319.176 329.543 l S
324.727 329.543 m 325.418 329.543 l S
330.969 329.543 m 331.66 329.543 l S
337.207 329.543 m 337.902 329.543 l S
343.449 329.543 m 344.145 329.543 l S
349.691 329.543 m 350.387 329.543 l S
355.934 329.543 m 356.629 329.543 l S
362.176 329.543 m 362.871 329.543 l S
368.418 329.543 m 369.109 329.543 l S
374.66 329.543 m 375.352 329.543 l S
380.902 329.543 m 381.594 329.543 l S
387.145 329.543 m 387.836 329.543 l S
393.383 329.543 m 394.078 329.543 l S
399.625 329.543 m 400.32 329.543 l S
405.867 329.543 m 406.562 329.543 l S
412.109 329.543 m 412.805 329.543 l S
418.352 329.543 m 419.047 329.543 l S
424.594 329.543 m 425.285 329.543 l S
430.836 329.543 m 431.527 329.543 l S
437.078 329.543 m 437.77 329.543 l S
443.32 329.543 m 444.012 329.543 l S
449.562 329.543 m 450.254 329.543 l S
455.801 329.543 m 456.496 329.543 l S
462.043 329.543 m 462.738 329.543 l S
468.285 329.543 m 468.98 329.543 l S
474.527 329.543 m 475.223 329.543 l S
480.77 329.543 m 481.465 329.543 l S
487.012 329.543 m 487.703 329.543 l S
493.254 329.543 m 493.945 329.543 l S
499.496 329.543 m 500.188 329.543 l S
505.738 329.543 m 506.43 329.543 l S
511.977 329.543 m 512.672 329.543 l S
518.219 329.543 m 518.914 329.543 l S
524.461 329.543 m 525.156 329.543 l S
530.703 329.543 m 531.398 329.543 l S
536.945 329.543 m 537.641 329.543 l S
543.188 329.543 m 543.879 329.543 l S
549.43 329.543 m 550.121 329.543 l S
555.672 329.543 m 556.363 329.543 l S
561.914 329.543 m 562.605 329.543 l S
0 g
129.059 332.32 m 129.797 332.766 l 130.906 334.102 l 130.906 324.754 l S
136.824 332.32 m 137.566 332.766 l 138.676 334.102 l 138.676 324.754 l S
149.957 373.848 m 146.07 373.848 l S
0.666667 g
149.957 373.848 m 150.648 373.848 l S
156.199 373.848 m 156.891 373.848 l S
162.438 373.848 m 163.133 373.848 l S
168.68 373.848 m 169.375 373.848 l S
174.922 373.848 m 175.617 373.848 l S
181.164 373.848 m 181.859 373.848 l S
187.406 373.848 m 188.102 373.848 l S
193.648 373.848 m 194.34 373.848 l S
199.891 373.848 m 200.582 373.848 l S
206.133 373.848 m 206.824 373.848 l S
212.375 373.848 m 213.066 373.848 l S
218.617 373.848 m 219.309 373.848 l S
224.855 373.848 m 225.551 373.848 l S
231.098 373.848 m 231.793 373.848 l S
237.34 373.848 m 238.035 373.848 l S
243.582 373.848 m 244.277 373.848 l S
249.824 373.848 m 250.52 373.848 l S
256.066 373.848 m 256.758 373.848 l S
262.309 373.848 m 263 373.848 l S
268.551 373.848 m 269.242 373.848 l S
274.793 373.848 m 275.484 373.848 l S
281.031 373.848 m 281.727 373.848 l S
287.273 373.848 m 287.969 373.848 l S
293.516 373.848 m 294.211 373.848 l S
299.758 373.848 m 300.453 373.848 l S
306 373.848 m 306.695 373.848 l S
312.242 373.848 m 312.934 373.848 l S
318.484 373.848 m 319.176 373.848 l S
324.727 373.848 m 325.418 373.848 l S
330.969 373.848 m 331.66 373.848 l S
337.207 373.848 m 337.902 373.848 l S
343.449 373.848 m 344.145 373.848 l S
349.691 373.848 m 350.387 373.848 l S
355.934 373.848 m 356.629 373.848 l S
362.176 373.848 m 362.871 373.848 l S
368.418 373.848 m 369.109 373.848 l S
374.66 373.848 m 375.352 373.848 l S
380.902 373.848 m 381.594 373.848 l S
387.145 373.848 m 387.836 373.848 l S
393.383 373.848 m 394.078 373.848 l S
399.625 373.848 m 400.32 373.848 l S
405.867 373.848 m 406.562 373.848 l S
412.109 373.848 m 412.805 373.848 l S
418.352 373.848 m 419.047 373.848 l S
424.594 373.848 m 425.285 373.848 l S
430.836 373.848 m 431.527 373.848 l S
437.078 373.848 m 437.77 373.848 l S
443.32 373.848 m 444.012 373.848 l S
449.562 373.848 m 450.254 373.848 l S
455.801 373.848 m 456.496 373.848 l S
462.043 373.848 m 462.738 373.848 l S
468.285 373.848 m 468.98 373.848 l S
474.527 373.848 m 475.223 373.848 l S
480.77 373.848 m 481.465 373.848 l S
487.012 373.848 m 487.703 373.848 l S
493.254 373.848 m 493.945 373.848 l S
499.496 373.848 m 500.188 373.848 l S
505.738 373.848 m 506.43 373.848 l S
511.977 373.848 m 512.672 373.848 l S
518.219 373.848 m 518.914 373.848 l S
524.461 373.848 m 525.156 373.848 l S
530.703 373.848 m 531.398 373.848 l S
536.945 373.848 m 537.641 373.848 l S
543.188 373.848 m 543.879 373.848 l S
549.43 373.848 m 550.121 373.848 l S
555.672 373.848 m 556.363 373.848 l S
561.914 373.848 m 562.605 373.848 l S
0 g
129.059 376.625 m 129.797 377.07 l 130.906 378.406 l 130.906 369.059 l S
136.086 376.18 m 136.086 376.625 l 136.457 377.516 l 136.824 377.961 l 
137.566 378.406 l 139.043 378.406 l 139.785 377.961 l 140.152 377.516 l 
140.523 376.625 l 140.523 375.734 l 140.152 374.844 l 139.414 373.508 l 
135.715 369.059 l 140.895 369.059 l S
149.957 418.152 m 146.07 418.152 l S
0.666667 g
149.957 418.152 m 150.648 418.152 l S
156.199 418.152 m 156.891 418.152 l S
162.438 418.152 m 163.133 418.152 l S
168.68 418.152 m 169.375 418.152 l S
174.922 418.152 m 175.617 418.152 l S
181.164 418.152 m 181.859 418.152 l S
187.406 418.152 m 188.102 418.152 l S
193.648 418.152 m 194.34 418.152 l S
199.891 418.152 m 200.582 418.152 l S
206.133 418.152 m 206.824 418.152 l S
212.375 418.152 m 213.066 418.152 l S
218.617 418.152 m 219.309 418.152 l S
224.855 418.152 m 225.551 418.152 l S
231.098 418.152 m 231.793 418.152 l S
237.34 418.152 m 238.035 418.152 l S
243.582 418.152 m 244.277 418.152 l S
249.824 418.152 m 250.52 418.152 l S
256.066 418.152 m 256.758 418.152 l S
262.309 418.152 m 263 418.152 l S
268.551 418.152 m 269.242 418.152 l S
274.793 418.152 m 275.484 418.152 l S
281.031 418.152 m 281.727 418.152 l S
287.273 418.152 m 287.969 418.152 l S
293.516 418.152 m 294.211 418.152 l S
299.758 418.152 m 300.453 418.152 l S
306 418.152 m 306.695 418.152 l S
312.242 418.152 m 312.934 418.152 l S
318.484 418.152 m 319.176 418.152 l S
324.727 418.152 m 325.418 418.152 l S
330.969 418.152 m 331.66 418.152 l S
337.207 418.152 m 337.902 418.152 l S
343.449 418.152 m 344.145 418.152 l S
349.691 418.152 m 350.387 418.152 l S
355.934 418.152 m 356.629 418.152 l S
362.176 418.152 m 362.871 418.152 l S
368.418 418.152 m 369.109 418.152 l S
374.66 418.152 m 375.352 418.152 l S
380.902 418.152 m 381.594 418.152 l S
387.145 418.152 m 387.836 418.152 l S
393.383 418.152 m 394.078 418.152 l S
399.625 418.152 m 400.32 418.152 l S
405.867 418.152 m 406.562 418.152 l S
412.109 418.152 m 412.805 418.152 l S
418.352 418.152 m 419.047 418.152 l S
424.594 418.152 m 425.285 418.152 l S
430.836 418.152 m 431.527 418.152 l S
437.078 418.152 m 437.77 418.152 l S
443.32 418.152 m 444.012 418.152 l S
449.562 418.152 m 450.254 418.152 l S
455.801 418.152 m 456.496 418.152 l S
462.043 418.152 m 462.738 418.152 l S
468.285 418.152 m 468.98 418.152 l S
474.527 418.152 m 475.223 418.152 l S
480.77 418.152 m 481.465 418.152 l S
487.012 418.152 m 487.703 418.152 l S
493.254 418.152 m 493.945 418.152 l S
499.496 418.152 m 500.188 418.152 l S
505.738 418.152 m 506.43 418.152 l S
511.977 418.152 m 512.672 418.152 l S
518.219 418.152 m 518.914 418.152 l S
524.461 418.152 m 525.156 418.152 l S
530.703 418.152 m 531.398 418.152 l S
536.945 418.152 m 537.641 418.152 l S
543.188 418.152 m 543.879 418.152 l S
549.43 418.152 m 550.121 418.152 l S
555.672 418.152 m 556.363 418.152 l S
561.914 418.152 m 562.605 418.152 l S
0 g
129.059 420.93 m 129.797 421.375 l 130.906 422.711 l 130.906 413.363 l S
136.457 422.711 m 140.523 422.711 l 138.305 419.148 l 139.414 419.148 l
 140.152 418.703 l 140.523 418.258 l 140.895 416.922 l 140.895 416.035 l
 140.523 414.699 l 139.785 413.809 l 138.676 413.363 l 137.566 413.363 l
 136.457 413.809 l 136.086 414.254 l 135.715 415.145 l S
149.957 462.457 m 146.07 462.457 l S
0.666667 g
149.957 462.457 m 150.648 462.457 l S
156.199 462.457 m 156.891 462.457 l S
162.438 462.457 m 163.133 462.457 l S
168.68 462.457 m 169.375 462.457 l S
174.922 462.457 m 175.617 462.457 l S
181.164 462.457 m 181.859 462.457 l S
187.406 462.457 m 188.102 462.457 l S
193.648 462.457 m 194.34 462.457 l S
199.891 462.457 m 200.582 462.457 l S
206.133 462.457 m 206.824 462.457 l S
212.375 462.457 m 213.066 462.457 l S
218.617 462.457 m 219.309 462.457 l S
224.855 462.457 m 225.551 462.457 l S
231.098 462.457 m 231.793 462.457 l S
237.34 462.457 m 238.035 462.457 l S
243.582 462.457 m 244.277 462.457 l S
249.824 462.457 m 250.52 462.457 l S
256.066 462.457 m 256.758 462.457 l S
262.309 462.457 m 263 462.457 l S
268.551 462.457 m 269.242 462.457 l S
274.793 462.457 m 275.484 462.457 l S
281.031 462.457 m 281.727 462.457 l S
287.273 462.457 m 287.969 462.457 l S
293.516 462.457 m 294.211 462.457 l S
299.758 462.457 m 300.453 462.457 l S
306 462.457 m 306.695 462.457 l S
312.242 462.457 m 312.934 462.457 l S
318.484 462.457 m 319.176 462.457 l S
324.727 462.457 m 325.418 462.457 l S
330.969 462.457 m 331.66 462.457 l S
337.207 462.457 m 337.902 462.457 l S
343.449 462.457 m 344.145 462.457 l S
349.691 462.457 m 350.387 462.457 l S
355.934 462.457 m 356.629 462.457 l S
362.176 462.457 m 362.871 462.457 l S
368.418 462.457 m 369.109 462.457 l S
374.66 462.457 m 375.352 462.457 l S
380.902 462.457 m 381.594 462.457 l S
387.145 462.457 m 387.836 462.457 l S
393.383 462.457 m 394.078 462.457 l S
399.625 462.457 m 400.32 462.457 l S
405.867 462.457 m 406.562 462.457 l S
412.109 462.457 m 412.805 462.457 l S
418.352 462.457 m 419.047 462.457 l S
424.594 462.457 m 425.285 462.457 l S
430.836 462.457 m 431.527 462.457 l S
437.078 462.457 m 437.77 462.457 l S
443.32 462.457 m 444.012 462.457 l S
449.562 462.457 m 450.254 462.457 l S
455.801 462.457 m 456.496 462.457 l S
462.043 462.457 m 462.738 462.457 l S
468.285 462.457 m 468.98 462.457 l S
474.527 462.457 m 475.223 462.457 l S
480.77 462.457 m 481.465 462.457 l S
487.012 462.457 m 487.703 462.457 l S
493.254 462.457 m 493.945 462.457 l S
499.496 462.457 m 500.188 462.457 l S
505.738 462.457 m 506.43 462.457 l S
511.977 462.457 m 512.672 462.457 l S
518.219 462.457 m 518.914 462.457 l S
524.461 462.457 m 525.156 462.457 l S
530.703 462.457 m 531.398 462.457 l S
536.945 462.457 m 537.641 462.457 l S
543.188 462.457 m 543.879 462.457 l S
549.43 462.457 m 550.121 462.457 l S
555.672 462.457 m 556.363 462.457 l S
561.914 462.457 m 562.605 462.457 l S
0 g
129.059 465.234 m 129.797 465.68 l 130.906 467.016 l 130.906 457.668 l S
139.414 467.016 m 135.715 460.781 l 141.262 460.781 l S
139.414 467.016 m 139.414 457.668 l S
149.957 506.762 m 146.07 506.762 l S
0.666667 g
149.957 506.762 m 150.648 506.762 l S
156.199 506.762 m 156.891 506.762 l S
162.438 506.762 m 163.133 506.762 l S
168.68 506.762 m 169.375 506.762 l S
174.922 506.762 m 175.617 506.762 l S
181.164 506.762 m 181.859 506.762 l S
187.406 506.762 m 188.102 506.762 l S
193.648 506.762 m 194.34 506.762 l S
199.891 506.762 m 200.582 506.762 l S
206.133 506.762 m 206.824 506.762 l S
212.375 506.762 m 213.066 506.762 l S
218.617 506.762 m 219.309 506.762 l S
224.855 506.762 m 225.551 506.762 l S
231.098 506.762 m 231.793 506.762 l S
237.34 506.762 m 238.035 506.762 l S
243.582 506.762 m 244.277 506.762 l S
249.824 506.762 m 250.52 506.762 l S
256.066 506.762 m 256.758 506.762 l S
262.309 506.762 m 263 506.762 l S
268.551 506.762 m 269.242 506.762 l S
274.793 506.762 m 275.484 506.762 l S
281.031 506.762 m 281.727 506.762 l S
287.273 506.762 m 287.969 506.762 l S
293.516 506.762 m 294.211 506.762 l S
299.758 506.762 m 300.453 506.762 l S
306 506.762 m 306.695 506.762 l S
312.242 506.762 m 312.934 506.762 l S
318.484 506.762 m 319.176 506.762 l S
324.727 506.762 m 325.418 506.762 l S
330.969 506.762 m 331.66 506.762 l S
337.207 506.762 m 337.902 506.762 l S
343.449 506.762 m 344.145 506.762 l S
349.691 506.762 m 350.387 506.762 l S
355.934 506.762 m 356.629 506.762 l S
362.176 506.762 m 362.871 506.762 l S
368.418 506.762 m 369.109 506.762 l S
374.66 506.762 m 375.352 506.762 l S
380.902 506.762 m 381.594 506.762 l S
387.145 506.762 m 387.836 506.762 l S
393.383 506.762 m 394.078 506.762 l S
399.625 506.762 m 400.32 506.762 l S
405.867 506.762 m 406.562 506.762 l S
412.109 506.762 m 412.805 506.762 l S
418.352 506.762 m 419.047 506.762 l S
424.594 506.762 m 425.285 506.762 l S
430.836 506.762 m 431.527 506.762 l S
437.078 506.762 m 437.77 506.762 l S
443.32 506.762 m 444.012 506.762 l S
449.562 506.762 m 450.254 506.762 l S
455.801 506.762 m 456.496 506.762 l S
462.043 506.762 m 462.738 506.762 l S
468.285 506.762 m 468.98 506.762 l S
474.527 506.762 m 475.223 506.762 l S
480.77 506.762 m 481.465 506.762 l S
487.012 506.762 m 487.703 506.762 l S
493.254 506.762 m 493.945 506.762 l S
499.496 506.762 m 500.188 506.762 l S
505.738 506.762 m 506.43 506.762 l S
511.977 506.762 m 512.672 506.762 l S
518.219 506.762 m 518.914 506.762 l S
524.461 506.762 m 525.156 506.762 l S
530.703 506.762 m 531.398 506.762 l S
536.945 506.762 m 537.641 506.762 l S
543.188 506.762 m 543.879 506.762 l S
549.43 506.762 m 550.121 506.762 l S
555.672 506.762 m 556.363 506.762 l S
561.914 506.762 m 562.605 506.762 l S
0 g
129.059 509.539 m 129.797 509.984 l 130.906 511.32 l 130.906 501.973 l S
140.152 511.32 m 136.457 511.32 l 136.086 507.312 l 136.457 507.758 l 137.566
 508.203 l 138.676 508.203 l 139.785 507.758 l 140.523 506.867 l 140.895
 505.531 l 140.895 504.641 l 140.523 503.309 l 139.785 502.418 l 138.676
 501.973 l 137.566 501.973 l 136.457 502.418 l 136.086 502.863 l 135.715
 503.754 l S
149.957 551.066 m 146.07 551.066 l S
0.666667 g
149.957 551.066 m 150.648 551.066 l S
156.199 551.066 m 156.891 551.066 l S
162.438 551.066 m 163.133 551.066 l S
168.68 551.066 m 169.375 551.066 l S
174.922 551.066 m 175.617 551.066 l S
181.164 551.066 m 181.859 551.066 l S
187.406 551.066 m 188.102 551.066 l S
193.648 551.066 m 194.34 551.066 l S
199.891 551.066 m 200.582 551.066 l S
206.133 551.066 m 206.824 551.066 l S
212.375 551.066 m 213.066 551.066 l S
218.617 551.066 m 219.309 551.066 l S
224.855 551.066 m 225.551 551.066 l S
231.098 551.066 m 231.793 551.066 l S
237.34 551.066 m 238.035 551.066 l S
243.582 551.066 m 244.277 551.066 l S
249.824 551.066 m 250.52 551.066 l S
256.066 551.066 m 256.758 551.066 l S
262.309 551.066 m 263 551.066 l S
268.551 551.066 m 269.242 551.066 l S
274.793 551.066 m 275.484 551.066 l S
281.031 551.066 m 281.727 551.066 l S
287.273 551.066 m 287.969 551.066 l S
293.516 551.066 m 294.211 551.066 l S
299.758 551.066 m 300.453 551.066 l S
306 551.066 m 306.695 551.066 l S
312.242 551.066 m 312.934 551.066 l S
318.484 551.066 m 319.176 551.066 l S
324.727 551.066 m 325.418 551.066 l S
330.969 551.066 m 331.66 551.066 l S
337.207 551.066 m 337.902 551.066 l S
343.449 551.066 m 344.145 551.066 l S
349.691 551.066 m 350.387 551.066 l S
355.934 551.066 m 356.629 551.066 l S
362.176 551.066 m 362.871 551.066 l S
368.418 551.066 m 369.109 551.066 l S
374.66 551.066 m 375.352 551.066 l S
380.902 551.066 m 381.594 551.066 l S
387.145 551.066 m 387.836 551.066 l S
393.383 551.066 m 394.078 551.066 l S
399.625 551.066 m 400.32 551.066 l S
405.867 551.066 m 406.562 551.066 l S
412.109 551.066 m 412.805 551.066 l S
418.352 551.066 m 419.047 551.066 l S
424.594 551.066 m 425.285 551.066 l S
430.836 551.066 m 431.527 551.066 l S
437.078 551.066 m 437.77 551.066 l S
443.32 551.066 m 444.012 551.066 l S
449.562 551.066 m 450.254 551.066 l S
455.801 551.066 m 456.496 551.066 l S
462.043 551.066 m 462.738 551.066 l S
468.285 551.066 m 468.98 551.066 l S
474.527 551.066 m 475.223 551.066 l S
480.77 551.066 m 481.465 551.066 l S
487.012 551.066 m 487.703 551.066 l S
493.254 551.066 m 493.945 551.066 l S
499.496 551.066 m 500.188 551.066 l S
505.738 551.066 m 506.43 551.066 l S
511.977 551.066 m 512.672 551.066 l S
518.219 551.066 m 518.914 551.066 l S
524.461 551.066 m 525.156 551.066 l S
530.703 551.066 m 531.398 551.066 l S
536.945 551.066 m 537.641 551.066 l S
543.188 551.066 m 543.879 551.066 l S
549.43 551.066 m 550.121 551.066 l S
555.672 551.066 m 556.363 551.066 l S
561.914 551.066 m 562.605 551.066 l S
0 g
129.059 553.844 m 129.797 554.289 l 130.906 555.625 l 130.906 546.277 l
 S
140.523 554.289 m 140.152 555.18 l 139.043 555.625 l 138.305 555.625 l 
137.195 555.18 l 136.457 553.844 l 136.086 551.617 l 136.086 549.391 l 136.457
 547.613 l 137.195 546.723 l 138.305 546.277 l 138.676 546.277 l 139.785
 546.723 l 140.523 547.613 l 140.895 548.945 l 140.895 549.391 l 140.523
 550.727 l 139.785 551.617 l 138.676 552.062 l 138.305 552.062 l 137.195
 551.617 l 136.457 550.727 l 136.086 549.391 l S
149.957 595.371 m 146.07 595.371 l S
0.666667 g
149.957 595.371 m 150.648 595.371 l S
156.199 595.371 m 156.891 595.371 l S
162.438 595.371 m 163.133 595.371 l S
168.68 595.371 m 169.375 595.371 l S
174.922 595.371 m 175.617 595.371 l S
181.164 595.371 m 181.859 595.371 l S
187.406 595.371 m 188.102 595.371 l S
193.648 595.371 m 194.34 595.371 l S
199.891 595.371 m 200.582 595.371 l S
206.133 595.371 m 206.824 595.371 l S
212.375 595.371 m 213.066 595.371 l S
218.617 595.371 m 219.309 595.371 l S
224.855 595.371 m 225.551 595.371 l S
231.098 595.371 m 231.793 595.371 l S
237.34 595.371 m 238.035 595.371 l S
243.582 595.371 m 244.277 595.371 l S
249.824 595.371 m 250.52 595.371 l S
256.066 595.371 m 256.758 595.371 l S
262.309 595.371 m 263 595.371 l S
268.551 595.371 m 269.242 595.371 l S
274.793 595.371 m 275.484 595.371 l S
281.031 595.371 m 281.727 595.371 l S
287.273 595.371 m 287.969 595.371 l S
293.516 595.371 m 294.211 595.371 l S
299.758 595.371 m 300.453 595.371 l S
306 595.371 m 306.695 595.371 l S
312.242 595.371 m 312.934 595.371 l S
318.484 595.371 m 319.176 595.371 l S
324.727 595.371 m 325.418 595.371 l S
330.969 595.371 m 331.66 595.371 l S
337.207 595.371 m 337.902 595.371 l S
343.449 595.371 m 344.145 595.371 l S
349.691 595.371 m 350.387 595.371 l S
355.934 595.371 m 356.629 595.371 l S
362.176 595.371 m 362.871 595.371 l S
368.418 595.371 m 369.109 595.371 l S
374.66 595.371 m 375.352 595.371 l S
380.902 595.371 m 381.594 595.371 l S
387.145 595.371 m 387.836 595.371 l S
393.383 595.371 m 394.078 595.371 l S
399.625 595.371 m 400.32 595.371 l S
405.867 595.371 m 406.562 595.371 l S
412.109 595.371 m 412.805 595.371 l S
418.352 595.371 m 419.047 595.371 l S
424.594 595.371 m 425.285 595.371 l S
430.836 595.371 m 431.527 595.371 l S
437.078 595.371 m 437.77 595.371 l S
443.32 595.371 m 444.012 595.371 l S
449.562 595.371 m 450.254 595.371 l S
455.801 595.371 m 456.496 595.371 l S
462.043 595.371 m 462.738 595.371 l S
468.285 595.371 m 468.98 595.371 l S
474.527 595.371 m 475.223 595.371 l S
480.77 595.371 m 481.465 595.371 l S
487.012 595.371 m 487.703 595.371 l S
493.254 595.371 m 493.945 595.371 l S
499.496 595.371 m 500.188 595.371 l S
505.738 595.371 m 506.43 595.371 l S
511.977 595.371 m 512.672 595.371 l S
518.219 595.371 m 518.914 595.371 l S
524.461 595.371 m 525.156 595.371 l S
530.703 595.371 m 531.398 595.371 l S
536.945 595.371 m 537.641 595.371 l S
543.188 595.371 m 543.879 595.371 l S
549.43 595.371 m 550.121 595.371 l S
555.672 595.371 m 556.363 595.371 l S
561.914 595.371 m 562.605 595.371 l S
0 g
129.059 598.148 m 129.797 598.594 l 130.906 599.93 l 130.906 590.582 l S
140.895 599.93 m 137.195 590.582 l S
135.715 599.93 m 140.895 599.93 l S
149.957 639.676 m 146.07 639.676 l S
0.666667 g
149.957 639.676 m 150.648 639.676 l S
156.199 639.676 m 156.891 639.676 l S
162.438 639.676 m 163.133 639.676 l S
168.68 639.676 m 169.375 639.676 l S
174.922 639.676 m 175.617 639.676 l S
181.164 639.676 m 181.859 639.676 l S
187.406 639.676 m 188.102 639.676 l S
193.648 639.676 m 194.34 639.676 l S
199.891 639.676 m 200.582 639.676 l S
206.133 639.676 m 206.824 639.676 l S
212.375 639.676 m 213.066 639.676 l S
218.617 639.676 m 219.309 639.676 l S
224.855 639.676 m 225.551 639.676 l S
231.098 639.676 m 231.793 639.676 l S
237.34 639.676 m 238.035 639.676 l S
243.582 639.676 m 244.277 639.676 l S
249.824 639.676 m 250.52 639.676 l S
256.066 639.676 m 256.758 639.676 l S
262.309 639.676 m 263 639.676 l S
268.551 639.676 m 269.242 639.676 l S
274.793 639.676 m 275.484 639.676 l S
281.031 639.676 m 281.727 639.676 l S
287.273 639.676 m 287.969 639.676 l S
293.516 639.676 m 294.211 639.676 l S
299.758 639.676 m 300.453 639.676 l S
306 639.676 m 306.695 639.676 l S
312.242 639.676 m 312.934 639.676 l S
318.484 639.676 m 319.176 639.676 l S
324.727 639.676 m 325.418 639.676 l S
330.969 639.676 m 331.66 639.676 l S
337.207 639.676 m 337.902 639.676 l S
343.449 639.676 m 344.145 639.676 l S
349.691 639.676 m 350.387 639.676 l S
355.934 639.676 m 356.629 639.676 l S
362.176 639.676 m 362.871 639.676 l S
368.418 639.676 m 369.109 639.676 l S
374.66 639.676 m 375.352 639.676 l S
380.902 639.676 m 381.594 639.676 l S
387.145 639.676 m 387.836 639.676 l S
393.383 639.676 m 394.078 639.676 l S
399.625 639.676 m 400.32 639.676 l S
405.867 639.676 m 406.562 639.676 l S
412.109 639.676 m 412.805 639.676 l S
418.352 639.676 m 419.047 639.676 l S
424.594 639.676 m 425.285 639.676 l S
430.836 639.676 m 431.527 639.676 l S
437.078 639.676 m 437.77 639.676 l S
443.32 639.676 m 444.012 639.676 l S
449.562 639.676 m 450.254 639.676 l S
455.801 639.676 m 456.496 639.676 l S
462.043 639.676 m 462.738 639.676 l S
468.285 639.676 m 468.98 639.676 l S
474.527 639.676 m 475.223 639.676 l S
480.77 639.676 m 481.465 639.676 l S
487.012 639.676 m 487.703 639.676 l S
493.254 639.676 m 493.945 639.676 l S
499.496 639.676 m 500.188 639.676 l S
505.738 639.676 m 506.43 639.676 l S
511.977 639.676 m 512.672 639.676 l S
518.219 639.676 m 518.914 639.676 l S
524.461 639.676 m 525.156 639.676 l S
530.703 639.676 m 531.398 639.676 l S
536.945 639.676 m 537.641 639.676 l S
543.188 639.676 m 543.879 639.676 l S
549.43 639.676 m 550.121 639.676 l S
555.672 639.676 m 556.363 639.676 l S
561.914 639.676 m 562.605 639.676 l S
0 g
129.059 642.453 m 129.797 642.898 l 130.906 644.234 l 130.906 634.887 l
 S
137.566 644.234 m 136.457 643.789 l 136.086 642.898 l 136.086 642.008 l
 136.457 641.117 l 137.195 640.672 l 138.676 640.227 l 139.785 639.781 l
 140.523 638.891 l 140.895 638 l 140.895 636.664 l 140.523 635.773 l 140.152
 635.332 l 139.043 634.887 l 137.566 634.887 l 136.457 635.332 l 136.086
 635.773 l 135.715 636.664 l 135.715 638 l 136.086 638.891 l 136.824 639.781
 l 137.934 640.227 l 139.414 640.672 l 140.152 641.117 l 140.523 642.008
 l 140.523 642.898 l 140.152 643.789 l 139.043 644.234 l 137.566 644.234
 l S
149.957 683.98 m 146.07 683.98 l S
0.666667 g
149.957 683.98 m 150.648 683.98 l S
156.199 683.98 m 156.891 683.98 l S
162.438 683.98 m 163.133 683.98 l S
168.68 683.98 m 169.375 683.98 l S
174.922 683.98 m 175.617 683.98 l S
181.164 683.98 m 181.859 683.98 l S
187.406 683.98 m 188.102 683.98 l S
193.648 683.98 m 194.34 683.98 l S
199.891 683.98 m 200.582 683.98 l S
206.133 683.98 m 206.824 683.98 l S
212.375 683.98 m 213.066 683.98 l S
218.617 683.98 m 219.309 683.98 l S
224.855 683.98 m 225.551 683.98 l S
231.098 683.98 m 231.793 683.98 l S
237.34 683.98 m 238.035 683.98 l S
243.582 683.98 m 244.277 683.98 l S
249.824 683.98 m 250.52 683.98 l S
256.066 683.98 m 256.758 683.98 l S
262.309 683.98 m 263 683.98 l S
268.551 683.98 m 269.242 683.98 l S
274.793 683.98 m 275.484 683.98 l S
281.031 683.98 m 281.727 683.98 l S
287.273 683.98 m 287.969 683.98 l S
293.516 683.98 m 294.211 683.98 l S
299.758 683.98 m 300.453 683.98 l S
306 683.98 m 306.695 683.98 l S
312.242 683.98 m 312.934 683.98 l S
318.484 683.98 m 319.176 683.98 l S
324.727 683.98 m 325.418 683.98 l S
330.969 683.98 m 331.66 683.98 l S
337.207 683.98 m 337.902 683.98 l S
343.449 683.98 m 344.145 683.98 l S
349.691 683.98 m 350.387 683.98 l S
355.934 683.98 m 356.629 683.98 l S
362.176 683.98 m 362.871 683.98 l S
368.418 683.98 m 369.109 683.98 l S
374.66 683.98 m 375.352 683.98 l S
380.902 683.98 m 381.594 683.98 l S
387.145 683.98 m 387.836 683.98 l S
393.383 683.98 m 394.078 683.98 l S
399.625 683.98 m 400.32 683.98 l S
405.867 683.98 m 406.562 683.98 l S
412.109 683.98 m 412.805 683.98 l S
418.352 683.98 m 419.047 683.98 l S
424.594 683.98 m 425.285 683.98 l S
430.836 683.98 m 431.527 683.98 l S
437.078 683.98 m 437.77 683.98 l S
443.32 683.98 m 444.012 683.98 l S
449.562 683.98 m 450.254 683.98 l S
455.801 683.98 m 456.496 683.98 l S
462.043 683.98 m 462.738 683.98 l S
468.285 683.98 m 468.98 683.98 l S
474.527 683.98 m 475.223 683.98 l S
480.77 683.98 m 481.465 683.98 l S
487.012 683.98 m 487.703 683.98 l S
493.254 683.98 m 493.945 683.98 l S
499.496 683.98 m 500.188 683.98 l S
505.738 683.98 m 506.43 683.98 l S
511.977 683.98 m 512.672 683.98 l S
518.219 683.98 m 518.914 683.98 l S
524.461 683.98 m 525.156 683.98 l S
530.703 683.98 m 531.398 683.98 l S
536.945 683.98 m 537.641 683.98 l S
543.188 683.98 m 543.879 683.98 l S
549.43 683.98 m 550.121 683.98 l S
555.672 683.98 m 556.363 683.98 l S
561.914 683.98 m 562.605 683.98 l S
0 g
129.059 686.758 m 129.797 687.203 l 130.906 688.539 l 130.906 679.191 l
 S
140.523 685.422 m 140.152 684.086 l 139.414 683.195 l 138.305 682.75 l 
137.934 682.75 l 136.824 683.195 l 136.086 684.086 l 135.715 685.422 l 135.715
 685.867 l 136.086 687.203 l 136.824 688.094 l 137.934 688.539 l 138.305
 688.539 l 139.414 688.094 l 140.152 687.203 l 140.523 685.422 l 140.523
 683.195 l 140.152 680.969 l 139.414 679.633 l 138.305 679.191 l 137.566
 679.191 l 136.457 679.633 l 136.086 680.523 l S
149.957 728.285 m 146.07 728.285 l S
0.666667 g
149.957 728.285 m 150.648 728.285 l S
156.199 728.285 m 156.891 728.285 l S
162.438 728.285 m 163.133 728.285 l S
168.68 728.285 m 169.375 728.285 l S
174.922 728.285 m 175.617 728.285 l S
181.164 728.285 m 181.859 728.285 l S
187.406 728.285 m 188.102 728.285 l S
193.648 728.285 m 194.34 728.285 l S
199.891 728.285 m 200.582 728.285 l S
206.133 728.285 m 206.824 728.285 l S
212.375 728.285 m 213.066 728.285 l S
218.617 728.285 m 219.309 728.285 l S
224.855 728.285 m 225.551 728.285 l S
231.098 728.285 m 231.793 728.285 l S
237.34 728.285 m 238.035 728.285 l S
243.582 728.285 m 244.277 728.285 l S
249.824 728.285 m 250.52 728.285 l S
256.066 728.285 m 256.758 728.285 l S
262.309 728.285 m 263 728.285 l S
268.551 728.285 m 269.242 728.285 l S
274.793 728.285 m 275.484 728.285 l S
281.031 728.285 m 281.727 728.285 l S
287.273 728.285 m 287.969 728.285 l S
293.516 728.285 m 294.211 728.285 l S
299.758 728.285 m 300.453 728.285 l S
306 728.285 m 306.695 728.285 l S
312.242 728.285 m 312.934 728.285 l S
318.484 728.285 m 319.176 728.285 l S
324.727 728.285 m 325.418 728.285 l S
330.969 728.285 m 331.66 728.285 l S
337.207 728.285 m 337.902 728.285 l S
343.449 728.285 m 344.145 728.285 l S
349.691 728.285 m 350.387 728.285 l S
355.934 728.285 m 356.629 728.285 l S
362.176 728.285 m 362.871 728.285 l S
368.418 728.285 m 369.109 728.285 l S
374.66 728.285 m 375.352 728.285 l S
380.902 728.285 m 381.594 728.285 l S
387.145 728.285 m 387.836 728.285 l S
393.383 728.285 m 394.078 728.285 l S
399.625 728.285 m 400.32 728.285 l S
405.867 728.285 m 406.562 728.285 l S
412.109 728.285 m 412.805 728.285 l S
418.352 728.285 m 419.047 728.285 l S
424.594 728.285 m 425.285 728.285 l S
430.836 728.285 m 431.527 728.285 l S
437.078 728.285 m 437.77 728.285 l S
443.32 728.285 m 444.012 728.285 l S
449.562 728.285 m 450.254 728.285 l S
455.801 728.285 m 456.496 728.285 l S
462.043 728.285 m 462.738 728.285 l S
468.285 728.285 m 468.98 728.285 l S
474.527 728.285 m 475.223 728.285 l S
480.77 728.285 m 481.465 728.285 l S
487.012 728.285 m 487.703 728.285 l S
493.254 728.285 m 493.945 728.285 l S
499.496 728.285 m 500.188 728.285 l S
505.738 728.285 m 506.43 728.285 l S
511.977 728.285 m 512.672 728.285 l S
518.219 728.285 m 518.914 728.285 l S
524.461 728.285 m 525.156 728.285 l S
530.703 728.285 m 531.398 728.285 l S
536.945 728.285 m 537.641 728.285 l S
543.188 728.285 m 543.879 728.285 l S
549.43 728.285 m 550.121 728.285 l S
555.672 728.285 m 556.363 728.285 l S
561.914 728.285 m 562.605 728.285 l S
0 g
128.316 730.617 m 128.316 731.062 l 128.688 731.953 l 129.059 732.398 l
 129.797 732.844 l 131.277 732.844 l 132.016 732.398 l 132.387 731.953 l
 132.758 731.062 l 132.758 730.172 l 132.387 729.281 l 131.648 727.945 l
 127.949 723.492 l 133.125 723.492 l S
137.934 732.844 m 136.824 732.398 l 136.086 731.062 l 135.715 728.836 l
 135.715 727.5 l 136.086 725.273 l 136.824 723.938 l 137.934 723.492 l 138.676
 723.492 l 139.785 723.938 l 140.523 725.273 l 140.895 727.5 l 140.895 728.836
 l 140.523 731.062 l 139.785 732.398 l 138.676 732.844 l 137.934 732.844
 l S
20.371 19.91 m 20.074 20.547 l 19.48 21.184 l 18.887 21.5 l 17.699 21.5
 l 17.102 21.184 l 16.508 20.547 l 16.211 19.91 l 15.914 18.957 l 15.914
 17.367 l 16.211 16.414 l 16.508 15.777 l 17.102 15.141 l 17.699 14.824 
l 18.887 14.824 l 19.48 15.141 l 20.074 15.777 l 20.371 16.414 l 20.371 
17.367 l S
18.887 17.367 m 20.371 17.367 l S
22.41 19.277 m 22.41 14.824 l S
22.41 17.367 m 22.707 18.32 l 23.301 18.957 l 23.895 19.277 l 24.785 19.277
 l S
28.137 21.5 m 25.758 14.824 l S
28.137 21.5 m 30.516 14.824 l S
26.652 17.051 m 29.625 17.051 l S
32.141 21.5 m 32.141 14.824 l S
32.141 21.5 m 34.223 21.5 l 35.113 21.184 l 35.711 20.547 l 36.008 19.91
 l 36.305 18.957 l 36.305 17.367 l 36.008 16.414 l 35.711 15.777 l 35.113
 15.141 l 34.223 14.824 l 32.141 14.824 l S
42.703 20.547 m 42.105 21.184 l 41.215 21.5 l 40.027 21.5 l 39.137 21.184
 l 38.539 20.547 l 38.539 19.91 l 38.836 19.277 l 39.137 18.957 l 39.73 
18.641 l 41.512 18.004 l 42.105 17.688 l 42.406 17.367 l 42.703 16.73 l 
42.703 15.777 l 42.105 15.141 l 41.215 14.824 l 40.027 14.824 l 39.137 15.141
 l 38.539 15.777 l S
49.852 22.773 m 44.5 12.598 l S
56.262 19.91 m 55.965 20.547 l 55.371 21.184 l 54.777 21.5 l 53.586 21.5
 l 52.992 21.184 l 52.398 20.547 l 52.102 19.91 l 51.805 18.957 l 51.805
 17.367 l 52.102 16.414 l 52.398 15.777 l 52.992 15.141 l 53.586 14.824 
l 54.777 14.824 l 55.371 15.141 l 55.965 15.777 l 56.262 16.414 l S
60 21.5 m 59.406 21.184 l 58.812 20.547 l 58.516 19.91 l 58.219 18.957 
l 58.219 17.367 l 58.516 16.414 l 58.812 15.777 l 59.406 15.141 l 60 14.824
 l 61.188 14.824 l 61.785 15.141 l 62.379 15.777 l 62.676 16.414 l 62.973
 17.367 l 62.973 18.957 l 62.676 19.91 l 62.379 20.547 l 61.785 21.184 l
 61.188 21.5 l 60 21.5 l S
64.898 21.5 m 64.898 14.824 l S
64.898 14.824 m 68.465 14.824 l S
72.141 21.5 m 69.766 14.824 l S
72.141 21.5 m 74.52 14.824 l S
70.656 17.051 m 73.629 17.051 l S
484.188 19.91 m 484.188 20.23 l 484.484 20.867 l 484.781 21.184 l 485.375
 21.5 l 486.566 21.5 l 487.16 21.184 l 487.457 20.867 l 487.754 20.23 l 
487.754 19.594 l 487.457 18.957 l 486.863 18.004 l 483.891 14.824 l 488.051
 14.824 l S
491.914 21.5 m 491.023 21.184 l 490.43 20.23 l 490.133 18.641 l 490.133
 17.688 l 490.43 16.098 l 491.023 15.141 l 491.914 14.824 l 492.512 14.824
 l 493.402 15.141 l 493.996 16.098 l 494.293 17.688 l 494.293 18.641 l 493.996
 20.23 l 493.402 21.184 l 492.512 21.5 l 491.914 21.5 l S
496.672 19.91 m 496.672 20.23 l 496.969 20.867 l 497.266 21.184 l 497.859
 21.5 l 499.051 21.5 l 499.645 21.184 l 499.941 20.867 l 500.238 20.23 l
 500.238 19.594 l 499.941 18.957 l 499.348 18.004 l 496.375 14.824 l 500.535
 14.824 l S
502.914 19.91 m 502.914 20.23 l 503.211 20.867 l 503.508 21.184 l 504.102
 21.5 l 505.289 21.5 l 505.887 21.184 l 506.184 20.867 l 506.48 20.23 l 
506.48 19.594 l 506.184 18.957 l 505.586 18.004 l 502.617 14.824 l 506.777
 14.824 l S
509.199 17.688 m 514.551 17.688 l S
517.863 20.23 m 518.457 20.547 l 519.348 21.5 l 519.348 14.824 l S
524.996 21.5 m 524.105 21.184 l 523.512 20.23 l 523.215 18.641 l 523.215
 17.688 l 523.512 16.098 l 524.105 15.141 l 524.996 14.824 l 525.59 14.824
 l 526.484 15.141 l 527.078 16.098 l 527.375 17.688 l 527.375 18.641 l 527.078
 20.23 l 526.484 21.184 l 525.59 21.5 l 524.996 21.5 l S
529.797 17.688 m 535.148 17.688 l S
537.867 19.91 m 537.867 20.23 l 538.164 20.867 l 538.461 21.184 l 539.055
 21.5 l 540.246 21.5 l 540.84 21.184 l 541.137 20.867 l 541.434 20.23 l 
541.434 19.594 l 541.137 18.957 l 540.543 18.004 l 537.57 14.824 l 541.73
 14.824 l S
544.703 20.23 m 545.297 20.547 l 546.188 21.5 l 546.188 14.824 l S
550.395 17.688 m 555.746 17.688 l S
559.949 21.5 m 559.059 21.184 l 558.465 20.23 l 558.168 18.641 l 558.168
 17.688 l 558.465 16.098 l 559.059 15.141 l 559.949 14.824 l 560.547 14.824
 l 561.438 15.141 l 562.031 16.098 l 562.328 17.688 l 562.328 18.641 l 562.031
 20.23 l 561.438 21.184 l 560.547 21.5 l 559.949 21.5 l S
568.273 20.547 m 567.977 21.184 l 567.086 21.5 l 566.488 21.5 l 565.598
 21.184 l 565.004 20.23 l 564.707 18.641 l 564.707 17.051 l 565.004 15.777
 l 565.598 15.141 l 566.488 14.824 l 566.785 14.824 l 567.68 15.141 l 568.273
 15.777 l 568.57 16.73 l 568.57 17.051 l 568.273 18.004 l 567.68 18.641 
l 566.785 18.957 l 566.488 18.957 l 565.598 18.641 l 565.004 18.004 l 564.707
 17.051 l S
571.172 19.277 m 570.875 18.957 l 571.172 18.641 l 571.469 18.957 l 571.172
 19.277 l S
571.172 15.461 m 570.875 15.141 l 571.172 14.824 l 571.469 15.141 l 571.172
 15.461 l S
574.07 19.91 m 574.07 20.23 l 574.367 20.867 l 574.664 21.184 l 575.258
 21.5 l 576.445 21.5 l 577.043 21.184 l 577.34 20.867 l 577.637 20.23 l 
577.637 19.594 l 577.34 18.957 l 576.742 18.004 l 573.773 14.824 l 577.934
 14.824 l S
582.984 21.5 m 580.012 17.051 l 584.473 17.051 l S
582.984 21.5 m 582.984 14.824 l S
1.5 w
250.93 757.086 m 249.609 756.32 l 248.289 754.797 l 247.629 753.27 l 246.969
 750.98 l 246.969 747.164 l 247.629 744.875 l 248.289 743.348 l 249.609 
741.82 l 250.93 741.059 l 253.574 741.059 l 254.895 741.82 l 256.215 743.348
 l 256.875 744.875 l 257.535 747.164 l 257.535 750.98 l 256.875 753.27 l
 256.215 754.797 l 254.895 756.32 l 253.574 757.086 l 250.93 757.086 l S
252.91 744.113 m 256.875 739.531 l S
260.84 757.086 m 266.121 741.059 l S
271.406 757.086 m 266.121 741.059 l S
276.656 754.031 m 277.977 754.797 l 279.961 757.086 l 279.961 741.059 l
 S
292.508 757.086 m 290.527 756.32 l 289.207 754.031 l 288.547 750.215 l 
288.547 747.926 l 289.207 744.113 l 290.527 741.82 l 292.508 741.059 l 293.832
 741.059 l 295.812 741.82 l 297.133 744.113 l 297.793 747.926 l 297.793 
750.215 l 297.133 754.031 l 295.812 756.32 l 293.832 757.086 l 292.508 757.086
 l S
306.379 757.086 m 304.398 756.32 l 303.078 754.031 l 302.418 750.215 l 
302.418 747.926 l 303.078 744.113 l 304.398 741.82 l 306.379 741.059 l 307.699
 741.059 l 309.684 741.82 l 311.004 744.113 l 311.664 747.926 l 311.664 
750.215 l 311.004 754.031 l 309.684 756.32 l 307.699 757.086 l 306.379 757.086
 l S
320.25 757.086 m 318.27 756.32 l 316.949 754.031 l 316.289 750.215 l 316.289
 747.926 l 316.949 744.113 l 318.27 741.82 l 320.25 741.059 l 321.57 741.059
 l 323.555 741.82 l 324.875 744.113 l 325.535 747.926 l 325.535 750.215 
l 324.875 754.031 l 323.555 756.32 l 321.57 757.086 l 320.25 757.086 l S
343.961 757.086 m 351.227 757.086 l 347.266 750.98 l 349.246 750.98 l 350.566
 750.215 l 351.227 749.453 l 351.887 747.164 l 351.887 745.637 l 351.227
 743.348 l 349.906 741.82 l 347.926 741.059 l 345.945 741.059 l 343.961 
741.82 l 343.301 742.586 l 342.641 744.113 l S
357.172 753.27 m 357.172 754.031 l 357.832 755.559 l 358.492 756.32 l 359.816
 757.086 l 362.457 757.086 l 363.777 756.32 l 364.438 755.559 l 365.098 
754.031 l 365.098 752.508 l 364.438 750.98 l 363.117 748.691 l 356.512 741.059
 l 365.758 741.059 l S
371.078 757.086 m 371.078 741.059 l S
371.078 757.086 m 380.324 741.059 l S
380.324 757.086 m 380.324 741.059 l S
400.105 754.031 m 401.426 754.797 l 403.406 757.086 l 403.406 741.059 l
 S
412.656 753.27 m 412.656 754.031 l 413.316 755.559 l 413.977 756.32 l 415.297
 757.086 l 417.938 757.086 l 419.262 756.32 l 419.922 755.559 l 420.582 
754.031 l 420.582 752.508 l 419.922 750.98 l 418.598 748.691 l 411.996 741.059
 l 421.242 741.059 l S
429.168 757.086 m 427.188 756.32 l 426.527 754.797 l 426.527 753.27 l 427.188
 751.742 l 428.508 750.98 l 431.148 750.215 l 433.129 749.453 l 434.453 
747.926 l 435.113 746.402 l 435.113 744.113 l 434.453 742.586 l 433.793 
741.82 l 431.809 741.059 l 429.168 741.059 l 427.188 741.82 l 426.527 742.586
 l 425.863 744.113 l 425.863 746.402 l 426.527 747.926 l 427.848 749.453
 l 429.828 750.215 l 432.469 750.98 l 433.793 751.742 l 434.453 753.27 l
 434.453 754.797 l 433.793 756.32 l 431.809 757.086 l 429.168 757.086 l S
440.891 742.586 m 440.23 741.82 l 440.891 741.059 l 441.551 741.82 l 440.891
 742.586 l S
447.992 757.086 m 455.258 757.086 l 451.293 750.98 l 453.277 750.98 l 454.598
 750.215 l 455.258 749.453 l 455.918 747.164 l 455.918 745.637 l 455.258
 743.348 l 453.938 741.82 l 451.953 741.059 l 449.973 741.059 l 447.992 
741.82 l 447.332 742.586 l 446.672 744.113 l S
460.855 757.086 m 460.855 741.059 l S
460.855 757.086 m 469.441 757.086 l S
460.855 749.453 m 466.141 749.453 l S
460.855 741.059 m 469.441 741.059 l S
Q Q
showpage
%%Trailer
end restore
%%EOF
