2020	6	24	18	168.8887915	203	32.85	129.25
2020	6	24	21	170.549339	156.85	33.15	129.75
2020	6	25	0	149.3690356	62.76	33.25	129.375
2020	6	25	6	154.140068	58.36	34	129.312
2020	6	25	9	171.0257892	28.72	33.9	129.25
2020	6	25	12	158.3940065	35.24	33.55	130.312
2020	6	26	15	118.5989717	36.02	32.7	130.312
2020	6	26	18	137.4076816	96.42	33.15	129.688
2020	6	26	21	151.0207316	141.11	33.3	130.5
2020	6	27	0	146.1035605	83.65	33.35	131.125
2020	6	27	3	175.2439944	40.81	32.7	131
2020	6	27	6	143.7750473	45.72	32.75	131
2020	6	27	9	164.2310423	34.16	32.9	131.438
2020	6	27	12	90.03054588	48.68	33.35	131.5
2020	6	29	12	216.7018057	20.64	32.9	129.75
2020	6	29	15	235.8269601	57.22	33.4	130.375
2020	6	29	18	302.5452702	64.4	33.1	130.875
2020	6	29	21	101.5911704	39.33	32.8	131
2020	7	5	15	107.456905	43.07	33.1	130.875
2020	7	5	18	113.131917	36.08	32.9	131
2020	7	5	21	204.9933992	62.04	32.7	129.25
2020	7	6	0	198.7354617	87.94	33.4	129.375
2020	7	6	3	198.6111596	142.1	33.45	130.938
2020	7	6	6	211.1109276	212.07	33.05	130.438
2020	7	6	9	192.2718043	121.65	33	130.625
2020	7	6	12	152.3834949	112.9	32.95	130.938
2020	7	6	15	189.5907629	50.87	33.1	130.625
2020	7	6	18	192.9790112	156.53	33.05	130.938
2020	7	6	21	185.4144062	140.51	33.25	131.188
2020	7	7	0	208.898976	85.09	33.55	130.812
2020	7	7	3	107.5870326	57.07	32.9	131.062
2020	7	7	6	192.5842171	74.55	32.75	129.438
2020	7	7	9	209.6361632	82.03	32.9	130.188
2020	7	7	12	208.896499	139.03	33.1	130.75
2020	7	7	15	95.77510229	109.82	33.05	131.125
2020	7	8	18	116.6475114	28.99	32.9	129.25
2020	7	9	0	111.9402001	30.18	32.7	129.688
2020	7	9	6	160.1121991	90.97	33.1	130.125
2020	7	9	15	150.4357529	39.22	33.7	131.625
2020	7	9	18	148.6889191	72.78	34	129.25
2020	7	9	21	148.9448331	21.65	34	129.25
2020	7	10	3	227.6552146	111.32	33	129.562
2020	7	10	9	171.8589687	44.46	33.4	130.375
2020	7	10	12	166.4990014	48.05	32.75	130.312
2020	7	13	9	190.7973937	26.7	33.95	129.25
2020	7	13	12	171.621043	38.63	33.7	130.438
2020	7	20	6	115.8870032	23.4	32.8	130.125
2020	7	21	6	97.62091384	59.38	33.25	130.75
2020	7	23	3	141.6103691	46.17	33.05	130.25
2020	7	24	3	99.07065317	60.72	33	131.125
2020	7	24	9	111.9080349	30.83	32.85	131.812
2020	7	26	15	114.0928694	90.75	33.85	129.938
2020	7	26	18	108.9859258	101.83	33	130.25
2020	7	27	12	157.5332912	32.97	33.45	130.312
2020	7	28	0	99.7648062	58.33	33	129.25
2020	7	28	6	94.77186353	61.3	32.95	131.812
2020	8	6	18	121.1874545	32.75	32.85	130.188
2020	8	6	21	103.0456416	45.23	32.8	130.062
2020	8	7	0	93.76473534	23.78	33.95	129.375
2020	8	7	6	95.36121463	25.16	33	131.812
2020	8	7	9	107.0607646	22.22	32.85	131.562
2020	8	7	18	150.3882105	46.75	32.95	130.125
2020	8	7	21	145.2704295	74.4	32.95	130.188
2020	8	8	0	114.1204456	38.74	33.05	130.375
2020	8	8	3	138.2372772	21.59	33.2	130.75
2020	8	8	6	113.4416265	34.76	32.95	131.688
2020	8	9	6	169.3204602	28.89	33.35	131.375
2020	8	10	3	227.4674663	27.51	32.8	129.812
2020	8	10	6	184.229012	28.24	33.35	130.375
2020	8	10	21	166.4542504	44.42	33	130.25
2020	8	11	0	141.0554279	46.43	33.15	129.875
2020	8	11	3	177.6246006	59.94	34	129.5
2020	8	11	6	166.9485103	23.93	33.2	129.5
2020	8	12	3	103.5817485	39.22	33.65	130.562
2020	8	26	18	105.5387025	24.77	32.7	129.625
2020	8	26	21	124.955113	79.43	32.8	129.312
2020	8	27	0	95.64475899	39.86	33	129.438
2021	6	3	6	141.2212289	40.51	32.9	130.062
2021	6	3	9	133.8509126	32.4	32.7	131.562
2021	6	3	12	147.6121846	40.19	33.6	129.812
2021	6	18	0	99.3885075	25.41	33.5	129.25
2021	7	3	0	127.6706709	29.44	33.3	129.312
2021	7	3	3	114.9186068	32.04	34	129.75
2021	7	7	6	135.4589113	26.39	34	131.625
2021	7	7	21	191.3418569	20.86	32.8	130.188
2021	7	8	0	175.7983031	22.65	33	130.938
2021	7	8	12	125.4105255	47.47	32.7	130.125
2021	7	8	15	172.3857154	41.48	32.85	130.625
2021	7	8	18	176.0642834	64.18	33.85	129.5
2021	7	8	21	169.7546313	90.41	33.95	130
2021	7	9	0	170.8622838	54.35	33.25	130.875
2021	7	11	3	107.5195151	24.74	32.75	129.375
2021	7	11	6	92.22629029	40.33	32.8	130.25
2021	7	31	6	96.7935521	72.99	33.35	130.125
2021	8	11	6	102.1871653	70.29	32.85	130.688
2021	8	11	12	115.7015026	28.22	32.8	129.25
2021	8	11	18	126.2677325	72.99	33.2	129.75
2021	8	11	21	131.6954716	70.45	34	130.125
2021	8	12	0	128.3309222	110.08	33.55	131
2021	8	12	3	143.1629856	142.95	33.15	130.812
2021	8	12	6	119.9663276	65.58	32.95	130.875
2021	8	12	9	94.55485014	111.2	32.7	129.75
2021	8	12	12	110.4607833	89.01	33.05	129.812
2021	8	12	18	95.94945407	78.85	33.05	130.688
2021	8	13	0	202.6726155	68.72	32.8	131
2021	8	13	3	192.1699727	92.11	33	129.688
2021	8	13	6	208.6005572	92.23	33.1	129.938
2021	8	13	9	188.0198285	72.49	33.45	130.812
2021	8	13	12	140.1409543	40.55	34	132.062
2021	8	13	15	168.7348903	140.13	33.1	129.938
2021	8	13	18	203.5999281	156.1	33.05	129.938
2021	8	13	21	204.4168501	78.96	33.05	130.438
2021	8	14	0	222.9760033	100.2	33.1	130.438
2021	8	14	3	246.0824251	119.94	33.5	129.875
2021	8	14	6	256.0383631	65.54	33.15	129.938
2021	8	14	9	104.2376093	56.98	33.1	130.938
2021	8	14	12	111.0093682	82.71	33.05	130.625
2021	8	16	0	95.28906412	50.88	32.85	131
2021	8	16	3	93.14809816	33.2	32.8	129.625
2021	8	16	12	115.5984679	53.66	33.2	129.25
2021	8	16	15	108.9921318	91.25	32.7	129.625
2021	8	16	18	103.2325225	61.25	33.35	130.188
2021	8	16	21	153.7902433	111.18	33.55	129.812
2021	8	21	6	163.6636867	23.94	32.8	131.25
2021	8	21	9	139.0478198	79	33.35	129.625
2021	8	21	18	160.884236	33.13	33.3	130.188
2021	8	21	21	161.9675688	66.23	33.4	130
2021	8	22	0	118.3074567	41.8	33.6	129.312
2021	8	22	3	107.9019757	28.3	33.85	129.438
2021	8	24	0	184.3379834	22.97	32.95	130.188
2021	8	24	9	156.5921733	25.6	33.3	129.625
2021	8	24	12	152.6328629	103.51	32.95	129.25
2021	8	24	15	180.3148862	68.96	33	129.25
2021	8	24	18	169.7661236	93.05	33.3	129.562
2021	8	24	21	151.4289101	73.88	33.6	130
2021	8	25	0	150.8704877	29.1	34	129.5
2021	8	25	18	142.3155522	36.86	33.45	129.438
2021	8	25	21	130.2606749	52.8	33.25	129.688
2021	8	26	0	118.2688202	65	32.7	130.062
2021	8	26	6	110.907934	24.02	32.7	129.938
2022	6	20	18	145.5676851	160.3	32.75	129.375
2022	6	20	21	110.4278948	85.12	32.7	129.938
2022	6	24	0	162.4730345	36.55	33.25	130.812
2022	6	24	12	127.207598	20.42	33.05	131.188
2022	6	25	0	90.23146405	82.68	33.15	131.125
2022	6	25	3	112.48879	54.04	33.2	131.188
2022	6	25	6	100.380097	85.47	33.4	130.438
2022	7	8	6	108.0287274	29.76	33.8	131.062
2022	7	14	9	101.2509065	57.83	33.75	131.5
2022	7	15	12	106.4065522	65.04	32.85	129.625
2022	7	15	15	152.8190339	75.38	33.05	129.25
2022	7	17	21	150.0573172	37.07	33.3	129.562
2022	7	18	0	120.0885687	76.43	32.9	130.188
2022	7	18	9	159.3933817	113.79	33.7	129.312
2022	7	18	12	160.7040939	126.59	33.95	130.625
2022	7	18	15	176.5503309	155.73	33.5	130.688
2022	7	18	18	221.4811305	181.79	33.35	131.188
2022	7	18	21	231.5632428	71.87	33.1	130.938
2022	7	19	3	100.929259	30.93	32.95	131
2022	7	20	0	134.0703767	25.93	32.7	129.625
2022	8	7	6	95.57695716	41.52	33.1	131.5
2022	8	11	18	95.4266424	67.93	33.95	129.5
2022	8	13	6	92.93615364	45.24	33.3	130.25
2022	8	15	3	91.58972513	23.31	33.45	130.375
2022	8	15	6	116.927472	34.79	33.2	130.75
2022	8	15	9	150.2982303	25.2	33.05	130.875
2022	8	15	15	137.6637806	21.57	33.05	130.5
2022	8	15	18	139.3548474	37.26	33.2	130.75
2022	8	15	21	159.4177848	43.53	32.9	130.25
2022	8	16	0	140.0629494	33.76	33.15	130.875
2022	8	16	3	128.0340028	39.4	33.3	129.812
2022	8	16	6	121.5977299	62.83	33.35	130.125
2022	8	16	9	110.3735943	74.55	33.3	130.75
2022	8	16	12	117.3956949	33.91	32.8	130.125
2022	8	16	15	120.8860117	103.73	32.75	130.125
2022	8	16	18	149.4965127	55.49	32.9	130.188
2022	8	16	21	137.6200098	116.57	33.1	130.5
2022	8	17	0	127.064398	78.89	33.2	130.75
2022	8	17	3	113.5865129	73.32	33.1	129.5
2022	8	17	6	114.1588295	77.3	32.95	130.312
2022	8	17	9	99.26813977	51.3	32.9	129.312
2022	8	17	12	131.810213	24.7	33.85	130.5
2022	8	17	15	126.3644491	86.22	33.55	129.5
2022	8	17	18	102.5121263	77.97	33.5	130.938
2022	8	20	6	135.3815566	37.21	33.6	130.688
2022	8	20	9	102.3673702	25.5	33.9	131.438
2022	8	20	12	97.84614334	23.88	33.9	131.812
2022	8	20	15	100.6710807	79.38	33.7	130.25
2023	6	26	18	121.6327153	21.92	33	130
2023	6	28	0	111.0222311	61.67	33.95	129.25
2023	6	28	3	101.3724725	86.43	32.9	130.938
2023	6	29	3	127.7431024	33.22	34	131.062
2023	6	29	6	152.2156892	21.97	34	131.062
2023	6	29	12	161.1657539	23.46	33.25	130.688
2023	6	29	15	155.2386372	59.49	33.3	130.75
2023	6	29	21	145.6482731	67.17	33.05	130.875
2023	6	30	0	148.1251883	113.77	33.15	131.125
2023	6	30	3	171.816516	78.28	32.85	131
2023	6	30	6	163.2269751	80.2	33.1	130.875
2023	6	30	9	172.1976132	80.11	33.2	131.188
2023	6	30	12	174.2631444	63.79	33.35	132.062
2023	6	30	15	198.4250941	94.64	34	131.625
2023	6	30	18	153.3541835	91.57	33.8	130.75
2023	7	2	12	92.14970209	75.24	33	130.25
2023	7	2	15	137.8071565	116.38	32.75	130.875
2023	7	2	18	151.1971738	113.92	33.15	130.812
2023	7	2	21	142.970732	158.3	32.8	130.938
2023	7	3	0	152.878351	88.75	33.35	130.625
2023	7	3	3	116.6776284	51.46	32.7	130.562
2023	7	5	0	168.8193476	24.5	34	129.438
2023	7	6	21	99.78697134	28.34	32.75	130.062
2023	7	8	0	140.9483457	24.22	34	129.25
2023	7	8	3	165.5864902	72.18	33.9	129.75
2023	7	8	6	141.5592847	51.9	33.7	130.562
2023	7	8	9	118.2475889	31.67	33.45	130.75
2023	7	8	12	123.2989496	40.18	34	131.5
2023	7	8	15	137.5396596	99.71	33.55	130
2023	7	8	18	149.7471607	63.7	33.95	130.688
2023	7	8	21	154.0923648	69.95	33.95	130.5
2023	7	9	0	165.3456607	79.24	33.35	130.562
2023	7	9	3	141.6188113	60.86	33	131
2023	7	9	6	142.7703969	43.67	33.45	130.75
2023	7	9	9	135.5373817	23.27	33.2	130.875
2023	7	9	12	136.1282725	47.91	33.35	131.125
2023	7	9	15	134.8464163	97.16	33.4	130.125
2023	7	9	18	139.2674303	150.18	33.4	130.312
2023	7	9	21	120.388575	173.72	33.4	130.875
2023	7	10	0	142.8974459	117.4	33.35	130.75
2023	7	10	3	136.5130647	58.36	32.9	130.375
2023	7	10	6	122.2092516	33.42	33.15	130.625
2023	7	11	21	124.2764261	36.95	32.9	130.25
2023	7	12	0	108.5889644	60.23	32.95	130.375
2023	7	12	3	137.3202564	72.3	33.05	130.875
2023	7	12	6	114.1857411	95.03	32.7	130.875
2023	7	18	12	145.8726805	44.94	32.75	129.688
2023	7	18	18	181.4180567	32.16	32.7	130
2023	7	23	3	109.3544386	21.87	32.95	131.25
2023	7	24	9	90.89130528	42.57	33.7	130.875
2023	8	10	0	137.5175251	32.16	32.9	132.062
2023	8	10	3	129.9049959	36.78	32.75	132.062
2023	8	18	12	92.4382614	64.1	32.7	131.625
2023	8	24	3	113.2167637	27.56	32.8	131.188
2023	8	24	6	98.84231265	54.87	33.35	131.25
2023	8	24	12	102.7916098	23.93	33.05	129.688
2023	8	24	15	90.16456192	51.94	32.85	129.562
