       100
             0.28415             0.28415
             0.24372             0.24372
             0.05197             0.05197
             0.81636             0.81636
             1.46369             1.46369
             0.05131             0.05131
             0.46903             0.46903
             1.26580             1.26580
             1.28263             1.28263
             2.04608             2.04608
             1.15140             1.15140
             1.96975             1.96975
             0.54859             0.54859
             0.11419             0.11419
             0.69200             0.69200
             0.09540             0.09540
             0.38337             0.38337
             0.79846             0.79846
             0.37727             0.37727
             0.40259             0.40259
             1.18552             1.18552
             0.95766             0.95766
             1.11493             1.11493
             0.11958             0.11958
             0.22666             0.22666
             1.45039             1.45039
             0.11733             0.11733
             1.32624             1.32624
             0.21282             0.21282
             0.16182             0.16182
             1.38158             1.38158
             0.32847             0.32847
             0.58046             0.58046
             1.30553             1.30553
             0.36950             0.36950
             0.49192             0.49192
             1.03714             1.03714
             0.75845             0.75845
             1.33477             1.33477
             0.17947             0.17947
             0.47902             0.47902
             3.41521             3.41521
             0.59828             0.59828
             0.14270             0.14270
             2.14331             2.14331
             0.44877             0.44877
             0.57436             0.57436
             0.62472             0.62472
             1.11845             1.11845
             0.72733             0.72733
             1.49000             1.49000
             0.49958             0.49958
             0.85880             0.85880
             0.21021             0.21021
             0.71945             0.71945
             0.66370             0.66370
             0.84126             0.84126
             0.28771             0.28771
             0.99163             0.99163
             0.33793             0.33793
             0.10477             0.10477
             1.30964             1.30964
             0.70391             0.70391
             0.16545             0.16545
             0.18620             0.18620
             0.63732             0.63732
             0.51999             0.51999
             0.20035             0.20035
             0.57704             0.57704
             1.96224             1.96224
             0.11603             0.11603
             0.63498             0.63498
             0.56843             0.56843
             1.40658             1.40658
             0.90390             0.90390
             0.20242             0.20242
             1.19622             1.19622
             1.57194             1.57194
             0.09496             0.09496
             0.17836             0.17836
             0.63463             0.63463
             0.61080             0.61080
             0.58457             0.58457
             0.11023             0.11023
             0.14260             0.14260
             0.24014             0.24014
             0.06496             0.06496
             0.38680             0.38680
             0.70732             0.70732
             0.05120             0.05120
             1.41677             1.41677
             0.05883             0.05883
             1.23695             1.23695
             0.51216             0.51216
             0.82556             0.82556
             0.82144             0.82144
             0.64840             0.64840
             0.43534             0.43534
             0.31078             0.31078
             1.26158             1.26158
