%!PS-Adobe-2.0 EPSF-1.2
%%BoundingBox: (atend)
%%For: am
%%Creator: gxeps $Revision: 1.13 $
%%Title: B120710_R15J_120711/B120710_R15J_120711.rain4d.shde_d03.bw.eps
%%CreationDate: Thu Oct  9 11:09:00 2014
%%Pages:     
%%PageOrder: Ascend
%%PaperSize: Letter
%%PageOrientation: Portrait

%GxepsCommandLine:  print B120710_R15J_120711/B120710_R15J_120711.rain4d.shde_d03.bw.eps
%PWD: /work1/am/WRF.Post/GrADS/Kyushu.Flooding
%BeginGradsCommandHistory
%EndGradsCommandHistory
%%EndComments

%%BeginProlog
%Change the following (values: true, false) to get color or b/w output
/blackwhite {false} def
/clipOn {false} def
/bdef {bind def} bind def
/edef {exch def} bind def
/in {72 mul} bdef
/cm {in 2.54 div} bdef
/c {setrgbcolor} bdef
/g {setgray} bdef
/w {setlinewidth} bdef
/L {moveto rlineto stroke} bdef
/D {5 -1 roll 0 setdash L []0 setdash} bdef %% dashed line
/P {% Lay out a polygon
    % usage: x_n y_n x_n-1 y_n-1 ... x_0 y_0 n P
    3 1 roll moveto {rlineto} repeat} bdef
/F {P fill} bdef %Fill a polygon
/S {P stroke} bdef %Draw a polygon
/gxfonts {%Usage: <font#> gxfonts
    [/Helvetica /Times-Roman /Times-Italic /Symbol /Helvetica-Bold /Times-Bold] 
     exch get findfont} bdef
/sfont {%Usage: <font#> <width> <height> sfont
     /szy edef /szx edef gxfonts [szx 0 0 szy 0 0 ] makefont setfont} def
/LS % Left alligned string
{ % Usage: <string> <font#> <width> <height> <angle> <pos_x> <pos_y>
   gsave translate rotate sfont 0 0 moveto show grestore
} def
/RS % Right alligned string
{ % Usage: <string> <font#> <width> <height> <angle> <pos_x> <pos_y>
   gsave translate rotate sfont 0 0 moveto dup stringwith pop 
   0 sub rmoveto show grestore
} def
/JS % General justified string 
{ %Usage: <string> <font#> <width> <height> <angle> <pos_x> <pos_y> <justx> <justy> JS
 % (Note: justx, justy in percent: e.g., justx=50 => x-centered)
   /jy edef /jx edef gsave translate rotate sfont 0 0 moveto dup stringwidth
   jy mul 0.01 neg mul exch jx mul 0.01 mul neg exch rmoveto show grestore
} def
/B {rectfill} bdef %Fill a box, usage: xlow ylow width height B
/iso_reencode { % Usage: <Font> iso_reencode
  dup /isoname exch def findfont
  dup length dict begin
  { 1 index /FID ne
      {def}
      {pop pop}
      ifelse
  } forall
  /Encoding ISOLatin1Encoding def
  currentdict end
  isoname exch definefont pop
} def
[/Helvetica /Times-Roman /Times-Italic /Helvetica-Bold /Times-Bold]
   {iso_reencode} forall
/BL { %layout a box, usage: xlow ylow width height BL
     /height exch def /width exch def moveto width 0 rlineto
     0 height rlineto width neg 0 rlineto closepath} bdef 
/G {gsave} bdef /R {grestore} bdef
/C0 { %Reset clip path
     clipOn {grestore /clipOn {false} def} if} def
/C1 { %Reset clipping to a box. Usage: xlow ylow width height C
      clipOn {grestore} if gsave /clipOn {true} def
      BL eoclip newpath } bdef
/C2 {%Add clip inside a box to current clipping.  Usage: xlow ylow width height C 
      clipOn not {gsave /clipOn {true} def} if
     clippath BL eoclip newpath } bdef

%Define line widths
/w0 {4 w} bdef
/w1 {7 w} bdef
/w2 {10 w} bdef
/w3 {14 w} bdef
/w4 {17 w} bdef
/w5 {20 w} bdef
/w6 {24 w} bdef
/w7 {27 w} bdef
/w8 {31 w} bdef
/w9 {34 w} bdef
/w10 {38 w} bdef
/w11 {41 w} bdef

%Define dashes
/s0 {[] 0 setdash} bdef
/s1 {[] 0 setdash} bdef
/s2 {[125 60] 0 setdash} bdef
/s3 {[60 60] 0 setdash} bdef
/s4 {[125 60 60 60] 0 setdash} bdef
/s5 {[10 40] 0 setdash} bdef
/s6 {[75 60] 0 setdash} bdef
/s7 {[125 40 15 15 15 40] 0 setdash} bdef
/s8 {[15 80] 0 setdash} bdef

%Define colors:
/c0 {1 g} bdef
/c1 {0 g} bdef
/c2 {0.98 0.24 0.24 c} bdef
/c3 {0.00 0.86 0.00 c} bdef
/c4 {0.12 0.24 1.00 c} bdef
/c5 {0.00 0.78 0.78 c} bdef
/c6 {0.94 0.00 0.51 c} bdef
/c7 {0.90 0.86 0.19 c} bdef
/c8 {0.94 0.51 0.16 c} bdef
/c9 {0.63 0.00 0.78 c} bdef
/c10 {0.63 0.90 0.19 c} bdef
/c11 {0.00 0.63 1.00 c} bdef
/c12 {0.90 0.69 0.18 c} bdef
/c13 {0.00 0.82 0.55 c} bdef
/c14 {0.51 0.00 0.86 c} bdef
/c15 {0.67 0.67 0.67 c} bdef

%Define grays:
/g0 {1 g} bdef
/g1 {0 g} bdef
/g2 {0.16 g} bdef
/g3 {0.46 g} bdef
/g4 {0.7 g} bdef
/g5 {0.58 g} bdef
/g6 {0.1 g} bdef
/g7 {0.34 g} bdef
/g8 {0.22 g} bdef
/g9 {0.82 g} bdef
/g10 {0.4 g} bdef
/g11 {0.64 g} bdef
/g12 {0.28 g} bdef
/g13 {0.52 g} bdef
/g14 {0.76 g} bdef
/g15 {0.5 g} bdef

blackwhite
{ %Black&white output: re-define line colors black, fill colors gray... 
  /c1 {g1} def /c2 {g1} def /c3 {g1} def /c4 {g1} def
  /c5 {g1} def /c6 {g1} def /c7 {g1} def /c8 {g1} def /c9 {g1} def
  /c10 {g1} def /c11 {g1} def /c12 {g1} def /c13 {g1} def /c14 {g1} def
  /c15 {g1} def }
{ %Color output: undefine fill-colors... 
  /g0 {c0} def /g1 {c1} def /g2 {c2} def /g3 {c3} def /g4 {c4} def
  /g5 {c5} def /g6 {c6} def /g7 {c7} def /g8 {c8} def /g9 {c9} def
  /g10 {c10} def /g11 {c11} def /g12 {c12} def /g13 {c13} def /g14 {c14} def
  /g15 {c15} def 
} ifelse
%%EndProlog

%%BeginSetup
1 setlinecap 1 setlinejoin
%%EndSetup
%%Page: 1 1
30 45 translate %move origin slightly in
0.065700 0.065700 scale  %Units: 1000 = .9125 inch
0 0 8500 11000 BL clip newpath % Initial clipping.
c1
blackwhite 
  {/g81 {0.11765 g} bdef /c81 {g1} bdef}
  {/c81 {0.88235 0.88235 0.88235 c} bdef
/g81 {c81} def}
 ifelse
blackwhite 
  {/g83 {0.31373 g} bdef /c83 {g1} bdef}
  {/c83 {0.68627 0.68627 0.68627 c} bdef
/g83 {c83} def}
 ifelse
blackwhite 
  {/g85 {0.47059 g} bdef /c85 {g1} bdef}
  {/c85 {0.52941 0.52941 0.52941 c} bdef
/g85 {c85} def}
 ifelse
blackwhite 
  {/g87 {0.62745 g} bdef /c87 {g1} bdef}
  {/c87 {0.37255 0.37255 0.37255 c} bdef
/g87 {c87} def}
 ifelse
blackwhite 
  {/g89 {0.78431 g} bdef /c89 {g1} bdef}
  {/c89 {0.21569 0.21569 0.21569 c} bdef
/g89 {c89} def}
 ifelse
w0 c0 g0 0 20 -411 0 0 -20 -1225 0 0 -22 -3406 0 0 -2722 18 2 18 1 18 5 18 7 18 9
0 187 -3 3 0 22 3 16 3 6 15 2 18 3 18 4 18 6 15 6 3 2 18 13 7 7 11 3 19 3
18 3 18 -2 18 -4 12 -3 -9 -22 -3 -3 -18 -14 -6 -4 -12 -6 -18 -5 -19 -7
-18 -3 -5 -1 -13 -3 -18 -4 -18 -8 -6 -7 -12 -7 -36 4 0 -187 18 15 3 2
15 17 10 5 8 5 18 6 18 -1 36 -10 1 0 18 -7 54 -18 18 -5 18 -4 18 -3 36 2
17 13 1 1 12 21 6 13 2 9 10 21 6 9 8 13 10 8 18 12 4 1 14 7 18 8 18 4
36 2 18 -6 18 -9 4 -6 14 -18 2 -3 10 -22 6 -14 4 -7 14 -13 18 -18 10 -13
8 -9 13 -12 5 -5 18 -16 36 -18 12 -5 42 -7 36 6 12 1 6 2 18 3 18 2 36 -6
2 -1 16 -4 18 -6 18 -8 7 -3 11 -9 14 -13 14 -21 8 -19 2 -3 16 -20 3 -2
15 -14 8 -7 0 -22 -2 -22 -6 -16 -2 -5 -6 -22 -9 -21 -1 -3 -11 -19 -7 -15
-5 -7 -13 -9 -18 -3 -18 0 -3 -9 -2 -22 5 -22 18 -13 12 -8 6 -6 18 -12
5 -4 -3 -21 -22 -22 -16 -5 -18 -4 -36 -10 -11 -3 -7 -1 0 -1274 18 -6 18 -4
54 -9 15 -3 3 0 54 -6 54 -3 18 0 36 -2 19 -2 0 1668 -16 10 8 22 8 5 18 4
6 -9 5 -22 -11 -13 -18 3 0 -1668 13 -9 -8 -21 -5 -4 -19 -14 -4 -4 4 -9
9 -12 10 -3 72 -16 10 -3 8 -10 5 -12 -5 -6 -18 -18 -18 -16 -4 -3 -14 -9
-18 -12 -1 -1 -17 -18 -3 -3 -6 -22 -6 -21 -4 -7 -8 -15 0 -22 8 -7 19 -10
15 -4 3 -1 18 -3 18 -4 36 -12 13 -2 5 0 0 749 -17 8 -1 1 -13 21 -4 21
15 22 2 2 18 3 13 -5 5 -3 16 -19 2 -12 0 -33 -18 -9 -18 3 0 -749 18 -2
18 0 17 2 1 0 18 3 36 10 18 6 7 3 11 3 18 6 18 4 18 7 6 1 12 5 36 14 8 3
10 3 18 7 18 5 18 6 1 1 17 5 18 9 10 7 8 5 16 17 2 2 13 19 11 22 -5 22
-1 1 -15 20 -3 5 -14 17 -4 4 -18 14 -4 4 -14 12 -9 9 -9 10 -7 12 -21 21
-8 5 -18 12 -7 5 -11 8 -18 13 -1 1 -17 14 -8 7 -10 14 -6 8 -12 22 -7 21
-3 22 8 21 2 2 18 11 18 7 5 2 13 4 18 4 18 -3 18 -2 3 -3 15 -12 8 -10
10 -17 18 -24 2 -2 16 -18 2 -3 15 -22 1 -3 8 -19 5 -21 5 -13 4 -9 14 -17
7 -5 11 -9 18 -10 5 -2 13 -6 18 -10 8 -6 10 -10 18 -10 4 -1 14 -5 18 -3
18 -1 18 0 36 -12 4 -1 14 -6 18 -8 12 -8 6 -15 2 -6 2 -22 -1 -22 7 -21
8 -11 7 -11 3 -21 -6 -22 -4 -10 -4 -12 -14 -20 -1 -1 -17 -16 -8 -6 -10 -5
-18 -2 -18 4 0 -430 18 3 36 4 18 3 18 0 18 1 18 -2 18 -5 12 -3 6 -4 18 -8
18 -5 18 -3 14 -2 4 -1 18 -6 18 -15 -6 -21 -7 -22 -5 -6 -14 -15 -4 -4
-18 -16 -2 -2 -34 -17 -12 -5 -6 -2 -18 -8 -22 -11 -14 -12 -18 -10 -18 -6
-18 -8 -15 -8 -3 -18 -1 -3 -17 -20 -4 -2 4 -2 18 -3 18 -1 18 0 12 -15
4 -22 -4 -22 -7 -21 13 -16 6 -6 12 -14 8 -7 10 -14 7 -8 11 -16 4 -6 -4 -3
-16 -18 -2 -4 -8 -18 -10 -4 -18 -6 -18 -8 -5 -4 -13 -8 -15 -13 -3 -2 -18 -11
-18 -8 -3 -1 -15 -4 -36 -4 -18 -3 -18 -4 -16 -6 -2 -1 -36 -20 -2 -1 -16 -5
-36 -14 -9 -3 9 -2 18 -8 18 -11 36 -16 16 -6 -16 -4 -18 -5 -36 -8 -18 -3
-6 -2 -12 -1 -36 -4 -18 -1 -126 0 -18 -1 -126 0 -18 1 -36 0 -18 1 -90 0
-18 -1 -19 1 -36 0 -36 2 -18 0 -18 1 -18 0 -18 1 -18 0 -18 1 -18 0 0 -92
4033 0 0 6060 1500 2480 444 F
0 22 -937 0 0 -908 -18 0 0 -930 -3 0 0 -4222 616 0 0 948 -16 9 -2 14 -1 8
-2 22 3 5 10 16 8 12 7 10 -7 10 -9 11 -9 12 -8 10 -10 3 -36 18 -3 1 -15 6
-18 6 -18 5 -11 4 -7 4 -18 14 -5 4 -13 19 -2 3 -16 42 0 1 -18 8 -36 10
-11 3 -7 2 -18 4 -18 5 -18 6 -13 5 -5 4 -18 11 -8 7 -10 20 -1 1 1 2 4 20
14 15 7 6 11 5 18 11 11 6 7 2 36 14 17 6 1 0 18 7 18 6 18 5 15 3 3 1 54 12
18 6 10 3 8 3 18 7 18 6 18 5 4 1 14 2 18 3 18 2 36 2 36 -4 18 0 18 1 18 2
0 444 -1 2 21 0 -2 -1 -18 -1 0 -444 36 10 10 3 8 5 18 11 14 6 4 2 0 425
-2 5 2 2 1 -2 -1 -5 0 -425 18 7 36 12 3 0 15 9 18 10 7 3 11 5 18 7 18 8
4 2 14 21 1 0 14 22 3 3 18 10 18 7 6 2 12 2 54 12 18 5 7 2 11 9 19 12
1 1 17 13 11 8 -2 22 -8 22 -1 0 -18 4 -19 7 -18 10 -1 0 -17 8 -18 12 -2 2
2 2 18 13 13 7 5 2 18 7 19 5 18 -1 18 -2 18 -4 16 -7 2 -1 18 -12 18 -3
18 -5 0 639 -14 9 -4 3 -18 15 -4 3 -14 17 -4 5 -14 14 -9 7 -9 8 -14 14
-4 2 -18 8 -19 8 -6 4 -12 5 -18 2 -54 9 -18 5 -16 22 2 22 7 21 7 11 11 11
7 5 18 10 18 9 18 8 18 6 10 5 8 6 19 13 4 3 14 10 18 7 0 155 -3 1 -15 2
-18 12 -7 7 -12 6 -18 8 -18 4 -18 3 -3 1 -15 3 -18 3 -18 6 -18 7 -6 2
-12 7 -18 10 -7 5 -11 9 -18 13 -18 17 -5 4 -11 22 -2 3 -14 19 -22 11 -36 4
-18 4 -5 2 -13 5 -18 11 -9 6 -9 3 -18 7 -54 6 -18 3 -11 2 -7 2 -36 16
-6 4 1 22 1 21 4 9 11 13 7 7 18 15 36 10 18 10 2 1 16 22 -18 11 -8 10
-10 17 -3 5 3 1 18 7 18 3 18 2 18 0 36 -4 18 -3 18 -5 18 -1 2 0 16 -2
18 1 11 1 7 1 18 1 0 2722 6542 2502 253 F
-14 11 -36 6 -18 -2 -18 -15 18 -6 18 -2 18 0 18 1 14 7 6618 5312 9 F
-3 1 -18 2 -36 2 -18 -2 -18 -1 -18 -2 -1 0 -17 -4 -18 -5 -36 -12 -5 0
-13 -2 -18 -2 -18 -1 -36 2 -18 2 0 -155 7 4 11 11 18 -7 4 -4 14 -10 18 -6
18 4 18 5 7 7 11 7 18 11 8 4 10 2 18 4 18 3 18 1 18 2 36 0 18 -1 18 -2
36 -6 12 -3 24 -8 36 -14 18 -6 18 -7 18 7 18 5 18 1 18 -1 18 -4 18 -16
0 -1 10 -21 -20 -22 -8 -7 -21 -14 -15 -8 -18 -10 -8 -4 -10 -8 -18 -26
-14 -9 -4 -2 -18 -7 -18 0 -18 5 0 -792 11 -4 -11 -9 -14 -13 -4 -2 -18 -7
-18 -12 -18 -22 -13 -22 3 -21 6 -22 4 -5 18 -13 4 -3 14 -9 18 -13 18 -8
18 -11 4 -3 14 -9 15 -12 3 -2 18 -6 36 -8 36 2 18 3 18 4 18 5 11 2 7 2
18 5 18 0 18 -1 17 -6 1 0 0 1274 -9 1 -9 2 -18 2 -18 5 -18 6 -18 7 -1 0
-17 6 -18 7 -18 5 -13 4 -5 1 -18 5 -18 3 -18 2 -18 -2 -18 -3 -18 -2 -36 -2
-18 3 -18 4 -18 6 -15 6 5980 5637 123 F
-15 21 -18 -2 -18 -12 -5 -7 5 -9 10 -13 8 -21 -18 -17 -4 -5 -14 -17 -3 -5
-7 -21 -5 -22 -3 -22 0 -2 -5 -19 -13 -15 -6 -7 -12 -11 -12 -10 -6 -4 -18 -5
-36 -8 -36 0 -18 8 0 -639 18 7 10 14 8 17 2 4 12 22 4 11 0 22 -5 10 -13 16
-4 6 4 7 18 3 3 -10 -2 -22 -1 -10 0 -22 3 -11 11 -22 4 -7 10 -14 8 -8
16 -14 2 0 18 -4 18 -2 18 2 16 4 2 0 18 4 18 3 36 2 18 0 18 -5 0 792 -14 4
-4 1 -18 9 -13 12 3 21 7 22 5932 5896 66 F
-4 1 -18 7 -18 9 -18 3 -18 -1 -90 0 -18 -4 -17 -15 -1 -1 -13 -20 -5 -7
-7 -15 -11 -12 -10 -10 -8 -9 -14 -12 -4 -7 -9 -15 -5 -22 8 -21 5 -22 -1 -21
-4 -22 -12 -14 -12 -8 -6 -3 -18 -8 -36 -8 -16 -2 -2 -1 -18 -5 -36 -8 -18 -5
-10 -3 -8 -3 -18 -9 -12 -10 -6 -9 -9 -12 -9 -9 -9 -13 -9 -8 -17 -13 -1 -1
-18 -11 -36 -18 -18 -5 -18 -8 -2 -1 -16 -9 -11 -12 -7 -9 -14 -13 -4 -6
-9 -16 -5 -21 -5 -15 -2 -7 2 -8 7 -13 12 -11 18 5 16 6 2 0 18 5 18 14
2 2 16 9 18 12 18 9 18 8 18 9 18 6 36 10 7 2 11 3 36 6 18 2 18 1 18 4
18 6 36 16 16 5 2 1 36 0 4 -1 14 -4 18 -12 7 -5 5 -22 6 -8 18 -5 18 -2
54 6 18 5 18 4 2 0 16 3 18 4 18 3 18 4 18 3 18 4 0 430 -14 3 4610 7345 105 F
-2 0 -36 10 -18 3 -18 2 -72 4 -18 0 -18 1 -36 -12 -18 -8 -2 0 -16 -13
-11 -9 -7 -5 -18 -10 -8 -7 -10 -5 -18 -4 -18 -1 -18 1 0 -948 1351 0 0 92
-5 0 -13 1 -18 1 -36 0 -18 1 -36 0 -18 1 -18 0 -54 3 -36 4 -72 4 -18 0
-72 4 -54 0 -18 -1 -36 -4 -36 -6 -18 -2 -18 -1 -18 -2 -18 0 -18 -1 -18 0
-18 1 -18 0 -18 2 -18 1 -18 2 -18 1 -19 2 -36 0 -18 -1 -72 -8 -36 0 -18 1
-36 0 -36 -2 -18 1 -36 6 -18 1 -36 4 -18 3 -54 6 -2 0 2 5 8 17 10 1 108 18
0 391 -9 0 -27 3 -18 4 -18 5 -18 4 -18 6 -1 0 -3 22 4 7 6 14 12 11 10 11
8 6 18 12 5 4 13 4 18 6 18 8 8 3 10 5 18 8 18 6 11 3 7 2 18 5 18 4 36 6
18 -3 18 -4 18 -7 9 -3 27 -6 36 -4 36 2 19 4 8 4 10 6 18 14 1 1 13 22
4 13 2 9 6 21 10 19 1 3 -1 4 -15 18 -3 1 -18 4 -36 2 -19 1 -18 3 -18 5
-12 5 -6 5 -11 17 1 21 -2 22 -6 10 -12 12 -6 2 -18 9 -18 10 -18 9 -18 12
-1 1 -17 11 -16 11 6522 7539 139 F
-15 3 -18 2 -18 -1 -18 0 -18 -2 -15 -2 -3 -1 -18 -5 -36 -12 -10 -4 -8 -4
-36 -14 -10 -3 -8 -4 -18 -7 -18 -10 -1 -1 -15 -22 16 -9 18 -9 13 -3 5 -1
18 -2 18 -1 18 0 18 1 18 -1 18 0 18 -2 18 -3 18 -4 18 -3 18 -4 18 0 18 3
18 6 9 11 9 19 1 2 1 22 -2 8 -3 14 -12 21 -3 4 -18 15 -3 3 5590 7561 46 F
-4 1 -18 7 -18 2 -18 1 -18 -5 -7 -6 7 -17 13 -5 5 -1 5 1 13 4 18 4 18 11
4 3 5331 7734 14 F
-1 1 -18 12 -18 4 -18 2 -18 -8 -18 -5 -17 -6 -1 -1 -54 -18 -8 -3 -10 -4
-36 -6 -18 -2 -18 1 -18 0 -18 -1 -36 -4 -18 -4 -10 -2 -8 -2 -18 -3 -18 -7
-18 -5 -18 -3 -18 1 -19 17 0 -260 10 3 9 3 18 8 18 9 2 2 34 17 10 4 8 3
18 8 18 10 1 1 17 13 12 8 6 5 15 17 3 2 40 20 14 6 18 11 5 4 13 8 18 8
13 6 5 2 18 7 18 9 9 3 9 7 18 10 36 18 16 9 2 3 13 18 5 6 13 16 -12 22
4865 7885 63 F
-13 5 -36 -4 -3 -1 -15 -2 -18 -5 -18 -3 -18 -6 -17 -5 -1 -1 -18 -12 -16 -9
-2 -1 -18 -7 -36 -8 -18 0 -18 2 -54 9 -36 2 -18 -1 -18 -3 -18 -5 -17 -10
-1 0 -18 -10 -16 -11 -2 -1 -18 -15 -6 -6 -12 -7 -18 -8 -15 -6 -3 -1 -36 -16
-13 -5 -5 -2 -18 -3 -18 -2 -72 0 -18 1 -18 4 0 -250 18 1 24 -8 -24 -20
-16 -2 -2 -1 -18 -2 0 -20 18 -4 18 -7 18 -8 4 -1 14 -8 18 -3 18 -2 18 0
36 4 18 5 11 4 7 2 18 5 18 3 18 4 0 28 -1 1 -17 20 -1 2 1 0 18 3 18 -1
18 0 18 -1 13 -1 -13 -7 -18 -4 -18 -5 -17 -6 -1 -1 0 -28 18 -2 18 -1 18 3
18 4 11 3 4 22 3 5 5 17 13 2 18 5 18 6 36 16 18 11 6 3 12 5 36 14 6 2
12 6 18 10 10 6 8 5 36 16 2 1 16 4 36 8 18 5 18 6 18 4 18 3 18 4 18 6
0 260 -5 2 5340 7929 112 F
-7 4 -18 3 -18 1 -18 0 -36 -6 -18 -1 0 -1 -36 0 0 -391 10 2 8 4 18 6 36 8
18 3 36 0 18 2 18 4 18 5 0 268 -16 3 -2 2 -6 20 6 13 3 8 -2 22 -1 2 -11 19
6481 7994 27 F
-6 3 -18 7 -18 4 -36 4 -18 -2 -18 -1 -18 -5 -18 -7 -7 -3 -12 -4 -18 -7
-18 -6 -18 -4 -1 0 -17 -6 -36 -10 -11 -6 -7 -3 0 -268 18 2 18 3 18 -3
18 -9 4 -3 14 -13 12 -9 6 -1 18 -5 19 0 18 -1 36 2 18 2 18 1 18 0 18 1
36 0 18 1 2 0 16 12 10 -12 8 -1 0 20 -2 3 -15 22 17 3 18 4 0 250 -7 2
-11 4 -18 7 -18 11 -18 13 -12 8 6157 8037 53 F
-5 5 -18 7 -18 -7 -14 -5 -4 -1 -18 -14 -6 -6 -12 -13 -15 -9 -21 -7 -18 -3
-18 -1 -18 -2 -18 0 -18 9 0 -101 18 9 18 6 7 3 11 5 18 9 11 8 7 6 18 9
21 7 15 3 18 3 18 5 18 3 18 7 8 22 9 22 -12 21 4681 8145 33 F
-13 12 -18 -3 -18 -1 -18 -7 -2 -1 -16 -19 -5 -3 -13 -6 -18 -11 -12 -5
-6 -5 -11 -16 -7 -7 -18 -13 -3 -2 -13 -22 -2 -2 -18 -17 -6 -2 6 -4 18 -10
18 -4 36 -2 18 0 36 2 18 2 36 6 18 4 18 9 0 101 -2 4 -3 22 4907 8166 32 F
-3 1 -36 4 -11 -5 11 -1 18 1 21 0 4881 8383 6 F
-16 4 -18 3 -18 0 -18 -1 -18 -3 -11 -3 11 -1 18 -1 36 0 18 1 16 1
5102 8383 11 F
c81 g81 -12 3 -18 4 -18 2 -18 -3 -19 -3 -11 -3 -7 -7 -18 -13 -3 -2 -15 -6 -18 -6
-18 -4 -18 -3 -15 -2 -3 -6 -3 -16 0 -22 3 -3 36 -4 12 7 6 7 18 8 18 4
13 3 5 1 18 3 19 7 18 5 12 6 6 4 18 14 3 3 9 22 6241 4923 33 F
-4 6 -18 9 -18 6 -36 -2 -18 -4 -18 -8 -14 -7 -4 -1 -18 -12 -10 -8 -8 -13
-6 -9 -10 -21 -2 -9 -6 -13 -12 -21 -1 -1 -17 -13 -36 -2 -18 3 -18 4 -18 5
0 -294 18 -4 6 -1 12 -5 18 -4 18 4 18 3 5 2 13 2 54 15 54 24 4 2 14 3
18 5 18 2 36 0 18 -5 10 -5 8 -6 18 -18 16 -19 -1 -22 -15 -9 -18 -8 -13 -5
-5 -2 -18 -8 -17 -11 -1 -1 -18 -17 -5 -4 -13 -5 -18 -6 -18 -5 -18 -3 -16 -3
-2 0 0 -41 18 1 18 2 36 -2 18 -2 3 -1 15 -6 18 -6 18 -4 18 -3 36 2 18 2
18 3 0 270 -4 2 -14 4 -18 8 -17 9 -1 1 -18 9 -16 12 -2 1 -18 8 -18 12
-1 1 -17 7 -18 8 -11 6 -7 4 -18 11 -12 7 -6 4 -14 17 -4 15 -4 7 -5 22
-2 21 -2 22 4 22 9 11 17 10 1 1 18 8 18 -2 14 -7 4 -3 18 -18 18 -11 14 -11
4 -2 18 -11 10 -9 8 -6 18 -18 18 -19 0 -1 14 -21 4 -5 18 -14 4 -2 14 -11
18 -10 2 -1 16 -10 18 -8 0 60 -6 1 -12 5 -36 18 -18 16 -5 5 -13 12 -8 9
-10 13 -18 18 -14 13 -4 7 -6 14 -10 22 -2 3 -14 18 5943 5075 140 F
-1 0 -36 10 -18 1 -18 -6 -8 -5 -10 -5 -15 -17 -3 -2 -18 -15 -18 -9 -18 -7
-18 -5 -18 -1 -18 -2 -18 -1 -7 -1 -11 -1 -18 -1 0 -246 22 -11 14 -19 2 -3
11 -22 5 -4 18 -17 18 -13 11 -9 7 -5 18 -10 12 -7 6 -2 18 -7 18 -6 18 -3
15 -3 3 -1 0 216 -1 1 1 8 4 14 14 6 18 4 18 -2 16 -8 2 -22 -18 -19 -18 -2
-18 11 -18 9 0 -216 18 -3 18 -4 18 -8 12 -6 7 -7 18 -12 15 -2 3 -1 18 -2
36 -2 18 1 18 2 13 2 5 0 36 12 18 5 17 4 1 0 18 2 0 41 -10 0 -8 1 -36 4
-36 10 -18 7 -1 0 -17 8 -18 4 -18 3 -18 2 -18 3 -10 2 -8 2 -18 10 -14 9
-5 7 -12 15 -4 22 16 10 19 2 18 0 18 -3 18 -4 0 294 -54 18 -18 7
6325 5161 96 F
-2 0 -18 1 -18 5 -18 3 -36 4 -18 0 -18 -2 -18 -3 -18 -7 -3 -1 3 -5 10 -17
8 -10 18 -11 -16 -22 -2 -1 -18 -10 -36 -10 -18 -15 -7 -7 -11 -13 -4 -9
-1 -21 -1 -22 6 -4 36 -16 7 -2 11 -2 18 -3 54 -6 18 -7 9 -3 9 -6 0 130
-18 6 18 15 18 2 36 -6 14 -11 -14 -7 -18 -1 -18 0 -18 2 0 -130 18 -11
13 -5 5 -2 18 -4 36 -4 0 246 -16 2 6612 5226 51 F
-2 1 -36 6 -18 -2 -18 -3 -6 -2 -12 -1 -36 -6 -36 6 0 -60 7 -3 11 -16 4 -6
-4 -4 -13 -18 -5 -9 -13 -12 -5 -5 -18 -4 -18 -1 -18 8 0 -270 18 2 18 -2
18 -3 18 -5 5 -1 13 -4 18 -5 18 -7 17 -6 1 0 18 -7 18 -6 0 75 -18 9 -18 7
-10 8 -8 6 -18 10 -11 6 -7 4 -27 18 -9 8 -14 13 -4 5 -13 17 2 22 11 13
9 8 9 13 18 5 18 -5 18 -3 14 -10 4 -3 18 -18 0 -1 11 -21 7 -12 6 -10 12 -21
0 -1 10 -21 8 -14 3 -8 -2 -21 -1 -2 -18 -1 0 -75 18 -5 18 -2 9 -2 9 -1
7 1 11 3 36 10 18 4 16 5 22 22 3 21 -5 4 -18 12 -6 6 -12 8 -18 13 -5 22
2 22 3 9 18 0 18 3 13 9 5 7 7 15 11 19 1 3 9 21 6 22 2 5 6 16 2 22 0 22
-8 7 -15 14 -3 2 -16 20 -2 3 -8 19 -14 21 -14 13 -11 9 -7 3 -18 8 -18 6
-16 4 5603 5248 114 F
-6 9 -18 -4 -8 -5 -8 -22 16 -10 18 -3 11 13 -5 22 5292 5312 8 F
-12 3 -36 6 -18 2 -18 1 -36 0 -18 -2 -18 -1 -18 -3 -18 -4 -10 -2 -8 -4
-18 -11 -11 -7 -7 -7 -18 -5 -18 -4 -18 6 0 -78 24 -20 18 -21 3 -22 -3 -22
-6 -4 -18 -11 -18 -2 -18 2 -18 1 -18 8 0 -51 9 -8 9 -7 14 -14 4 -5 14 -17
4 -3 18 -15 4 -3 14 -9 18 -8 36 0 36 8 18 5 6 4 12 10 12 11 6 7 13 15
5 19 0 2 3 22 5 22 7 21 3 5 14 17 4 5 18 17 -8 21 -10 13 -5 9 5 7 18 12
18 2 15 -21 -7 -22 -3 -21 13 -12 18 -9 4 -1 14 -4 18 -5 18 0 18 7 4 2
14 9 18 26 10 8 8 4 18 10 15 8 21 14 8 7 20 22 -10 21 0 1 -18 16 -18 4
-18 1 -18 -1 -18 -5 -18 -7 -18 7 -18 6 -36 14 -24 8 5917 5788 94 F
-4 4 -18 7 -11 -11 -7 -4 -18 -7 -14 -10 -4 -3 -19 -13 -8 -6 -10 -5 -18 -6
-18 -8 -18 -9 -18 -10 -7 -5 -11 -11 -7 -11 -7 -21 -2 -22 16 -22 18 -5
54 -9 18 -2 12 -5 6 -4 19 -8 18 -8 4 -2 14 -14 0 51 -13 6 -5 4 -18 14
-4 4 -14 22 -1 1 -2 20 2 10 3 12 16 16 10 5 8 3 18 -1 16 -2 2 0 18 -9
16 -12 2 -2 0 78 -14 10 6231 5810 50 F
-13 5 -18 -3 -2 -2 -15 -22 4 -21 13 -21 1 -1 17 -8 18 -3 18 9 0 33 -2 12
-16 19 -5 3 5195 6523 14 F
-1 2 -2 -2 2 -5 1 5 6649 6610 4 F
-3 10 -18 -3 -4 -7 4 -6 13 -16 5 -10 1 10 2 22 6124 6631 8 F
-21 0 1 -2 18 1 2 1 6720 6631 4 F
-3 11 -4 -11 -12 -22 -2 -4 -8 -17 -10 -14 -18 -7 -18 5 -18 3 -18 12 0 -138
10 9 8 6 11 15 7 8 18 14 18 11 18 10 3 1 15 7 36 0 18 -7 0 43 -2 0 -16 14
-8 8 -10 14 -4 7 -11 22 6124 6696 29 F
-16 7 -18 4 -18 2 -18 1 -19 -5 -18 -7 -5 -2 -13 -7 -18 -13 -2 -2 2 -2
18 -12 17 -8 1 0 18 -10 19 -7 18 -4 1 0 8 -22 2 -22 -11 -8 -17 -13 -1 -1
-19 -12 -11 -9 -7 -2 -18 -5 -54 -12 -12 -2 -6 -2 -18 -7 -18 -10 -3 -3
-14 -22 -1 0 -14 -21 -4 -2 -18 -8 -18 -7 -11 -5 -7 -3 -18 -10 -15 -9 -3 0
-36 -12 -18 -7 -4 -2 -14 -6 -18 -11 -8 -5 -10 -3 -36 -10 -18 -2 -18 -1
-18 0 -36 4 -36 -2 -18 -2 -18 -3 -14 -2 -4 -1 -18 -5 -18 -6 -18 -7 -8 -3
-10 -3 -18 -6 -54 -12 -3 -1 -15 -3 -18 -5 -18 -6 -18 -7 -1 0 -17 -6 -36 -14
-7 -2 -11 -6 -18 -11 -11 -5 -7 -6 -14 -15 -4 -20 -1 -2 1 -1 10 -20 8 -7
18 -11 5 -4 13 -5 18 -6 18 -5 18 -4 7 -2 11 -3 36 -10 18 -8 0 -1 16 -42
2 -3 13 -19 5 -4 18 -14 7 -4 11 -4 18 -5 18 -6 15 -6 3 -1 36 -18 10 -3
8 -10 9 -12 9 -11 7 -10 -7 -10 -8 -12 -10 -16 -3 -5 2 -22 1 -8 2 -14 16 -9
18 -1 18 1 18 4 10 5 8 7 18 10 7 5 11 9 16 13 2 0 18 8 36 12 18 -1 18 0
72 -4 18 -2 18 -3 36 -10 2 0 16 -11 17 -11 1 -1 18 -12 18 -9 18 -10 18 -9
6 -2 12 -12 6 -10 2 -22 -1 -21 11 -17 6 -5 12 -5 18 -5 18 -3 19 -1 36 -2
18 -4 3 -1 15 -18 1 -4 -1 -3 -10 -19 -6 -21 -2 -9 -4 -13 -13 -22 -1 -1
-18 -14 -10 -6 -8 -4 -19 -4 -36 -2 -36 4 -18 4 0 -225 18 5 17 6 1 0 18 4
18 6 18 7 12 4 7 3 18 7 18 5 18 1 18 2 36 -4 18 -4 0 401 -2 0 -16 6 -18 10
-6 6 -10 21 -2 12 -3 10 -15 20 -2 2 -16 7 -36 4 -19 4 -18 4 -7 2 -11 4
-18 10 -15 8 -3 2 -18 9 -18 8 -7 2 -11 4 -18 6 -18 5 -36 2 -54 -3 -18 2
-36 6 -2 0 -16 3 -18 3 -36 4 -36 -2 -18 5 -18 8 0 1 -18 9 -18 12 -18 21
-1 1 -17 12 -17 10 -1 1 -16 20 -2 2 -18 12 -14 8 -4 5 -5 16 -6 22 -7 5
-18 12 -8 5 -10 5 -18 11 -11 5 -7 22 2 21 16 9 18 12 1 1 17 10 18 11 1 1
17 7 36 2 54 0 18 3 18 2 18 4 18 3 18 4 18 7 18 8 6 3 12 4 18 7 18 6 17 5
1 0 18 7 18 10 7 4 11 5 18 8 18 7 7 2 11 3 36 8 18 1 36 0 18 -2 18 -5
11 -5 7 -6 11 -16 7 -13 4 -8 8 -22 6 -5 18 -10 17 -7 3 0 17 5 18 4 18 7
12 6 6 4 18 11 11 7 7 5 18 13 2 3 -2 4 -18 16 -18 12 -18 7 -18 4 -1 0
-17 3 -36 4 -19 3 -18 5 -14 7 -4 4 -9 18 9 11 8 10 10 12 7 10 11 5 19 8
18 7 2 2 16 6 18 11 4 4 14 13 0 138 -2 1 6237 6739 335 F
-11 4 -18 5 -18 0 -36 -2 -18 -3 -18 -4 -2 0 -16 -4 -18 -2 -18 2 -18 4
0 -43 18 -20 1 -2 9 -22 4 -21 3 -22 1 -21 0 -22 18 -18 5 -4 13 -9 18 -11
2 -1 16 -6 18 -7 18 -8 1 -1 17 -9 18 -12 0 -1 18 -9 18 -5 18 -4 0 60 -3 2
-15 12 -14 9 -4 3 -18 11 -18 8 -18 13 -14 9 -4 3 -18 13 -4 5 -6 22 -3 21
13 22 18 22 18 12 18 7 4 2 14 13 11 9 5882 6761 55 F
-3 3 -18 2 -18 3 -18 -4 -13 -4 -5 -2 -18 -7 -18 -11 -2 -2 -8 -21 3 -22
7 -21 12 -22 6 -8 10 -14 8 -7 17 -14 1 -1 18 -13 0 86 -4 14 4 9 10 -9
-10 -14 0 -86 11 -8 7 -5 18 -12 0 67 -14 15 -2 22 16 2 1 -2 17 -17 11 -5
-11 -16 -18 1 0 -67 8 -5 21 -21 7 -12 9 -10 9 -9 14 -12 4 -4 18 -14 4 -4
14 -17 3 -5 15 -20 1 -1 5 -22 -11 -22 -13 -19 -2 -2 -16 -17 -8 -5 -10 -7
-18 -9 -17 -5 -1 -1 -18 -6 -18 -5 -18 -7 -10 -3 -8 -3 -36 -14 -12 -5 -6 -1
-18 -7 -18 -4 -18 -6 -11 -3 -7 -3 -18 -6 -36 -10 -18 -3 -1 0 -17 -2 -18 0
-18 2 0 -235 4 -3 6 -21 -10 -13 -7 -9 -11 -15 -7 -7 -11 -6 -18 -6 -18 -1
-36 0 -19 3 -18 2 -36 6 0 -73 18 -1 18 -2 18 -7 4 -1 -4 -3 -18 -11 -18 -4
-13 -4 -5 -1 0 -171 36 4 13 -5 5 -2 19 -17 0 52 -12 11 -7 13 -2 8 2 7
5 15 5 21 9 16 4 6 14 13 7 9 11 12 16 9 2 1 18 8 18 5 36 18 18 11 1 1
17 13 9 8 9 13 9 9 9 12 6 9 12 10 18 9 8 3 10 3 0 61 -18 6 -18 9 -9 8
-4 21 -3 22 -2 10 -4 11 4 6 15 16 21 7 18 3 18 1 18 -8 8 -3 10 -4 18 -13
4 -5 14 -14 6 -7 10 -22 -9 -21 -7 -8 -18 -11 -8 -3 -10 -2 -36 0 -18 1
0 -61 18 5 36 8 18 5 2 1 16 2 36 8 18 8 6 3 12 8 12 14 4 22 1 21 -5 22
-8 21 5 22 9 15 4 7 14 12 8 9 10 10 11 12 7 15 5 7 13 20 1 1 17 15 18 4
90 0 18 1 18 -3 18 -9 18 -7 4 -1 14 -3 18 -4 18 2 10 5 8 6 17 16 1 1 14 20
4 12 4 10 6 22 -3 21 -7 11 -8 11 -7 21 1 22 -2 22 -2 6 -6 15 -12 8 -18 8
-14 6 -4 1 -36 12 -18 0 -18 1 -18 3 -14 5 -4 1 -18 10 -10 10 -8 6 -18 10
-13 6 -5 2 -18 10 -11 9 -7 5 -14 17 -4 9 -5 13 -5 21 -8 19 -1 3 -15 22
-2 3 -16 18 -2 2 -18 24 -10 17 -8 10 -15 12 4917 6826 253 F
-17 6 -18 1 -18 0 -18 -5 -7 -2 -11 -2 -18 -5 -18 -4 -18 -3 -36 -2 -36 8
-18 6 0 -60 14 -3 4 -1 18 -2 18 -3 18 0 36 2 18 2 18 1 18 -2 36 -6 18 -5
18 -4 14 -4 3 -21 -17 -14 -8 -8 -10 -9 -18 -13 -36 -12 -18 -5 -10 -4 -8 -4
-18 -11 -9 -7 -9 -9 -11 -13 -7 -8 -13 -13 -5 -4 -14 -18 -4 -5 -16 -16
-2 -3 -12 -19 12 -16 6 -6 48 -16 14 -5 4 -1 54 -6 36 -2 36 -8 11 -5 7 -4
18 -16 2 -1 16 -16 14 -6 4 -2 18 -7 36 -10 10 -3 8 -10 7 -11 -7 -3 -18 -7
-18 -8 -7 -4 -11 -4 -18 -6 -18 -5 -21 -7 -15 -2 -18 -4 -36 -6 -36 -8 -9 -1
-9 -2 -36 -6 -36 -4 -18 -1 -18 0 -18 -1 -18 0 -18 -2 -13 -6 -5 -2 -18 -12
-10 -7 -8 -7 -18 -9 -14 -6 -4 -2 -36 0 -18 -3 -18 -5 -18 -6 -9 -6 -9 -8
-14 -13 -4 -5 -18 -13 -11 -4 -7 -2 -18 -2 -36 4 0 -401 18 -7 6 -3 12 -8
18 -13 18 -11 18 -7 11 -4 7 -2 18 -4 18 -1 72 0 18 2 18 3 5 2 13 5 36 16
3 1 15 6 18 8 12 7 6 6 0 361 -5 1 -13 3 -18 9 -16 9 15 22 1 1 18 10 18 7
8 4 10 3 36 14 8 4 10 4 36 12 18 5 3 1 15 2 18 2 18 0 18 1 18 -2 15 -3
3 -3 18 -15 3 -4 12 -21 3 -14 2 -8 -1 -22 -1 -2 -9 -19 -9 -11 -18 -6 -18 -3
-18 0 -18 4 -18 3 -18 4 -18 3 -18 2 -18 0 -18 1 -18 -1 -18 0 -18 1 -18 2
0 -361 18 15 2 1 16 11 18 10 1 0 17 10 18 5 18 3 18 1 36 -2 0 90 -14 2
-4 0 -18 3 -18 4 -18 2 -18 4 -18 1 -18 2 -18 3 -13 2 13 9 5 13 11 21 2 3
19 19 17 14 7 8 11 10 17 11 1 1 18 6 18 3 18 2 18 -2 18 -1 18 -3 17 -6
1 0 18 -11 11 -10 5 -22 1 -22 -7 -21 -10 -15 -5 -7 -13 -9 -18 -9 -13 -3
-5 -1 -18 -1 -18 0 0 -90 54 -9 18 -2 18 0 36 8 18 7 2 1 16 9 18 12 1 1
17 5 18 6 18 3 18 5 15 2 3 1 0 171 -5 1 -13 5 -7 17 7 6 18 5 0 73 -11 2
-7 3 -18 10 -9 9 -9 17 -1 5 1 3 11 18 7 6 18 10 15 6 3 2 18 8 18 7 18 6
19 6 18 1 18 -2 14 -6 4 -3 18 -16 3 -3 15 -9 18 -10 0 235 -5 0 -13 2 -36 12
-18 4 -18 3 -3 1 -15 4 -19 10 -8 7 0 22 8 15 4 7 6 21 6 22 3 3 17 18 1 1
18 12 14 9 4 3 18 16 18 18 5 6 -5 12 -8 10 -10 3 -72 16 -10 3 -9 12 -4 9
4 4 19 14 5 4 8 21 -13 9 -19 2 -36 2 -18 0 -54 3 -54 6 -3 0 -15 3 -54 9
-18 4 -18 6 -1 0 5606 6977 325 F
-9 1 -10 -1 -8 -8 -13 -14 13 -7 18 -7 18 6 18 7 1 1 -1 2 -18 13 -9 7
6082 7323 12 F
-4 1 -36 0 -2 -1 -16 -5 -36 -16 -18 -6 -18 -4 -18 -1 -18 -2 -36 -6 -11 -3
-7 -2 -36 -10 -18 -6 -18 -9 -18 -8 -18 -9 -18 -12 -16 -9 -2 -2 -18 -14
-18 -5 -2 0 -16 -6 -18 -5 0 -52 18 -1 18 3 18 5 18 7 18 3 8 2 10 2 18 4
36 4 18 1 18 0 18 -1 18 2 36 6 10 4 8 3 54 18 1 1 17 6 18 5 18 8 18 -2
18 -4 18 -12 1 -1 12 -22 -13 -16 -5 -6 -13 -18 -2 -3 -16 -9 -36 -18 -18 -10
-9 -7 -9 -3 -18 -9 -18 -7 -5 -2 -13 -6 -18 -8 -13 -8 -5 -4 -18 -11 -14 -6
-40 -20 -3 -2 -15 -17 -6 -5 -12 -8 -17 -13 -1 -1 -18 -10 -18 -8 -8 -3
-10 -4 -34 -17 -2 -2 -18 -9 -18 -8 -9 -3 -10 -3 -18 -6 -18 -4 -18 -3 -18 -4
-18 -6 -18 -5 -36 -8 -16 -4 -2 -1 -36 -16 -8 -5 -10 -6 -18 -10 -12 -6
-6 -2 -36 -14 -12 -5 -6 -3 -18 -11 -36 -16 -18 -6 -18 -5 -13 -2 -5 -17
-3 -5 -4 -22 -11 -3 -18 -4 -18 -3 -18 1 -18 2 -18 -4 -18 -3 -18 -5 -7 -2
-11 -4 -18 -5 -36 -4 -18 0 -18 2 -18 3 0 -18 18 1 54 0 72 -4 18 0 72 -4
36 -4 54 -3 18 0 18 -1 36 0 18 -1 36 0 18 -1 13 -1 23 0 18 -1 18 0 18 -1
18 0 18 -1 18 0 36 -2 36 0 19 -1 18 1 90 0 18 -1 0 70 -11 1 11 3 18 3
18 1 18 0 18 -3 0 79 -6 4 6 2 18 17 2 2 13 22 3 2 18 13 7 7 11 16 6 5
12 5 18 11 13 6 5 3 16 19 2 1 18 7 18 1 18 3 13 -12 3 -22 2 -4 18 -9 18 0
18 2 18 1 0 391 -6 8 -5 22 -7 5 -18 12 -14 4 4880 7756 196 F
-12 3 -18 5 -18 2 -18 -1 -18 0 -18 -3 -36 -4 -18 -3 -18 -4 -18 -3 -18 -4
-18 -3 -18 -4 -16 -3 -2 0 -18 -4 -18 -5 -54 -6 -18 2 -18 5 0 -391 18 3
21 7 15 9 12 13 6 6 18 14 4 1 14 5 18 7 18 -7 5 -5 12 -21 -9 -22 -8 -22
-18 -7 -18 -3 -18 -5 -18 -3 -15 -3 -21 -7 -18 -9 -7 -6 -11 -8 -18 -9 -11 -5
-7 -3 -18 -6 -36 -18 -18 -4 -36 -6 -18 -2 -36 -2 -18 0 -36 2 -18 4 -18 10
0 -79 16 -4 -16 -1 -18 -1 -36 0 -18 1 0 -70 36 0 18 -1 126 0 18 1 72 0
0 70 -11 1 11 5 36 -4 3 -1 -21 0 -18 -1 0 -70 54 0 18 1 36 4 12 1 6 2
18 3 36 8 18 5 16 4 -16 6 -36 16 -18 11 -18 8 -9 2 9 3 36 14 16 5 2 1
36 20 2 1 16 6 18 4 18 3 36 4 15 4 3 1 18 8 18 11 3 2 15 13 13 8 5 4 18 8
18 6 10 4 8 18 2 4 16 18 4 3 -4 6 -11 16 -7 8 -10 14 -8 7 -12 14 -6 6
-13 16 7 21 4 22 -4 22 -12 15 -18 0 -18 1 -18 3 -4 2 4 2 17 20 1 3 3 18
15 8 18 8 18 6 18 10 14 12 22 11 18 8 6 2 12 5 34 17 2 2 18 16 4 4 14 15
5 6 7 22 6 21 -18 15 -18 6 -4 1 -14 2 -18 3 -18 5 -18 8 -6 4 4440 7777 161 F
-9 3 -18 7 -18 4 -18 3 -36 -6 -18 -4 -18 -5 -7 -2 -11 -3 -18 -6 -18 -8
-10 -5 -8 -3 -18 -8 -18 -6 -13 -4 -5 -4 -18 -12 -8 -6 -10 -11 -12 -11
-6 -14 -4 -7 3 -22 1 0 18 -6 18 -4 18 -5 18 -4 27 -3 45 0 0 1 18 1 36 6
18 0 18 -1 18 -3 7 -4 11 -19 1 -2 2 -22 -3 -8 -6 -13 6 -20 2 -2 16 -3
7 3 11 6 18 5 0 225 -9 2 6425 7842 51 F
-13 1 -18 1 -18 0 -18 1 -18 -3 -1 0 1 -2 17 -20 1 -1 1 1 17 6 18 5 18 4
13 7 5772 8339 14 F
-24 8 -18 -1 -18 -4 -17 -3 15 -22 2 -3 18 2 2 1 16 2 24 20 6031 8339 10 F
-4 3 -18 9 -18 3 -18 -3 -18 -2 -18 -5 -18 -4 -18 -2 -36 0 -18 -3 -36 -8
-18 -6 -8 -4 -10 -2 -108 -18 -10 -1 -8 -17 -2 -5 2 0 54 -6 18 -3 36 -4
18 -1 36 -6 18 -1 36 2 36 0 18 -1 36 0 72 8 18 1 18 0 0 53 -6 1 -12 9
-14 13 6376 8361 36 F
-10 12 -16 -12 -2 0 -18 -1 -36 0 -18 -1 -18 0 -18 -1 -18 -2 -36 -2 -18 1
-19 0 -18 5 0 -53 18 0 19 -2 18 -1 18 -2 18 -1 18 -2 18 0 18 -1 18 0 18 1
18 0 18 2 18 1 18 2 36 6 36 4 0 18 -14 8 -4 1 -18 8 -18 7 -18 4 -8 1
6099 8383 37 F
c85 g85 -14 7 -18 2 -18 -8 -1 -1 -17 -10 -9 -11 -4 -22 2 -22 2 -21 5 -22 4 -7
4 -15 14 -17 6 -4 12 -7 18 -11 7 -4 11 -6 18 -8 0 32 -8 4 -10 4 -18 14
-5 3 -13 20 -2 2 -7 22 -1 21 9 22 19 0 18 -6 18 -5 18 -11 18 -12 12 -9
22 -22 2 -5 6 -17 -3 -21 -3 -4 -18 -11 -18 -4 -18 8 -18 7 0 -32 17 -7
1 -1 18 -12 18 -8 2 -1 16 -12 18 -9 1 -1 17 -9 18 -8 14 -4 4 -2 18 -8
18 1 18 4 5 5 13 12 5 9 13 18 4 4 -4 6 -11 16 -7 3 -18 8 -16 10 -2 1 -18 10
-14 11 -4 2 -18 14 -4 5 -14 21 0 1 -18 19 -18 18 -8 6 -10 9 -18 11 -4 2
-14 11 -18 11 -18 18 -4 3 6005 5118 88 F
-16 8 -18 2 -18 -4 -14 -6 -4 -14 -1 -8 1 -1 18 -9 18 -11 18 2 18 19 -2 22
6310 5377 12 F
-10 5 -18 5 -36 0 -18 -2 -18 -5 -14 -3 -4 -2 -54 -24 -54 -15 -13 -2 -5 -2
-18 -3 -18 -4 -18 4 0 -70 18 -4 17 -8 1 0 18 -7 36 -10 36 -4 8 -1 12 0
16 3 18 3 18 5 18 6 13 5 5 4 18 17 1 1 17 11 18 8 5 2 13 5 18 8 15 9 1 22
-16 19 -18 18 -8 6 5919 5442 41 F
-14 10 -18 3 -18 5 -18 -5 -9 -13 -9 -8 -11 -13 -2 -22 13 -17 4 -5 14 -13
9 -8 27 -18 7 -4 11 -6 18 -10 8 -6 10 -8 18 -7 18 -9 18 1 1 2 2 21 -3 8
-8 14 -10 21 0 1 -12 21 -6 10 -7 12 -11 21 0 1 -18 18 -4 3 5717 5464 34 F
-6 1 -36 8 -18 3 -18 0 -19 -2 -16 -10 4 -22 12 -15 5 -7 14 -9 18 -10 8 -2
10 -2 18 -3 18 -2 18 -3 0 70 -12 5 6229 5485 18 F
-16 2 -18 1 -8 -3 -10 -5 -16 -16 -3 -12 -2 -10 2 -20 1 -1 14 -22 4 -4
18 -14 5 -4 13 -6 18 -8 18 -1 18 -2 18 2 18 11 6 4 3 22 -3 22 -18 21 -24 20
-2 2 -16 12 -18 9 -2 0 6255 5875 28 F
-18 7 -36 0 -15 -7 -3 -1 -18 -10 -18 -11 -18 -14 -7 -8 -11 -15 -8 -6 -10 -9
-14 -13 -4 -4 -18 -11 -16 -6 -2 -2 -18 -7 -19 -8 -11 -5 -7 -10 -10 -12
-8 -10 -9 -11 9 -18 4 -4 14 -7 18 -5 19 -3 36 -4 17 -3 1 0 18 -4 18 -7
18 -12 18 -16 2 -4 -2 -3 -18 -13 -7 -5 -11 -7 -18 -11 -6 -4 -12 -6 -18 -7
-18 -4 -17 -5 -1 0 0 -44 4 1 14 4 18 6 17 12 1 0 18 7 18 8 17 6 1 1 18 8
18 12 1 1 17 14 6 8 10 21 -4 22 -6 21 1 22 2 22 -9 19 -4 2 -14 3 -18 4
-18 7 -18 8 16 22 2 3 3 18 15 19 1 3 15 21 2 1 18 13 18 7 36 -6 13 -15
3 -21 1 -22 -10 -21 -7 -9 -18 -9 -11 -4 -7 -22 18 -12 18 -2 7 -7 11 -5
36 -12 12 -5 24 -8 18 -7 17 -7 1 0 18 -8 18 -10 6 -3 12 -7 18 -10 7 -5
11 -6 18 -6 18 -8 4 -1 32 -16 11 -6 2 -22 -8 -21 -10 -22 -13 -18 -3 -4
-15 -14 -10 -7 -8 -5 -18 -10 -18 -3 -15 -4 -3 -1 -18 -11 -11 -9 -7 -6
-18 -12 -14 -4 -4 -1 -18 -5 -36 2 -36 4 0 -50 18 -13 1 -2 -1 -1 -18 -7
-18 -6 -18 7 0 -270 18 13 4 5 14 13 9 8 9 6 18 6 18 5 18 3 36 0 4 2 14 6
18 9 8 7 10 7 18 12 5 2 13 6 18 2 18 0 18 1 0 77 -1 1 -17 21 -1 0 -9 22
10 8 18 9 13 5 5 0 18 2 36 -2 1 0 17 -5 18 -5 18 -9 5 -3 4 -22 -9 -13
-7 -8 -11 -5 -18 -6 -18 -4 -36 0 -18 6 -18 8 0 -77 18 0 18 1 36 4 36 6
9 2 9 1 36 8 36 6 18 4 15 2 21 7 18 5 18 6 11 4 7 4 18 8 18 7 7 3 -7 11
-8 10 -10 3 -36 10 -18 7 -4 2 -14 6 -16 16 -2 1 -18 16 -7 4 -11 5 -36 8
-36 2 -54 6 -4 1 -14 5 -48 16 -6 6 -12 16 12 19 2 3 16 16 4 5 14 18 5 4
13 13 7 8 11 13 9 9 9 7 18 11 8 4 10 4 18 5 36 12 18 13 10 9 8 8 17 14
-3 21 -14 4 -18 4 -18 5 -36 6 -18 2 -18 -1 -18 -2 -36 -2 -18 0 -18 3 -18 2
-4 1 -14 3 -18 4 -18 5 -18 9 0 1 -18 12 -17 9 -1 1 -18 8 -18 7 -16 6 -2 1
-18 11 -13 9 -5 4 -18 18 0 22 -1 21 -3 22 -4 21 -9 22 -1 2 -18 20
6073 6804 282 F
-10 9 -4 -9 4 -14 10 14 4946 6891 4 F
-1 2 -16 -2 2 -22 14 -15 18 -1 11 16 -11 5 -17 17 4919 6912 8 F
-11 5 -18 5 -18 2 -36 0 -18 -1 -36 -8 -11 -3 -7 -2 -18 -7 -18 -8 -11 -5
-7 -4 -18 -10 -18 -7 -1 0 -17 -5 -18 -6 -18 -7 -12 -4 -6 -3 -18 -8 -18 -7
-18 -4 -18 -3 -18 -4 -18 -2 -18 -3 -54 0 -36 -2 -17 -7 -1 -1 -18 -11 -17 -10
-1 -1 -18 -12 -16 -9 -2 -21 7 -22 11 -5 18 -11 10 -5 8 -5 18 -12 7 -5
6 -22 5 -16 4 -5 14 -8 18 -12 2 -2 16 -20 1 -1 17 -10 17 -12 1 -1 18 -21
18 -12 18 -9 0 -1 18 -8 18 -5 36 2 36 -4 18 -3 16 -3 2 0 18 -3 0 64 -11 4
-7 2 -18 7 -18 5 -18 1 -18 2 -13 5 -2 21 1 22 14 11 36 2 18 0 18 -2 18 -1
18 6 18 5 18 7 18 6 36 8 5 1 -5 1 -36 10 -18 8 -6 3 -12 9 -9 12 9 8 15 14
3 3 11 18 7 20 1 2 7 22 -8 6 -12 15 -6 12 -4 10 4 3 18 15 5 4 13 9 18 9
7 3 11 3 18 -1 8 -2 10 -4 18 -9 11 -8 7 -7 16 -15 2 -3 14 -19 4 -5 17 -16
1 -1 18 -11 18 -7 14 -3 5 -1 0 44 -2 0 -17 7 -18 10 -6 5 -8 22 -4 8 -7 13
-11 16 -7 6 6387 7042 138 F
-15 1 -18 0 -18 -1 -1 0 -17 -3 -18 -5 -18 -8 -18 -12 -16 -15 -2 -6 -7 -16
-6 -21 -5 -6 -18 -13 -7 -3 -11 -6 -18 -5 -18 -4 -19 -1 -36 0 -18 2 -18 1
-36 4 -36 2 -18 0 -18 -1 -18 -2 -36 -2 -18 0 -36 8 0 -64 18 -3 18 -2 54 3
36 -2 18 -5 18 -6 11 -4 7 -2 18 -8 18 -9 3 -2 15 -8 18 -10 11 -4 7 -2
18 -4 19 -4 36 -4 16 -7 2 -2 15 -20 3 -10 2 -12 10 -21 6 -6 18 -10 16 -6
2 0 36 -4 18 2 7 2 11 4 0 270 -13 7 13 14 8 8 10 1 9 -1 9 -7 0 50 -3 0
6076 7280 72 F
-8 3 -18 8 -18 -1 -18 -3 -21 -7 -15 -16 -4 -6 4 -11 2 -10 3 -22 4 -21
9 -8 18 -9 18 -6 18 -1 36 0 10 2 8 3 18 11 7 8 9 21 -10 22 -6 7 -14 14
-4 5 -18 13 -10 4 5020 7453 27 F
-14 6 -18 2 -18 -1 -19 -6 -18 -6 -18 -7 -18 -8 -3 -2 -15 -6 -18 -10 -7 -6
-11 -18 -1 -3 1 -5 9 -17 9 -9 18 -10 7 -3 11 -2 36 -6 18 -2 19 -3 36 0
18 1 18 6 11 6 7 7 11 15 7 9 10 13 -6 21 -4 3 -18 10 -15 9 -3 3 -18 16
-4 3 5266 7539 37 F
-17 6 -18 3 -18 1 -18 2 -18 -2 -18 -3 -18 -6 -1 -1 -17 -11 -11 -10 -7 -8
-17 -14 -19 -19 -2 -3 -11 -21 -5 -13 -13 -9 13 -2 18 -3 18 -2 18 -1 18 -4
18 -2 18 -4 18 -3 4 0 14 -2 0 61 -9 5 9 22 18 -6 18 -4 5 -12 -5 -4 -18 0
-18 -1 0 -61 18 0 18 1 5 1 13 3 18 9 13 9 5 7 10 15 7 21 -1 22 -5 22 -11 10
-18 11 -1 0 5588 7756 51 F
c87 g87 0 0 -19 0 -9 -22 1 -21 7 -22 2 -2 13 -20 5 -3 18 -14 10 -4 8 -4 0 25 -1 0
-17 20 -2 2 2 5 18 13 18 -11 17 -7 1 -7 1 -15 -37 0 0 -25 18 -7 18 -8
18 4 18 11 3 4 3 21 -6 17 -2 5 -22 22 -12 9 -18 12 -18 11 -18 5 -18 6
6019 5161 37 F
-13 15 -36 6 -18 -7 -18 -13 -2 -1 -15 -21 -1 -3 -15 -19 -3 -18 -2 -3 -16 -22
18 -8 18 -7 18 -4 14 -3 4 -2 9 -19 -2 -22 -1 -22 6 -21 4 -22 -10 -21 -6 -8
-17 -14 -1 -1 -18 -12 -18 -8 -1 -1 -17 -6 -18 -8 -18 -7 -1 0 -17 -12 -18 -6
-14 -4 -4 -1 0 -105 2 -2 9 -22 2 -21 -13 -15 -15 -7 -4 -1 -18 -4 -18 0
0 -54 36 0 19 1 18 4 18 5 11 6 7 3 18 13 5 6 6 21 7 16 2 6 16 15 18 12
18 8 18 5 17 3 1 0 18 1 18 0 15 -1 3 0 18 -2 0 44 -8 1 -10 5 -36 14 -8 3
-10 6 -18 12 -6 3 6 22 10 22 8 7 7 14 8 22 3 7 6 15 6 21 6 22 18 12 18 4
18 -2 36 -8 17 -6 1 -1 18 -7 18 -10 7 -4 11 -7 18 -10 7 -4 11 -7 18 -11
7 -4 11 -15 5 -7 5 -21 -10 -19 -1 -3 -17 -14 -18 0 -36 -2 -18 -2 -18 -3
-2 -1 -16 -15 -6 -6 -12 -22 -18 -3 -18 0 -18 2 0 -44 18 -2 36 -2 18 5
4 1 14 4 18 12 7 6 11 9 18 11 3 1 15 4 18 3 18 10 8 5 10 7 15 14 3 4 13 18
10 22 8 21 -2 22 -11 6 -32 16 -4 1 -18 8 -18 6 -11 6 -7 5 -18 10 -12 7
-6 3 -18 10 -18 8 -1 0 -17 7 -18 7 -24 8 -12 5 -36 12 -11 5 -7 7 -18 2
-18 12 7 22 11 4 18 9 7 9 10 21 -1 22 -3 21 6078 6848 168 F
-8 2 -18 1 -11 -3 -7 -3 -18 -9 -13 -9 -5 -4 -18 -15 -4 -3 4 -10 6 -12
12 -15 8 -6 -7 -22 -1 -2 -7 -20 -11 -18 -3 -3 -15 -14 -9 -8 9 -12 12 -9
6 -3 18 -8 36 -10 5 -1 -5 -1 -36 -8 -18 -6 -18 -7 -18 -5 -18 -6 -18 1
-18 2 -18 0 -36 -2 -14 -11 -1 -22 2 -21 13 -5 18 -2 18 -1 18 -5 18 -7
7 -2 11 -4 36 -8 18 0 36 2 18 2 18 1 18 0 36 -2 36 -4 18 -1 18 -2 0 54
-13 5 -5 4 -14 18 14 11 13 10 5 6 18 9 18 5 8 2 11 2 0 105 -5 1 -14 3
-18 7 -18 11 -1 1 -17 16 -4 5 -14 19 -2 3 -16 15 -7 7 -11 8 -18 9 -10 4
6462 7064 82 F
-1 0 -36 2 -18 -2 -5 0 -13 -5 -18 -9 -10 -8 9 -22 1 0 17 -21 1 -1 18 -8
18 -6 36 0 18 4 18 6 11 5 7 8 9 13 -4 22 -5 3 -18 9 -18 5 -17 5 5748 7366 24 F
-5 12 -18 4 -18 6 -9 -22 9 -5 18 1 18 0 5 4 5618 7821 8 F
c1 g1 -17 7 -18 11 -18 -13 -2 -5 2 -2 17 -20 38 0 -1 15 -1 7 5948 5226 9 F
-17 6 -36 8 -18 2 -18 -4 -18 -12 -6 -22 -6 -21 -6 -15 -3 -7 -8 -22 -7 -14
-8 -7 -10 -22 -6 -22 6 -3 18 -12 10 -6 8 -3 36 -14 10 -5 8 -1 18 -2 18 0
18 3 12 22 6 6 16 15 2 1 18 3 18 2 36 2 18 0 17 14 1 3 10 19 -5 21 -5 7
-11 15 -7 4 -18 11 -11 7 -7 4 -18 10 -11 7 -7 4 -18 10 -18 7 -1 1
5984 7042 48 F
-2 2 -11 -2 -8 -2 -18 -5 -18 -9 -5 -6 -13 -10 -14 -11 14 -18 5 -4 13 -5
18 0 18 4 4 1 15 7 13 15 -2 21 -9 22 6305 7280 18 F
c1 w7 c1 c1 c1 c1 c1 c1 c1 c1 c1 c1 c1 c1 c1 c1 c1 c1 c1 c1 c1 c1 c1 c1 c1 c1 c1 c1 c1 c1 c1 c1 c1 c1 c1 c1 c1 c1 c1 c1 c1 c1 c1 c1 c1 c1 c1 c1 c1 c1 c1 c1 c1 c1 c1 c1 c1 c1 c1 c1 c1 c1 c1 c1 c1 c1 c1 c1 c1 c1 c1 c1 c1 c1 c1 c1 c1 c1 c1 c1 c1 c1 c1 c1 c1 c1 c1 c1 c1 c1 c1 c1 c1 c1 c1 c1 c1 c1 c1 c1 c1 c1 c1 c1 c1 c1 c1 c1 c1 c1 c1 c1 c1 c1 c1 c1 c1 c1 c1 c1 c1 c1 c1 c1 c1 c1 c1 c1 c1 c1 c1 c1 c1 c1 c1 c1 c1 c1 c1 c1 c1 c1 c1 c1 c1 c1 c1 c1 c1 c1 c1 c1 c1 c1 c1 c1 c1 c1 c1 c1 c1 c1 c1 c1 c1 c1 c1 c1 c1 c1 c1 c1 c1 c1 c1 c1 c1 c1 c1 c1 c1 c1 c1 c1 c1 c1 c1 c1 c1 c1 c1 c1 c1 c1 c1 c1 c1 c1 c1 c1 c1 c1 c1 c1 c1 c1 c1 c1 c1 c1 c1 c1 c1 c1 c1 c1 c1 c1 c1 c1 c1 c1 c1 c1 c1 c1 c1 c1 c1 c1 c1 c1 c1 c1 c1 c1 12 2 5 39 7 47 5 38 6 47 48 43 83 0 5 38 7 47 8 24 15 47 32 6 40 8 12 24
23 47 36 57 20 15 39 28 5 38 7 47 -8 24 -16 47 32 7 39 8 7038 6065 24 S
20 3 39 7 48 43 8 24 15 47 -20 14 -39 28 -71 0 7500 6848 8 S
-48 -15 48 -56 0 -100 47 -57 20 -9 39 -19 36 -57 47 -43 8 -24 16 -47 8 -24
16 -47 0 -100 35 -57 36 -56 32 -7 39 -8 20 -9 39 -19 20 -10 39 -19 48 43
35 57 20 10 40 18 -36 57 -47 43 -8 24 -16 47 -5 38 -7 47 36 57 47 43 8 24
16 47 -83 0 -20 -9 -39 -19 -32 -13 -40 -16 -20 10 -39 19 -35 57 -8 24
-16 47 5 38 7 47 10 38 13 47 20 10 40 19 20 9 39 19 47 43 20 9 40 19 35 -57
8 -24 16 -47 -20 -9 -39 -19 -36 -57 8 -24 16 -47 32 -6 39 -8 32 -7 39 -8
47 43 32 6 40 8 19 10 40 19 35 57 8 24 16 47 20 14 39 28 36 57 83 0 -48 -57
-35 -56 -36 -57 36 -57 12 -24 23 -47 36 -57 20 9 39 19 36 -57 35 -57 8 -24
16 -47 36 -57 -8 -24 -16 -47 -11 -38 -13 -47 -8 -24 -15 -47 -20 10 -40 18
-35 57 8 24 15 47 -20 -9 -39 -19 -47 57 0 99 35 -57 0 100 -35 57 -32 6
-39 8 -48 -43 -32 13 -39 16 -20 10 -39 18 47 -42 8 -24 16 -47 24 -72 -6 -38
-6 -47 20 -14 39 -29 48 -42 19 9 40 19 20 -9 39 -19 47 -57 -8 -24 -15 -47
32 6 39 8 20 10 39 18 -5 -38 -7 -47 48 -43 47 -42 47 -43 -35 -57 5 -38
7 -47 -8 -24 -16 -47 -20 9 -39 19 -20 -9 -40 -19 -47 42 -20 -9 -39 -19
-48 43 -47 57 -32 -96 -15 -47 20 -9 39 -19 6 -53 6 -47 -20 10 -39 19 7 -24
16 -47 -35 -57 -32 -7 -40 -7 -47 42 -5 38 -7 48 -20 9 -39 19 -36 -57 -20 -10
-39 -18 -20 -15 -39 -28 -48 -43 32 7 40 8 8 -24 15 -48 -32 -12 -39 -16
-47 -43 -20 -9 -39 -19 -36 57 -20 14 -39 28 -83 0 -48 -42 -5 -38 -7 -48
83 0 -20 -9 -39 -19 -47 -43 -20 -14 -39 -28 8 -24 15 -47 -8 -24 -15 -48
-21 -14 -39 -28 -35 -57 -32 6 -39 8 -32 -6 -40 -8 -35 -57 -32 -6 -39 -8
-20 9 -40 19 -82 0 -48 43 -32 -7 -39 -7 -47 -57 -32 -13 -40 -16 6 38 6 48
36 57 8 23 16 48 -36 57 -36 56 -10 39 -13 47 -48 42 -8 24 -15 48 -32 6
-39 8 -83 0 -20 9 -40 19 -20 10 -39 19 -32 6 -39 8 -83 0 -20 -10 -39 -19
-36 -56 -35 -57 -20 -10 -40 -19 -83 0 -31 13 -40 16 -47 57 -36 56 -8 24
-15 48 5 38 6 47 8 24 16 47 36 57 32 -6 39 -8 12 24 23 47 48 42 32 -6
39 -8 8 24 16 47 -8 24 -16 47 -20 10 -39 19 -83 0 -32 -6 -39 -8 -32 6
-40 8 -31 6 -40 8 -31 -6 -40 -8 -20 9 -39 19 8 24 16 47 47 43 -8 24 -16 47
-31 -6 -40 -8 -5 38 -6 47 -32 7 -40 8 -31 6 -16 3 7500 7023 304 S
c1 c1 c1 c1 -8 29 -32 -7 -39 -8 -47 43 -20 15 -60 42 -39 28 -12 6 7500 8392 8 S
0 0 -20 10 -40 19 -3 -29 6958 8540 4 S
-9 29 -21 -10 -39 -19 6777 8540 3 S
0 0 -48 43 -8 24 -15 47 -21 -10 -39 -19 -47 43 -20 -9 -39 -19 -20 -10
-40 -19 -8 -24 -15 -47 -1 0 6647 8540 14 S
-1 10 -7 47 5 38 7 47 -36 -57 -20 -9 -39 -19 -12 -24 -16 -33 6153 8540 9 S
c1 c1 c1 c1 c1 c1 c1 c1 24 -42 83 0 5 38 6 47 36 57 -47 43 -36 57 -47 -43 -20 -10 -40 -19 6 -38
6 -47 36 -57 4525 8270 13 S
c1 0 -85 20 10 39 18 20 10 39 19 6 38 6 47 6 38 6 48 36 56 20 10 39 19 -32 -6
-39 -8 -20 -10 -39 -19 -48 -42 -6 -53 -6 -47 -47 -43 4217 7431 20 S
c1 0 -42 5 -39 7 -47 0 100 12 24 23 47 36 57 8 24 16 47 20 10 39 18 -47 43
-8 24 -16 47 -8 24 -16 47 -47 -42 0 -100 -20 -10 -40 -18 -6 -53 -5 -47
20 10 39 19 5 -39 7 -47 -12 -24 -24 -47 3672 7061 28 S
c1 c1 c1 c1 c1 c1 c1 c1 c1 c1 c1 c1 c1 c1 c1 c1 c1 -23 57 47 42 8 24 16 47 8 24 15 47 36 57 8 24 16 47 5 39 6 47 6 38 6 47
8 24 16 47 5 38 7 48 35 56 11 39 13 47 11 38 13 47 -8 24 -16 47 -35 57
8 24 15 47 6 38 6 48 5 38 7 47 36 57 12 24 23 47 36 57 -8 24 -16 47 35 57
8 24 16 47 20 10 40 18 31 7 40 8 8 -24 15 -48 36 -56 32 -7 39 -8 32 7
39 8 20 9 39 19 36 57 10 38 14 47 -32 13 -39 16 -48 42 0 100 20 10 39 18
20 10 40 19 8 24 15 47 48 43 47 42 32 7 39 7 20 15 40 28 19 10 40 19 20 14
39 28 83 0 -5 -38 -7 -47 -47 -43 -36 -57 -35 -57 -8 -24 -16 -47 -5 -38
-7 -47 5 -38 7 -47 8 -24 16 -47 8 -24 15 -48 36 -56 35 -57 6 -39 6 -47
83 0 6 -38 6 -47 -32 -13 -39 -15 -20 9 -39 19 -8 24 -16 47 -47 -43 -12 -24
-24 -47 -5 -38 -7 -47 48 -43 32 -6 39 -8 32 -6 39 -8 47 43 36 56 24 72
35 56 32 96 15 47 0 99 -8 24 -15 47 -8 24 -16 47 -35 57 -21 15 -39 28
-35 57 5 38 7 47 20 10 39 19 43 7 40 7 35 -57 36 -57 83 0 32 -6 39 -8
32 -6 39 -8 32 6 39 8 48 -43 35 -57 8 -24 16 -47 47 -42 36 -57 -83 0 -36 57
-47 -43 -48 -43 -35 -57 -5 -38 -7 -47 -6 -52 -6 -48 -5 -38 -7 -47 48 -43
35 -56 48 -43 20 -10 39 -19 6 -52 6 -47 -48 -43 36 -57 -5 -38 -7 -47 5 -38
7 -47 47 -57 -35 -57 -6 -53 -6 -47 -20 -9 -39 -19 -48 43 -20 -10 -39 -19
-12 -24 -23 -47 -8 -24 -16 -47 -48 -43 -47 -57 -36 -57 -47 -42 -5 -38
-7 -48 -47 -42 -36 -57 8 -24 16 -47 -20 -10 -39 -19 10 -38 13 -47 -47 -43
-20 -14 -39 -28 47 -43 44 7 39 7 32 7 39 7 20 -9 39 -19 -20 -10 -39 -18
-20 -10 -39 -19 -20 -10 -39 -18 5627 6449 218 S
c1 35 57 -35 57 -32 -13 -39 -15 -32 -7 -40 -7 -8 24 -15 47 -36 -57 -12 -24
-23 -47 0 -100 31 -6 40 -8 20 10 39 18 20 10 39 19 48 57 5153 6065 19 S
c1 -8 24 -15 47 -8 24 -16 47 -47 -42 -8 -24 -16 -47 20 -15 39 -28 20 9 39 19
4976 5639 11 S
c1 -12 57 -20 14 -39 29 48 42 47 43 -32 -6 -39 -8 0 99 -20 -9 -39 -19 -48 -43
-47 -42 -36 -72 -20 -9 -39 -19 -11 -38 -13 -47 8 -24 16 -47 -5 -39 -7 -47
8 -24 16 -47 47 -43 32 7 39 8 20 9 40 19 31 -6 40 -8 -36 57 8 24 16 47
10 38 14 47 8 24 15 47 4798 5895 37 S
c1 24 42 5 39 7 47 -20 9 -40 19 -31 -6 -40 -8 -47 43 -5 -39 -7 -47 -47 -42
-20 9 -40 19 -31 -6 -40 -8 8 -24 16 -47 47 -43 8 -24 16 -47 36 -57 47 43
47 42 21 -14 39 -28 47 42 -5 39 -7 47 3044 6449 28 S
c1 12 14 -47 43 -48 -43 -8 -24 -15 -47 -6 -38 -6 -47 47 43 48 42 8 24 15 47
4407 4800 11 S
c1 47 0 36 57 8 24 15 47 48 57 0 100 5 38 7 47 8 24 15 47 36 57 35 57 8 24
16 47 -5 38 -7 47 -20 10 -39 19 -20 -10 -39 -19 -8 -24 -16 -47 0 -99 -8 -24
-16 -47 -35 -57 -36 -57 -5 -38 -7 -47 -8 -24 -15 -48 0 -199 6267 3463 32 S
c1 20 -10 40 -19 47 43 36 57 47 43 -8 24 -16 47 -12 24 -23 47 -36 57 -32 6
-39 8 -83 0 -20 -10 -39 -18 -48 -57 -8 -24 -15 -47 5 -39 7 -47 20 -9 39 -19
20 -10 39 -19 20 -9 39 -19 5533 2851 26 S
c1 c1 c1 c1 c1 c1 c1 c1 c1 c1 c1 c1 c1 c1 c1 c1 c1 c1 c1 c1 c1 c1 c1 c1 c1 c1 c1 c1 c1 c1 c1 c1 c1 c1 c1 c1 c1 c1 c1 c1 c1 c1 c1 c1 c1 c1 c1 c1 c1 c1 c1 c1 c1 c1 c1 c1 c1 c1 c1 c1 c1 c1 c1 c1 c1 c1 c1 c1 c1 c1 c1 c1 c1 c1 c1 c1 c1 c1 c1 c1 c1 c1 c1 c1 c1 c1 c1 c1 c1 c1 c1 c1 c1 c1 c1 c1 c1 c1 c1 c1 c1 c1 c1 c1 c1 c1 c1 c1 c1 c1 c1 c1 c1 c1 c1 c1 c1 c1 c1 c1 c1 c1 c1 c1 c1 c1 c1 c1 c1 c1 c1 c1 c1 c1 c1 c1 c1 c1 c1 c1 c1 c1 c1 c1 c1 c1 c1 c1 c1 c1 c1 c1 c1 c1 c1 c1 c1 c1 c1 c1 c1 c1 c1 c1 c1 c1 c1 c1 c1 c1 c1 c1 c1 c1 c1 c1 c1 c1 c1 c1 c1 c1 c1 c1 c1 c1 c1 c1 c1 c1 c1 c1 c1 c1 c1 c1 c1 c1 c1 c1 c1 c1 c1 c1 c1 c1 c1 c1 c1 c1 c1 c1 c1 c1 c1 c1 c1 c1 c1 c1 c1 c1 c1 c1 c1 c1 c1 c1 c1 c1 c1 c1 c1 c1 c1 c1 c1 c1 c1 c1 c1 c1 c1 c1 c1 c1 c1 c1 c1 c1 c1 c1 c1 c1 c1 c1 c1 c1 c1 c1 c1 c1 c1 c1 c1 c1 c1 c1 c1 c1 c1 c1 c1 c1 c1 c1 c1 c1 c1 c1 c1 c1 c1 c1 c1 c1 c1 c1 c1 c1 c1 c1 c1 c1 c1 c1 c1 c1 c1 c1 c1 c1 c1 c1 c1 c1 c1 c1 c1 c1 c1 c1 c1 c1 c1 c1 c1 c1 c1 c1 c1 c1 c1 c1 c1 c1 c1 c1 c1 c1 c1 c1 c1 c1 c1 c1 c1 c1 c1 c1 c1 c1 c1 c1 c1 c1 c1 c1 c1 c1 c1 c1 c1 c1 c1 c1 c1 c1 c1 c1 c1 c1 c1 c1 c1 c1 c1 c1 c1 c1 c1 c1 c1 c1 c1 c1 c1 c1 c1 c1 c1 c1 c1 c1 c1 c1 c1 c1 c1 c1 c1 c1 c1 c1 c1 c1 c1 c1 c1 c1 c1 c1 c1 c1 c1 c1 c1 c1 c1 c1 c1 c1 c1 c1 c1 c1 c1 c1 c1 c1 c1 c1 c1 c1 c1 c1 c1 c1 c1 c1 c1 c1 c1 c1 c1 c1 c1 c1 c1 c1 c1 c1 c1 c1 c1 c1 c1 c1 c1 c1 c1 c1 c1 c1 c1 c1 c1 c1 c1 c1 c1 c1 c1 c1 c1 c1 c1 c1 c1 c1 c1 c1 c1 c1 c1 c1 c1 c1 c1 c1 c1 c1 c1 c1 c1 c1 c1 c1 c1 c1 c1 c1 c1 c1 c1 c1 c1 c1 c1 c1 c1 c1 c1 c1 c1 c1 c1 c1 c1 c1 c1 c1 c1 c1 c1 c1 c1 c1 c1 c1 c1 c1 c1 c1 c1 c1 c1 c1 c1 c1 c1 c1 c1 c1 c1 c1 c1 c1 c1 c1 c1 c1 c1 c1 c1 c1 c1 c1 c1 c1 c1 c1 c1 c1 c1 c1 c1 c1 c1 c1 c1 c1 c1 c1 c1 c1 c1 c1 c1 c1 c1 c1 c1 c1 c1 c1 c1 c1 c1 c1 c1 c1 c1 c1 c1 c1 c1 c1 c1 c1 c1 c1 c1 c1 c1 c1 c1 c1 c1 c1 c1 c1 c1 c1 c1 c1 c1 c1 c1 c1 c1 c1 c1 c1 c1 c1 c1 c1 c1 c1 c1 c1 c1 c1 c1 c1 c1 c1 c1 c1 c1 c1 c1 c1 c1 c1 c1 c1 c1 c1 c1 c1 c1 c1 c1 c1 c1 c1 c1 c1 c1 c1 c1 c1 c1 c1 c1 c1 c1 c1 c1 c1 c1 c1 c1 c1 c1 c1 c1 c1 c1 c1 c1 c1 c1 c1 c1 c1 c1 c1 c1 c1 c1 c1 c1 c1 c1 c1 c1 c1 c1 c1 c1 c1 c1 c1 c1 c1 c1 c1 c1 c1 c1 c1 c1 c1 c1 c1 c1 c1 c1 c1 c1 c1 c1 c1 c1 c1 c1 c1 c1 c1 c1 c1 c1 c1 c1 c1 c1 c1 c1 c1 c1 c1 c1 c1 c1 c1 c1 c1 c1 c1 c1 c1 c1 c1 c1 c1 c1 c1 c1 c1 c1 c1 c1 c1 c1 c1 c1 c1 c1 c1 c1 c1 c1 c1 c1 c1 c1 c1 c1 c1 c1 c1 c1 c1 c1 c1 c1 c1 c1 c1 c1 c1 c1 c1 c1 c1 c1 c1 c1 c1 c1 c1 c1 c1 c1 c1 c1 c1 c1 c1 c1 c1 c1 c1 c1 c1 c1 c1 c1 c1 c1 c1 c1 c1 c1 c1 c1 c1 c1 c1 c1 c1 c1 c1 c1 c1 c1 c1 c1 c1 c1 c1 c1 c1 c1 c1 c1 c1 c1 c1 c1 c1 c1 c1 c1 c1 c1 c1 c1 c1 c1 c1 c1 c1 c1 c1 c1 c1 c1 c1 c1 c1 c1 c1 c1 c1 c1 c1 c1 c1 c1 c1 c1 c1 c1 c1 c1 c1 c1 c1 c1 c1 c1 c1 c1 c1 c1 c1 c1 c1 c1 c1 c1 c1 c1 c1 c1 c1 c1 c1 c1 c1 c1 c1 c1 c1 c1 c1 c1 c1 c1 c1 c1 c1 c1 c1 c1 c1 c1 c1 c1 c1 c1 c1 c1 c1 c1 c1 c1 c1 c1 c1 c1 c1 c1 c1 c1 c1 c1 c1 c1 c1 c1 c1 c1 c1 c1 c1 c1 c1 c1 c1 c1 c1 c1 c1 c1 c1 c1 c1 c1 c1 c1 c1 c1 c1 c1 c1 c1 c1 c1 c1 c1 c1 c1 c1 c1 c1 c1 c1 c1 c1 c1 c1 c1 c1 c1 c1 c1 c1 c1 c1 c1 c1 c1 c1 c1 c1 c1 c1 c1 c1 c1 c1 c1 c1 c1 c1 c1 c1 c1 c1 c1 c1 c1 c1 c1 c1 c1 c1 c1 c1 c1 c1 c1 c1 c1 c1 c1 c1 c1 c1 c1 c1 c1 c1 c1 c1 c1 c1 c1 c1 c1 c1 c1 c1 c1 c1 c1 c1 c1 c1 c1 c1 c1 c1 c1 c1 c1 c1 c1 c1 c1 c1 c1 c1 c1 c1 c1 c1 c1 c1 c1 c1 c1 c1 c1 c1 c1 c1 c1 c1 c1 c1 c1 c1 c1 c1 c1 c1 c1 c1 c1 c1 c1 c1 c1 c1 c1 c1 c1 c1 c1 c1 c1 c1 c1 c1 c1 c1 c1 c1 c1 c1 c1 c1 c1 c1 c1 c1 c1 c1 c1 c1 c1 c1 c1 c1 c1 c1 c1 c1 c1 c1 c1 c1 c1 c1 c1 c1 c1 c1 c1 c1 c1 c1 c1 c1 c1 c1 c1 c1 c1 c1 c1 c1 c1 c1 c1 c1 c1 c1 c1 c1 c1 c1 c1 c1 c1 c1 c1 c1 c1 c1 c1 c1 c1 c1 c1 c1 c1 c1 c1 c1 c1 c1 c1 c1 c1 c1 c1 c1 c1 c1 c1 c1 c1 c1 c1 c1 c1 c1 c1 c1 c1 c1 c1 c1 c1 c1 c1 c1 c1 c1 c1 c1 c1 c1 c1 c1 c1 c1 c1 c1 c1 c1 c1 c1 c1 c1 c1 c1 c1 c1 c1 c1 c1 c1 c1 c1 c1 c1 c1 c1 c1 c1 c1 c1 c1 c1 c1 c1 c1 c1 c1 c1 c1 c1 c1 c1 c1 c1 c1 c1 c1 c1 c1 c1 c1 c1 c1 c1 c1 c1 c1 c1 c1 c1 c1 c1 c1 c1 c1 c1 c1 c1 c1 c1 c1 c1 c1 c1 c1 c1 c1 c1 c1 c1 c1 c1 c1 c1 w2 c1 w9 0 -160 2167 2460 L
w0 c15 c15 c1 [10 80] 0 6040 2167 2460 D
w9 c1 0 -382 46 54 30 19 1634 2093 3 S
15 0 0 -346 31 37 30 18 0 -18 1634 2093 5 S
-137 -182 -31 -55 -15 -36 0 -36 15 -37 15 -18 31 -18 61 0 30 18 16 18
15 37 0 18 1923 2075 12 S
-137 -182 -31 -55 -15 -36 0 -36 15 -37 31 -18 61 0 30 18 16 37 0 18 15 0
1923 2075 11 S
0 -19 198 0 1923 1803 2 S
213 0 1908 1784 L
-61 0 -46 18 -15 36 0 37 15 36 15 18 31 18 61 19 30 18 16 18 15 36 0 55
-15 36 -46 18 -61 0 -46 -18 -15 -36 0 -55 15 -36 15 -18 31 -18 61 -19
30 -18 16 -18 15 -36 0 -37 -15 -36 -46 -18 2304 2166 28 S
-15 36 0 37 15 36 31 18 61 18 30 19 31 36 15 36 0 55 -15 36 -15 18 -46 19
-61 0 -46 -19 -15 -18 -15 -36 0 -55 15 -36 30 -36 31 -19 61 -18 30 -18
16 -36 0 -37 -16 -36 2274 2148 25 S
-46 -18 -61 0 -46 18 2411 2130 3 S
46 -36 2243 1839 L
46 36 2380 1803 L
0 -382 2570 2166 L
0 -345 2586 2148 L
183 0 2570 2166 L
0 18 167 0 2586 2148 2 S
0 -18 91 0 2586 1984 2 S
91 0 2586 1966 L
0 -19 167 0 2586 1803 2 S
183 0 2570 1784 L
0 -160 4833 2460 L
w0 c15 c15 c1 [10 80] 0 6040 4833 2460 D
w9 c1 0 -382 46 54 31 19 4300 2093 3 S
16 0 0 -346 30 37 31 18 0 -18 4300 2093 5 S
-107 -163 168 0 4605 2166 2 S
153 0 0 -18 4605 2166 2 S
-107 -163 4758 2166 L
15 0 -15 36 -15 18 -46 19 -46 0 -45 -19 -31 -36 -15 -54 0 -19 15 -54 31 -37
45 -18 31 0 4666 2021 13 S
31 -54 45 -19 46 0 4651 2003 3 S
-46 -36 -15 -54 0 -19 15 -54 46 -37 4712 2003 5 S
-15 36 -46 18 -46 0 -45 -18 -31 -54 4773 1875 5 S
-46 36 4636 1803 L
-31 0 -45 18 -31 55 -15 90 0 55 15 91 31 54 45 19 31 0 46 -19 30 -54 15 -91
0 -55 -15 -90 -30 -55 -46 -18 4986 2166 16 S
31 -54 15 -91 0 -55 -15 -90 -31 -55 4956 2148 5 S
45 18 31 0 46 -18 4940 1821 3 S
-31 55 -15 90 0 55 15 91 31 54 5047 1803 5 S
-46 -18 -31 0 -45 18 5062 2130 3 S
0 -382 5237 2166 L
0 -345 5252 2148 L
183 0 5237 2166 L
0 18 168 0 5252 2148 2 S
0 -18 92 0 5252 1984 2 S
92 0 5252 1966 L
0 -19 168 0 5252 1803 2 S
183 0 5237 1784 L
0 -160 7500 2460 L
w0 c15 c15 c1 [10 80] 0 6040 7500 2460 D
w9 c1 0 -382 45 54 31 19 6967 2093 3 S
15 0 0 -346 30 37 31 18 0 -18 6967 2093 5 S
-106 -163 167 0 7272 2166 2 S
152 0 0 -18 7272 2166 2 S
-106 -163 7424 2166 L
16 0 -16 36 -15 18 -46 19 -45 0 -46 -19 -30 -36 -16 -54 0 -19 16 -54 30 -37
46 -18 30 0 7333 2021 13 S
30 -54 46 -19 45 0 7318 2003 3 S
-46 -36 -15 -54 0 -19 15 -54 46 -37 7378 2003 5 S
-15 36 -46 18 -45 0 -46 -18 -30 -54 7439 1875 5 S
-45 36 7302 1803 L
-137 -182 -30 -55 -15 -36 0 -36 15 -37 15 -18 31 -18 60 0 31 18 15 18
15 37 0 18 7577 2075 12 S
-137 -182 -31 -55 -15 -36 0 -36 15 -37 31 -18 60 0 31 18 15 37 0 18 15 0
7577 2075 11 S
0 -19 198 0 7577 1803 2 S
214 0 7561 1784 L
0 -382 7904 2166 L
0 -345 7919 2148 L
183 0 7904 2166 L
0 18 168 0 7919 2148 2 S
0 -18 91 0 7919 1984 2 S
91 0 7919 1966 L
0 -19 168 0 7919 1803 2 S
183 0 7904 1784 L
c1 -160 0 1500 3740 L
w0 c15 c15 [10 80] 5950 0 1500 3740 D
w9 c1 c1 -106 -163 167 0 272 3926 2 S
152 0 0 -18 272 3926 2 S
-106 -163 424 3926 L
16 0 -16 36 -15 18 -46 19 -45 0 -46 -19 -30 -36 -16 -54 0 -19 16 -54 30 -37
46 -18 30 0 333 3781 13 S
30 -54 46 -19 45 0 318 3763 3 S
-46 -36 -15 -54 0 -19 15 -54 46 -37 378 3763 5 S
-15 36 -46 18 -45 0 -46 -18 -30 -54 439 3635 5 S
-45 36 302 3563 L
0 -382 45 54 31 19 607 3853 3 S
15 0 0 -346 30 37 31 18 0 -18 607 3853 5 S
0 -382 897 3926 L
-16 0 0 -328 913 3872 2 S
198 -328 913 3872 L
198 -327 897 3926 L
0 -327 1095 3926 L
0 -382 16 0 1095 3926 2 S
-160 0 1500 5340 L
w0 c15 c15 [10 80] 5950 0 1500 5340 D
w9 c1 c1 -106 -163 167 0 272 5526 2 S
152 0 0 -18 272 5526 2 S
-106 -163 424 5526 L
16 0 -16 36 -15 18 -46 19 -45 0 -46 -19 -30 -36 -16 -54 0 -19 16 -54 30 -37
46 -18 30 0 333 5381 13 S
30 -54 46 -19 45 0 318 5363 3 S
-46 -36 -15 -54 0 -19 15 -54 46 -37 378 5363 5 S
-15 36 -46 18 -45 0 -46 -18 -30 -54 439 5235 5 S
-45 36 302 5163 L
-137 -182 -30 -55 -15 -36 0 -36 15 -37 15 -18 31 -18 60 0 31 18 15 18
15 37 0 18 577 5435 12 S
-137 -182 -31 -55 -15 -36 0 -36 15 -37 31 -18 60 0 31 18 15 37 0 18 15 0
577 5435 11 S
0 -19 198 0 577 5163 2 S
214 0 561 5144 L
0 -382 897 5526 L
-16 0 0 -328 913 5472 2 S
198 -328 913 5472 L
198 -327 897 5526 L
0 -327 1095 5526 L
0 -382 16 0 1095 5526 2 S
-160 0 1500 6940 L
w0 c15 c15 [10 80] 5950 0 1500 6940 D
w9 c1 c1 -106 -163 167 0 272 7126 2 S
152 0 0 -18 272 7126 2 S
-106 -163 424 7126 L
16 0 -16 36 -15 18 -46 19 -45 0 -46 -19 -30 -36 -16 -54 0 -19 16 -54 30 -37
46 -18 30 0 333 6981 13 S
30 -54 46 -19 45 0 318 6963 3 S
-46 -36 -15 -54 0 -19 15 -54 46 -37 378 6963 5 S
-15 36 -46 18 -45 0 -46 -18 -30 -54 439 6835 5 S
-45 36 302 6763 L
-106 -163 167 0 592 7126 2 S
152 0 0 -18 592 7126 2 S
-106 -163 744 7126 L
16 0 -16 36 -15 18 -46 19 -45 0 -46 -19 -30 -36 -16 -54 0 -19 16 -54 30 -37
46 -18 30 0 653 6981 13 S
30 -54 46 -19 45 0 638 6963 3 S
-46 -36 -15 -54 0 -19 15 -54 46 -37 698 6963 5 S
-15 36 -46 18 -45 0 -46 -18 -30 -54 759 6835 5 S
-45 36 622 6763 L
0 -382 897 7126 L
-16 0 0 -328 913 7072 2 S
198 -328 913 7072 L
198 -327 897 7126 L
0 -327 1095 7126 L
0 -382 16 0 1095 7126 2 S
-160 0 1500 8540 L
w0 c15 c15 [10 80] 5950 0 1500 8540 D
w9 c1 c1 -106 -163 167 0 272 8726 2 S
152 0 0 -18 272 8726 2 S
-106 -163 424 8726 L
16 0 -16 36 -15 18 -46 19 -45 0 -46 -19 -30 -36 -16 -54 0 -19 16 -54 30 -37
46 -18 30 0 333 8581 13 S
30 -54 46 -19 45 0 318 8563 3 S
-46 -36 -15 -54 0 -19 15 -54 46 -37 378 8563 5 S
-15 36 -46 18 -45 0 -46 -18 -30 -54 439 8435 5 S
-45 36 302 8363 L
15 0 0 -328 714 8672 2 S
0 -382 729 8726 L
229 0 -168 -291 729 8726 2 S
-137 -237 714 8672 L
0 -18 213 0 577 8453 2 S
0 -382 897 8726 L
-16 0 0 -328 913 8672 2 S
198 -328 913 8672 L
198 -327 897 8726 L
0 -327 1095 8726 L
0 -382 16 0 1095 8726 2 S
c1 w5 0 -6080 -6000 0 0 6080 6000 0 1500 2460 4 S
c0 g0 -800 -100 0 200 800 -100 2250 1130 3 F
w4 c1 c1 800 -100 2250 1130 L
c1 0 200 3050 1030 L
c1 -800 -100 3050 1230 L
c1 -51 -60 -12 -17 -5 -12 0 -12 5 -12 6 -6 12 -6 22 0 12 6 6 6 5 12 0 6
2896 946 12 S
-51 -60 -12 -17 -6 -12 0 -12 6 -12 12 -6 22 0 12 6 6 12 0 6 5 0
2896 946 11 S
0 -6 74 0 2896 857 2 S
80 0 2890 851 L
-12 0 -17 6 -11 18 -6 30 0 17 6 30 11 18 17 6 12 0 17 -6 11 -18 6 -30
0 -17 -6 -30 -11 -18 -17 -6 3044 976 16 S
12 -18 5 -30 0 -17 -5 -30 -12 -18 3033 970 5 S
17 6 12 0 17 -6 3027 863 3 S
-12 18 -5 30 0 17 5 30 12 18 3067 857 5 S
-17 -6 -12 0 -17 6 3073 964 3 S
-12 0 -17 6 -11 18 -6 30 0 17 6 30 11 18 17 6 12 0 17 -6 11 -18 6 -30
0 -17 -6 -30 -11 -18 -17 -6 3164 976 16 S
12 -18 5 -30 0 -17 -5 -30 -12 -18 3153 970 5 S
17 6 12 0 17 -6 3147 863 3 S
-12 18 -5 30 0 17 5 30 12 18 3187 857 5 S
-17 -6 -12 0 -17 6 3193 964 3 S
c81 g81 3050 1030 800 200 B
c1 c1 0 -200 -800 0 0 200 800 0 3050 1030 4 S
c1 -40 -54 63 0 3701 976 2 S
58 0 0 -6 3701 976 2 S
-40 -54 3759 976 L
6 0 -6 12 -5 6 -18 6 -17 0 -17 -6 -11 -12 -6 -18 0 -6 6 -18 11 -11 17 -6
12 0 3724 928 13 S
11 -17 17 -6 17 0 3719 922 3 S
-18 -12 -5 -18 0 -6 5 -18 18 -11 3741 922 5 S
-5 12 -18 6 -17 0 -17 -6 -11 -18 3764 881 5 S
-17 12 3713 857 L
-12 0 -17 6 -11 18 -6 30 0 17 6 30 11 18 17 6 12 0 17 -6 11 -18 6 -30
0 -17 -6 -30 -11 -18 -17 -6 3844 976 16 S
12 -18 5 -30 0 -17 -5 -30 -12 -18 3833 970 5 S
17 6 12 0 17 -6 3827 863 3 S
-12 18 -5 30 0 17 5 30 12 18 3867 857 5 S
-17 -6 -12 0 -17 6 3873 964 3 S
-12 0 -17 6 -11 18 -6 30 0 17 6 30 11 18 17 6 12 0 17 -6 11 -18 6 -30
0 -17 -6 -30 -11 -18 -17 -6 3964 976 16 S
12 -18 5 -30 0 -17 -5 -30 -12 -18 3953 970 5 S
17 6 12 0 17 -6 3947 863 3 S
-12 18 -5 30 0 17 5 30 12 18 3987 857 5 S
-17 -6 -12 0 -17 6 3993 964 3 S
c85 g85 3850 1030 800 200 B
c1 c1 0 -200 -800 0 0 200 800 0 3850 1030 4 S
c1 6 0 0 -107 4547 958 2 S
0 -125 4553 976 L
86 0 -63 -95 4553 976 2 S
-51 -77 4547 958 L
0 -6 80 0 4496 887 2 S
-12 0 -17 6 -11 18 -6 30 0 17 6 30 11 18 17 6 12 0 17 -6 11 -18 6 -30
0 -17 -6 -30 -11 -18 -17 -6 4644 976 16 S
12 -18 5 -30 0 -17 -5 -30 -12 -18 4633 970 5 S
17 6 12 0 17 -6 4627 863 3 S
-12 18 -5 30 0 17 5 30 12 18 4667 857 5 S
-17 -6 -12 0 -17 6 4673 964 3 S
-12 0 -17 6 -11 18 -6 30 0 17 6 30 11 18 17 6 12 0 17 -6 11 -18 6 -30
0 -17 -6 -30 -11 -18 -17 -6 4764 976 16 S
12 -18 5 -30 0 -17 -5 -30 -12 -18 4753 970 5 S
17 6 12 0 17 -6 4747 863 3 S
-12 18 -5 30 0 17 5 30 12 18 4787 857 5 S
-17 -6 -12 0 -17 6 4793 964 3 S
c87 g87 4650 1030 800 200 B
c1 c1 0 -200 -800 0 0 200 800 0 4650 1030 4 S
c1 -5 -54 5301 976 L
-6 -42 5307 970 L
0 -6 58 0 5301 976 2 S
52 0 5307 970 L
6 0 -6 12 -5 6 -18 6 -17 0 -17 -6 -11 -12 -6 -18 0 -12 6 -17 11 -12 17 -6
17 0 18 6 5301 928 14 S
11 -17 17 -6 23 0 12 6 5 0 5296 922 5 S
-18 -12 -5 -18 0 -12 5 -17 18 -12 5341 928 5 S
-5 12 -18 6 -17 0 -17 -6 -11 -18 5364 881 5 S
-17 12 5313 857 L
-12 0 -17 6 -11 18 -6 30 0 17 6 30 11 18 17 6 12 0 17 -6 11 -18 6 -30
0 -17 -6 -30 -11 -18 -17 -6 5444 976 16 S
12 -18 5 -30 0 -17 -5 -30 -12 -18 5433 970 5 S
17 6 12 0 17 -6 5427 863 3 S
-12 18 -5 30 0 17 5 30 12 18 5467 857 5 S
-17 -6 -12 0 -17 6 5473 964 3 S
-12 0 -17 6 -11 18 -6 30 0 17 6 30 11 18 17 6 12 0 17 -6 11 -18 6 -30
0 -17 -6 -30 -11 -18 -17 -6 5564 976 16 S
12 -18 5 -30 0 -17 -5 -30 -12 -18 5553 970 5 S
17 6 12 0 17 -6 5547 863 3 S
-12 18 -5 30 0 17 5 30 12 18 5587 857 5 S
-17 -6 -12 0 -17 6 5593 964 3 S
c1 g1 800 -100 0 200 -800 -100 6250 1130 3 F
c1 c1 -800 -100 6250 1130 L
c1 0 200 5450 1030 L
c1 800 -100 5450 1230 L
w9 c1 0 -191 29 27 19 9 2187 9257 3 S
10 0 0 -173 19 18 19 9 0 -9 2187 9257 5 S
-86 -91 -19 -27 -9 -19 0 -18 9 -18 10 -9 19 -9 38 0 19 9 10 9 9 18 0 9
2368 9248 12 S
-86 -91 -19 -27 -10 -19 0 -18 10 -18 19 -9 38 0 19 9 10 18 0 9 9 0
2368 9248 11 S
0 -9 124 0 2368 9111 2 S
134 0 2358 9102 L
10 -18 9 0 -9 18 -29 9 -19 0 -29 -9 -19 -28 -9 -45 0 -45 9 -37 19 -18
29 -9 10 0 28 9 19 18 10 27 0 10 -10 27 -19 18 -28 9 -10 0 -29 -9 -19 -18
2673 9202 23 S
-28 -18 -10 -27 2673 9229 2 S
-19 27 -28 9 -10 0 -29 -9 -19 -27 2673 9220 5 S
29 18 9 27 0 10 -9 27 -29 18 2606 9184 5 S
19 -27 29 -9 10 0 28 9 19 27 2568 9248 5 S
-19 -28 -10 -45 0 -45 10 -37 28 -18 2635 9284 5 S
-29 9 -19 0 -29 -9 2654 9120 3 S
-10 0 -9 9 0 9 9 9 10 0 10 -9 0 -9 -10 -9 2780 9129 8 S
-10 0 0 9 10 0 0 -9 2780 9120 4 S
-9 -82 2887 9293 L
-10 -64 2897 9284 L
0 -9 96 0 2887 9293 2 S
86 0 2897 9284 L
10 0 -10 19 -9 9 -29 9 -29 0 -28 -9 -19 -18 -10 -28 0 -18 10 -27 19 -18
28 -9 29 0 29 9 2887 9220 14 S
19 -27 28 -9 39 0 19 9 9 0 2878 9211 5 S
-29 -18 -9 -28 0 -18 9 -27 29 -18 2954 9220 5 S
-9 19 -29 9 -29 0 -28 -9 -19 -28 2992 9148 5 S
-28 18 2906 9111 L
0 -191 3082 9293 L
0 -173 3092 9284 L
115 0 3082 9293 L
0 9 105 0 3092 9284 2 S
0 -9 57 0 3092 9202 2 S
57 0 3092 9193 L
0 -9 105 0 3092 9111 2 S
115 0 3082 9102 L
0 -9 162 0 3454 9193 2 S
162 0 0 -9 3454 9193 2 S
0 -191 29 27 19 9 3897 9257 3 S
10 0 0 -173 19 18 19 9 0 -9 3897 9257 5 S
-67 -82 105 0 4087 9293 2 S
96 0 0 -9 4087 9293 2 S
-67 -82 4183 9293 L
10 0 -10 19 -9 9 -29 9 -29 0 -28 -9 -19 -18 -10 -28 0 -9 10 -27 19 -18
28 -9 20 0 4125 9220 13 S
19 -27 28 -9 29 0 4116 9211 3 S
-29 -18 -9 -28 0 -9 9 -27 29 -18 4154 9211 5 S
-9 19 -29 9 -29 0 -28 -9 -19 -28 4192 9148 5 S
-28 18 4106 9111 L
0 -191 29 27 19 9 4297 9257 3 S
10 0 0 -173 19 18 19 9 0 -9 4297 9257 5 S
-10 0 -9 9 0 9 9 9 10 0 10 -9 0 -9 -10 -9 4490 9129 8 S
-10 0 0 9 10 0 0 -9 4490 9120 4 S
-38 0 -29 9 -9 18 0 18 9 19 10 9 19 9 38 9 19 9 10 9 9 18 0 27 -9 19 -29 9
-38 0 -29 -9 -9 -19 0 -27 9 -18 10 -9 19 -9 38 -9 19 -9 10 -9 9 -19 0 -18
-9 -18 -29 -9 4626 9293 28 S
-10 18 0 18 10 19 19 9 38 9 19 9 19 18 10 18 0 27 -10 19 -9 9 -29 9 -38 0
-29 -9 -9 -9 -10 -19 0 -27 10 -18 19 -18 19 -9 38 -9 19 -9 10 -19 0 -18
-10 -18 4607 9284 25 S
-29 -9 -38 0 -29 9 4693 9275 3 S
28 -18 4588 9129 L
28 18 4674 9111 L
0 -191 4792 9293 L
0 -173 4802 9284 L
115 0 4792 9293 L
0 9 105 0 4802 9284 2 S
0 -9 57 0 4802 9202 2 S
57 0 4802 9193 L
0 -9 105 0 4802 9111 2 S
115 0 4792 9102 L
-67 -82 105 0 5167 9293 2 S
96 0 0 -9 5167 9293 2 S
-67 -82 5263 9293 L
10 0 -10 19 -9 9 -29 9 -29 0 -28 -9 -19 -18 -10 -28 0 -9 10 -27 19 -18
28 -9 20 0 5205 9220 13 S
19 -27 28 -9 29 0 5196 9211 3 S
-29 -18 -9 -28 0 -9 9 -27 29 -18 5234 9211 5 S
-9 19 -29 9 -29 0 -28 -9 -19 -28 5272 9148 5 S
-28 18 5186 9111 L
0 -191 29 27 19 9 5377 9257 3 S
10 0 0 -173 19 18 19 9 0 -9 5377 9257 5 S
0 -191 5558 9293 L
-10 0 0 -164 5568 9266 2 S
124 -164 5568 9266 L
124 -164 5558 9293 L
0 -164 5682 9293 L
0 -191 10 0 5682 9293 2 S
0 -9 162 0 5964 9193 2 S
162 0 0 -9 5964 9193 2 S
-67 -82 105 0 6397 9293 2 S
96 0 0 -9 6397 9293 2 S
-67 -82 6493 9293 L
10 0 -10 19 -9 9 -29 9 -29 0 -28 -9 -19 -18 -10 -28 0 -9 10 -27 19 -18
28 -9 20 0 6435 9220 13 S
19 -27 28 -9 29 0 6426 9211 3 S
-29 -18 -9 -28 0 -9 9 -27 29 -18 6464 9211 5 S
-9 19 -29 9 -29 0 -28 -9 -19 -28 6502 9148 5 S
-28 18 6416 9111 L
9 0 0 -164 6674 9266 2 S
0 -191 6683 9293 L
143 0 -105 -145 6683 9293 2 S
-86 -118 6674 9266 L
0 -9 133 0 6588 9157 2 S
-10 0 -9 9 0 9 9 9 10 0 10 -9 0 -9 -10 -9 6800 9129 8 S
-10 0 0 9 10 0 0 -9 6800 9120 4 S
0 -191 29 27 19 9 6917 9257 3 S
10 0 0 -173 19 18 19 9 0 -9 6917 9257 5 S
0 -191 7098 9293 L
-10 0 0 -164 7108 9266 2 S
124 -164 7108 9266 L
124 -164 7098 9293 L
0 -164 7222 9293 L
0 -191 10 0 7222 9293 2 S
c1 0 -191 29 27 19 9 2697 9607 3 S
10 0 0 -173 19 18 19 9 0 -9 2697 9607 5 S
0 -191 29 27 19 9 2897 9607 3 S
10 0 0 -173 19 18 19 9 0 -9 2897 9607 5 S
-10 0 -9 28 -19 9 -20 0 -19 -9 -9 -28 0 -145 3158 9643 7 S
-10 28 -9 9 -19 9 -20 0 -19 -9 -9 -9 -10 -28 0 -145 10 0 3158 9643 9 S
0 136 10 28 19 18 28 9 20 0 28 -9 19 -18 10 -28 0 -136 3248 9643 9 S
10 0 0 136 9 28 10 9 28 9 20 0 28 -9 10 -9 9 -28 0 -136 10 0 3248 9643 11 S
0 -191 3462 9643 L
0 -9 105 0 0 -182 10 0 3462 9643 4 S
115 0 3462 9452 L
-86 -91 -19 -27 -9 -19 0 -18 9 -18 10 -9 19 -9 38 0 19 9 10 9 9 18 0 9
3638 9598 12 S
-86 -91 -19 -27 -10 -19 0 -18 10 -18 19 -9 38 0 19 9 10 18 0 9 9 0
3638 9598 11 S
0 -9 124 0 3638 9461 2 S
134 0 3628 9452 L
-20 0 -28 9 -19 27 -10 46 0 27 10 45 19 28 28 9 20 0 28 -9 19 -28 10 -45
0 -27 -10 -46 -19 -27 -28 -9 3885 9643 16 S
19 -28 9 -45 0 -27 -9 -46 -19 -27 3866 9634 5 S
28 9 20 0 28 -9 3857 9470 3 S
-19 27 -9 46 0 27 9 45 19 28 3924 9461 5 S
-28 -9 -20 0 -28 9 3933 9625 3 S
0 -191 29 27 19 9 4057 9607 3 S
10 0 0 -173 19 18 19 9 0 -9 4057 9607 5 S
-86 -91 -19 -27 -9 -19 0 -18 9 -18 10 -9 19 -9 38 0 19 9 10 9 9 18 0 9
4238 9598 12 S
-86 -91 -19 -27 -10 -19 0 -18 10 -18 19 -9 38 0 19 9 10 18 0 9 9 0
4238 9598 11 S
0 -9 124 0 4238 9461 2 S
134 0 4228 9452 L
0 -9 162 0 4624 9543 2 S
162 0 0 -9 4624 9543 2 S
0 -191 29 27 19 9 5067 9607 3 S
10 0 0 -173 19 18 19 9 0 -9 5067 9607 5 S
-9 -82 5257 9643 L
-10 -64 5267 9634 L
0 -9 96 0 5257 9643 2 S
86 0 5267 9634 L
10 0 -10 19 -9 9 -29 9 -29 0 -28 -9 -19 -18 -10 -28 0 -18 10 -27 19 -18
28 -9 29 0 29 9 5257 9570 14 S
19 -27 28 -9 39 0 19 9 9 0 5248 9561 5 S
-29 -18 -9 -28 0 -18 9 -27 29 -18 5324 9570 5 S
-9 19 -29 9 -29 0 -28 -9 -19 -28 5362 9498 5 S
-28 18 5276 9461 L
-10 0 -9 28 -19 9 -20 0 -19 -9 -9 -28 0 -145 5528 9643 7 S
-10 28 -9 9 -19 9 -20 0 -19 -9 -9 -9 -10 -28 0 -145 10 0 5528 9643 9 S
0 136 10 28 19 18 28 9 20 0 28 -9 19 -18 10 -28 0 -136 5618 9643 9 S
10 0 0 136 9 28 10 9 28 9 20 0 28 -9 10 -9 9 -28 0 -136 10 0 5618 9643 11 S
0 -191 5832 9643 L
0 -9 105 0 0 -182 10 0 5832 9643 4 S
115 0 5832 9452 L
-86 -91 -19 -27 -9 -19 0 -18 9 -18 10 -9 19 -9 38 0 19 9 10 9 9 18 0 9
6008 9598 12 S
-86 -91 -19 -27 -10 -19 0 -18 10 -18 19 -9 38 0 19 9 10 18 0 9 9 0
6008 9598 11 S
0 -9 124 0 6008 9461 2 S
134 0 5998 9452 L
-20 0 -28 9 -19 27 -10 46 0 27 10 45 19 28 28 9 20 0 28 -9 19 -28 10 -45
0 -27 -10 -46 -19 -27 -28 -9 6255 9643 16 S
19 -28 9 -45 0 -27 -9 -46 -19 -27 6236 9634 5 S
28 9 20 0 28 -9 6227 9470 3 S
-19 27 -9 46 0 27 9 45 19 28 6294 9461 5 S
-28 -9 -20 0 -28 9 6303 9625 3 S
0 -191 29 27 19 9 6427 9607 3 S
10 0 0 -173 19 18 19 9 0 -9 6427 9607 5 S
-86 -91 -19 -27 -9 -19 0 -18 9 -18 10 -9 19 -9 38 0 19 9 10 9 9 18 0 9
6608 9598 12 S
-86 -91 -19 -27 -10 -19 0 -18 10 -18 19 -9 38 0 19 9 10 18 0 9 9 0
6608 9598 11 S
0 -9 124 0 6608 9461 2 S
134 0 6598 9452 L
c1 0 -191 29 27 19 9 3617 10057 3 S
10 0 0 -173 19 18 19 9 0 -9 3617 10057 5 S
-86 -91 -19 -27 -9 -19 0 -18 9 -18 10 -9 19 -9 38 0 19 9 10 9 9 18 0 9
3798 10048 12 S
-86 -91 -19 -27 -10 -19 0 -18 10 -18 19 -9 38 0 19 9 10 18 0 9 9 0
3798 10048 11 S
0 -9 124 0 3798 9911 2 S
134 0 3788 9902 L
10 -18 9 0 -9 18 -29 9 -19 0 -29 -9 -19 -28 -9 -45 0 -45 9 -37 19 -18
29 -9 10 0 28 9 19 18 10 27 0 10 -10 27 -19 18 -28 9 -10 0 -29 -9 -19 -18
4103 10002 23 S
-28 -18 -10 -27 4103 10029 2 S
-19 27 -28 9 -10 0 -29 -9 -19 -27 4103 10020 5 S
29 18 9 27 0 10 -9 27 -29 18 4036 9984 5 S
19 -27 29 -9 10 0 28 9 19 27 3998 10048 5 S
-19 -28 -10 -45 0 -45 10 -37 28 -18 4065 10084 5 S
-29 9 -19 0 -29 -9 4084 9920 3 S
-10 0 -9 9 0 9 9 9 10 0 10 -9 0 -9 -10 -9 4210 9929 8 S
-10 0 0 9 10 0 0 -9 4210 9920 4 S
-96 -191 134 0 4298 10093 2 S
124 0 0 -9 4298 10093 2 S
9 0 -95 -191 4422 10093 2 S
-96 -191 134 0 4498 10093 2 S
124 0 0 -9 4498 10093 2 S
9 0 -95 -191 4622 10093 2 S
-9 -82 4717 10093 L
-10 -64 4727 10084 L
0 -9 96 0 4717 10093 2 S
86 0 4727 10084 L
10 0 -10 19 -9 9 -29 9 -29 0 -28 -9 -19 -18 -10 -28 0 -18 10 -27 19 -18
28 -9 29 0 29 9 4717 10020 14 S
19 -27 28 -9 39 0 19 9 9 0 4708 10011 5 S
-29 -18 -9 -28 0 -18 9 -27 29 -18 4784 10020 5 S
-9 19 -29 9 -29 0 -28 -9 -19 -28 4822 9948 5 S
-28 18 4736 9911 L
10 0 0 -127 5095 10029 2 S
0 -127 10 0 5095 10029 2 S
0 -91 10 -27 19 -9 29 0 19 9 28 27 5105 9993 6 S
10 0 0 -91 10 -18 19 -9 19 0 19 9 28 18 5105 9993 7 S
0 -91 9 -27 19 -9 29 0 19 9 28 27 5210 9993 6 S
9 0 0 -91 10 -18 19 -9 19 0 19 9 28 18 5210 9993 7 S
10 0 0 -127 5405 10029 2 S
0 -127 10 0 5405 10029 2 S
0 -91 10 -27 19 -9 29 0 19 9 28 27 5415 9993 6 S
10 0 0 -91 10 -18 19 -9 19 0 19 9 28 18 5415 9993 7 S
0 -91 9 -27 19 -9 29 0 19 9 28 27 5520 9993 6 S
9 0 0 -91 10 -18 19 -9 19 0 19 9 28 18 5520 9993 7 S
c1 0 -191 2858 10493 L
0 -173 2867 10484 L
-29 -9 -9 -9 -10 -18 0 -28 10 -18 9 -9 29 -9 76 0 2858 10493 8 S
-29 -9 -9 -18 0 -28 9 -18 29 -9 67 0 2867 10484 6 S
-76 0 -29 -9 -9 -9 -10 -19 0 -27 10 -18 9 -9 29 -9 67 0 2867 10402 9 S
-67 0 -29 -9 -9 -19 0 -27 9 -18 29 -9 67 0 2867 10393 7 S
0 -191 29 27 19 9 3077 10457 3 S
10 0 0 -173 19 18 19 9 0 -9 3077 10457 5 S
-86 -91 -19 -27 -9 -19 0 -18 9 -18 10 -9 19 -9 38 0 19 9 10 9 9 18 0 9
3258 10448 12 S
-86 -91 -19 -27 -10 -19 0 -18 10 -18 19 -9 38 0 19 9 10 18 0 9 9 0
3258 10448 11 S
0 -9 124 0 3258 10311 2 S
134 0 3248 10302 L
-20 0 -28 9 -19 27 -10 46 0 27 10 45 19 28 28 9 20 0 28 -9 19 -28 10 -45
0 -27 -10 -46 -19 -27 -28 -9 3505 10493 16 S
19 -28 9 -45 0 -27 -9 -46 -19 -27 3486 10484 5 S
28 9 20 0 28 -9 3477 10320 3 S
-19 27 -9 46 0 27 9 45 19 28 3544 10311 5 S
-28 -9 -20 0 -28 9 3553 10475 3 S
-96 -191 134 0 3648 10493 2 S
124 0 0 -9 3648 10493 2 S
9 0 -95 -191 3772 10493 2 S
0 -191 29 27 19 9 3877 10457 3 S
10 0 0 -173 19 18 19 9 0 -9 3877 10457 5 S
-20 0 -28 9 -19 27 -10 46 0 27 10 45 19 28 28 9 20 0 28 -9 19 -28 10 -45
0 -27 -10 -46 -19 -27 -28 -9 4105 10493 16 S
19 -28 9 -45 0 -27 -9 -46 -19 -27 4086 10484 5 S
28 9 20 0 28 -9 4077 10320 3 S
-19 27 -9 46 0 27 9 45 19 28 4144 10311 5 S
-28 -9 -20 0 -28 9 4153 10475 3 S
191 0 4210 10239 L
0 -191 4458 10493 L
-9 0 0 -182 4467 10484 2 S
-67 0 -29 -9 -9 -9 -10 -18 0 -28 10 -18 9 -9 29 -9 76 0 4458 10493 9 S
-67 0 -29 -9 -9 -18 0 -28 9 -18 29 -9 67 0 4467 10484 7 S
10 0 57 -91 4515 10393 2 S
57 -91 4525 10393 L
0 -191 29 27 19 9 4677 10457 3 S
10 0 0 -173 19 18 19 9 0 -9 4677 10457 5 S
-9 -82 4867 10493 L
-10 -64 4877 10484 L
0 -9 96 0 4867 10493 2 S
86 0 4877 10484 L
10 0 -10 19 -9 9 -29 9 -29 0 -28 -9 -19 -18 -10 -28 0 -18 10 -27 19 -18
28 -9 29 0 29 9 4867 10420 14 S
19 -27 28 -9 39 0 19 9 9 0 4858 10411 5 S
-29 -18 -9 -28 0 -18 9 -27 29 -18 4934 10420 5 S
-9 19 -29 9 -29 0 -28 -9 -19 -28 4972 10348 5 S
-28 18 4886 10311 L
-10 0 -9 28 -19 9 -20 0 -19 -9 -9 -28 0 -145 5138 10493 7 S
-10 28 -9 9 -19 9 -20 0 -19 -9 -9 -9 -10 -28 0 -145 10 0 5138 10493 9 S
191 0 5180 10239 L
0 -191 29 27 19 9 5447 10457 3 S
10 0 0 -173 19 18 19 9 0 -9 5447 10457 5 S
-86 -91 -19 -27 -9 -19 0 -18 9 -18 10 -9 19 -9 38 0 19 9 10 9 9 18 0 9
5628 10448 12 S
-86 -91 -19 -27 -10 -19 0 -18 10 -18 19 -9 38 0 19 9 10 18 0 9 9 0
5628 10448 11 S
0 -9 124 0 5628 10311 2 S
134 0 5618 10302 L
-20 0 -28 9 -19 27 -10 46 0 27 10 45 19 28 28 9 20 0 28 -9 19 -28 10 -45
0 -27 -10 -46 -19 -27 -28 -9 5875 10493 16 S
19 -28 9 -45 0 -27 -9 -46 -19 -27 5856 10484 5 S
28 9 20 0 28 -9 5847 10320 3 S
-19 27 -9 46 0 27 9 45 19 28 5914 10311 5 S
-28 -9 -20 0 -28 9 5923 10475 3 S
-96 -191 134 0 6018 10493 2 S
124 0 0 -9 6018 10493 2 S
9 0 -95 -191 6142 10493 2 S
0 -191 29 27 19 9 6247 10457 3 S
10 0 0 -173 19 18 19 9 0 -9 6247 10457 5 S
0 -191 29 27 19 9 6447 10457 3 S
10 0 0 -173 19 18 19 9 0 -9 6447 10457 5 S
showpage
%%Trailer
%%BoundingBox: 35 90 571 744
%%EOF

