
MMMMMMMMMMMMMMMMMMMMMMMMMMMMMMMMMMMMMMMMMMMMM
/work03/am/2022.06.ECS.OBS/32.00.RADAR_PRECIP/24.02.JMA_RADAR_P1H
2022-11-07_18-35

記載された時刻(t)から1時間後(t+1)までの積算雨量を計算
している
   t    t+1   t+2   t+3
   +-----+-----+-----+
MMMMMMMMMMMMMMMMMMMMMMMMMMMMMMMMMMMMMMMMMMMMM



/work04/manda/2022.06.ECS.OBS/32.00.RADAR_PRECIP/12.00.TEST_JMA_RADAR_10m_PROC
Fri, 01 Jul 2022 01:13:55 +0900

am@p5820
/work03/am/2022.06.ECS.OBS/32.00.RADAR_PRECIP/12.00.TEST_JMA_RADAR_10m_PROC
2022-11-04_18-45
$ chmod u+x 10min_to_1hour 

am@p5820
/work03/am/2022.06.ECS.OBS/32.00.RADAR_PRECIP/12.00.TEST_JMA_RADAR_10m_PROC
2022-11-04_18-45
$ 32.RADAR.PRECIP.1HR.RUN.ALL.sh &> 32.RADAR.PRECIP.1HR.RUN.ALL.LOG


$ 42.R3H.PANEL.sh 
FIG: 42.R3H.PANEL_20220618.eps
