#	cpt file created by: makecpt -Cjet -T23/28/0.5 -Z
#COLOR_MODEL = RGB
#
23	0	0	127	23.5	0	0	229
23.5	0	0	229	24	0	77	255
24	0	77	255	24.5	0	178	255
24.5	0	178	255	25	25	255	242
25	25	255	242	25.5	128	255	191
25.5	128	255	191	26	229	255	140
26	229	255	140	26.5	255	178	89
26.5	255	178	89	27	255	77	38
27	255	77	38	27.5	229	0	0
27.5	229	0	0	28	127	0	0
B	255	255	255
F	255	0	255
N	255	255	255
