/work01/DATA/ARGO/
BD5904767_001.nc
BD5904767_002.nc
BD5904767_003.nc
BD5904767_004.nc
BD5904767_005.nc
BD5904767_006.nc
BD5904767_007.nc
BD5904767_008.nc
BD5904767_009.nc
BD5904767_010.nc
BD5904767_011.nc
BD5904767_012.nc
BD5904767_013.nc
BD5904767_014.nc
BD5904767_015.nc
BD5904767_016.nc
BD5904767_017.nc
BD5904767_018.nc
BD5904767_019.nc
BD5904767_020.nc
BD5904767_021.nc
BD5904767_022.nc
BD5904767_023.nc
BD5904767_024.nc
BD5904767_025.nc
BD5904767_026.nc
BD5904767_027.nc
BD5904767_050.nc
BD5904767_051.nc
BD5904767_052.nc
BD5904767_053.nc
BD5904767_054.nc
BD5904767_055.nc
BD5904767_056.nc
BD5904767_057.nc
BD5904767_058.nc
BD5904767_059.nc
BD5904767_060.nc
BD5904767_061.nc
BD5904767_062.nc
BD5904767_063.nc
BD5904767_064.nc
BD5904767_065.nc
BD5904767_066.nc
BD5904767_067.nc
BD5904767_068.nc
BD5904767_069.nc
BD5904767_070.nc
BD5904767_071.nc
BD5904767_072.nc
BD5904767_073.nc
BD5904767_074.nc
BD5904767_075.nc
BD5904767_076.nc
BD5904767_077.nc
BD5904767_078.nc
BD5904767_079.nc
BD5904767_080.nc
BD5904767_081.nc
BD5904767_082.nc
BD5904767_083.nc
BD5904767_084.nc
BD5904767_085.nc
BD5904767_086.nc
BD5904767_087.nc
BD5904767_088.nc
BD5904767_089.nc
BD5904767_090.nc
BD5904767_091.nc
BD5904767_092.nc
BD5904767_093.nc
BD5904767_094.nc
BD5904767_095.nc
BD5904767_096.nc
BD5904767_097.nc
BD5904767_098.nc
BD5904767_099.nc
BD5904767_100.nc
BD5904767_101.nc
BD5904767_102.nc
BD5904767_103.nc
BD5904767_104.nc
BD5904767_105.nc
BD5904767_106.nc
BD5904767_107.nc
BD5904767_108.nc
BD5904767_109.nc
BD5904767_110.nc
BD5904767_111.nc
BD5904767_112.nc
BD5904767_113.nc
BD5904767_114.nc
BD5904767_115.nc
BD5904767_116.nc
BD5904767_117.nc
BD5904767_118.nc
BD5904767_119.nc
BD5904767_120.nc
BD5904767_121.nc
BD5904767_122.nc
BD5904767_123.nc
BD5904767_124.nc
BD5904767_125.nc
BD5904767_126.nc
BD5904767_127.nc
BD5904767_128.nc
BD5904767_129.nc
BD5904767_130.nc
BD5904767_131.nc
BD5904767_132.nc
BD5904767_133.nc
BD5904767_134.nc
BD5904767_135.nc
BD5904767_136.nc
BD5904767_137.nc
BD5904767_138.nc
BD5904767_139.nc
BD5904767_140.nc
BD5904767_141.nc
BD5904767_142.nc
BD5904767_143.nc
BD5904767_144.nc
BD5904767_145.nc
