/work01/DATA/ARGO/
BD5904767_001.nc
BD5904767_002.nc
BD5904767_003.nc
BD5904767_004.nc
BD5904767_005.nc
BD5904767_006.nc
BD5904767_007.nc
BD5904767_008.nc
BD5904767_009.nc
BD5904767_010.nc
BD5904767_011.nc
BD5904767_012.nc
BD5904767_013.nc
BD5904767_014.nc
BD5904767_015.nc
BD5904767_016.nc
BD5904767_017.nc
BD5904767_018.nc
BD5904767_019.nc
BD5904767_020.nc
BD5904767_021.nc
BD5904767_022.nc
BD5904767_023.nc
BD5904767_024.nc
BD5904767_025.nc
BD5904767_026.nc
BD5904767_027.nc
