      1000
             0.28415             0.23758
             0.24372             1.54583
             0.05197             0.98516
             0.81636             0.65556
             1.46369             1.89184
             0.05131             0.05223
             0.46903             0.21635
             1.26580             0.72292
             1.28263             1.05902
             2.04608             0.80310
             1.15140             0.73740
             1.96975             1.08073
             0.54859             1.07160
             0.11419             2.64418
             0.69200             0.57510
             0.09540             1.06218
             0.38337             0.65497
             0.79846             0.26723
             0.37727             1.13358
             0.40259             1.50646
             1.18552             1.11135
             0.95766             2.30644
             1.11493             0.93533
             0.11958             0.79590
             0.22666             0.60952
             1.45039             1.15076
             0.11733             0.66707
             1.32624             1.76569
             0.21282             0.57639
             0.16182             0.12641
             1.38158             0.84510
             0.32847             0.44708
             0.58046             0.84750
             1.30553             0.77637
             0.36950             0.51719
             0.49192             1.15326
             1.03714             1.62759
             0.75845             1.12197
             1.33477             2.63133
             0.17947             0.72547
             0.47902             1.79837
             3.41521             0.92410
             0.59828             2.94901
             0.14270             0.68039
             2.14331             1.06024
             0.44877             1.15960
             0.57436             0.29879
             0.62472             1.83945
             1.11845             1.66111
             0.72733             0.72385
             1.49000             0.53611
             0.49958             0.30694
             0.85880             1.28763
             0.21021             0.39114
             0.71945             1.68149
             0.66370             2.93759
             0.84126             0.51695
             0.28771             0.26659
             0.99163             0.28710
             0.33793             0.65514
             0.10477             0.19480
             1.30964             0.75301
             0.70391             0.97235
             0.16545             0.75038
             0.18620             1.65007
             0.63732             0.43083
             0.51999             0.52560
             0.20035             0.18333
             0.57704             0.42306
             1.96224             1.53397
             0.11603             1.25716
             0.63498             1.13157
             0.56843             0.51663
             1.40658             0.49866
             0.90390             1.80416
             0.20242             1.26468
             1.19622             0.25130
             1.57194             0.93705
             0.09496             1.39100
             0.17836             0.79241
             0.63463             1.32830
             0.61080             0.66034
             0.58457             1.92363
             0.11023             0.42254
             0.14260             0.78020
             0.24014             0.34210
             0.06496             0.16501
             0.38680             0.81777
             0.70732             0.14333
             0.05120             0.56626
             1.41677             0.72353
             0.05883             0.19754
             1.23695             0.45890
             0.51216             1.06448
             0.82556             0.35362
             0.82144             0.87818
             0.64840             0.52777
             0.43534             0.68136
             0.31078             1.32370
             1.26158             1.04665
             0.62590             1.50359
             1.98675             1.47936
             0.62444             0.31501
             0.34216             0.24963
             1.98403             0.40314
             1.80564             0.60393
             0.27813             0.82107
             0.08962             0.76042
             0.25275             1.69782
             1.61544             1.08746
             0.81970             1.03783
             0.46258             0.21564
             0.00758             1.26301
             1.09641             1.44669
             1.09070             1.33467
             0.06008             1.82005
             0.89682             1.92329
             0.67042             1.12146
             0.87037             0.37083
             1.17339             1.39125
             0.38261             2.18880
             0.26630             0.30983
             0.17985             0.69032
             1.07599             0.31318
             0.50833             0.73601
             0.91646             0.82494
             1.30033             1.24314
             0.89145             0.44728
             0.18960             1.36063
             0.18826             0.54579
             1.30496             2.69946
             0.36551             0.79789
             1.24505             0.56633
             0.76319             0.65633
             0.17485             0.67800
             0.77103             0.37472
             0.13088             2.64576
             0.67597             3.14634
             0.29290             1.10210
             0.70350             1.29225
             1.11661             1.39625
             0.52218             1.36419
             0.53875             1.73417
             1.72810             0.99651
             0.16872             0.83821
             0.58502             0.13536
             0.92941             1.58907
             1.11982             1.23277
             1.10870             0.23565
             0.27524             0.83330
             2.01453             0.74241
             1.50907             0.81857
             0.57584             1.14495
             0.74628             0.71692
             0.07334             0.46043
             0.13218             1.00014
             1.28540             0.95521
             1.36741             0.75846
             0.20771             0.99056
             0.60089             0.68562
             0.17256             2.97534
             0.47548             0.98867
             0.12289             1.27205
             0.48607             0.41125
             0.16611             1.17796
             0.65151             0.57513
             1.02581             0.45595
             0.94360             0.55666
             0.68704             1.22815
             0.26852             1.40712
             1.48428             1.37896
             0.93895             0.80452
             0.68390             2.24624
             1.48751             1.66497
             1.59157             0.87655
             0.57407             0.39910
             0.31412             1.00205
             1.14044             1.22104
             1.05777             1.43888
             1.80912             0.49569
             0.32394             1.33082
             0.77664             2.09521
             0.00172             1.60210
             0.89512             0.57914
             0.09728             0.26499
             1.21030             0.94963
             1.71218             1.33188
             0.91152             2.56787
             1.02533             1.04459
             1.99736             1.29607
             0.82956             0.68832
             1.32586             0.91157
             0.87345             1.84533
             0.18923             0.05048
             0.64252             0.52777
             0.41594             1.50118
             1.44892             1.51208
             2.11167             0.54007
             0.00767             2.74486
             2.12212             1.43308
             1.27778             1.03224
             2.42250             1.81323
             1.35984             0.49601
             0.53693             0.68310
             0.56734             0.70517
             0.62335             0.17695
             0.91135             1.01513
             1.04261             0.28506
             0.25951             1.71661
             1.81809             0.58899
             0.52656             1.31972
             1.42351             0.51854
             2.71198             0.76779
             0.06788             0.30517
             0.42899             0.50306
             1.97590             1.63435
             1.19475             0.30625
             0.74477             0.46296
             0.24825             0.59646
             0.14978             0.46626
             0.50735             1.03683
             1.70754             0.36745
             0.68685             0.37154
             0.34306             0.47121
             1.16114             2.66249
             0.45226             0.87211
             0.14467             0.80989
             0.20943             0.80161
             0.82610             0.61341
             0.51427             0.59179
             1.85469             0.97977
             0.90623             1.05874
             0.69642             1.16635
             0.48547             0.42701
             0.94403             0.95988
             0.73554             1.20759
             0.89806             1.27615
             1.39946             0.57812
             1.21040             1.54667
             0.74922             0.93476
             1.70583             0.50790
             0.66241             0.68679
             0.41353             1.58762
             1.20503             1.84517
             1.82052             0.74272
             0.36426             0.77603
             1.43830             0.71212
             0.37662             1.62938
             0.27002             1.09428
             1.06620             0.38786
             2.20569             2.08034
             0.88335             0.82306
             0.62647             0.70755
             1.04750             0.33493
             1.56604             2.16048
             1.44822             0.92016
             1.43914             2.78272
             1.72683             1.64547
             0.97235             0.74640
             0.70350             1.69406
             0.47881             0.57202
             0.12910             3.48433
             1.10213             0.64809
             1.20637             0.48386
             0.49315             0.67497
             0.18978             0.97899
             0.14130             1.41546
             1.56180             1.68282
             1.32873             0.73918
             0.79621             2.08620
             0.67835             1.52952
             0.42253             0.10754
             0.70670             1.06079
             0.01398             0.42446
             1.29320             1.98493
             0.20869             0.26490
             0.87419             1.47437
             0.66466             1.49325
             0.14301             1.12620
             0.10835             0.49281
             1.25225             0.85561
             0.30229             0.70628
             0.48685             1.32415
             0.72128             0.47293
             1.75751             0.37041
             0.75502             1.11833
             0.56749             0.17217
             0.39033             0.27854
             0.10370             0.10494
             0.03002             1.52057
             0.45330             0.13257
             0.27239             0.12903
             0.34774             0.72610
             0.27080             0.22747
             0.80344             0.56141
             1.94455             0.47354
             0.21625             0.50276
             0.20870             0.63147
             1.08918             0.46176
             0.23499             0.45468
             1.43639             1.70439
             1.11781             0.42130
             1.05544             0.39737
             0.20564             0.43725
             0.23406             0.14405
             0.09140             0.50278
             0.35258             2.03309
             0.80221             1.58239
             1.24981             1.34685
             0.07753             0.73891
             0.46460             0.49746
             0.67761             2.38755
             0.01499             0.84070
             0.26742             2.40773
             1.77639             2.52855
             1.24338             0.68343
             0.05607             0.24250
             0.22636             0.27212
             1.30910             1.36206
             0.64588             1.14692
             0.96090             0.31724
             0.05346             0.13890
             0.02399             1.12031
             0.05942             0.59211
             0.23929             0.74130
             0.69820             0.48265
             0.97983             2.00877
             0.21592             0.94084
             0.79663             0.22584
             0.76067             0.73839
             0.34623             0.57401
             1.61475             1.61451
             0.22693             0.12602
             0.58056             0.74942
             0.19034             0.06417
             0.20129             1.33578
             0.89975             0.24363
             0.10718             0.97973
             0.43546             0.66983
             0.17204             0.06185
             0.91573             0.90363
             0.13891             0.04818
             0.87332             0.70408
             0.02894             0.95357
             0.10606             1.08702
             0.51151             0.32787
             1.29915             0.55498
             1.41509             1.40677
             1.40282             2.04411
             0.74055             1.82428
             0.11321             0.53215
             0.87829             0.57051
             0.00884             1.04728
             0.82448             2.18328
             1.47340             2.39565
             1.08219             3.02318
             0.02630             0.07266
             1.04141             0.66266
             0.49502             0.47598
             0.37912             1.36840
             2.00249             0.44935
             1.12577             1.11132
             0.20476             0.17689
             0.07743             0.42779
             0.31135             1.10533
             0.33674             0.42458
             0.28290             1.25058
             0.21100             0.16792
             0.62308             1.28013
             0.86517             0.84816
             1.36647             0.59529
             0.29361             1.20038
             0.58544             1.93789
             1.22224             0.74845
             0.40220             1.06226
             0.53789             1.15220
             1.09914             0.75826
             0.91941             0.47290
             0.53813             0.73863
             0.52967             0.11956
             0.97088             0.94238
             0.75084             1.03433
             0.22790             0.55476
             0.14513             0.93977
             1.76691             1.50444
             0.51302             1.33643
             0.10990             0.91973
             2.73066             0.91371
             0.60952             1.41548
             0.78515             1.47237
             0.19715             0.64578
             0.94932             0.33610
             0.13420             1.62499
             0.40905             0.48585
             1.09689             0.42769
             1.22163             1.69967
             1.11805             2.27885
             1.32691             1.03027
             1.37059             1.62934
             1.95109             1.40898
             2.51908             2.04213
             0.07957             0.62956
             0.37950             0.93871
             0.18514             0.26351
             1.66273             0.59495
             1.22306             0.45346
             0.29600             0.42030
             1.20097             0.83578
             0.67132             0.32784
             0.13104             0.03890
             0.30496             0.85090
             0.13993             0.15080
             0.00531             0.67021
             1.65110             0.38060
             1.27118             0.50796
             0.68356             0.97704
             2.21408             0.75313
             0.79961             0.29625
             0.47467             0.28261
             1.91536             0.41041
             0.83769             0.46959
             0.18085             1.84396
             0.34558             1.31373
             0.38816             1.09602
             1.26059             1.62645
             0.86471             0.61844
             0.83285             0.28979
             0.56114             0.17009
             0.69441             1.29639
             0.32205             1.74074
             1.36560             1.21600
             1.34426             0.69277
             0.05731             0.93111
             1.00786             0.75650
             0.24797             0.09750
             0.28414             0.91693
             1.26183             0.85846
             0.29511             0.75226
             0.79249             0.66534
             0.48672             0.92909
             2.01544             1.22057
             2.01823             2.08282
             0.67922             1.08764
             0.78742             0.89718
             0.18699             0.75891
             0.88310             0.18384
             0.02575             1.03624
             1.65041             1.84891
             0.79706             0.51318
             0.61705             0.18822
             1.09869             0.53597
             0.01792             0.54918
             0.14061             1.54988
             0.31542             1.24135
             0.53593             0.31563
             1.55714             0.86294
             1.38757             2.19043
             0.50696             0.54195
             0.88115             0.56921
             0.23324             1.42020
             0.00887             1.41102
             0.94441             0.40114
             0.78625             1.62616
             0.04745             1.29901
             0.68149             0.78160
             0.36400             1.49949
             1.47682             1.08368
             0.13394             1.26210
             1.70908             1.06502
             1.22823             1.12010
             0.12704             1.15884
             0.27312             0.59496
             0.24818             0.33956
             0.96247             0.66425
             0.53578             1.10003
             2.34346             2.43172
             1.01663             2.37877
             0.27439             1.59440
             0.31181             0.77738
             0.42372             0.64147
             0.30428             1.79321
             0.49354             0.56917
             1.55743             2.12331
             1.55511             1.78261
             0.01889             0.67118
             0.87439             1.17520
             0.52666             0.12273
             0.47144             0.72150
             1.78703             1.59186
             0.72947             0.69411
             0.63059             0.85931
             0.99284             0.59882
             0.89940             0.41768
             0.56551             0.29603
             0.07677             0.85986
             1.74627             0.93158
             0.52414             1.19141
             0.67654             0.31687
             0.56641             0.32899
             0.09285             0.12401
             0.06361             1.17275
             0.30469             0.71963
             0.60997             2.44882
             1.26330             0.53424
             0.55340             0.43722
             0.65124             1.48792
             0.39353             1.28226
             1.23242             1.06436
             1.21822             0.67860
             2.08113             1.31524
             0.62630             1.04170
             0.24738             0.14718
             1.65947             1.16356
             0.15426             0.71966
             0.17404             0.75045
             0.95825             0.38386
             0.65219             0.16555
             0.93761             0.25766
             1.77731             1.16456
             1.30678             2.67453
             0.13002             0.88436
             0.99803             0.20251
             0.04935             0.08973
             1.46004             2.05222
             1.45545             1.60958
             0.31032             0.77653
             0.27637             0.16913
             1.55078             0.68999
             1.74973             0.57267
             0.26044             0.95068
             1.41787             1.02536
             1.27040             1.02806
             1.21886             0.53002
             0.11599             0.82744
             1.79427             0.58403
             1.98269             2.81670
             2.38229             1.37493
             0.38619             0.97856
             0.66095             0.52762
             0.12498             1.90104
             0.22459             0.13037
             0.38785             1.08300
             0.04325             0.23527
             0.61448             1.02175
             0.18078             0.92203
             1.23324             0.82441
             1.37516             0.93632
             0.45134             0.68437
             0.56159             0.91712
             0.45155             0.98091
             0.32118             0.24260
             1.57852             2.25418
             1.51418             2.23095
             0.10379             0.51344
             2.56313             0.72988
             0.87012             0.20269
             0.88831             0.79073
             0.08586             0.28059
             0.77952             0.27087
             0.20129             1.79583
             0.23178             0.50927
             0.54462             0.53083
             1.21794             2.52172
             0.11655             0.08809
             0.94863             0.92121
             1.77775             1.17694
             0.19363             1.40140
             1.49835             0.82678
             1.18419             1.63671
             0.50073             0.54919
             0.03445             0.66172
             0.56411             1.23148
             0.73973             2.20233
             0.13320             1.12247
             0.71219             1.56462
             1.79680             2.05995
             0.21090             1.04795
             0.54566             1.63594
             0.41105             0.87489
             0.71844             0.60175
             0.43670             1.57329
             0.13510             0.12831
             0.81182             0.86298
             0.22360             0.88707
             0.06169             1.44384
             1.02802             1.81811
             0.16783             1.56837
             0.89660             1.97308
             0.52830             0.61149
             0.03800             2.24479
             0.04753             0.80279
             0.16938             1.33584
             0.06777             0.10885
             1.05163             0.98909
             0.14049             1.04306
             0.89648             0.62442
             0.05376             0.17278
             0.08738             1.54118
             0.94320             0.19992
             0.35036             0.10544
             0.99753             0.54612
             0.57240             1.21288
             1.02940             1.28451
             2.92903             0.75128
             0.98847             0.53817
             0.23818             1.28089
             0.17246             1.11403
             1.08078             0.98061
             0.22011             0.16340
             0.98270             0.32228
             0.29490             1.09748
             0.73895             0.45468
             1.58201             0.78584
             0.82821             0.45328
             0.26218             0.09239
             0.31790             0.54116
             0.22321             0.98065
             0.00047             0.23732
             0.38142             0.49986
             1.49398             0.41311
             1.88405             0.80122
             0.90173             1.52533
             0.21444             0.84384
             1.34457             0.73198
             0.63553             0.17332
             0.34107             0.08645
             1.41223             0.58694
             1.02400             0.55344
             0.82176             0.77256
             0.58153             0.33839
             0.69131             1.77238
             1.42961             1.26343
             1.54752             0.63279
             0.66375             1.77918
             0.34638             1.37868
             1.05307             1.26487
             0.63163             1.01915
             0.83259             0.18954
             0.57198             0.32436
             1.02364             0.83790
             0.43616             0.25797
             0.82441             0.83503
             0.05209             1.16940
             0.94947             1.14877
             1.12815             3.38831
             0.60683             0.12731
             0.81306             0.72702
             0.29692             0.19090
             0.76496             1.54024
             0.25515             0.48256
             1.02451             0.66243
             1.22962             0.53591
             1.00430             0.49145
             0.60393             0.59470
             0.17172             0.05863
             0.12446             0.97039
             0.27875             0.59082
             0.44456             0.79173
             1.32832             0.77561
             0.83440             0.23310
             1.58485             0.59184
             0.51738             0.17337
             0.54091             2.26465
             0.75321             1.67157
             0.95807             0.35895
             0.14373             0.57863
             0.01130             1.64732
             0.79694             1.28350
             0.29181             0.98635
             1.34943             0.44009
             1.38101             1.05666
             0.14043             0.85010
             0.80689             1.48063
             0.97238             1.66895
             0.52844             0.17933
             0.06684             0.99818
             0.15624             0.91858
             1.19484             1.00096
             1.64509             0.48155
             1.40564             0.94757
             0.27783             0.56938
             1.52990             2.11764
             1.22681             0.29742
             0.44045             1.70690
             1.28476             0.48043
             0.77870             0.45214
             1.09768             0.40379
             0.25856             0.79644
             0.99187             1.19112
             0.38500             0.41647
             0.77195             0.28603
             1.52497             0.43815
             0.86522             1.39902
             0.83861             0.22628
             0.37815             2.34734
             0.31165             2.10864
             0.57637             0.35520
             0.27837             1.79756
             0.04689             0.39613
             1.23613             0.80518
             2.03606             0.50866
             1.09597             1.54447
             0.03121             0.24234
             2.51449             0.79585
             0.87846             1.66153
             1.22933             0.52782
             0.80633             1.49537
             0.11433             0.59432
             1.25304             0.31138
             0.33006             1.07483
             0.11423             1.54029
             1.08909             0.89109
             0.29727             0.62767
             0.16213             0.33941
             0.34397             0.55810
             0.24393             1.04605
             0.71503             0.41972
             0.36232             0.95045
             0.20494             1.56158
             0.47196             1.83873
             0.31651             0.28710
             0.68966             0.29764
             0.05482             0.78015
             0.12966             1.48500
             0.61806             2.18655
             0.18512             1.36758
             0.13316             0.35827
             1.53569             1.44597
             0.62255             0.72666
             1.60205             1.20527
             0.39231             2.38019
             1.26040             1.67439
             0.23459             0.23821
             0.76660             0.69704
             0.47969             0.26445
             0.70523             0.84138
             0.93489             1.50503
             0.52048             1.07421
             0.08868             0.27134
             1.09621             0.40273
             0.29500             0.27951
             0.64079             0.38116
             1.17262             1.36433
             0.29411             0.28617
             0.64858             1.30532
             0.04422             0.41662
             1.68361             0.50930
             1.27621             0.52758
             0.96576             1.25425
             0.41849             0.21924
             0.78906             1.71307
             0.29772             1.05650
             1.37522             0.75873
             0.61308             0.53025
             0.29608             0.19657
             1.03949             0.71367
             0.74989             0.21997
             1.33015             0.68390
             0.19515             0.48221
             0.69303             2.57494
             0.14103             0.09558
             0.09488             2.14425
             0.22227             0.84158
             0.32133             0.92447
             0.80154             1.55075
             0.99168             1.80111
             0.30482             0.09993
             0.61244             1.57238
             0.06143             0.21277
             0.49314             0.62258
             2.40308             1.10829
             0.79812             0.31502
             0.78561             0.46976
             1.07591             1.63295
             0.32829             1.69640
             0.45699             1.20877
             0.40356             1.21089
             0.22814             0.67898
             0.03842             0.01875
             2.08016             1.69355
             0.84301             1.58613
             0.66755             2.53199
             1.04626             0.88375
             0.65765             0.83129
             1.36523             1.98756
             0.01456             0.67117
             0.09536             0.50514
             0.03066             1.45844
             1.43309             0.38725
             1.02974             0.31335
             1.70134             0.59127
             1.09811             0.54058
             0.74066             1.23964
             0.55392             0.31372
             0.35218             0.28904
             0.64676             0.20572
             1.61992             0.51808
             1.63543             2.43733
             1.05037             0.53667
             2.03280             1.21287
             1.13885             0.62979
             2.04787             1.02485
             0.66364             0.78545
             0.46786             0.27658
             1.14693             0.50677
             0.25724             0.54276
             1.19851             0.43905
             0.01245             0.23212
             1.32484             1.27899
             0.01784             0.89394
             0.19805             1.70264
             0.59929             1.28513
             0.95041             1.55145
             0.39432             0.55439
             2.26688             0.79537
             0.08283             2.41533
             1.93820             1.50014
             0.34882             1.24835
             0.89099             0.39838
             0.51517             0.17528
             0.62843             0.65596
             0.09559             0.40070
             2.29322             1.12372
             0.01756             2.20662
             1.86593             2.63776
             0.19293             1.18047
             0.67019             1.35571
             1.27134             1.52987
             0.78563             0.51677
             0.86179             0.87849
             0.73006             1.95447
             0.30533             0.72602
             1.29577             1.42068
             0.26199             0.28826
             0.28114             0.68071
             0.35572             1.19259
             1.06862             0.54864
             1.55949             0.58596
             0.64569             1.11418
             0.44131             0.80525
             0.00951             0.00693
             1.33149             1.28949
             0.75340             0.38322
             0.45573             1.02313
             0.41954             0.61603
             0.32889             2.37421
             0.04233             1.19297
             0.43689             0.64710
             0.38501             2.22093
             0.27664             0.27742
             0.23295             0.06459
             0.65448             0.39022
             0.36672             1.62262
             0.25408             0.97566
             0.20173             0.70114
             1.10836             0.36063
             0.32986             0.58372
             1.83853             0.70671
             1.09899             0.22766
             0.32282             2.46314
             0.42021             0.39362
             0.47315             0.12184
             0.92166             0.83908
             0.67059             0.65192
             1.20483             0.48898
             0.39890             0.36984
             0.33538             0.39739
             0.46664             1.58830
             0.95556             1.18414
             0.67384             0.34037
             0.20163             0.61357
             1.81887             1.86121
             0.59873             0.27295
             2.54256             0.96639
             0.57517             0.97251
             0.29540             0.19207
             0.39080             0.35603
             1.03443             1.25693
             0.95263             1.00535
             1.20984             0.29306
             0.03078             0.55216
             0.15518             0.73906
             0.31497             1.41045
             0.87797             0.81180
             0.78335             1.13881
             0.52294             0.38456
             0.00718             0.25058
             0.44714             0.26776
             1.46633             0.46955
             0.33238             1.65465
             1.96609             0.46224
             1.54466             0.71078
             0.01820             1.55770
             0.59857             1.65156
             1.34181             0.95047
             0.00871             0.60834
             3.08194             3.08888
             0.95205             1.40674
             0.38766             1.00795
             1.38512             0.53470
             0.08937             1.18715
             1.06468             0.63504
             0.05777             1.50578
             1.44987             1.69490
             0.27637             1.15887
             1.56528             0.43132
             2.15059             1.43836
             0.21898             0.37133
             0.53920             0.95697
             0.93713             1.49629
             2.22492             1.31689
             1.75309             0.63020
             1.39704             0.89835
             0.05974             0.79922
             1.14479             1.28928
             1.24215             1.97485
             0.45113             0.95438
             0.31319             0.59163
             0.58842             0.36405
             0.14431             0.27850
             0.25660             0.69761
             0.63133             1.77439
             0.11517             0.08868
             0.05204             1.97462
             0.61686             0.76360
             0.09098             1.07396
             1.12186             1.57970
             0.08644             0.37257
             0.40143             0.96743
             0.02259             0.64368
             0.66794             0.94669
             1.35012             1.04601
             0.84258             1.01034
             0.83257             0.44323
             0.43737             0.47265
             0.06775             1.07580
             1.31548             1.51169
             0.08193             1.19848
             1.23310             0.86821
             0.86568             0.83801
             0.19610             1.27590
             0.55353             1.18006
             0.55379             0.24978
             0.64310             1.21594
             0.29061             0.70597
             0.01800             1.10961
             2.64186             0.69498
             2.08810             2.08525
             1.11291             0.79624
             1.64689             0.69898
             0.61904             1.81087
             0.02223             0.75270
             1.59664             0.75911
             0.11147             0.58812
             1.16633             0.32063
             1.22726             0.42078
             1.08170             0.50486
             0.33734             1.72179
             1.75517             1.53308
             0.06336             1.48684
             0.77421             1.29383
             0.56598             1.04138
             0.67310             0.21873
             0.98336             2.16718
             0.28115             1.29919
             1.04811             0.28435
             0.90022             0.45781
             0.63133             2.09887
             0.41289             0.82446
             1.11076             1.16245
             1.20271             0.58241
             0.50367             0.67500
             1.44721             1.01615
             0.00128             0.31614
             0.78587             1.62364
             0.63584             0.51583
             1.93126             0.81516
             0.26702             0.11482
             0.71611             0.93134
             0.15168             0.92814
             0.53840             1.68462
             0.77753             0.79006
             0.94731             0.25079
             0.87275             2.29254
             0.12828             0.46305
             2.36293             1.69010
             2.53441             1.31791
             1.34796             1.67957
             0.27759             1.05989
             0.44057             0.22585
             0.24529             0.87002
             2.27179             0.81970
             1.67775             1.03588
             1.02358             1.15884
             0.04877             0.83018
             0.28949             0.85119
             0.88608             1.79989
             2.11893             0.58247
             0.94863             0.88289
             0.24945             1.17432
