/work03/am/2022.06.ECS.OBS/12.22.SONDE_3SHIP/12.32.SONDE_P_COORD/OUT_SONDE_THERMO
Sat, 21 Jan 2023 12:03:25 +0900
/work03/am/2022.06.ECS.OBS/12.22.SONDE_3SHIP/12.32.SONDE_P_COORD/OUT_SONDE_THERMO
Sat, 21 Jan 2023 12:25:32 +0900
/work03/am/2022.06.ECS.OBS/12.22.SONDE_3SHIP/12.32.SONDE_P_COORD/OUT_SONDE_THERMO
Sat, 21 Jan 2023 12:26:26 +0900
/work03/am/2022.06.ECS.OBS/12.22.SONDE_3SHIP/12.32.SONDE_P_COORD/OUT_SONDE_THERMO
Sat, 21 Jan 2023 12:28:54 +0900
/work03/am/2022.06.ECS.OBS/12.22.SONDE_3SHIP/12.32.SONDE_P_COORD/OUT_SONDE_THERMO
Sat, 21 Jan 2023 12:32:01 +0900
/work03/am/2022.06.ECS.OBS/12.22.SONDE_3SHIP/12.32.SONDE_P_COORD/OUT_SONDE_THERMO
Sat, 21 Jan 2023 12:32:41 +0900
/work03/am/2022.06.ECS.OBS/12.22.SONDE_3SHIP/12.32.SONDE_P_COORD/OUT_SONDE_THERMO
Sat, 21 Jan 2023 12:35:57 +0900
/work03/am/2022.06.ECS.OBS/12.22.SONDE_3SHIP/12.32.SONDE_P_COORD/OUT_SONDE_THERMO
Sat, 21 Jan 2023 12:40:04 +0900
/work03/am/2022.06.ECS.OBS/12.22.SONDE_3SHIP/12.32.SONDE_P_COORD/OUT_SONDE_THERMO
Sat, 21 Jan 2023 12:40:32 +0900
/work03/am/2022.06.ECS.OBS/12.22.SONDE_3SHIP/12.32.SONDE_P_COORD/OUT_SONDE_THERMO
Sat, 21 Jan 2023 12:41:30 +0900
/work03/am/2022.06.ECS.OBS/12.22.SONDE_3SHIP/12.32.SONDE_P_COORD/OUT_SONDE_THERMO
Sat, 21 Jan 2023 12:42:28 +0900
/work03/am/2022.06.ECS.OBS/12.22.SONDE_3SHIP/12.32.SONDE_P_COORD/OUT_SONDE_THERMO
Sat, 21 Jan 2023 12:43:38 +0900
/work03/am/2022.06.ECS.OBS/12.22.SONDE_3SHIP/12.32.SONDE_P_COORD/OUT_SONDE_THERMO
Sat, 21 Jan 2023 12:43:40 +0900
/work03/am/2022.06.ECS.OBS/12.22.SONDE_3SHIP/12.32.SONDE_P_COORD/OUT_SONDE_THERMO
Sat, 21 Jan 2023 12:43:42 +0900
/work03/am/2022.06.ECS.OBS/12.22.SONDE_3SHIP/12.32.SONDE_P_COORD/OUT_SONDE_THERMO
Sat, 21 Jan 2023 12:43:43 +0900
/work03/am/2022.06.ECS.OBS/12.22.SONDE_3SHIP/12.32.SONDE_P_COORD/OUT_SONDE_THERMO
Sat, 21 Jan 2023 12:43:47 +0900
/work03/am/2022.06.ECS.OBS/12.22.SONDE_3SHIP/12.32.SONDE_P_COORD/OUT_SONDE_THERMO
Sat, 21 Jan 2023 12:45:31 +0900
/work03/am/2022.06.ECS.OBS/12.22.SONDE_3SHIP/12.32.SONDE_P_COORD/OUT_SONDE_THERMO
Sat, 21 Jan 2023 12:45:32 +0900
/work03/am/2022.06.ECS.OBS/12.22.SONDE_3SHIP/12.32.SONDE_P_COORD/OUT_SONDE_THERMO
Sat, 21 Jan 2023 12:45:34 +0900
/work03/am/2022.06.ECS.OBS/12.22.SONDE_3SHIP/12.32.SONDE_P_COORD/OUT_SONDE_THERMO
Sat, 21 Jan 2023 12:45:36 +0900
/work03/am/2022.06.ECS.OBS/12.22.SONDE_3SHIP/12.32.SONDE_P_COORD/OUT_SONDE_THERMO
Sat, 21 Jan 2023 12:46:02 +0900
/work03/am/2022.06.ECS.OBS/12.22.SONDE_3SHIP/12.32.SONDE_P_COORD/OUT_SONDE_THERMO
Sat, 21 Jan 2023 12:46:05 +0900
/work03/am/2022.06.ECS.OBS/12.22.SONDE_3SHIP/12.32.SONDE_P_COORD/OUT_SONDE_THERMO
Sat, 21 Jan 2023 12:46:07 +0900
/work03/am/2022.06.ECS.OBS/12.22.SONDE_3SHIP/12.32.SONDE_P_COORD/OUT_SONDE_THERMO
Sat, 21 Jan 2023 12:46:08 +0900
/work03/am/2022.06.ECS.OBS/12.22.SONDE_3SHIP/12.32.SONDE_P_COORD/OUT_SONDE_THERMO
Sat, 21 Jan 2023 12:46:09 +0900
/work03/am/2022.06.ECS.OBS/12.22.SONDE_3SHIP/12.32.SONDE_P_COORD/OUT_SONDE_THERMO
Sat, 21 Jan 2023 13:57:51 +0900
