Wed, 14 Aug 2024 11:56:22 +0900
/work04/$(whoami)/2022.RW3A/14.00.RW3A.TRAJ/42.32.3.TIAMAT_RW3A.TRAJ.BAK.MONIN

Thu, 21 Nov 2024 14:43:35 +0900
/work04/$(whoami)/2022.RW3A/14.22.RW3A.MS01_TRAJ_W/42.34.12.TIAMAT_RW3A.MS01_TRAJ_W

