2023-01-03_15-13
$ cat 1.GET.LIB.sh
sudo apt install libxaw7-dev
sudo apt install libxt-dev
sudo apt install libnetcdf-dev


am@p5820
/work03/am/INSTALL/2023-01-03_GMT4
2023-01-03_15-13
$ vi ./1.GET.LIB.sh

am@p5820
/work03/am/INSTALL/2023-01-03_GMT4
2023-01-03_15-13
$ sudo ./1.GET.LIB.sh
読み込んだプラグイン:fastestmirror, langpacks
Loading mirror speeds from cached hostfile
epel/x86_64/metalink                                           | 6.9 kB  00:00:00
 * base: ftp.jaist.ac.jp
 * epel: ftp.riken.jp
 * extras: ftp.jaist.ac.jp
 * updates: ftp.jaist.ac.jp
base                                                           | 3.6 kB  00:00:00
epel                                                           | 4.7 kB  00:00:00
extras                                                         | 2.9 kB  00:00:00
nodesource                                                     | 2.5 kB  00:00:00
updates                                                        | 2.9 kB  00:00:00
(1/2): epel/x86_64/updateinfo                                  | 1.0 MB  00:00:00
(2/2): epel/x86_64/primary_db                                  | 7.0 MB  00:00:00
パッケージ libxaw7-dev は利用できません。
エラー: 何もしません
読み込んだプラグイン:fastestmirror, langpacks
Loading mirror speeds from cached hostfile
 * base: ftp.jaist.ac.jp
 * epel: ftp.riken.jp
 * extras: ftp.jaist.ac.jp
 * updates: ftp.jaist.ac.jp
パッケージ libxt-dev は利用できません。
エラー: 何もしません
読み込んだプラグイン:fastestmirror, langpacks
Loading mirror speeds from cached hostfile
 * base: ftp.jaist.ac.jp
 * epel: ftp.riken.jp
 * extras: ftp.jaist.ac.jp
 * updates: ftp.jaist.ac.jp
パッケージ libnetcdf-dev は利用できません。
エラー: 何もしません

am@p5820
/work03/am/INSTALL/2023-01-03_GMT4
2023-01-03_15-14
$ ls
0.GET.GMT4.sh*  1.GET.LIB.sh*                   gmt-4.5.18-src.tar.bz2
00.README.TXT   gmt-4.5.18-non-gpl-src.tar.bz2  gshhg-gmt-2.3.7.tar.gz

am@p5820
/work03/am/INSTALL/2023-01-03_GMT4
2023-01-03_15-14
$ sudo yum install libnetcdf-dev
読み込んだプラグイン:fastestmirror, langpacks
Loading mirror speeds from cached hostfile
 * base: ftp.jaist.ac.jp
 * epel: ftp.riken.jp
 * extras: ftp.jaist.ac.jp
 * updates: ftp.jaist.ac.jp
パッケージ libnetcdf-dev は利用できません。
エラー: 何もしません



root@p5820
/work03/am/INSTALL/2023-01-03_GMT4
2023-01-03_15-15
$ su -
最終ログイン: 2023/01/03 (火) 15:15:37 JST日時 pts/35

root@p5820
/root
2023-01-03_15-15
$ yum -y install epel-release
読み込んだプラグイン:fastestmirror, langpacks
Loading mirror speeds from cached hostfile
 * base: ftp.jaist.ac.jp
 * epel: ftp.riken.jp
 * extras: ftp.jaist.ac.jp
 * updates: ftp.jaist.ac.jp
パッケージ epel-release-7-14.noarch はインストール済みか最新バージョンです
何もしません

root@p5820
/root
2023-01-03_15-15
$ yum -y install netcdf netcdf-devel
読み込んだプラグイン:fastestmirror, langpacks
Loading mirror speeds from cached hostfile
 * base: ftp.jaist.ac.jp
 * epel: ftp.riken.jp
 * extras: ftp.jaist.ac.jp
 * updates: ftp.jaist.ac.jp
パッケージ netcdf-4.3.3.1-5.el7.x86_64 はインストール済みか最新バージョンです
依存性の解決をしています
--> トランザクションの確認を実行しています。
---> パッケージ netcdf-devel.x86_64 0:4.3.3.1-5.el7 を インストール
--> 依存性の処理をしています: hdf5-devel(x86-64) のパッケージ: netcdf-devel-4.3.3.1-5.el7.x86_64
--> トランザクションの確認を実行しています。
---> パッケージ hdf5-devel.x86_64 0:1.8.12-13.el7 を インストール
--> 依存性の処理をしています: libaec-devel(x86-64) のパッケージ: hdf5-devel-1.8.12-13.el7.x86_64
--> トランザクションの確認を実行しています。
---> パッケージ libaec-devel.x86_64 0:1.0.4-1.el7 を インストール
--> 依存性解決を終了しました。

依存性を解決しました

======================================================================================
 Package                アーキテクチャー バージョン              リポジトリー    容量
======================================================================================
インストール中:
 netcdf-devel           x86_64           4.3.3.1-5.el7           epel            67 k
依存性関連でのインストールをします:
 hdf5-devel             x86_64           1.8.12-13.el7           epel           643 k
 libaec-devel           x86_64           1.0.4-1.el7             epel           7.8 k

トランザクションの要約
======================================================================================
インストール  1 パッケージ (+2 個の依存関係のパッケージ)

総ダウンロード容量: 717 k
インストール容量: 16 M
Downloading packages:
(1/3): hdf5-devel-1.8.12-13.el7.x86_64.rpm                     | 643 kB  00:00:00
(2/3): libaec-devel-1.0.4-1.el7.x86_64.rpm                     | 7.8 kB  00:00:00
(3/3): netcdf-devel-4.3.3.1-5.el7.x86_64.rpm                   |  67 kB  00:00:00
--------------------------------------------------------------------------------------
合計                                                     1.5 MB/s | 717 kB  00:00
Running transaction check
Running transaction test
Transaction test succeeded
Running transaction
  インストール中          : libaec-devel-1.0.4-1.el7.x86_64                       1/3
  インストール中          : hdf5-devel-1.8.12-13.el7.x86_64                       2/3
  インストール中          : netcdf-devel-4.3.3.1-5.el7.x86_64                     3/3
  検証中                  : libaec-devel-1.0.4-1.el7.x86_64                       1/3
  検証中                  : hdf5-devel-1.8.12-13.el7.x86_64                       2/3
  検証中                  : netcdf-devel-4.3.3.1-5.el7.x86_64                     3/3

インストール:
  netcdf-devel.x86_64 0:4.3.3.1-5.el7

依存性関連をインストールしました:
  hdf5-devel.x86_64 0:1.8.12-13.el7         libaec-devel.x86_64 0:1.0.4-1.el7

完了しました!

root@p5820
/root
2023-01-03_15-16
$ yum -y install netcdf netcdf-devel

root@p5820
/root
2023-01-03_15-16
$  rpm -ql netcdf netcdf-devel
/usr/bin/nccopy
/usr/bin/ncdump
/usr/bin/ncgen
/usr/bin/ncgen3
/usr/lib64/libnetcdf.so.7
/usr/lib64/libnetcdf.so.7.2.0
/usr/share/doc/netcdf-4.3.3.1
/usr/share/man/man1/nccopy.1.gz
/usr/bin/nc-config
/usr/include/netcdf.h
/usr/include/netcdf_meta.h
/usr/lib64/libnetcdf.settings
/usr/lib64/libnetcdf.so
/usr/lib64/pkgconfig/netcdf.pc
/usr/share/doc/netcdf-devel-4.3.3.1/examples/Makefile.in
/usr/share/man/man3/netcdf.3.gz


am@p5820
/work03/am/INSTALL/2023-01-03_GMT4
2023-01-03_15-18
$ ls
0.GET.GMT4.sh*  1.GET.LIB.sh*                   gmt-4.5.18-src.tar.bz2
00.README.TXT   gmt-4.5.18-non-gpl-src.tar.bz2  gshhg-gmt-2.3.7.tar.gz

am@p5820
/work03/am/INSTALL/2023-01-03_GMT4
2023-01-03_15-18
$ tar xvfj gmt-4.5.18-src.tar.bz2
gmt-4.5.18/ChangeLog

am@p5820
/work03/am/INSTALL/2023-01-03_GMT4
2023-01-03_15-19
$ ls
0.GET.GMT4.sh*  1.GET.LIB.sh*  gmt-4.5.18-non-gpl-src.tar.bz2  gshhg-gmt-2.3.7.tar.gz
00.README.TXT   gmt-4.5.18/    gmt-4.5.18-src.tar.bz2


am@p5820
/work03/am/INSTALL/2023-01-03_GMT4
2023-01-03_15-19
$ tar xvfj gmt-4.5.18-non-gpl-src.tar.bz2
gmt-4.5.18/src/TRIANGLE.HOWTO
gmt-4.5.18/src/README.TRIANGLE
gmt-4.5.18/src/triangle.c
gmt-4.5.18/src/triangle.h

am@p5820
/work03/am/INSTALL/2023-01-03_GMT4
2023-01-03_15-19
$ ls
0.GET.GMT4.sh*  1.GET.LIB.sh*  gmt-4.5.18-non-gpl-src.tar.bz2  gshhg-gmt-2.3.7.tar.gz
00.README.TXT   gmt-4.5.18/    gmt-4.5.18-src.tar.bz2

am@p5820
/work03/am/INSTALL/2023-01-03_GMT4
2023-01-03_15-19
$ sudo mkdir -p /usr/local/gmt4/share/gmt
[sudo] am のパスワード:

am@p5820
/work03/am/INSTALL/2023-01-03_GMT4
2023-01-03_15-20
$ cd /usr/local/gmt4/share/gmt

am@p5820
/usr/local/gmt4/share/gmt
2023-01-03_15-21
$ sudo cp /work03/am/INSTALL/2023-01-03_GMT4/gshhg-gmt-2.3.7.tar.gz .

am@p5820
/usr/local/gmt4/share/gmt
2023-01-03_15-21
$ ls
gshhg-gmt-2.3.7.tar.gz


am@p5820
/usr/local/gmt4/share/gmt
2023-01-03_15-21
$ sudo tar xzvf gshhg-gmt-2.3.7.tar.gz
gshhg-gmt-2.3.7/
gshhg-gmt-2.3.7/binned_border_c.nc

am@p5820
/usr/local/gmt4/share/gmt
2023-01-03_15-21
$ ls
gshhg-gmt-2.3.7/  gshhg-gmt-2.3.7.tar.gz

am@p5820
/usr/local/gmt4/share/gmt
2023-01-03_15-21
$ sudo ln -s gshhg-gmt-2.3.7 gshhg

am@p5820
/usr/local/gmt4/share/gmt
2023-01-03_15-22
$ ls
gshhg@  gshhg-gmt-2.3.7/  gshhg-gmt-2.3.7.tar.gz

am@p5820
/usr/local/gmt4/share/gmt
2023-01-03_15-22
$ cd /work03/am/INSTALL/2023-01-03_GMT4

am@p5820
/work03/am/INSTALL/2023-01-03_GMT4
2023-01-03_15-22
$ ls
0.GET.GMT4.sh*  1.GET.LIB.sh*  gmt-4.5.18-non-gpl-src.tar.bz2  gshhg-gmt-2.3.7.tar.gz
00.README.TXT   gmt-4.5.18/    gmt-4.5.18-src.tar.bz2

am@p5820
/work03/am/INSTALL/2023-01-03_GMT4
2023-01-03_15-22
$ cd gmt-4.5.18/

am@p5820
/work03/am/INSTALL/2023-01-03_GMT4/gmt-4.5.18
2023-01-03_15-22
$ ls
ChangeLog    README        config.sub    doc/             install-sh*
LICENSE.TXT  README.WIN32  configure*    gmt_bench-marks  share/
Makefile     config.guess  configure.ac  gmtswitch*       src/

am@p5820
/work03/am/INSTALL/2023-01-03_GMT4/gmt-4.5.18
2023-01-03_15-22
$ ./configure --prefix=/usr/local/gmt4 --with-gshhg-dir=/usr/local/gmt4/share/gmt/gshhg --disable-flock --enable-triangle


$ sudo make install-gmt
$ sudo make install-data; sudo make install-man; sudo make install-doc

$ sudo vi /etc/bashrc

export PATH=/usr/local/gmt4/bin:${PATH}

$ source $HOME/.bashrc

$ psxy


        -m Input/output file(s) contain multiple segments separated by a record
           whose first character is <flag> [>]
           Use -mi or -mo to give different settings for input and output [Same]
        (See gmtdefaults man page for hidden GMT default parameters)


am@p5820
/work03/am/INSTALL/2023-01-03_GMT4/gmt-4.5.18
2023-01-03_16-46
$ sudo yum remove netcdf netcdf-devel
読み込んだプラグイン:fastestmirror, langpacks
依存性の解決をしています
--> トランザクションの確認を実行しています。
---> パッケージ netcdf.x86_64 0:4.3.3.1-5.el7 を 削除
--> 依存性の処理をしています: libnetcdf.so.7()(64bit) のパッケージ: eccodes-2.23.0-1.el7.x86_64
---> パッケージ netcdf-devel.x86_64 0:4.3.3.1-5.el7 を 削除
--> トランザクションの確認を実行しています。
---> パッケージ eccodes.x86_64 0:2.23.0-1.el7 を 削除
--> 依存性の処理をしています: eccodes(x86-64) = 2.23.0-1.el7 のパッケージ: eccodes-devel-2.23.0-1.el7.x86_64
--> 依存性の処理をしています: libeccodes.so.0.1()(64bit) のパッケージ: eccodes-devel-2.23.0-1.el7.x86_64
--> 依存性の処理をしています: libeccodes_f90.so.0.1()(64bit) のパッケージ: eccodes-devel-2.23.0-1.el7.x86_64
--> トランザクションの確認を実行しています。
---> パッケージ eccodes-devel.x86_64 0:2.23.0-1.el7 を 削除
--> 依存性解決を終了しました。

依存性を解決しました

======================================================================================
 Package                アーキテクチャー
                                        バージョン               リポジトリー    容量
======================================================================================
削除中:
 netcdf                 x86_64          4.3.3.1-5.el7            @epel          2.2 M
 netcdf-devel           x86_64          4.3.3.1-5.el7            @epel          215 k
依存性関連での削除をします:
 eccodes                x86_64          2.23.0-1.el7             @epel          7.6 M
 eccodes-devel          x86_64          2.23.0-1.el7             @epel          547 k

トランザクションの要約
======================================================================================
削除  2 パッケージ (+2 個の依存関係のパッケージ)

インストール容量: 11 M
上記の処理を行います。よろしいでしょうか？ [y/N]y
Downloading packages:
Running transaction check
Running transaction test
Transaction test succeeded
Running transaction
  削除中                  : netcdf-devel-4.3.3.1-5.el7.x86_64                     1/4
  削除中                  : eccodes-devel-2.23.0-1.el7.x86_64                     2/4
  削除中                  : eccodes-2.23.0-1.el7.x86_64                           3/4
  削除中                  : netcdf-4.3.3.1-5.el7.x86_64                           4/4
  検証中                  : netcdf-4.3.3.1-5.el7.x86_64                           1/4
  検証中                  : eccodes-devel-2.23.0-1.el7.x86_64                     2/4
  検証中                  : netcdf-devel-4.3.3.1-5.el7.x86_64                     3/4
  検証中                  : eccodes-2.23.0-1.el7.x86_64                           4/4

削除しました:
  netcdf.x86_64 0:4.3.3.1-5.el7          netcdf-devel.x86_64 0:4.3.3.1-5.el7

依存性の削除をしました:
  eccodes.x86_64 0:2.23.0-1.el7          eccodes-devel.x86_64 0:2.23.0-1.el7

完了しました!


