%!PS-Adobe-3.0 EPSF-3.0
%%Creator: cairo 1.16.0 (https://cairographics.org)
%%CreationDate: Thu Aug  4 14:33:55 2022
%%Pages: 1
%%DocumentData: Clean7Bit
%%LanguageLevel: 2
%%BoundingBox: 36 126 576 666
%%EndComments
%%BeginProlog
50 dict begin
/q { gsave } bind def
/Q { grestore } bind def
/cm { 6 array astore concat } bind def
/w { setlinewidth } bind def
/J { setlinecap } bind def
/j { setlinejoin } bind def
/M { setmiterlimit } bind def
/d { setdash } bind def
/m { moveto } bind def
/l { lineto } bind def
/c { curveto } bind def
/h { closepath } bind def
/re { exch dup neg 3 1 roll 5 3 roll moveto 0 rlineto
      0 exch rlineto 0 rlineto closepath } bind def
/S { stroke } bind def
/f { fill } bind def
/f* { eofill } bind def
/n { newpath } bind def
/W { clip } bind def
/W* { eoclip } bind def
/BT { } bind def
/ET { } bind def
/BDC { mark 3 1 roll /BDC pdfmark } bind def
/EMC { mark /EMC pdfmark } bind def
/cairo_store_point { /cairo_point_y exch def /cairo_point_x exch def } def
/Tj { show currentpoint cairo_store_point } bind def
/TJ {
  {
    dup
    type /stringtype eq
    { show } { -0.001 mul 0 cairo_font_matrix dtransform rmoveto } ifelse
  } forall
  currentpoint cairo_store_point
} bind def
/cairo_selectfont { cairo_font_matrix aload pop pop pop 0 0 6 array astore
    cairo_font exch selectfont cairo_point_x cairo_point_y moveto } bind def
/Tf { pop /cairo_font exch def /cairo_font_matrix where
      { pop cairo_selectfont } if } bind def
/Td { matrix translate cairo_font_matrix matrix concatmatrix dup
      /cairo_font_matrix exch def dup 4 get exch 5 get cairo_store_point
      /cairo_font where { pop cairo_selectfont } if } bind def
/Tm { 2 copy 8 2 roll 6 array astore /cairo_font_matrix exch def
      cairo_store_point /cairo_font where { pop cairo_selectfont } if } bind def
/g { setgray } bind def
/rg { setrgbcolor } bind def
/d1 { setcachedevice } bind def
/cairo_data_source {
  CairoDataIndex CairoData length lt
    { CairoData CairoDataIndex get /CairoDataIndex CairoDataIndex 1 add def }
    { () } ifelse
} def
/cairo_flush_ascii85_file { cairo_ascii85_file status { cairo_ascii85_file flushfile } if } def
/cairo_image { image cairo_flush_ascii85_file } def
/cairo_imagemask { imagemask cairo_flush_ascii85_file } def
%%EndProlog
%%BeginSetup
%%EndSetup
%%Page: 1 1
%%BeginPageSetup
%%PageBoundingBox: 36 126 576 666
%%EndPageSetup
q 36 126 540 540 rectclip
1 0 0 -1 0 792 cm q
1 g
36 126 540 540 re f*
0 g
1.5 w
1 J
1 j
[] 0.0 d
10 M 145.5 466.98 m 151.199 462.406 l 156.898 477.871 l 162.602 454.113 l 168.301
 459.172 l 174 453.41 l 179.699 458.602 l 185.398 450.578 l 191.102 459.812
 l 196.801 466.363 l 202.5 465.891 l 208.199 472.711 l 213.898 475.926 l
 219.602 486.473 l 225.301 476.852 l 231 483.156 l 236.699 471.344 l 242.398
 482.699 l 248.102 469.434 l 253.801 463.691 l 259.5 454.25 l 265.199 462.367
 l 270.898 442.039 l 276.602 441.883 l 282.301 449.691 l 288 433.871 l 293.699
 441.344 l 299.398 460.074 l 305.102 463.602 l 310.801 445.828 l 316.5 441.438
 l 322.199 450.285 l 327.898 449.176 l 333.602 433.891 l 339.301 435.32 
l 345 440.922 l 350.699 421.875 l 356.398 437.875 l 362.102 437.008 l 367.801
 430.637 l 373.5 424.82 l 379.199 407.23 l 384.898 417.254 l 390.602 409.082
 l 396.301 396.441 l 402 398.531 l 407.699 410.527 l 413.398 389.914 l 419.102
 365.512 l 424.801 363.293 l S
424.801 363.293 m 430.5 377.395 l 436.199 361.824 l 441.898 369.168 l 447.602
 364.742 l 453.301 364.172 l 459 362.312 l 464.699 358.438 l 470.398 357.883
 l 476.102 345.078 l 481.801 339.988 l 487.5 325.629 l 493.199 334.5 l 498.898
 319.797 l 504.602 313.289 l 510.301 305.543 l 516 307.102 l 521.699 298.297
 l S
48.82 473.996 m 48.859 473.312 l 48.969 472.656 l 49.152 472.035 l 49.398
 471.445 l 49.703 470.895 l 50.062 470.383 l 50.473 469.906 l 50.93 469.477
 l 51.426 469.086 l 51.957 468.742 l 52.52 468.449 l 53.105 468.203 l 53.715
 468.008 l 54.34 467.867 l 54.98 467.781 l 55.625 467.75 l 56.27 467.766
 l 56.91 467.84 l 57.543 467.973 l 58.156 468.164 l 58.754 468.406 l 59.32
 468.703 l 59.863 469.047 l 60.367 469.441 l 60.832 469.879 l 61.25 470.355
 l 61.617 470.875 l 61.93 471.434 l 62.18 472.027 l 62.367 472.652 l 62.48
 473.309 l 62.523 473.996 l 62.48 474.684 l 62.367 475.34 l 62.18 475.965
 l 61.93 476.559 l 61.617 477.117 l 61.25 477.641 l 60.832 478.121 l 60.367
 478.562 l 59.863 478.961 l 59.32 479.312 l 58.754 479.617 l 58.156 479.867
 l 57.543 480.07 l 56.91 480.215 l 56.27 480.305 l 55.625 480.336 l 55.625
 478.656 l 56.176 478.633 l 56.711 478.562 l 57.23 478.449 l 57.727 478.297
 l 58.199 478.102 l 58.645 477.871 l 59.062 477.605 l 59.445 477.305 l 59.797
 476.977 l 60.105 476.617 l 60.379 476.234 l 60.605 475.824 l 60.789 475.395
 l 60.922 474.945 l 61.004 474.477 l 61.031 473.996 l 61.004 473.516 l 60.922
 473.051 l 60.789 472.605 l 60.605 472.18 l 60.379 471.781 l 60.105 471.402
 l 59.797 471.055 l 59.445 470.734 l 59.062 470.441 l 58.645 470.184 l 58.199
 469.961 l 57.727 469.773 l 57.23 469.625 l 56.711 469.52 l 56.176 469.449
 l 55.625 469.43 l 55.074 469.449 l 54.539 469.52 l 54.027 469.625 l 53.535
 469.773 l 53.07 469.961 l 52.633 470.184 l 52.223 470.441 l 51.848 470.734
 l 51.508 471.055 l 51.207 471.402 l 50.941 471.781 l 50.723 472.18 l 50.547
 472.605 l 50.418 473.051 l 50.336 473.516 l 50.312 473.996 l 50.336 474.477
 l 50.418 474.945 l 50.547 475.395 l 50.723 475.824 l 50.941 476.234 l 51.207
 476.617 l 51.508 476.977 l 51.848 477.305 l 52.223 477.605 l 52.633 477.871
 l 53.07 478.102 l 53.535 478.297 l 54.027 478.449 l 54.539 478.562 l 55.074
 478.633 l 55.625 478.656 l 55.625 480.336 l 54.98 480.305 l 54.34 480.215
 l 53.715 480.07 l 53.105 479.867 l 52.52 479.617 l 51.957 479.312 l 51.426
 478.961 l 50.93 478.562 l 50.473 478.121 l 50.062 477.641 l 49.703 477.117
 l 49.398 476.559 l 49.152 475.965 l 48.969 475.34 l 48.859 474.684 l 48.82
 473.996 l f*
49.008 465.605 m 49.008 463.93 l 54.691 463.93 l 54.691 457.312 l 49.008
 457.312 l 49.008 455.633 l 62.055 455.633 l 62.055 457.312 l 56.184 457.312
 l 56.184 463.93 l 62.055 463.93 l 62.055 465.605 l 49.008 465.605 l f*
53.105 442.305 m 52.551 442.422 l 52.039 442.57 l 51.57 442.746 l 51.141
 442.945 l 50.75 443.176 l 50.398 443.434 l 50.086 443.719 l 49.809 444.027
 l 49.57 444.363 l 49.363 444.727 l 49.195 445.113 l 49.059 445.527 l 48.953
 445.965 l 48.879 446.43 l 48.832 446.918 l 48.82 447.43 l 48.852 448.109
 l 48.953 448.754 l 49.113 449.355 l 49.332 449.922 l 49.609 450.445 l 49.941
 450.93 l 50.324 451.375 l 50.754 451.777 l 51.23 452.137 l 51.75 452.449
 l 52.312 452.723 l 52.91 452.949 l 53.543 453.129 l 54.207 453.266 l 54.902
 453.355 l 55.625 453.395 l 56.438 453.367 l 57.199 453.277 l 57.914 453.133
 l 58.574 452.934 l 59.184 452.688 l 59.742 452.395 l 60.25 452.055 l 60.703
 451.672 l 61.105 451.25 l 61.457 450.793 l 61.75 450.301 l 61.996 449.777
 l 62.184 449.227 l 62.32 448.648 l 62.402 448.051 l 62.43 447.43 l 62.402
 446.758 l 62.324 446.141 l 62.195 445.57 l 62.02 445.055 l 61.805 444.582
 l 61.543 444.16 l 61.246 443.781 l 60.914 443.445 l 60.547 443.152 l 60.152
 442.898 l 59.73 442.68 l 59.281 442.5 l 58.812 442.355 l 58.324 442.246
 l 57.82 442.168 l 57.301 442.117 l 57.301 443.793 l 58.207 443.965 l 58.605
 444.078 l 58.973 444.207 l 59.301 444.352 l 59.598 444.52 l 59.863 444.707
 l 60.098 444.914 l 60.301 445.145 l 60.477 445.395 l 60.621 445.672 l 60.734
 445.969 l 60.824 446.297 l 60.887 446.648 l 60.926 447.023 l 60.938 447.43
 l 60.91 447.969 l 60.832 448.469 l 60.703 448.934 l 60.527 449.359 l 60.305
 449.746 l 60.043 450.098 l 59.738 450.414 l 59.398 450.691 l 59.023 450.938
 l 58.617 451.148 l 58.18 451.324 l 57.711 451.469 l 57.223 451.578 l 56.707
 451.656 l 56.176 451.703 l 55.625 451.719 l 55.012 451.695 l 54.434 451.633
 l 53.887 451.531 l 53.379 451.387 l 52.906 451.211 l 52.469 451 l 52.07
 450.758 l 51.711 450.484 l 51.387 450.18 l 51.105 449.852 l 50.867 449.5
 l 50.668 449.121 l 50.512 448.727 l 50.402 448.309 l 50.332 447.879 l 50.312
 447.43 l 50.359 446.781 l 50.418 446.469 l 50.5 446.172 l 50.602 445.883
 l 50.73 445.609 l 50.875 445.352 l 51.047 445.109 l 51.234 444.891 l 51.445
 444.688 l 51.676 444.508 l 51.922 444.348 l 52.191 444.215 l 52.48 444.109
 l 52.785 444.031 l 53.105 443.98 l 53.105 442.305 l f*
49.008 431.305 m 49.008 429.16 l 62.055 424.594 l 62.055 426.457 l 58.234
 427.762 l 58.234 432.887 l 62.055 434.195 l 62.055 436.059 l 50.871 431.957
 l 50.871 430.277 l 56.742 432.422 l 56.742 428.227 l 50.871 430.277 l 50.871
 431.957 l 49.008 431.305 l f*
52.641 423.102 m 52.641 421.703 l 54.133 421.703 l 53.656 421.316 l 53.266
 420.922 l 52.957 420.523 l 52.723 420.129 l 52.555 419.738 l 52.441 419.355
 l 52.379 418.984 l 52.363 418.625 l 52.406 418.098 l 52.527 417.57 l 52.73
 417.07 l 53.004 416.609 l 53.164 416.406 l 53.34 416.219 l 53.531 416.055
 l 53.738 415.914 l 53.957 415.801 l 54.191 415.715 l 54.434 415.66 l 54.691
 415.645 l 62.055 415.645 l 62.055 417.137 l 55.344 417.137 l 55.141 417.148
 l 54.957 417.184 l 54.781 417.242 l 54.625 417.324 l 54.352 417.535 l 54.133
 417.801 l 53.965 418.105 l 53.852 418.434 l 53.781 418.77 l 53.762 419.094
 l 53.773 419.32 l 53.812 419.551 l 53.961 419.996 l 54.207 420.422 l 54.363
 420.621 l 54.539 420.805 l 54.738 420.977 l 54.957 421.133 l 55.195 421.27
 l 55.449 421.387 l 55.727 421.48 l 56.016 421.551 l 56.324 421.594 l 56.648
 421.609 l 62.055 421.609 l 62.055 423.102 l 52.641 423.102 l f*
52.363 409.492 m 52.387 409.059 l 52.469 408.637 l 52.594 408.23 l 52.77
 407.84 l 52.988 407.465 l 53.246 407.109 l 53.543 406.781 l 53.875 406.473
 l 54.242 406.195 l 54.637 405.945 l 55.059 405.73 l 55.508 405.547 l 55.977
 405.398 l 56.465 405.293 l 56.969 405.227 l 57.488 405.203 l 58.004 405.227
 l 58.508 405.293 l 58.992 405.398 l 59.453 405.547 l 59.895 405.73 l 60.309
 405.945 l 60.695 406.195 l 61.055 406.473 l 61.379 406.781 l 61.668 407.109
 l 61.918 407.465 l 62.129 407.84 l 62.297 408.23 l 62.422 408.637 l 62.496
 409.059 l 62.523 409.492 l 62.496 409.926 l 62.422 410.344 l 62.297 410.754
 l 62.129 411.145 l 61.918 411.52 l 61.668 411.871 l 61.379 412.203 l 61.055
 412.508 l 60.695 412.789 l 60.309 413.039 l 59.895 413.254 l 59.453 413.438
 l 58.992 413.582 l 58.508 413.691 l 58.004 413.758 l 57.488 413.781 l 57.488
 412.195 l 58.207 412.148 l 58.551 412.09 l 58.883 412.008 l 59.199 411.906
 l 59.5 411.781 l 59.781 411.637 l 60.039 411.473 l 60.277 411.289 l 60.488
 411.086 l 60.676 410.863 l 60.832 410.621 l 60.957 410.363 l 61.047 410.09
 l 61.105 409.797 l 61.125 409.492 l 61.105 409.184 l 61.047 408.895 l 60.957
 408.621 l 60.832 408.363 l 60.676 408.121 l 60.488 407.898 l 60.277 407.695
 l 60.039 407.512 l 59.781 407.348 l 59.5 407.203 l 59.199 407.078 l 58.883
 406.977 l 58.551 406.895 l 58.207 406.836 l 57.488 406.789 l 56.766 406.836
 l 56.078 406.977 l 55.758 407.078 l 55.449 407.203 l 55.16 407.348 l 54.891
 407.512 l 54.645 407.695 l 54.422 407.898 l 54.23 408.121 l 54.066 408.363
 l 53.938 408.621 l 53.84 408.895 l 53.781 409.184 l 53.762 409.492 l 53.781
 409.797 l 53.84 410.09 l 53.938 410.363 l 54.066 410.621 l 54.23 410.863
 l 54.422 411.086 l 54.645 411.289 l 54.891 411.473 l 55.16 411.637 l 55.449
 411.781 l 55.758 411.906 l 56.078 412.008 l 56.766 412.148 l 57.488 412.195
 l 57.488 413.781 l 56.969 413.758 l 56.465 413.691 l 55.977 413.582 l 55.508
 413.438 l 55.059 413.254 l 54.637 413.039 l 54.242 412.789 l 53.875 412.508
 l 53.543 412.203 l 53.246 411.871 l 52.988 411.52 l 52.77 411.145 l 52.594
 410.754 l 52.469 410.344 l 52.387 409.926 l 52.363 409.492 l f*
52.641 403.059 m 52.641 401.754 l 54.039 401.754 l 53.594 401.383 l 53.227
 401.027 l 52.934 400.684 l 52.711 400.344 l 52.547 400 l 52.441 399.645
 l 52.379 399.27 l 52.363 398.867 l 52.449 398.195 l 52.531 397.879 l 52.652
 397.57 l 52.832 397.27 l 53.082 396.965 l 53.418 396.66 l 53.852 396.348
 l 53.441 395.973 l 53.109 395.609 l 52.848 395.254 l 52.652 394.902 l 52.516
 394.555 l 52.426 394.199 l 52.375 393.836 l 52.363 393.457 l 52.398 392.996
 l 52.504 392.523 l 52.688 392.07 l 52.945 391.652 l 53.102 391.465 l 53.281
 391.293 l 53.48 391.137 l 53.699 391.008 l 53.938 390.902 l 54.199 390.82
 l 54.48 390.773 l 54.785 390.754 l 62.055 390.754 l 62.055 392.246 l 55.344
 392.246 l 55.004 392.289 l 54.688 392.406 l 54.402 392.582 l 54.156 392.805
 l 53.953 393.066 l 53.797 393.348 l 53.699 393.641 l 53.668 393.926 l 53.715
 394.316 l 53.848 394.707 l 54.055 395.082 l 54.332 395.43 l 54.664 395.727
 l 55.043 395.957 l 55.461 396.109 l 55.68 396.148 l 55.902 396.16 l 62.055
 396.16 l 62.055 397.652 l 55.344 397.652 l 55.004 397.695 l 54.688 397.812
 l 54.402 397.992 l 54.156 398.223 l 53.953 398.496 l 53.797 398.793 l 53.699
 399.109 l 53.668 399.426 l 53.711 399.758 l 53.832 400.113 l 54.031 400.473
 l 54.297 400.812 l 54.621 401.113 l 55.004 401.352 l 55.211 401.441 l 55.434
 401.512 l 55.664 401.555 l 55.902 401.57 l 62.055 401.57 l 62.055 403.059
 l 52.641 403.059 l f*
55.438 388.332 m 55.156 388.32 l 54.879 388.281 l 54.602 388.219 l 54.328
 388.129 l 54.062 388.012 l 53.809 387.863 l 53.566 387.688 l 53.34 387.48
 l 53.133 387.242 l 52.941 386.973 l 52.773 386.668 l 52.633 386.328 l 52.52
 385.953 l 52.434 385.539 l 52.379 385.09 l 52.363 384.602 l 52.387 384.078
 l 52.465 383.5 l 52.605 382.91 l 52.828 382.344 l 52.969 382.082 l 53.137
 381.84 l 53.324 381.621 l 53.543 381.43 l 53.785 381.277 l 54.055 381.16
 l 54.359 381.086 l 54.691 381.062 l 60.656 381.062 l 60.824 381.027 l 60.969
 380.938 l 61.09 380.805 l 61.184 380.641 l 61.246 380.461 l 61.273 380.273
 l 61.266 380.098 l 61.219 379.941 l 62.336 379.941 l 62.391 380.129 l 62.418
 380.305 l 62.43 380.875 l 62.418 381.281 l 62.383 381.598 l 62.316 381.84
 l 62.207 382.027 l 62.051 382.176 l 61.84 382.305 l 61.219 382.555 l 61.801
 383.348 l 62.012 383.691 l 62.172 384.02 l 62.293 384.359 l 62.371 384.73
 l 62.414 385.145 l 62.43 385.629 l 62.414 386.047 l 62.371 386.426 l 62.301
 386.77 l 62.203 387.078 l 62.086 387.352 l 61.945 387.598 l 61.789 387.809
 l 61.613 387.996 l 61.422 388.152 l 61.219 388.281 l 61.004 388.391 l 60.777
 388.473 l 60.305 388.578 l 59.82 388.613 l 59.82 387.215 l 60.094 387.18
 l 60.352 387.078 l 60.59 386.914 l 60.797 386.688 l 60.973 386.406 l 61.102
 386.074 l 61.188 385.688 l 61.219 385.258 l 61.188 384.934 l 61.137 384.633
 l 60.977 384.086 l 60.754 383.621 l 60.484 383.242 l 60.184 382.941 l 59.867
 382.727 l 59.555 382.598 l 59.258 382.555 l 57.395 382.555 l 57.656 383.254
 l 57.793 383.836 l 58.047 385.535 l 58.199 386.035 l 58.375 386.426 l 58.574
 386.723 l 58.793 386.934 l 59.027 387.074 l 59.281 387.16 l 59.543 387.203
 l 59.82 387.215 l 59.82 388.613 l 59.121 388.574 l 58.824 388.523 l 58.555
 388.457 l 58.316 388.367 l 58.102 388.262 l 57.914 388.137 l 57.746 387.996
 l 57.598 387.832 l 57.465 387.652 l 57.25 387.234 l 57.078 386.746 l 56.93
 386.188 l 56.555 383.766 l 56.398 383.184 l 56.312 382.973 l 56.219 382.809
 l 56.121 382.691 l 56.02 382.609 l 55.914 382.566 l 55.809 382.555 l 54.973
 382.555 l 54.812 382.578 l 54.625 382.664 l 54.426 382.809 l 54.227 383.02
 l 54.043 383.301 l 53.898 383.652 l 53.797 384.086 l 53.762 384.602 l 53.801
 385.156 l 53.918 385.621 l 54.094 386.008 l 54.32 386.316 l 54.578 386.551
 l 54.859 386.715 l 55.152 386.809 l 55.438 386.84 l 55.438 388.332 l f*
49.008 376.773 13.047 1.492 re f*
52.641 375.188 m 52.641 373.512 l 59.91 371.18 l 52.641 368.57 l 52.641
 366.895 l 64.48 371.273 l 64.973 371.586 l 65.34 371.887 l 65.605 372.188
 l 65.785 372.484 l 65.891 372.781 l 65.949 373.082 l 65.973 373.699 l 65.949
 374.047 l 65.785 374.535 l 64.48 374.535 l 64.543 374.254 l 64.586 373.969
 l 64.598 373.688 l 64.562 373.418 l 64.469 373.164 l 64.309 372.938 l 64.066
 372.738 l 63.734 372.578 l 62.148 372.02 l 52.641 375.188 l f*
49.008 360.555 m 49.008 357.199 l 50.312 357.199 l 50.312 358.969 l 64.574
 358.969 l 64.574 357.199 l 65.879 357.199 l 65.879 360.555 l 49.008 360.555
 l f*
49.379 351.512 m 49.379 350.488 l 62.055 350.488 l 62.055 352.07 l 53.016
 352.07 l 53.016 354.867 l 51.895 354.867 l 51.766 353.742 l 51.656 353.234
 l 51.578 352.996 l 51.477 352.77 l 51.348 352.559 l 51.191 352.359 l 51
 352.18 l 50.77 352.012 l 50.496 351.859 l 50.176 351.727 l 49.805 351.609
 l 49.379 351.512 l f*
49.379 341.816 m 49.418 341.355 l 49.527 340.914 l 49.711 340.496 l 49.953
 340.102 l 50.254 339.73 l 50.609 339.387 l 51.008 339.066 l 51.453 338.777
 l 51.934 338.516 l 52.445 338.285 l 52.984 338.09 l 53.547 337.926 l 54.125
 337.793 l 54.715 337.699 l 55.309 337.645 l 55.902 337.625 l 56.5 337.645
 l 57.098 337.699 l 57.691 337.793 l 58.273 337.926 l 58.844 338.09 l 59.391
 338.285 l 59.91 338.516 l 60.402 338.777 l 60.855 339.066 l 61.262 339.387
 l 61.625 339.73 l 61.934 340.102 l 62.184 340.496 l 62.367 340.914 l 62.484
 341.355 l 62.523 341.816 l 62.484 342.281 l 62.367 342.723 l 62.184 343.141
 l 61.934 343.535 l 61.625 343.906 l 61.262 344.25 l 60.855 344.57 l 60.402
 344.859 l 59.91 345.121 l 59.391 345.348 l 58.844 345.547 l 58.273 345.711
 l 57.691 345.84 l 57.098 345.938 l 56.5 345.992 l 55.902 346.012 l 55.902
 344.336 l 56.484 344.32 l 57.039 344.277 l 57.562 344.207 l 58.055 344.113
 l 58.52 343.996 l 58.949 343.859 l 59.344 343.703 l 59.703 343.531 l 60.023
 343.344 l 60.309 343.148 l 60.551 342.938 l 60.754 342.723 l 60.914 342.5
 l 61.031 342.273 l 61.102 342.047 l 61.125 341.816 l 61.102 341.59 l 61.031
 341.363 l 60.914 341.137 l 60.754 340.914 l 60.551 340.699 l 60.309 340.488
 l 60.023 340.293 l 59.703 340.105 l 59.344 339.934 l 58.949 339.777 l 58.52
 339.641 l 58.055 339.523 l 57.562 339.43 l 57.039 339.359 l 56.484 339.316
 l 55.902 339.301 l 55.324 339.316 l 54.773 339.359 l 54.254 339.43 l 53.766
 339.523 l 53.309 339.641 l 52.891 339.777 l 52.504 339.934 l 52.152 340.105
 l 51.84 340.293 l 51.562 340.488 l 51.328 340.699 l 51.133 340.914 l 50.977
 341.137 l 50.867 341.363 l 50.801 341.59 l 50.777 341.816 l 50.801 342.047
 l 50.867 342.273 l 50.977 342.5 l 51.133 342.723 l 51.328 342.938 l 51.562
 343.148 l 51.84 343.344 l 52.152 343.531 l 52.504 343.703 l 52.891 343.859
 l 53.309 343.996 l 53.766 344.113 l 54.254 344.207 l 54.773 344.277 l 55.324
 344.32 l 55.902 344.336 l 55.902 346.012 l 55.309 345.992 l 54.715 345.938
 l 54.125 345.84 l 53.547 345.711 l 52.984 345.547 l 52.445 345.348 l 51.934
 345.121 l 51.453 344.859 l 51.008 344.57 l 50.609 344.25 l 50.254 343.906
 l 49.953 343.535 l 49.711 343.141 l 49.527 342.723 l 49.418 342.281 l 49.379
 341.816 l f*
48.219 336.172 m 48.219 335.191 l 47.824 335.168 l 47.469 335.094 l 47.152
 334.969 l 46.887 334.793 l 46.668 334.566 l 46.508 334.289 l 46.406 333.961
 l 46.375 333.574 l 46.398 333.277 l 46.477 333 l 46.605 332.746 l 46.777
 332.523 l 46.992 332.336 l 47.25 332.195 l 47.543 332.105 l 47.875 332.074
 l 48.211 332.102 l 48.488 332.184 l 48.727 332.32 l 48.941 332.516 l 49.145
 332.766 l 49.352 333.074 l 49.836 333.863 l 50.227 334.535 l 50.621 335.078
 l 51.027 335.512 l 51.445 335.84 l 51.883 336.078 l 52.344 336.234 l 52.832
 336.32 l 53.355 336.344 l 53.355 331.094 l 52.434 331.094 l 52.434 335.25
 l 52.078 335.145 l 51.785 335.004 l 51.531 334.82 l 51.309 334.586 l 51.094
 334.297 l 50.875 333.949 l 50.355 333.055 l 50.098 332.539 l 49.812 332.109
 l 49.5 331.758 l 49.164 331.484 l 48.82 331.281 l 48.465 331.141 l 48.109
 331.062 l 47.758 331.035 l 47.516 331.051 l 47.281 331.09 l 47.059 331.152
 l 46.848 331.238 l 46.648 331.348 l 46.465 331.473 l 46.137 331.785 l 45.871
 332.164 l 45.672 332.594 l 45.551 333.07 l 45.508 333.574 l 45.551 334.117
 l 45.672 334.613 l 45.766 334.844 l 45.879 335.055 l 46.016 335.254 l 46.172
 335.438 l 46.352 335.602 l 46.551 335.746 l 46.773 335.871 l 47.016 335.977
 l 47.285 336.062 l 47.574 336.121 l 47.887 336.16 l 48.219 336.172 l f*
48.047 329.074 m 48.047 330.055 l 47.457 329.992 l 46.945 329.855 l 46.715
 329.758 l 46.508 329.641 l 46.32 329.508 l 46.148 329.355 l 46 329.188 
l 45.871 329.004 l 45.762 328.805 l 45.668 328.586 l 45.547 328.109 l 45.508
 327.574 l 45.543 327.074 l 45.648 326.609 l 45.82 326.199 l 46.055 325.844
 l 46.359 325.551 l 46.535 325.434 l 46.727 325.336 l 46.934 325.254 l 47.152
 325.199 l 47.391 325.164 l 47.645 325.152 l 47.934 325.164 l 48.195 325.211
 l 48.438 325.289 l 48.652 325.402 l 48.848 325.559 l 49.023 325.758 l 49.18
 326.008 l 49.316 326.305 l 49.457 325.965 l 49.621 325.676 l 49.809 325.434
 l 50.023 325.246 l 50.266 325.098 l 50.535 325 l 50.832 324.938 l 51.164
 324.918 l 51.598 324.953 l 52.027 325.059 l 52.438 325.246 l 52.629 325.371
 l 52.809 325.52 l 52.973 325.691 l 53.125 325.887 l 53.258 326.109 l 53.371
 326.355 l 53.461 326.633 l 53.531 326.934 l 53.57 327.27 l 53.586 327.633
 l 53.574 327.945 l 53.539 328.238 l 53.48 328.508 l 53.402 328.758 l 53.301
 328.988 l 53.184 329.195 l 53.043 329.383 l 52.887 329.551 l 52.715 329.695
 l 52.523 329.824 l 52.102 330.016 l 51.625 330.133 l 51.105 330.172 l 51.105
 329.191 l 51.391 329.176 l 51.676 329.133 l 51.945 329.043 l 52.195 328.902
 l 52.406 328.695 l 52.574 328.41 l 52.684 328.043 l 52.723 327.574 l 52.707
 327.172 l 52.625 326.836 l 52.48 326.555 l 52.289 326.332 l 52.051 326.164
 l 51.781 326.047 l 51.48 325.98 l 51.164 325.957 l 50.754 326 l 50.578 
326.047 l 50.426 326.113 l 50.293 326.199 l 50.176 326.301 l 49.988 326.559
 l 49.859 326.875 l 49.777 327.25 l 49.734 327.676 l 49.719 328.152 l 48.914
 328.152 l 48.902 327.688 l 48.871 327.285 l 48.805 326.945 l 48.695 326.672
 l 48.539 326.461 l 48.328 326.309 l 48.051 326.219 l 47.699 326.188 l 47.43
 326.207 l 47.176 326.27 l 46.953 326.367 l 46.758 326.516 l 46.598 326.703
 l 46.477 326.945 l 46.398 327.234 l 46.375 327.574 l 46.391 327.883 l 46.449
 328.164 l 46.555 328.414 l 46.711 328.629 l 46.934 328.801 l 47.227 328.938
 l 47.594 329.027 l 48.047 329.074 l f*
49.008 318.469 m 49.008 316.793 l 59.352 316.793 l 59.633 316.809 l 59.914
 316.852 l 60.191 316.93 l 60.461 317.035 l 60.727 317.168 l 60.98 317.332
 l 61.223 317.527 l 61.449 317.746 l 61.66 317.996 l 61.848 318.277 l 62.016
 318.582 l 62.156 318.914 l 62.273 319.277 l 62.359 319.664 l 62.41 320.078
 l 62.43 320.52 l 62.406 321.008 l 62.336 321.449 l 62.227 321.852 l 62.078
 322.215 l 61.902 322.539 l 61.703 322.828 l 61.48 323.086 l 61.242 323.305
 l 60.992 323.496 l 60.734 323.656 l 60.227 323.891 l 59.754 324.023 l 59.352
 324.062 l 57.859 324.062 l 57.859 322.387 l 59.074 322.387 l 59.5 322.352
 l 59.875 322.25 l 60.195 322.086 l 60.461 321.859 l 60.668 321.578 l 60.816
 321.246 l 60.906 320.859 l 60.938 320.426 l 60.902 319.969 l 60.801 319.57
 l 60.629 319.234 l 60.391 318.961 l 60.086 318.746 l 59.719 318.594 l 59.285
 318.5 l 58.793 318.469 l 49.008 318.469 l f*
49.008 315.02 m 49.008 311.664 l 65.879 311.664 l 65.879 315.02 l 64.574
 315.02 l 64.574 313.25 l 50.312 313.25 l 50.312 315.02 l 49.008 315.02 
l f*
161.809 522.27 m 162.629 522.27 l 162.629 532.41 l 161.359 532.41 l 161.359
 525.18 l 159.121 525.18 l 159.121 524.285 l 160.023 524.18 l 160.43 524.094
 l 160.801 523.949 l 160.969 523.848 l 161.129 523.719 l 161.273 523.566
 l 161.41 523.383 l 161.531 523.164 l 161.637 522.906 l 161.73 522.609 l
 161.809 522.27 l f*
169.562 522.27 m 169.934 522.285 l 170.285 522.336 l 170.621 522.418 l 
170.938 522.535 l 171.234 522.691 l 171.512 522.883 l 171.77 523.117 l 172.004
 523.387 l 172.219 523.703 l 172.406 524.062 l 172.57 524.465 l 172.707 
524.914 l 172.82 525.41 l 172.906 525.953 l 172.965 526.547 l 172.992 527.191
 l 172.973 527.992 l 172.906 528.715 l 172.801 529.371 l 172.664 529.953
 l 172.488 530.473 l 172.285 530.926 l 172.055 531.324 l 171.801 531.664
 l 171.523 531.953 l 171.23 532.195 l 170.922 532.387 l 170.602 532.539 
l 170.273 532.652 l 169.938 532.727 l 169.602 532.77 l 169.266 532.785 l
 168.75 532.746 l 168.266 532.629 l 167.82 532.426 l 167.613 532.293 l 167.418
 532.141 l 167.238 531.965 l 167.066 531.77 l 166.91 531.547 l 166.77 531.305
 l 166.531 530.75 l 166.355 530.102 l 167.625 530.102 l 167.746 530.469 
l 167.891 530.785 l 168.062 531.055 l 168.258 531.273 l 168.48 531.445 l
 168.734 531.566 l 169.02 531.641 l 169.34 531.664 l 169.625 531.645 l 169.887
 531.59 l 170.133 531.492 l 170.359 531.367 l 170.57 531.203 l 170.758 531.012
 l 170.93 530.793 l 171.082 530.547 l 171.215 530.277 l 171.332 529.984 
l 171.512 529.34 l 171.617 528.625 l 171.652 527.863 l 171.297 528.211 l
 170.965 528.477 l 170.652 528.676 l 170.355 528.812 l 170.078 528.902 l
 169.816 528.953 l 169.34 528.98 l 168.945 528.949 l 168.582 528.887 l 168.242
 528.793 l 167.926 528.668 l 167.641 528.516 l 167.379 528.34 l 167.145 
528.141 l 166.934 527.918 l 166.75 527.68 l 166.594 527.422 l 166.465 527.148
 l 166.359 526.863 l 166.285 526.566 l 166.23 526.258 l 166.207 525.945 
l 166.207 525.625 l 167.477 525.625 l 167.512 526.023 l 167.621 526.414 
l 167.801 526.793 l 168.043 527.137 l 168.344 527.43 l 168.703 527.66 l 
168.898 527.746 l 169.109 527.809 l 169.332 527.848 l 169.562 527.863 l 
169.797 527.848 l 170.016 527.809 l 170.227 527.746 l 170.426 527.66 l 170.781
 527.43 l 171.082 527.137 l 171.324 526.793 l 171.504 526.414 l 171.613 
526.023 l 171.652 525.625 l 171.613 525.23 l 171.504 524.836 l 171.324 524.461
 l 171.082 524.117 l 170.781 523.82 l 170.426 523.59 l 170.227 523.504 l
 170.016 523.441 l 169.797 523.402 l 169.562 523.387 l 169.332 523.402 l
 169.109 523.441 l 168.898 523.504 l 168.703 523.59 l 168.344 523.82 l 168.043
 524.117 l 167.801 524.461 l 167.621 524.836 l 167.512 525.23 l 167.477 
525.625 l 166.207 525.625 l 166.211 525.293 l 166.246 524.969 l 166.309 
524.652 l 166.406 524.348 l 166.531 524.055 l 166.688 523.777 l 166.867 
523.52 l 167.074 523.277 l 167.309 523.059 l 167.562 522.859 l 167.844 522.688
 l 168.148 522.543 l 168.473 522.426 l 168.816 522.34 l 169.18 522.289 l
 169.562 522.27 l f*
180.75 524.879 m 179.48 524.879 l 179.398 524.539 l 179.266 524.238 l 179.094
 523.98 l 178.883 523.77 l 178.648 523.605 l 178.391 523.484 l 178.117 523.414
 l 177.84 523.387 l 177.57 523.406 l 177.312 523.453 l 177.074 523.535 l
 176.852 523.648 l 176.645 523.789 l 176.453 523.961 l 176.281 524.164 l
 176.125 524.395 l 175.988 524.652 l 175.867 524.941 l 175.766 525.254 l
 175.68 525.59 l 175.566 526.344 l 175.527 527.191 l 175.832 526.867 l 176.133
 526.609 l 176.434 526.41 l 176.73 526.27 l 177.035 526.172 l 177.344 526.113
 l 177.66 526.082 l 177.988 526.074 l 178.484 526.121 l 179 526.27 l 179.258
 526.383 l 179.512 526.52 l 179.754 526.684 l 179.984 526.875 l 180.199 
527.09 l 180.395 527.332 l 180.57 527.602 l 180.715 527.898 l 180.832 528.223
 l 180.918 528.57 l 180.965 528.949 l 180.973 529.355 l 179.703 529.43 l
 179.66 529.012 l 179.535 528.605 l 179.34 528.23 l 179.082 527.891 l 178.77
 527.605 l 178.414 527.383 l 178.027 527.242 l 177.824 527.203 l 177.617
 527.191 l 177.41 527.203 l 177.207 527.242 l 176.82 527.383 l 176.465 527.605
 l 176.152 527.891 l 175.895 528.23 l 175.699 528.605 l 175.574 529.012 
l 175.527 529.43 l 175.574 529.848 l 175.699 530.25 l 175.895 530.629 l 
176.152 530.969 l 176.465 531.254 l 176.82 531.473 l 177.207 531.617 l 177.41
 531.652 l 177.617 531.664 l 177.824 531.652 l 178.027 531.617 l 178.414
 531.473 l 178.77 531.254 l 179.082 530.969 l 179.34 530.629 l 179.535 530.25
 l 179.66 529.848 l 179.703 529.43 l 180.973 529.355 l 180.961 529.652 l
 180.922 529.953 l 180.859 530.254 l 180.773 530.551 l 180.66 530.844 l 
180.52 531.129 l 180.355 531.398 l 180.16 531.656 l 179.941 531.895 l 179.695
 532.113 l 179.418 532.305 l 179.117 532.469 l 178.785 532.602 l 178.426
 532.703 l 178.035 532.762 l 177.617 532.785 l 177.16 532.758 l 176.742 
532.684 l 176.359 532.559 l 176.012 532.391 l 175.699 532.18 l 175.418 531.926
 l 175.168 531.637 l 174.949 531.312 l 174.762 530.953 l 174.602 530.562
 l 174.473 530.145 l 174.367 529.703 l 174.285 529.234 l 174.23 528.746 
l 174.188 527.715 l 174.203 527.098 l 174.25 526.516 l 174.324 525.965 l
 174.434 525.449 l 174.566 524.965 l 174.734 524.516 l 174.926 524.105 l
 175.148 523.734 l 175.395 523.398 l 175.668 523.109 l 175.969 522.855 l
 176.293 522.648 l 176.645 522.484 l 177.02 522.367 l 177.418 522.293 l 
177.84 522.27 l 178.141 522.285 l 178.43 522.324 l 178.707 522.391 l 178.965
 522.48 l 179.211 522.59 l 179.441 522.723 l 179.656 522.875 l 179.855 523.043
 l 180.195 523.43 l 180.461 523.875 l 180.648 524.359 l 180.75 524.879 l
 f*
185.52 522.27 m 185.891 522.301 l 186.242 522.391 l 186.578 522.535 l 186.895
 522.73 l 187.191 522.969 l 187.469 523.254 l 187.723 523.574 l 187.953 
523.93 l 188.164 524.312 l 188.348 524.723 l 188.504 525.156 l 188.637 525.605
 l 188.738 526.066 l 188.816 526.539 l 188.863 527.012 l 188.875 527.488
 l 188.863 527.969 l 188.816 528.445 l 188.738 528.922 l 188.637 529.387
 l 188.504 529.84 l 188.348 530.281 l 188.164 530.695 l 187.953 531.09 l
 187.723 531.449 l 187.469 531.777 l 187.191 532.066 l 186.895 532.312 l
 186.578 532.512 l 186.242 532.66 l 185.891 532.754 l 185.52 532.785 l 185.152
 532.754 l 184.801 532.66 l 184.465 532.512 l 184.148 532.312 l 183.852 
532.066 l 183.574 531.777 l 183.32 531.449 l 183.09 531.09 l 182.879 530.695
 l 182.695 530.281 l 182.539 529.84 l 182.406 529.387 l 182.301 528.922 
l 182.227 528.445 l 182.18 527.969 l 182.164 527.488 l 183.508 527.488 l
 183.52 527.953 l 183.555 528.398 l 183.688 529.211 l 183.891 529.926 l 
184.152 530.527 l 184.301 530.785 l 184.457 531.012 l 184.625 531.207 l 
184.797 531.371 l 184.977 531.496 l 185.156 531.59 l 185.34 531.648 l 185.52
 531.664 l 185.703 531.648 l 185.887 531.59 l 186.066 531.496 l 186.246 
531.371 l 186.418 531.207 l 186.586 531.012 l 186.742 530.785 l 186.891 
530.527 l 187.152 529.926 l 187.355 529.211 l 187.488 528.398 l 187.523 
527.953 l 187.535 527.488 l 187.523 527.027 l 187.488 526.586 l 187.355 
525.781 l 187.152 525.078 l 186.891 524.488 l 186.742 524.238 l 186.586 
524.02 l 186.418 523.828 l 186.246 523.672 l 186.066 523.551 l 185.887 523.461
 l 185.703 523.406 l 185.52 523.387 l 185.34 523.406 l 185.156 523.461 l
 184.977 523.551 l 184.797 523.672 l 184.625 523.828 l 184.457 524.02 l 
184.301 524.238 l 184.152 524.488 l 183.891 525.078 l 183.688 525.781 l 
183.555 526.586 l 183.52 527.027 l 183.508 527.488 l 182.164 527.488 l 182.18
 527.012 l 182.227 526.539 l 182.301 526.066 l 182.406 525.605 l 182.539
 525.156 l 182.695 524.723 l 182.879 524.312 l 183.09 523.93 l 183.32 523.574
 l 183.574 523.254 l 183.852 522.969 l 184.148 522.73 l 184.465 522.535 
l 184.801 522.391 l 185.152 522.301 l 185.52 522.27 l f*
275.809 522.27 m 276.629 522.27 l 276.629 532.41 l 275.359 532.41 l 275.359
 525.18 l 273.121 525.18 l 273.121 524.285 l 274.023 524.18 l 274.43 524.094
 l 274.801 523.949 l 274.969 523.848 l 275.129 523.719 l 275.273 523.566
 l 275.41 523.383 l 275.531 523.164 l 275.637 522.906 l 275.73 522.609 l
 275.809 522.27 l f*
283.562 522.27 m 283.934 522.285 l 284.285 522.336 l 284.621 522.418 l 
284.938 522.535 l 285.234 522.691 l 285.512 522.883 l 285.77 523.117 l 286.004
 523.387 l 286.219 523.703 l 286.406 524.062 l 286.57 524.465 l 286.707 
524.914 l 286.82 525.41 l 286.906 525.953 l 286.965 526.547 l 286.992 527.191
 l 286.973 527.992 l 286.906 528.715 l 286.801 529.371 l 286.664 529.953
 l 286.488 530.473 l 286.285 530.926 l 286.055 531.324 l 285.801 531.664
 l 285.523 531.953 l 285.23 532.195 l 284.922 532.387 l 284.602 532.539 
l 284.273 532.652 l 283.938 532.727 l 283.602 532.77 l 283.266 532.785 l
 282.75 532.746 l 282.266 532.629 l 281.82 532.426 l 281.613 532.293 l 281.418
 532.141 l 281.238 531.965 l 281.066 531.77 l 280.91 531.547 l 280.77 531.305
 l 280.531 530.75 l 280.355 530.102 l 281.625 530.102 l 281.746 530.469 
l 281.891 530.785 l 282.062 531.055 l 282.258 531.273 l 282.48 531.445 l
 282.734 531.566 l 283.02 531.641 l 283.34 531.664 l 283.625 531.645 l 283.887
 531.59 l 284.133 531.492 l 284.359 531.367 l 284.57 531.203 l 284.758 531.012
 l 284.93 530.793 l 285.082 530.547 l 285.215 530.277 l 285.332 529.984 
l 285.512 529.34 l 285.617 528.625 l 285.652 527.863 l 285.297 528.211 l
 284.965 528.477 l 284.652 528.676 l 284.355 528.812 l 284.078 528.902 l
 283.816 528.953 l 283.34 528.98 l 282.945 528.949 l 282.582 528.887 l 282.242
 528.793 l 281.926 528.668 l 281.641 528.516 l 281.379 528.34 l 281.145 
528.141 l 280.934 527.918 l 280.75 527.68 l 280.594 527.422 l 280.465 527.148
 l 280.359 526.863 l 280.285 526.566 l 280.23 526.258 l 280.207 525.945 
l 280.207 525.625 l 281.477 525.625 l 281.512 526.023 l 281.621 526.414 
l 281.801 526.793 l 282.043 527.137 l 282.344 527.43 l 282.703 527.66 l 
282.898 527.746 l 283.109 527.809 l 283.332 527.848 l 283.562 527.863 l 
283.797 527.848 l 284.016 527.809 l 284.227 527.746 l 284.426 527.66 l 284.781
 527.43 l 285.082 527.137 l 285.324 526.793 l 285.504 526.414 l 285.613 
526.023 l 285.652 525.625 l 285.613 525.23 l 285.504 524.836 l 285.324 524.461
 l 285.082 524.117 l 284.781 523.82 l 284.426 523.59 l 284.227 523.504 l
 284.016 523.441 l 283.797 523.402 l 283.562 523.387 l 283.332 523.402 l
 283.109 523.441 l 282.898 523.504 l 282.703 523.59 l 282.344 523.82 l 282.043
 524.117 l 281.801 524.461 l 281.621 524.836 l 281.512 525.23 l 281.477 
525.625 l 280.207 525.625 l 280.211 525.293 l 280.246 524.969 l 280.309 
524.652 l 280.406 524.348 l 280.531 524.055 l 280.688 523.777 l 280.867 
523.52 l 281.074 523.277 l 281.309 523.059 l 281.562 522.859 l 281.844 522.688
 l 282.148 522.543 l 282.473 522.426 l 282.816 522.34 l 283.18 522.289 l
 283.562 522.27 l f*
291.543 522.27 m 292.164 522.316 l 292.742 522.449 l 293.012 522.547 l 
293.262 522.668 l 293.496 522.809 l 293.715 522.969 l 293.91 523.148 l 294.086
 523.352 l 294.234 523.57 l 294.363 523.812 l 294.465 524.07 l 294.539 524.348
 l 294.586 524.641 l 294.598 524.953 l 294.566 525.395 l 294.473 525.773
 l 294.332 526.098 l 294.152 526.371 l 293.945 526.602 l 293.719 526.801
 l 293.258 527.117 l 293.629 527.309 l 293.965 527.543 l 294.258 527.82 
l 294.508 528.133 l 294.703 528.477 l 294.852 528.848 l 294.941 529.242 
l 294.973 529.652 l 294.957 529.898 l 294.918 530.152 l 294.848 530.414 
l 294.75 530.676 l 294.625 530.941 l 294.473 531.199 l 294.293 531.453 l
 294.086 531.695 l 293.852 531.922 l 293.594 532.129 l 293.305 532.312 l
 292.992 532.473 l 292.648 532.605 l 292.281 532.703 l 291.887 532.762 l
 291.469 532.785 l 291.051 532.762 l 290.66 532.703 l 290.301 532.605 l 
289.969 532.473 l 289.664 532.312 l 289.391 532.129 l 289.145 531.922 l 
288.922 531.695 l 288.73 531.453 l 288.562 531.199 l 288.426 530.941 l 288.312
 530.676 l 288.16 530.152 l 288.113 529.652 l 289.453 529.652 l 289.496 
530.059 l 289.621 530.438 l 289.82 530.781 l 290.078 531.078 l 290.391 531.324
 l 290.742 531.508 l 291.133 531.625 l 291.543 531.664 l 291.953 531.625
 l 292.34 531.508 l 292.695 531.324 l 293.004 531.078 l 293.266 530.781 
l 293.461 530.438 l 293.586 530.059 l 293.629 529.652 l 293.586 529.246 
l 293.461 528.867 l 293.266 528.523 l 293.004 528.227 l 292.695 527.98 l
 292.34 527.797 l 291.953 527.68 l 291.543 527.641 l 291.133 527.68 l 290.742
 527.797 l 290.391 527.98 l 290.078 528.227 l 289.82 528.523 l 289.621 528.867
 l 289.496 529.246 l 289.453 529.652 l 288.113 529.652 l 288.145 529.242
 l 288.234 528.859 l 288.379 528.496 l 288.578 528.16 l 288.824 527.855 
l 289.117 527.578 l 289.453 527.332 l 289.828 527.117 l 289.367 526.801 
l 289.141 526.602 l 288.934 526.371 l 288.754 526.098 l 288.609 525.773 
l 288.52 525.395 l 288.484 524.953 l 289.754 524.953 l 289.789 525.301 l
 289.895 525.609 l 290.062 525.875 l 290.285 526.102 l 290.551 526.281 l
 290.852 526.414 l 291.188 526.492 l 291.543 526.52 l 291.898 526.492 l 
292.23 526.414 l 292.535 526.281 l 292.801 526.102 l 293.02 525.875 l 293.188
 525.609 l 293.293 525.301 l 293.332 524.953 l 293.293 524.609 l 293.188
 524.301 l 293.02 524.031 l 292.801 523.809 l 292.535 523.629 l 292.23 523.496
 l 291.898 523.418 l 291.543 523.387 l 291.188 523.418 l 290.852 523.496
 l 290.551 523.629 l 290.285 523.809 l 290.062 524.031 l 289.895 524.301
 l 289.789 524.609 l 289.754 524.953 l 288.484 524.953 l 288.5 524.641 l
 288.547 524.348 l 288.621 524.07 l 288.723 523.812 l 288.848 523.57 l 289
 523.352 l 289.176 523.148 l 289.371 522.969 l 289.586 522.809 l 289.82 
522.668 l 290.074 522.547 l 290.34 522.449 l 290.918 522.316 l 291.543 522.27
 l f*
299.52 522.27 m 299.891 522.301 l 300.242 522.391 l 300.578 522.535 l 300.895
 522.73 l 301.191 522.969 l 301.469 523.254 l 301.723 523.574 l 301.953 
523.93 l 302.164 524.312 l 302.348 524.723 l 302.504 525.156 l 302.637 525.605
 l 302.738 526.066 l 302.816 526.539 l 302.863 527.012 l 302.875 527.488
 l 302.863 527.969 l 302.816 528.445 l 302.738 528.922 l 302.637 529.387
 l 302.504 529.84 l 302.348 530.281 l 302.164 530.695 l 301.953 531.09 l
 301.723 531.449 l 301.469 531.777 l 301.191 532.066 l 300.895 532.312 l
 300.578 532.512 l 300.242 532.66 l 299.891 532.754 l 299.52 532.785 l 299.152
 532.754 l 298.801 532.66 l 298.465 532.512 l 298.148 532.312 l 297.852 
532.066 l 297.574 531.777 l 297.32 531.449 l 297.09 531.09 l 296.879 530.695
 l 296.695 530.281 l 296.539 529.84 l 296.406 529.387 l 296.301 528.922 
l 296.227 528.445 l 296.18 527.969 l 296.164 527.488 l 297.508 527.488 l
 297.52 527.953 l 297.555 528.398 l 297.688 529.211 l 297.891 529.926 l 
298.152 530.527 l 298.301 530.785 l 298.457 531.012 l 298.625 531.207 l 
298.797 531.371 l 298.977 531.496 l 299.156 531.59 l 299.34 531.648 l 299.52
 531.664 l 299.703 531.648 l 299.887 531.59 l 300.066 531.496 l 300.246 
531.371 l 300.418 531.207 l 300.586 531.012 l 300.742 530.785 l 300.891 
530.527 l 301.152 529.926 l 301.355 529.211 l 301.488 528.398 l 301.523 
527.953 l 301.535 527.488 l 301.523 527.027 l 301.488 526.586 l 301.355 
525.781 l 301.152 525.078 l 300.891 524.488 l 300.742 524.238 l 300.586 
524.02 l 300.418 523.828 l 300.246 523.672 l 300.066 523.551 l 299.887 523.461
 l 299.703 523.406 l 299.52 523.387 l 299.34 523.406 l 299.156 523.461 l
 298.977 523.551 l 298.797 523.672 l 298.625 523.828 l 298.457 524.02 l 
298.301 524.238 l 298.152 524.488 l 297.891 525.078 l 297.688 525.781 l 
297.555 526.586 l 297.52 527.027 l 297.508 527.488 l 296.164 527.488 l 296.18
 527.012 l 296.227 526.539 l 296.301 526.066 l 296.406 525.605 l 296.539
 525.156 l 296.695 524.723 l 296.879 524.312 l 297.09 523.93 l 297.32 523.574
 l 297.574 523.254 l 297.852 522.969 l 298.148 522.73 l 298.465 522.535 
l 298.801 522.391 l 299.152 522.301 l 299.52 522.27 l f*
386.863 525.773 m 388.129 525.773 l 388.16 525.266 l 388.258 524.805 l 
388.418 524.398 l 388.641 524.051 l 388.781 523.902 l 388.934 523.77 l 389.105
 523.656 l 389.293 523.562 l 389.5 523.488 l 389.723 523.434 l 390.219 523.387
 l 390.602 523.422 l 390.961 523.523 l 391.289 523.688 l 391.578 523.91 
l 391.816 524.191 l 392 524.52 l 392.117 524.902 l 392.156 525.328 l 392.121
 525.762 l 392.016 526.121 l 391.84 526.43 l 391.59 526.707 l 391.266 526.969
 l 390.867 527.234 l 389.844 527.863 l 388.98 528.367 l 388.605 528.621 
l 388.273 528.879 l 387.977 529.137 l 387.715 529.402 l 387.488 529.668 
l 387.289 529.941 l 387.125 530.223 l 386.984 530.508 l 386.871 530.801 
l 386.781 531.102 l 386.672 531.734 l 386.637 532.41 l 393.426 532.41 l 
393.426 531.219 l 388.055 531.219 l 388.188 530.762 l 388.371 530.379 l 
388.609 530.055 l 388.914 529.766 l 389.285 529.488 l 389.734 529.207 l 
390.891 528.535 l 391.559 528.203 l 392.113 527.832 l 392.566 527.426 l 
392.922 526.996 l 393.184 526.547 l 393.363 526.09 l 393.465 525.633 l 393.5
 525.18 l 393.48 524.863 l 393.43 524.562 l 393.348 524.273 l 393.238 524
 l 393.098 523.742 l 392.934 523.504 l 392.742 523.281 l 392.531 523.082
 l 392.297 522.898 l 392.043 522.738 l 391.773 522.598 l 391.484 522.484
 l 391.184 522.391 l 390.871 522.324 l 390.551 522.285 l 390.219 522.27 
l 389.859 522.281 l 389.516 522.324 l 389.188 522.391 l 388.875 522.48 l
 388.582 522.602 l 388.305 522.75 l 388.047 522.926 l 387.812 523.129 l 
387.602 523.359 l 387.414 523.617 l 387.25 523.906 l 387.113 524.219 l 387.004
 524.566 l 386.926 524.938 l 386.879 525.344 l 386.863 525.773 l f*
398.047 522.27 m 398.418 522.301 l 398.77 522.391 l 399.105 522.535 l 399.422
 522.73 l 399.719 522.969 l 399.996 523.254 l 400.25 523.574 l 400.48 523.93
 l 400.688 524.312 l 400.871 524.723 l 401.031 525.156 l 401.164 525.605
 l 401.266 526.066 l 401.344 526.539 l 401.387 527.012 l 401.402 527.488
 l 401.387 527.969 l 401.344 528.445 l 401.266 528.922 l 401.164 529.387
 l 401.031 529.84 l 400.871 530.281 l 400.688 530.695 l 400.48 531.09 l 
400.25 531.449 l 399.996 531.777 l 399.719 532.066 l 399.422 532.312 l 399.105
 532.512 l 398.77 532.66 l 398.418 532.754 l 398.047 532.785 l 397.68 532.754
 l 397.324 532.66 l 396.992 532.512 l 396.676 532.312 l 396.379 532.066 
l 396.102 531.777 l 395.848 531.449 l 395.613 531.09 l 395.406 530.695 l
 395.223 530.281 l 395.066 529.84 l 394.934 529.387 l 394.828 528.922 l 
394.754 528.445 l 394.707 527.969 l 394.691 527.488 l 396.035 527.488 l 
396.047 527.953 l 396.082 528.398 l 396.211 529.211 l 396.414 529.926 l 
396.676 530.527 l 396.828 530.785 l 396.984 531.012 l 397.152 531.207 l 
397.324 531.371 l 397.5 531.496 l 397.684 531.59 l 397.867 531.648 l 398.047
 531.664 l 398.23 531.648 l 398.414 531.59 l 398.594 531.496 l 398.77 531.371
 l 398.945 531.207 l 399.109 531.012 l 399.27 530.785 l 399.418 530.527 
l 399.68 529.926 l 399.883 529.211 l 400.016 528.398 l 400.051 527.953 l
 400.062 527.488 l 400.051 527.027 l 400.016 526.586 l 399.883 525.781 l
 399.68 525.078 l 399.418 524.488 l 399.27 524.238 l 399.109 524.02 l 398.945
 523.828 l 398.77 523.672 l 398.594 523.551 l 398.414 523.461 l 398.23 523.406
 l 398.047 523.387 l 397.867 523.406 l 397.684 523.461 l 397.5 523.551 l
 397.324 523.672 l 397.152 523.828 l 396.984 524.02 l 396.828 524.238 l 
396.676 524.488 l 396.414 525.078 l 396.211 525.781 l 396.082 526.586 l 
396.047 527.027 l 396.035 527.488 l 394.691 527.488 l 394.707 527.012 l 
394.754 526.539 l 394.828 526.066 l 394.934 525.605 l 395.066 525.156 l 
395.223 524.723 l 395.406 524.312 l 395.613 523.93 l 395.848 523.574 l 396.102
 523.254 l 396.379 522.969 l 396.676 522.73 l 396.992 522.535 l 397.324 
522.391 l 397.68 522.301 l 398.047 522.27 l f*
406.027 522.27 m 406.395 522.301 l 406.75 522.391 l 407.086 522.535 l 407.402
 522.73 l 407.699 522.969 l 407.973 523.254 l 408.227 523.574 l 408.461 
523.93 l 408.668 524.312 l 408.852 524.723 l 409.012 525.156 l 409.141 525.605
 l 409.246 526.066 l 409.32 526.539 l 409.367 527.012 l 409.383 527.488 
l 409.367 527.969 l 409.32 528.445 l 409.246 528.922 l 409.141 529.387 l
 409.012 529.84 l 408.852 530.281 l 408.668 530.695 l 408.461 531.09 l 408.227
 531.449 l 407.973 531.777 l 407.699 532.066 l 407.402 532.312 l 407.086
 532.512 l 406.75 532.66 l 406.395 532.754 l 406.027 532.785 l 405.656 532.754
 l 405.305 532.66 l 404.969 532.512 l 404.652 532.312 l 404.355 532.066 
l 404.082 531.777 l 403.824 531.449 l 403.594 531.09 l 403.387 530.695 l
 403.203 530.281 l 403.043 529.84 l 402.914 529.387 l 402.809 528.922 l 
402.734 528.445 l 402.688 527.969 l 402.672 527.488 l 404.012 527.488 l 
404.027 527.953 l 404.059 528.398 l 404.191 529.211 l 404.395 529.926 l 
404.656 530.527 l 404.805 530.785 l 404.965 531.012 l 405.129 531.207 l 
405.305 531.371 l 405.48 531.496 l 405.66 531.59 l 405.844 531.648 l 406.027
 531.664 l 406.211 531.648 l 406.391 531.59 l 406.574 531.496 l 406.75 531.371
 l 406.922 531.207 l 407.09 531.012 l 407.25 530.785 l 407.398 530.527 l
 407.66 529.926 l 407.863 529.211 l 407.992 528.398 l 408.027 527.953 l 
408.039 527.488 l 408.027 527.027 l 407.992 526.586 l 407.863 525.781 l 
407.66 525.078 l 407.398 524.488 l 407.25 524.238 l 407.09 524.02 l 406.922
 523.828 l 406.75 523.672 l 406.574 523.551 l 406.391 523.461 l 406.211 
523.406 l 406.027 523.387 l 405.844 523.406 l 405.66 523.461 l 405.48 523.551
 l 405.305 523.672 l 405.129 523.828 l 404.965 524.02 l 404.805 524.238 
l 404.656 524.488 l 404.395 525.078 l 404.191 525.781 l 404.059 526.586 
l 404.027 527.027 l 404.012 527.488 l 402.672 527.488 l 402.688 527.012 
l 402.734 526.539 l 402.809 526.066 l 402.914 525.605 l 403.043 525.156 
l 403.203 524.723 l 403.387 524.312 l 403.594 523.93 l 403.824 523.574 l
 404.082 523.254 l 404.355 522.969 l 404.652 522.73 l 404.969 522.535 l 
405.305 522.391 l 405.656 522.301 l 406.027 522.27 l f*
414.008 522.27 m 414.375 522.301 l 414.727 522.391 l 415.062 522.535 l 
415.379 522.73 l 415.676 522.969 l 415.953 523.254 l 416.207 523.574 l 416.438
 523.93 l 416.648 524.312 l 416.832 524.723 l 416.988 525.156 l 417.121 
525.605 l 417.223 526.066 l 417.301 526.539 l 417.348 527.012 l 417.363 
527.488 l 417.348 527.969 l 417.301 528.445 l 417.223 528.922 l 417.121 
529.387 l 416.988 529.84 l 416.832 530.281 l 416.648 530.695 l 416.438 531.09
 l 416.207 531.449 l 415.953 531.777 l 415.676 532.066 l 415.379 532.312
 l 415.062 532.512 l 414.727 532.66 l 414.375 532.754 l 414.008 532.785 
l 413.637 532.754 l 413.285 532.66 l 412.949 532.512 l 412.633 532.312 l
 412.336 532.066 l 412.059 531.777 l 411.805 531.449 l 411.574 531.09 l 
411.363 530.695 l 411.18 530.281 l 411.023 529.84 l 410.891 529.387 l 410.789
 528.922 l 410.711 528.445 l 410.664 527.969 l 410.648 527.488 l 411.992
 527.488 l 412.004 527.953 l 412.039 528.398 l 412.172 529.211 l 412.375
 529.926 l 412.637 530.527 l 412.785 530.785 l 412.941 531.012 l 413.109
 531.207 l 413.281 531.371 l 413.461 531.496 l 413.641 531.59 l 413.824 
531.648 l 414.008 531.664 l 414.188 531.648 l 414.371 531.59 l 414.551 531.496
 l 414.73 531.371 l 414.902 531.207 l 415.07 531.012 l 415.227 530.785 l
 415.375 530.527 l 415.637 529.926 l 415.84 529.211 l 415.973 528.398 l 
416.008 527.953 l 416.02 527.488 l 416.008 527.027 l 415.973 526.586 l 415.84
 525.781 l 415.637 525.078 l 415.375 524.488 l 415.227 524.238 l 415.07 
524.02 l 414.902 523.828 l 414.73 523.672 l 414.551 523.551 l 414.371 523.461
 l 414.188 523.406 l 414.008 523.387 l 413.824 523.406 l 413.641 523.461
 l 413.461 523.551 l 413.281 523.672 l 413.109 523.828 l 412.941 524.02 
l 412.785 524.238 l 412.637 524.488 l 412.375 525.078 l 412.172 525.781 
l 412.039 526.586 l 412.004 527.027 l 411.992 527.488 l 410.648 527.488 
l 410.664 527.012 l 410.711 526.539 l 410.789 526.066 l 410.891 525.605 
l 411.023 525.156 l 411.18 524.723 l 411.363 524.312 l 411.574 523.93 l 
411.805 523.574 l 412.059 523.254 l 412.336 522.969 l 412.633 522.73 l 412.949
 522.535 l 413.285 522.391 l 413.637 522.301 l 414.008 522.27 l f*
500.863 525.773 m 502.129 525.773 l 502.16 525.266 l 502.258 524.805 l 
502.418 524.398 l 502.641 524.051 l 502.781 523.902 l 502.934 523.77 l 503.105
 523.656 l 503.293 523.562 l 503.5 523.488 l 503.723 523.434 l 504.219 523.387
 l 504.602 523.422 l 504.961 523.523 l 505.289 523.688 l 505.578 523.91 
l 505.816 524.191 l 506 524.52 l 506.117 524.902 l 506.156 525.328 l 506.121
 525.762 l 506.016 526.121 l 505.84 526.43 l 505.59 526.707 l 505.266 526.969
 l 504.867 527.234 l 503.844 527.863 l 502.98 528.367 l 502.605 528.621 
l 502.273 528.879 l 501.977 529.137 l 501.715 529.402 l 501.488 529.668 
l 501.289 529.941 l 501.125 530.223 l 500.984 530.508 l 500.871 530.801 
l 500.781 531.102 l 500.672 531.734 l 500.637 532.41 l 507.426 532.41 l 
507.426 531.219 l 502.055 531.219 l 502.188 530.762 l 502.371 530.379 l 
502.609 530.055 l 502.914 529.766 l 503.285 529.488 l 503.734 529.207 l 
504.891 528.535 l 505.559 528.203 l 506.113 527.832 l 506.566 527.426 l 
506.922 526.996 l 507.184 526.547 l 507.363 526.09 l 507.465 525.633 l 507.5
 525.18 l 507.48 524.863 l 507.43 524.562 l 507.348 524.273 l 507.238 524
 l 507.098 523.742 l 506.934 523.504 l 506.742 523.281 l 506.531 523.082
 l 506.297 522.898 l 506.043 522.738 l 505.773 522.598 l 505.484 522.484
 l 505.184 522.391 l 504.871 522.324 l 504.551 522.285 l 504.219 522.27 
l 503.859 522.281 l 503.516 522.324 l 503.188 522.391 l 502.875 522.48 l
 502.582 522.602 l 502.305 522.75 l 502.047 522.926 l 501.812 523.129 l 
501.602 523.359 l 501.414 523.617 l 501.25 523.906 l 501.113 524.219 l 501.004
 524.566 l 500.926 524.938 l 500.879 525.344 l 500.863 525.773 l f*
512.047 522.27 m 512.418 522.301 l 512.77 522.391 l 513.105 522.535 l 513.422
 522.73 l 513.719 522.969 l 513.996 523.254 l 514.25 523.574 l 514.48 523.93
 l 514.688 524.312 l 514.871 524.723 l 515.031 525.156 l 515.164 525.605
 l 515.266 526.066 l 515.34 526.539 l 515.387 527.012 l 515.402 527.488 
l 515.387 527.969 l 515.34 528.445 l 515.266 528.922 l 515.164 529.387 l
 515.031 529.84 l 514.871 530.281 l 514.688 530.695 l 514.48 531.09 l 514.25
 531.449 l 513.996 531.777 l 513.719 532.066 l 513.422 532.312 l 513.105
 532.512 l 512.77 532.66 l 512.418 532.754 l 512.047 532.785 l 511.68 532.754
 l 511.324 532.66 l 510.992 532.512 l 510.676 532.312 l 510.379 532.066 
l 510.102 531.777 l 509.848 531.449 l 509.613 531.09 l 509.406 530.695 l
 509.223 530.281 l 509.066 529.84 l 508.934 529.387 l 508.828 528.922 l 
508.754 528.445 l 508.707 527.969 l 508.691 527.488 l 510.035 527.488 l 
510.047 527.953 l 510.082 528.398 l 510.211 529.211 l 510.414 529.926 l 
510.676 530.527 l 510.824 530.785 l 510.984 531.012 l 511.152 531.207 l 
511.324 531.371 l 511.5 531.496 l 511.684 531.59 l 511.867 531.648 l 512.047
 531.664 l 512.23 531.648 l 512.414 531.59 l 512.594 531.496 l 512.77 531.371
 l 512.945 531.207 l 513.109 531.012 l 513.27 530.785 l 513.418 530.527 
l 513.68 529.926 l 513.883 529.211 l 514.016 528.398 l 514.051 527.953 l
 514.062 527.488 l 514.051 527.027 l 514.016 526.586 l 513.883 525.781 l
 513.68 525.078 l 513.418 524.488 l 513.27 524.238 l 513.109 524.02 l 512.945
 523.828 l 512.77 523.672 l 512.594 523.551 l 512.414 523.461 l 512.23 523.406
 l 512.047 523.387 l 511.867 523.406 l 511.684 523.461 l 511.5 523.551 l
 511.324 523.672 l 511.152 523.828 l 510.984 524.02 l 510.824 524.238 l 
510.676 524.488 l 510.414 525.078 l 510.211 525.781 l 510.082 526.586 l 
510.047 527.027 l 510.035 527.488 l 508.691 527.488 l 508.707 527.012 l 
508.754 526.539 l 508.828 526.066 l 508.934 525.605 l 509.066 525.156 l 
509.223 524.723 l 509.406 524.312 l 509.613 523.93 l 509.848 523.574 l 510.102
 523.254 l 510.379 522.969 l 510.676 522.73 l 510.992 522.535 l 511.324 
522.391 l 511.68 522.301 l 512.047 522.27 l f*
516.82 525.773 m 518.09 525.773 l 518.121 525.266 l 518.215 524.805 l 518.375
 524.398 l 518.602 524.051 l 518.738 523.902 l 518.895 523.77 l 519.062 
523.656 l 519.254 523.562 l 519.457 523.488 l 519.68 523.434 l 520.176 523.387
 l 520.559 523.422 l 520.918 523.523 l 521.25 523.688 l 521.535 523.91 l
 521.777 524.191 l 521.957 524.52 l 522.074 524.902 l 522.113 525.328 l 
522.078 525.762 l 521.973 526.121 l 521.797 526.43 l 521.547 526.707 l 521.223
 526.969 l 520.824 527.234 l 519.805 527.863 l 518.938 528.367 l 518.566
 528.621 l 518.234 528.879 l 517.938 529.137 l 517.676 529.402 l 517.445
 529.668 l 517.25 529.941 l 517.082 530.223 l 516.941 530.508 l 516.828 
530.801 l 516.742 531.102 l 516.629 531.734 l 516.598 532.41 l 523.383 532.41
 l 523.383 531.219 l 518.012 531.219 l 518.148 530.762 l 518.332 530.379
 l 518.57 530.055 l 518.871 529.766 l 519.242 529.488 l 519.691 529.207 
l 520.848 528.535 l 521.516 528.203 l 522.074 527.832 l 522.523 527.426 
l 522.879 526.996 l 523.141 526.547 l 523.32 526.09 l 523.426 525.633 l 
523.457 525.18 l 523.441 524.863 l 523.391 524.562 l 523.309 524.273 l 523.195
 524 l 523.055 523.742 l 522.891 523.504 l 522.699 523.281 l 522.488 523.082
 l 522.254 522.898 l 522 522.738 l 521.73 522.598 l 521.445 522.484 l 521.145
 522.391 l 520.832 522.324 l 520.508 522.285 l 520.176 522.27 l 519.82 522.281
 l 519.477 522.324 l 519.145 522.391 l 518.832 522.48 l 518.539 522.602 
l 518.262 522.75 l 518.008 522.926 l 517.77 523.129 l 517.559 523.359 l 
517.371 523.617 l 517.207 523.906 l 517.07 524.219 l 516.965 524.566 l 516.887
 524.938 l 516.836 525.344 l 516.82 525.773 l f*
528.008 522.27 m 528.375 522.301 l 528.727 522.391 l 529.062 522.535 l 
529.379 522.73 l 529.676 522.969 l 529.953 523.254 l 530.207 523.574 l 530.438
 523.93 l 530.648 524.312 l 530.832 524.723 l 530.988 525.156 l 531.121 
525.605 l 531.223 526.066 l 531.301 526.539 l 531.348 527.012 l 531.363 
527.488 l 531.348 527.969 l 531.301 528.445 l 531.223 528.922 l 531.121 
529.387 l 530.988 529.84 l 530.832 530.281 l 530.648 530.695 l 530.438 531.09
 l 530.207 531.449 l 529.953 531.777 l 529.676 532.066 l 529.379 532.312
 l 529.062 532.512 l 528.727 532.66 l 528.375 532.754 l 528.008 532.785 
l 527.637 532.754 l 527.285 532.66 l 526.949 532.512 l 526.633 532.312 l
 526.336 532.066 l 526.059 531.777 l 525.805 531.449 l 525.574 531.09 l 
525.363 530.695 l 525.18 530.281 l 525.023 529.84 l 524.891 529.387 l 524.789
 528.922 l 524.711 528.445 l 524.664 527.969 l 524.648 527.488 l 525.992
 527.488 l 526.004 527.953 l 526.039 528.398 l 526.172 529.211 l 526.375
 529.926 l 526.637 530.527 l 526.785 530.785 l 526.941 531.012 l 527.109
 531.207 l 527.281 531.371 l 527.461 531.496 l 527.641 531.59 l 527.824 
531.648 l 528.008 531.664 l 528.188 531.648 l 528.371 531.59 l 528.551 531.496
 l 528.73 531.371 l 528.902 531.207 l 529.07 531.012 l 529.227 530.785 l
 529.375 530.527 l 529.637 529.926 l 529.84 529.211 l 529.973 528.398 l 
530.008 527.953 l 530.02 527.488 l 530.008 527.027 l 529.973 526.586 l 529.84
 525.781 l 529.637 525.078 l 529.375 524.488 l 529.227 524.238 l 529.07 
524.02 l 528.902 523.828 l 528.73 523.672 l 528.551 523.551 l 528.371 523.461
 l 528.188 523.406 l 528.008 523.387 l 527.824 523.406 l 527.641 523.461
 l 527.461 523.551 l 527.281 523.672 l 527.109 523.828 l 526.941 524.02 
l 526.785 524.238 l 526.637 524.488 l 526.375 525.078 l 526.172 525.781 
l 526.039 526.586 l 526.004 527.027 l 525.992 527.488 l 524.648 527.488 
l 524.664 527.012 l 524.711 526.539 l 524.789 526.066 l 524.891 525.605 
l 525.023 525.156 l 525.18 524.723 l 525.363 524.312 l 525.574 523.93 l 
525.805 523.574 l 526.059 523.254 l 526.336 522.969 l 526.633 522.73 l 526.949
 522.535 l 527.285 522.391 l 527.637 522.301 l 528.008 522.27 l f*
75.316 481.266 3.43 1.047 re f*
83.367 475.602 m 83.738 475.629 l 84.09 475.719 l 84.426 475.863 l 84.742
 476.059 l 85.039 476.301 l 85.316 476.582 l 85.57 476.902 l 85.801 477.258
 l 86.008 477.645 l 86.191 478.055 l 86.352 478.484 l 86.484 478.934 l 86.586
 479.398 l 86.664 479.867 l 86.707 480.344 l 86.723 480.82 l 86.707 481.297
 l 86.664 481.773 l 86.586 482.25 l 86.484 482.715 l 86.352 483.172 l 86.191
 483.609 l 86.008 484.027 l 85.801 484.418 l 85.57 484.781 l 85.316 485.109
 l 85.039 485.398 l 84.742 485.645 l 84.426 485.844 l 84.09 485.992 l 83.738
 486.082 l 83.367 486.113 l 83 486.082 l 82.645 485.992 l 82.312 485.844
 l 81.996 485.645 l 81.699 485.398 l 81.422 485.109 l 81.168 484.781 l 80.934
 484.418 l 80.727 484.027 l 80.543 483.609 l 80.387 483.172 l 80.254 482.715
 l 80.148 482.25 l 80.074 481.773 l 80.027 481.297 l 80.012 480.82 l 81.355
 480.82 l 81.367 481.285 l 81.402 481.727 l 81.531 482.543 l 81.734 483.254
 l 81.996 483.859 l 82.148 484.117 l 82.305 484.344 l 82.473 484.539 l 82.645
 484.699 l 82.824 484.828 l 83.004 484.922 l 83.188 484.977 l 83.367 484.996
 l 83.551 484.977 l 83.734 484.922 l 83.914 484.828 l 84.094 484.699 l 84.266
 484.539 l 84.43 484.344 l 84.59 484.117 l 84.738 483.859 l 85 483.254 l
 85.203 482.543 l 85.336 481.727 l 85.371 481.285 l 85.383 480.82 l 85.371
 480.355 l 85.336 479.914 l 85.203 479.109 l 85 478.406 l 84.738 477.82 
l 84.59 477.566 l 84.43 477.348 l 84.266 477.16 l 84.094 477.004 l 83.914
 476.879 l 83.734 476.789 l 83.551 476.738 l 83.367 476.719 l 83.188 476.738
 l 83.004 476.789 l 82.824 476.879 l 82.645 477.004 l 82.473 477.16 l 82.305
 477.348 l 82.148 477.566 l 81.996 477.82 l 81.734 478.406 l 81.531 479.109
 l 81.402 479.914 l 81.367 480.355 l 81.355 480.82 l 80.012 480.82 l 80.027
 480.344 l 80.074 479.867 l 80.148 479.398 l 80.254 478.934 l 80.387 478.484
 l 80.543 478.055 l 80.727 477.645 l 80.934 477.258 l 81.168 476.902 l 81.422
 476.582 l 81.699 476.301 l 81.996 476.059 l 82.312 475.863 l 82.645 475.719
 l 83 475.629 l 83.367 475.602 l f*
88.664 484.25 1.488 1.492 re f*
92.914 475.602 m 98.207 475.602 l 98.207 476.793 l 93.957 476.793 l 93.586
 479.703 l 93.949 479.438 l 94.387 479.227 l 94.633 479.145 l 94.906 479.082
 l 95.203 479.043 l 95.523 479.031 l 96.047 479.074 l 96.59 479.211 l 96.863
 479.316 l 97.129 479.445 l 97.387 479.605 l 97.629 479.793 l 97.859 480.012
 l 98.07 480.262 l 98.258 480.543 l 98.418 480.855 l 98.551 481.203 l 98.648
 481.586 l 98.707 482.004 l 98.73 482.461 l 98.715 482.82 l 98.676 483.176
 l 98.605 483.52 l 98.508 483.848 l 98.383 484.168 l 98.23 484.469 l 98.051
 484.75 l 97.844 485.016 l 97.609 485.254 l 97.352 485.469 l 97.062 485.656
 l 96.746 485.816 l 96.406 485.945 l 96.039 486.035 l 95.645 486.094 l 95.227
 486.113 l 94.836 486.102 l 94.473 486.059 l 94.137 485.988 l 93.832 485.891
 l 93.547 485.773 l 93.293 485.629 l 93.059 485.469 l 92.848 485.285 l 92.66
 485.082 l 92.492 484.867 l 92.215 484.383 l 92.012 483.852 l 91.871 483.281
 l 93.137 483.281 l 93.266 483.652 l 93.43 483.988 l 93.629 484.281 l 93.863
 484.531 l 94.133 484.727 l 94.438 484.875 l 94.777 484.965 l 95.152 484.996
 l 95.656 484.957 l 96.109 484.844 l 96.504 484.648 l 96.68 484.523 l 96.836
 484.379 l 96.98 484.219 l 97.105 484.035 l 97.211 483.832 l 97.301 483.613
 l 97.422 483.113 l 97.461 482.535 l 97.43 482.113 l 97.332 481.691 l 97.168
 481.289 l 96.93 480.922 l 96.785 480.758 l 96.621 480.609 l 96.438 480.477
 l 96.234 480.363 l 96.012 480.273 l 95.77 480.207 l 95.508 480.164 l 95.227
 480.148 l 94.938 480.164 l 94.68 480.207 l 94.449 480.277 l 94.227 480.383
 l 94.012 480.516 l 93.789 480.684 l 93.285 481.117 l 92.168 481.117 l 92.914
 475.602 l f*
83.441 437.027 m 83.812 437.059 l 84.164 437.148 l 84.5 437.293 l 84.816
 437.488 l 85.113 437.727 l 85.391 438.012 l 85.645 438.332 l 85.875 438.688
 l 86.082 439.074 l 86.27 439.484 l 86.426 439.914 l 86.559 440.363 l 86.66
 440.824 l 86.738 441.297 l 86.781 441.773 l 86.797 442.25 l 86.781 442.727
 l 86.738 443.203 l 86.66 443.68 l 86.559 444.145 l 86.426 444.602 l 86.27
 445.039 l 86.082 445.453 l 85.875 445.848 l 85.645 446.207 l 85.391 446.535
 l 85.113 446.824 l 84.816 447.074 l 84.5 447.273 l 84.164 447.418 l 83.812
 447.512 l 83.441 447.543 l 83.074 447.512 l 82.719 447.418 l 82.387 447.273
 l 82.07 447.074 l 81.773 446.824 l 81.496 446.535 l 81.242 446.207 l 81.012
 445.848 l 80.801 445.453 l 80.617 445.039 l 80.461 444.602 l 80.328 444.145
 l 80.223 443.68 l 80.148 443.203 l 80.102 442.727 l 80.086 442.25 l 81.43
 442.25 l 81.441 442.715 l 81.477 443.156 l 81.609 443.969 l 81.812 444.684
 l 82.074 445.289 l 82.223 445.543 l 82.379 445.773 l 82.547 445.965 l 82.719
 446.129 l 82.898 446.258 l 83.078 446.348 l 83.262 446.406 l 83.441 446.426
 l 83.625 446.406 l 83.809 446.348 l 83.988 446.258 l 84.168 446.129 l 84.34
 445.965 l 84.508 445.773 l 84.664 445.543 l 84.812 445.289 l 85.074 444.684
 l 85.277 443.969 l 85.41 443.156 l 85.445 442.715 l 85.457 442.25 l 85.445
 441.785 l 85.41 441.344 l 85.277 440.539 l 85.074 439.836 l 84.812 439.246
 l 84.664 438.996 l 84.508 438.777 l 84.34 438.586 l 84.168 438.43 l 83.988
 438.309 l 83.809 438.219 l 83.625 438.164 l 83.441 438.148 l 83.262 438.164
 l 83.078 438.219 l 82.898 438.309 l 82.719 438.43 l 82.547 438.586 l 82.379
 438.777 l 82.223 438.996 l 82.074 439.246 l 81.812 439.836 l 81.609 440.539
 l 81.477 441.344 l 81.441 441.785 l 81.43 442.25 l 80.086 442.25 l 80.102
 441.773 l 80.148 441.297 l 80.223 440.824 l 80.328 440.363 l 80.461 439.914
 l 80.617 439.484 l 80.801 439.074 l 81.012 438.688 l 81.242 438.332 l 81.496
 438.012 l 81.773 437.727 l 82.07 437.488 l 82.387 437.293 l 82.719 437.148
 l 83.074 437.059 l 83.441 437.027 l f*
88.738 445.68 1.492 1.492 re f*
95.375 437.027 m 95.742 437.059 l 96.098 437.148 l 96.43 437.293 l 96.746
 437.488 l 97.043 437.727 l 97.32 438.012 l 97.574 438.332 l 97.809 438.688
 l 98.016 439.074 l 98.199 439.484 l 98.355 439.914 l 98.488 440.363 l 98.594
 440.824 l 98.668 441.297 l 98.715 441.773 l 98.73 442.25 l 98.715 442.727
 l 98.668 443.203 l 98.594 443.68 l 98.488 444.145 l 98.355 444.602 l 98.199
 445.039 l 98.016 445.453 l 97.809 445.848 l 97.574 446.207 l 97.32 446.535
 l 97.043 446.824 l 96.746 447.074 l 96.43 447.273 l 96.098 447.418 l 95.742
 447.512 l 95.375 447.543 l 95.004 447.512 l 94.652 447.418 l 94.316 447.273
 l 94 447.074 l 93.703 446.824 l 93.426 446.535 l 93.172 446.207 l 92.941
 445.848 l 92.734 445.453 l 92.551 445.039 l 92.391 444.602 l 92.258 444.145
 l 92.156 443.68 l 92.082 443.203 l 92.035 442.727 l 92.02 442.25 l 93.359
 442.25 l 93.371 442.715 l 93.406 443.156 l 93.539 443.969 l 93.742 444.684
 l 94.004 445.289 l 94.152 445.543 l 94.312 445.773 l 94.477 445.965 l 94.652
 446.129 l 94.828 446.258 l 95.008 446.348 l 95.191 446.406 l 95.375 446.426
 l 95.555 446.406 l 95.738 446.348 l 95.922 446.258 l 96.098 446.129 l 96.27
 445.965 l 96.438 445.773 l 96.598 445.543 l 96.746 445.289 l 97.008 444.684
 l 97.211 443.969 l 97.34 443.156 l 97.375 442.715 l 97.387 442.25 l 97.375
 441.785 l 97.34 441.344 l 97.211 440.539 l 97.008 439.836 l 96.746 439.246
 l 96.598 438.996 l 96.438 438.777 l 96.27 438.586 l 96.098 438.43 l 95.922
 438.309 l 95.738 438.219 l 95.555 438.164 l 95.375 438.148 l 95.191 438.164
 l 95.008 438.219 l 94.828 438.309 l 94.652 438.43 l 94.477 438.586 l 94.312
 438.777 l 94.152 438.996 l 94.004 439.246 l 93.742 439.836 l 93.539 440.539
 l 93.406 441.344 l 93.371 441.785 l 93.359 442.25 l 92.02 442.25 l 92.035
 441.773 l 92.082 441.297 l 92.156 440.824 l 92.258 440.363 l 92.391 439.914
 l 92.551 439.484 l 92.734 439.074 l 92.941 438.688 l 93.172 438.332 l 93.426
 438.012 l 93.703 437.727 l 94 437.488 l 94.316 437.293 l 94.652 437.148
 l 95.004 437.059 l 95.375 437.027 l f*
83.367 398.457 m 83.738 398.488 l 84.09 398.578 l 84.426 398.723 l 84.742
 398.918 l 85.039 399.156 l 85.316 399.441 l 85.57 399.762 l 85.801 400.117
 l 86.008 400.5 l 86.191 400.91 l 86.352 401.344 l 86.484 401.793 l 86.586
 402.254 l 86.664 402.727 l 86.707 403.199 l 86.723 403.676 l 86.707 404.156
 l 86.664 404.633 l 86.586 405.105 l 86.484 405.574 l 86.352 406.027 l 86.191
 406.465 l 86.008 406.883 l 85.801 407.273 l 85.57 407.637 l 85.316 407.965
 l 85.039 408.254 l 84.742 408.5 l 84.426 408.699 l 84.09 408.848 l 83.738
 408.941 l 83.367 408.973 l 83 408.941 l 82.645 408.848 l 82.312 408.699
 l 81.996 408.5 l 81.699 408.254 l 81.422 407.965 l 81.168 407.637 l 80.934
 407.273 l 80.727 406.883 l 80.543 406.465 l 80.387 406.027 l 80.254 405.574
 l 80.148 405.105 l 80.074 404.633 l 80.027 404.156 l 80.012 403.676 l 81.355
 403.676 l 81.367 404.141 l 81.402 404.586 l 81.531 405.398 l 81.734 406.113
 l 81.996 406.715 l 82.148 406.973 l 82.305 407.199 l 82.473 407.395 l 82.645
 407.559 l 82.824 407.684 l 83.004 407.777 l 83.188 407.832 l 83.367 407.852
 l 83.551 407.832 l 83.734 407.777 l 83.914 407.684 l 84.094 407.559 l 84.266
 407.395 l 84.43 407.199 l 84.59 406.973 l 84.738 406.715 l 85 406.113 l
 85.203 405.398 l 85.336 404.586 l 85.371 404.141 l 85.383 403.676 l 85.371
 403.215 l 85.336 402.773 l 85.203 401.965 l 85 401.266 l 84.738 400.676
 l 84.59 400.426 l 84.43 400.203 l 84.266 400.016 l 84.094 399.859 l 83.914
 399.738 l 83.734 399.648 l 83.551 399.594 l 83.367 399.574 l 83.188 399.594
 l 83.004 399.648 l 82.824 399.738 l 82.645 399.859 l 82.473 400.016 l 82.305
 400.203 l 82.148 400.426 l 81.996 400.676 l 81.734 401.266 l 81.531 401.965
 l 81.402 402.773 l 81.367 403.215 l 81.355 403.676 l 80.012 403.676 l 80.027
 403.199 l 80.074 402.727 l 80.148 402.254 l 80.254 401.793 l 80.387 401.344
 l 80.543 400.91 l 80.727 400.5 l 80.934 400.117 l 81.168 399.762 l 81.422
 399.441 l 81.699 399.156 l 81.996 398.918 l 82.312 398.723 l 82.645 398.578
 l 83 398.488 l 83.367 398.457 l f*
88.664 407.105 1.488 1.492 re f*
92.914 398.457 m 98.207 398.457 l 98.207 399.648 l 93.957 399.648 l 93.586
 402.559 l 93.949 402.297 l 94.387 402.082 l 94.633 402 l 94.906 401.941
 l 95.203 401.902 l 95.523 401.887 l 96.047 401.93 l 96.59 402.066 l 96.863
 402.172 l 97.129 402.305 l 97.387 402.465 l 97.629 402.652 l 97.859 402.871
 l 98.07 403.117 l 98.258 403.398 l 98.418 403.711 l 98.551 404.059 l 98.648
 404.441 l 98.707 404.859 l 98.73 405.316 l 98.715 405.68 l 98.676 406.031
 l 98.605 406.375 l 98.508 406.707 l 98.383 407.023 l 98.23 407.324 l 98.051
 407.609 l 97.844 407.871 l 97.609 408.113 l 97.352 408.328 l 97.062 408.516
 l 96.746 408.672 l 96.406 408.801 l 96.039 408.895 l 95.645 408.953 l 95.227
 408.973 l 94.836 408.957 l 94.473 408.914 l 94.137 408.844 l 93.832 408.75
 l 93.547 408.629 l 93.293 408.488 l 93.059 408.324 l 92.848 408.141 l 92.66
 407.941 l 92.492 407.723 l 92.215 407.242 l 92.012 406.711 l 91.871 406.137
 l 93.137 406.137 l 93.266 406.512 l 93.43 406.848 l 93.629 407.141 l 93.863
 407.387 l 94.133 407.586 l 94.438 407.73 l 94.777 407.82 l 95.152 407.852
 l 95.656 407.816 l 96.109 407.699 l 96.504 407.508 l 96.68 407.383 l 96.836
 407.238 l 96.98 407.074 l 97.105 406.891 l 97.211 406.691 l 97.301 406.469
 l 97.422 405.969 l 97.461 405.391 l 97.43 404.969 l 97.332 404.547 l 97.168
 404.145 l 96.93 403.781 l 96.785 403.613 l 96.621 403.465 l 96.438 403.336
 l 96.234 403.223 l 96.012 403.129 l 95.77 403.062 l 95.508 403.02 l 95.227
 403.008 l 94.938 403.02 l 94.68 403.062 l 94.449 403.137 l 94.227 403.238
 l 94.012 403.375 l 93.789 403.539 l 93.285 403.977 l 92.168 403.977 l 92.914
 398.457 l f*
83.668 359.887 m 84.488 359.887 l 84.488 370.027 l 83.219 370.027 l 83.219
 362.793 l 80.98 362.793 l 80.98 361.898 l 81.883 361.793 l 82.289 361.707
 l 82.66 361.562 l 82.828 361.461 l 82.988 361.336 l 83.133 361.18 l 83.27
 360.996 l 83.391 360.777 l 83.496 360.523 l 83.59 360.227 l 83.668 359.887
 l f*
88.738 368.535 1.492 1.492 re f*
95.375 359.887 m 95.742 359.918 l 96.098 360.008 l 96.43 360.148 l 96.746
 360.344 l 97.043 360.586 l 97.32 360.867 l 97.574 361.191 l 97.809 361.543
 l 98.016 361.93 l 98.199 362.34 l 98.355 362.77 l 98.488 363.219 l 98.594
 363.684 l 98.668 364.152 l 98.715 364.629 l 98.73 365.105 l 98.715 365.582
 l 98.668 366.062 l 98.594 366.535 l 98.488 367.004 l 98.355 367.457 l 98.199
 367.895 l 98.016 368.312 l 97.809 368.703 l 97.574 369.066 l 97.32 369.395
 l 97.043 369.684 l 96.746 369.93 l 96.43 370.129 l 96.098 370.277 l 95.742
 370.367 l 95.375 370.398 l 95.004 370.367 l 94.652 370.277 l 94.316 370.129
 l 94 369.93 l 93.703 369.684 l 93.426 369.395 l 93.172 369.066 l 92.941
 368.703 l 92.734 368.312 l 92.551 367.895 l 92.391 367.457 l 92.258 367.004
 l 92.156 366.535 l 92.082 366.062 l 92.035 365.582 l 92.02 365.105 l 93.359
 365.105 l 93.371 365.57 l 93.406 366.012 l 93.539 366.828 l 93.742 367.543
 l 94.004 368.145 l 94.152 368.402 l 94.312 368.629 l 94.477 368.824 l 94.652
 368.984 l 94.828 369.113 l 95.008 369.207 l 95.191 369.262 l 95.375 369.281
 l 95.555 369.262 l 95.738 369.207 l 95.922 369.113 l 96.098 368.984 l 96.27
 368.824 l 96.438 368.629 l 96.598 368.402 l 96.746 368.145 l 97.008 367.543
 l 97.211 366.828 l 97.34 366.012 l 97.375 365.57 l 97.387 365.105 l 97.375
 364.641 l 97.34 364.203 l 97.211 363.395 l 97.008 362.695 l 96.746 362.105
 l 96.598 361.852 l 96.438 361.633 l 96.27 361.445 l 96.098 361.289 l 95.922
 361.164 l 95.738 361.078 l 95.555 361.023 l 95.375 361.004 l 95.191 361.023
 l 95.008 361.078 l 94.828 361.164 l 94.652 361.289 l 94.477 361.445 l 94.312
 361.633 l 94.152 361.852 l 94.004 362.105 l 93.742 362.695 l 93.539 363.395
 l 93.406 364.203 l 93.371 364.641 l 93.359 365.105 l 92.02 365.105 l 92.035
 364.629 l 92.082 364.152 l 92.156 363.684 l 92.258 363.219 l 92.391 362.77
 l 92.551 362.34 l 92.734 361.93 l 92.941 361.543 l 93.172 361.191 l 93.426
 360.867 l 93.703 360.586 l 94 360.344 l 94.316 360.148 l 94.652 360.008
 l 95.004 359.918 l 95.375 359.887 l f*
83.594 321.312 m 84.414 321.312 l 84.414 331.457 l 83.145 331.457 l 83.145
 324.223 l 80.906 324.223 l 80.906 323.328 l 81.809 323.223 l 82.215 323.137
 l 82.586 322.992 l 82.754 322.891 l 82.914 322.766 l 83.059 322.609 l 83.195
 322.426 l 83.312 322.207 l 83.422 321.953 l 83.516 321.656 l 83.594 321.312
 l f*
88.664 329.965 1.488 1.492 re f*
92.914 321.312 m 98.207 321.312 l 98.207 322.508 l 93.957 322.508 l 93.586
 325.414 l 93.949 325.152 l 94.387 324.941 l 94.633 324.859 l 94.906 324.797
 l 95.203 324.758 l 95.523 324.746 l 96.047 324.789 l 96.59 324.926 l 96.863
 325.031 l 97.129 325.16 l 97.387 325.32 l 97.629 325.508 l 97.859 325.727
 l 98.07 325.977 l 98.258 326.254 l 98.418 326.57 l 98.551 326.918 l 98.648
 327.301 l 98.707 327.719 l 98.73 328.176 l 98.715 328.535 l 98.676 328.887
 l 98.605 329.23 l 98.508 329.562 l 98.383 329.883 l 98.23 330.184 l 98.051
 330.465 l 97.844 330.73 l 97.609 330.969 l 97.352 331.184 l 97.062 331.371
 l 96.746 331.531 l 96.406 331.656 l 96.039 331.75 l 95.645 331.809 l 95.227
 331.828 l 94.836 331.812 l 94.473 331.77 l 94.137 331.703 l 93.832 331.605
 l 93.547 331.488 l 93.293 331.344 l 93.059 331.184 l 92.848 331 l 92.66
 330.797 l 92.492 330.578 l 92.215 330.098 l 92.012 329.566 l 91.871 328.996
 l 93.137 328.996 l 93.266 329.367 l 93.43 329.703 l 93.629 329.996 l 93.863
 330.242 l 94.133 330.441 l 94.438 330.59 l 94.777 330.68 l 95.152 330.711
 l 95.656 330.672 l 96.109 330.555 l 96.504 330.363 l 96.68 330.238 l 96.836
 330.094 l 96.98 329.93 l 97.105 329.75 l 97.211 329.547 l 97.301 329.324
 l 97.422 328.824 l 97.461 328.25 l 97.43 327.824 l 97.332 327.406 l 97.168
 327.004 l 96.93 326.637 l 96.785 326.473 l 96.621 326.324 l 96.438 326.191
 l 96.234 326.078 l 96.012 325.988 l 95.77 325.918 l 95.508 325.879 l 95.227
 325.863 l 94.938 325.879 l 94.68 325.922 l 94.449 325.992 l 94.227 326.098
 l 94.012 326.23 l 93.789 326.398 l 93.285 326.832 l 92.168 326.832 l 92.914
 321.312 l f*
80.234 286.246 m 81.504 286.246 l 81.535 285.738 l 81.633 285.277 l 81.793
 284.871 l 82.016 284.523 l 82.152 284.375 l 82.309 284.242 l 82.48 284.129
 l 82.668 284.035 l 82.875 283.961 l 83.094 283.906 l 83.594 283.859 l 83.977
 283.895 l 84.336 283.996 l 84.664 284.16 l 84.953 284.383 l 85.191 284.664
 l 85.375 284.992 l 85.492 285.375 l 85.531 285.801 l 85.496 286.234 l 85.391
 286.594 l 85.211 286.902 l 84.961 287.18 l 84.641 287.441 l 84.242 287.707
 l 83.219 288.336 l 82.352 288.84 l 81.98 289.094 l 81.648 289.352 l 81.352
 289.609 l 81.09 289.875 l 80.863 290.141 l 80.664 290.414 l 80.496 290.695
 l 80.359 290.98 l 80.246 291.273 l 80.156 291.574 l 80.047 292.207 l 80.012
 292.883 l 86.797 292.883 l 86.797 291.691 l 81.43 291.691 l 81.562 291.234
 l 81.746 290.852 l 81.984 290.527 l 82.285 290.238 l 82.66 289.961 l 83.105
 289.68 l 84.262 289.008 l 84.934 288.676 l 85.488 288.305 l 85.941 287.898
 l 86.297 287.469 l 86.559 287.02 l 86.738 286.562 l 86.84 286.105 l 86.875
 285.652 l 86.855 285.336 l 86.805 285.035 l 86.723 284.746 l 86.613 284.473
 l 86.473 284.215 l 86.309 283.977 l 86.117 283.758 l 85.902 283.555 l 85.668
 283.371 l 85.418 283.211 l 85.145 283.07 l 84.859 282.957 l 84.559 282.863
 l 84.246 282.797 l 83.922 282.758 l 83.594 282.742 l 83.234 282.758 l 82.891
 282.797 l 82.562 282.863 l 82.25 282.953 l 81.953 283.074 l 81.68 283.223
 l 81.422 283.398 l 81.188 283.602 l 80.977 283.832 l 80.785 284.09 l 80.625
 284.379 l 80.488 284.691 l 80.379 285.039 l 80.301 285.41 l 80.254 285.816
 l 80.234 286.246 l f*
88.738 291.395 1.492 1.488 re f*
95.375 282.742 m 95.742 282.773 l 96.098 282.863 l 96.43 283.008 l 96.746
 283.203 l 97.043 283.441 l 97.32 283.727 l 97.574 284.047 l 97.809 284.402
 l 98.016 284.785 l 98.199 285.195 l 98.355 285.629 l 98.488 286.078 l 98.594
 286.539 l 98.668 287.012 l 98.715 287.484 l 98.73 287.961 l 98.715 288.441
 l 98.668 288.918 l 98.594 289.395 l 98.488 289.859 l 98.355 290.312 l 98.199
 290.754 l 98.016 291.168 l 97.809 291.562 l 97.574 291.922 l 97.32 292.25
 l 97.043 292.539 l 96.746 292.785 l 96.43 292.984 l 96.098 293.133 l 95.742
 293.227 l 95.375 293.258 l 95.004 293.227 l 94.652 293.133 l 94.316 292.984
 l 94 292.785 l 93.703 292.539 l 93.426 292.25 l 93.172 291.922 l 92.941
 291.562 l 92.734 291.168 l 92.551 290.754 l 92.391 290.312 l 92.258 289.859
 l 92.156 289.395 l 92.082 288.918 l 92.035 288.441 l 92.02 287.961 l 93.359
 287.961 l 93.371 288.426 l 93.406 288.871 l 93.539 289.684 l 93.742 290.398
 l 94.004 291 l 94.152 291.258 l 94.312 291.484 l 94.477 291.68 l 94.652
 291.844 l 94.828 291.969 l 95.008 292.062 l 95.191 292.121 l 95.375 292.141
 l 95.555 292.121 l 95.738 292.062 l 95.922 291.969 l 96.098 291.844 l 96.27
 291.68 l 96.438 291.484 l 96.598 291.258 l 96.746 291 l 97.008 290.398 
l 97.211 289.684 l 97.34 288.871 l 97.375 288.426 l 97.387 287.961 l 97.375
 287.5 l 97.34 287.059 l 97.211 286.254 l 97.008 285.551 l 96.746 284.961
 l 96.598 284.711 l 96.438 284.492 l 96.27 284.301 l 96.098 284.145 l 95.922
 284.023 l 95.738 283.934 l 95.555 283.879 l 95.375 283.859 l 95.191 283.879
 l 95.008 283.934 l 94.828 284.023 l 94.652 284.145 l 94.477 284.301 l 94.312
 284.492 l 94.152 284.711 l 94.004 284.961 l 93.742 285.551 l 93.539 286.254
 l 93.406 287.059 l 93.371 287.5 l 93.359 287.961 l 92.02 287.961 l 92.035
 287.484 l 92.082 287.012 l 92.156 286.539 l 92.258 286.078 l 92.391 285.629
 l 92.551 285.195 l 92.734 284.785 l 92.941 284.402 l 93.172 284.047 l 93.426
 283.727 l 93.703 283.441 l 94 283.203 l 94.316 283.008 l 94.652 282.863
 l 95.004 282.773 l 95.375 282.742 l f*
1 w
174 511.828 m 174 504 l S
288 511.828 m 288 504 l S
402 511.828 m 402 504 l S
516 511.828 m 516 504 l S
0.5 w
145.5 507.914 m 145.5 504 l S
117 507.914 m 117 504 l S
202.5 507.914 m 202.5 504 l S
231 507.914 m 231 504 l S
259.5 507.914 m 259.5 504 l S
316.5 507.914 m 316.5 504 l S
345 507.914 m 345 504 l S
373.5 507.914 m 373.5 504 l S
430.5 507.914 m 430.5 504 l S
459 507.914 m 459 504 l S
487.5 507.914 m 487.5 504 l S
1 w
174 280.172 m 174 288 l S
288 280.172 m 288 288 l S
402 280.172 m 402 288 l S
516 280.172 m 516 288 l S
0.5 w
145.5 284.086 m 145.5 288 l S
117 284.086 m 117 288 l S
202.5 284.086 m 202.5 288 l S
231 284.086 m 231 288 l S
259.5 284.086 m 259.5 288 l S
316.5 284.086 m 316.5 288 l S
345 284.086 m 345 288 l S
373.5 284.086 m 373.5 288 l S
430.5 284.086 m 430.5 288 l S
459 284.086 m 459 288 l S
487.5 284.086 m 487.5 288 l S
1 w
109.172 480.855 m 117 480.855 l S
109.172 442.285 m 117 442.285 l S
109.172 403.715 m 117 403.715 l S
109.172 365.145 m 117 365.145 l S
109.172 326.57 m 117 326.57 l S
109.172 288 m 117 288 l S
0.5 w
113.086 488.57 m 117 488.57 l S
113.086 496.285 m 117 496.285 l S
113.086 504 m 117 504 l S
113.086 473.145 m 117 473.145 l S
113.086 465.43 m 117 465.43 l S
113.086 457.715 m 117 457.715 l S
113.086 450 m 117 450 l S
113.086 434.57 m 117 434.57 l S
113.086 426.855 m 117 426.855 l S
113.086 419.145 m 117 419.145 l S
113.086 411.43 m 117 411.43 l S
113.086 396 m 117 396 l S
113.086 388.285 m 117 388.285 l S
113.086 380.57 m 117 380.57 l S
113.086 372.855 m 117 372.855 l S
113.086 357.43 m 117 357.43 l S
113.086 349.715 m 117 349.715 l S
113.086 342 m 117 342 l S
113.086 334.285 m 117 334.285 l S
113.086 318.855 m 117 318.855 l S
113.086 311.145 m 117 311.145 l S
113.086 303.43 m 117 303.43 l S
113.086 295.715 m 117 295.715 l S
1 w
535.23 480.855 m 527.398 480.855 l S
535.23 442.285 m 527.398 442.285 l S
535.23 403.715 m 527.398 403.715 l S
535.23 365.145 m 527.398 365.145 l S
535.23 326.57 m 527.398 326.57 l S
535.23 288 m 527.398 288 l S
0.5 w
531.316 488.57 m 527.398 488.57 l S
531.316 496.285 m 527.398 496.285 l S
531.316 504 m 527.398 504 l S
531.316 473.145 m 527.398 473.145 l S
531.316 465.43 m 527.398 465.43 l S
531.316 457.715 m 527.398 457.715 l S
531.316 450 m 527.398 450 l S
531.316 434.57 m 527.398 434.57 l S
531.316 426.855 m 527.398 426.855 l S
531.316 419.145 m 527.398 419.145 l S
531.316 411.43 m 527.398 411.43 l S
531.316 396 m 527.398 396 l S
531.316 388.285 m 527.398 388.285 l S
531.316 380.57 m 527.398 380.57 l S
531.316 372.855 m 527.398 372.855 l S
531.316 357.43 m 527.398 357.43 l S
531.316 349.715 m 527.398 349.715 l S
531.316 342 m 527.398 342 l S
531.316 334.285 m 527.398 334.285 l S
531.316 318.855 m 527.398 318.855 l S
531.316 311.145 m 527.398 311.145 l S
531.316 303.43 m 527.398 303.43 l S
531.316 295.715 m 527.398 295.715 l S
1 w
527.398 504 m 117 504 l 117 288 l 527.398 288 l 527.398 504 l 117 504 l
 S
Q Q
showpage
%%Trailer
end
%%EOF
