2021  8 12  0  0  129.9259   32.6537   500.00  354.667    56.0   22.77  19.21    11.34   300.16  298.63     4.5    385.9    -31.4 -0.1230E+02  0.5602E-01
2021  8 11 23 50  129.9101   32.6359   481.75  354.908    39.1   22.79  19.02     7.37   300.17  298.65     2.8    375.1    -12.5 -0.3010E+02  0.2573E-01
2021  8 11 23 40  129.8879   32.6182   464.54  355.100    39.4   22.79  18.99     7.13   300.17  298.69     2.7    372.7    -12.2 -0.3058E+02 -0.3206E-02
2021  8 11 23 30  129.8635   32.5962   455.08  355.176    29.1   22.77  19.04     4.84   300.18  298.85     1.9    377.2     -6.9 -0.5428E+02  0.1151E-01
2021  8 11 23 20  129.8392   32.5671   467.36  355.286    19.0   22.81  19.10     2.96   300.20  298.97     1.1    376.7     -2.8 -0.1351E+03 -0.5403E-01
2021  8 11 23 10  129.8121   32.5330   480.12  355.447    22.1   22.88  19.19     3.19   300.25  299.11     1.3    377.5     -4.0 -0.9475E+02  0.1345E-02
2021  8 11 23  0  129.7831   32.4966   464.30  355.326    18.8   22.98  19.30     2.95   300.31  299.10     1.1    369.6     -3.0 -0.1237E+03  0.1211E+00
2021  8 11 22 50  129.7453   32.4598   338.81  355.497    52.2   23.13  19.74     8.89   300.42  299.21     4.4    335.9    -35.4 -0.9500E+01  0.6263E-01
2021  8 11 22 40  129.7008   32.4226   398.53  354.662    54.0   23.32  19.91     9.45   300.56  299.31     4.6    324.3    -36.8 -0.8820E+01 -0.4883E-01
2021  8 11 22 30  129.6556   32.3845   474.60  354.806    56.2   23.53  20.02     9.14   300.71  299.52     4.6    330.5    -38.0 -0.8698E+01 -0.8781E-01
2021  8 11 22 20  129.6068   32.3437   538.07  354.596    56.3   23.72  20.18     9.16   300.84  299.63     4.6    337.8    -37.0 -0.9132E+01 -0.9872E-01
2021  8 11 22 10  129.5556   32.2991   590.96  354.646    57.3   23.87  20.36     8.73   300.94  299.83     4.8    351.6    -42.0 -0.8378E+01 -0.8818E-01
2021  8 11 22  0  129.5046   32.2541   644.32  354.269    45.6   23.99  20.60     5.74   301.02  300.14     4.0    422.2    -33.1 -0.1274E+02 -0.7231E-01
2021  8 11 21 50  129.4547   32.2104   573.31  354.469    45.8   24.11  20.96     2.83   301.10  300.70     4.5    539.2    -57.4 -0.9398E+01  0.2006E+00
2021  8 11 21 40  129.4055   32.1683   546.35  354.071    49.3   24.21  21.05     2.03   301.17  300.91     4.9    568.1    -73.8 -0.7696E+01 -0.1082E-01
2021  8 11 21 30  129.3584   32.1236   493.83  353.561    56.8   24.32  21.18     2.50   301.25  300.97     5.7    530.1   -103.5 -0.5121E+01  0.1809E+00
2021  8 11 21 20  129.3105   32.0738   464.86  352.757    69.8   24.43  21.11     2.74   301.32  301.05     6.7    502.3   -139.6 -0.3598E+01 -0.8132E-01
2021  8 11 21 10  129.2630   32.0255   490.30  352.544    73.8   24.53  21.01     3.33   301.38  301.05     6.6    529.5   -124.1 -0.4268E+01 -0.1590E-01
2021  8 11 21  0  129.2180   31.9752   499.44  352.532    96.0   24.62  20.88     5.66   301.45  300.99     8.0    529.5   -174.6 -0.3033E+01 -0.1267E+00
2021  8 11 20 50  129.1724   31.9215   533.30  352.260   106.0   24.71  20.94     9.04   301.51  300.83     8.7    516.0   -192.6 -0.2679E+01 -0.6739E-01
2021  8 11 20 40  129.1261   31.8644   603.93  351.929   100.5   24.79  21.08     8.18   301.56  300.93     8.4    510.0   -182.6 -0.2792E+01 -0.1869E+00
2021  8 11 20 30  129.0791   31.8057   691.25  352.371   101.4   24.86  21.12     6.04   301.61  301.15     8.5    575.1   -199.6 -0.2882E+01 -0.2138E+00
2021  8 11 20 20  129.0313   31.7460   728.03  352.761   103.5   24.93  21.10     3.51   301.66  301.38     8.5    662.6   -220.0 -0.3012E+01  0.1499E-01
2021  8 11 20 10  128.9831   31.6853   713.05  352.467   108.5   24.98  21.13     3.55   301.69  301.42     8.9    638.1   -246.2 -0.2592E+01  0.5396E-01
2021  8 11 20  0  128.9361   31.6217   715.41  352.324   112.4   25.01  21.18     4.42   301.71  301.39     9.2    622.9   -264.5 -0.2355E+01 -0.4778E-01
2021  8 11 19 50  128.8912   31.5561   749.42  352.290   108.4   25.04  21.26     4.84   301.72  301.37     9.0    635.8   -249.5 -0.2548E+01 -0.1006E+00
2021  8 11 19 40  128.8468   31.4903   788.50  352.400    99.5   25.06  21.31     4.38   301.74  301.40     8.4    675.3   -208.1 -0.3245E+01  0.5654E-01
2021  8 11 19 30  128.8034   31.4245   738.39  352.445    98.1   25.10  21.30     3.50   301.76  301.48     8.2    657.9   -201.7 -0.3261E+01  0.6829E-01
2021  8 11 19 20  128.7633   31.3592   695.65  351.775   103.2   25.13  21.22     3.05   301.78  301.54     8.3    591.4   -211.2 -0.2800E+01  0.1043E+00
2021  8 11 19 10  128.7232   31.2955   726.70  352.202   109.9   25.14  21.12     3.64   301.79  301.51     8.5    636.8   -213.8 -0.2979E+01 -0.1321E+00
2021  8 11 19  0  128.6842   31.2323   712.65  351.898   127.7   25.16  20.98     4.76   301.80  301.47     9.5    596.1   -261.1 -0.2284E+01  0.9746E-01
2021  8 11 18 50  128.6498   31.1655   697.46  351.921   133.7   25.18  20.98     6.09   301.81  301.40     9.8    570.0   -275.5 -0.2069E+01 -0.2600E-01
2021  8 11 18 40  128.6162   31.0999   726.65  351.997   124.1   25.18  21.06     6.36   301.82  301.37     9.3    583.4   -237.4 -0.2458E+01 -0.5247E-01
2021  8 11 18 30  128.5816   31.0360   777.48  351.888   114.7   25.20  21.15     6.25   301.83  301.36     8.8    600.3   -206.5 -0.2907E+01 -0.1492E+00
2021  8 11 18 20  128.5470   30.9735   840.80  351.992   106.9   25.21  21.19     5.73   301.84  301.39     8.2    683.4   -179.1 -0.3816E+01 -0.8077E-01
2021  8 11 18 10  128.5123   30.9111   811.83  351.774   113.5   25.23  21.14     5.13   301.85  301.46     8.6    673.7   -203.7 -0.3307E+01  0.1549E+00
2021  8 11 18  0  128.4785   30.8454   779.38  351.420   127.8   25.25  21.02     4.06   301.86  301.58     9.4    650.4   -258.4 -0.2518E+01  0.5487E-02
2021  8 11 17 50  128.4467   30.7782   797.82  351.228   136.9   25.27  20.92     2.77   301.87  301.68     9.7    662.0   -292.4 -0.2264E+01 -0.8572E-01
2021  8 11 17 40  128.4167   30.7125   832.83  350.977   133.8   25.29  20.87     1.99   301.89  301.75     9.3    683.3   -268.4 -0.2546E+01 -0.1948E-01
2021  8 11 17 30  128.3902   30.6467   797.39  350.716   142.1   25.33  20.85     2.70   301.91  301.73     9.8    642.1   -289.3 -0.2220E+01  0.7998E-01
2021  8 11 17 20  128.3643   30.5785   760.33  350.646   148.7   25.37  20.81     3.29   301.94  301.72    10.0    607.3   -298.1 -0.2037E+01  0.1821E+00
2021  8 11 17 10  128.3393   30.5050   683.67  350.398   171.0   25.41  20.78     4.77   301.96  301.68    11.3    542.1   -393.3 -0.1378E+01  0.6136E-01
2021  8 11 17  0  128.3154   30.4319   707.45  350.359   158.1   25.43  20.77     4.46   301.98  301.70    10.4    548.1   -308.8 -0.1775E+01 -0.9407E-01
2021  8 11 16 50  128.2929   30.3624   780.95  350.551   152.3   25.45  20.78     4.43   302.00  301.71     9.9    599.2   -274.8 -0.2181E+01 -0.1900E+00
2021  8 11 16 40  128.2724   30.2949   824.36  350.662   153.2   25.48  20.78     4.75   302.02  301.70     9.9    637.9   -270.5 -0.2358E+01 -0.4208E-02
2021  8 11 16 30  128.2535   30.2272   823.56  350.532   153.4   25.50  20.75     4.94   302.03  301.70     9.8    637.9   -259.2 -0.2461E+01  0.2446E-01
2021  8 11 16 20  128.2335   30.1597   789.30  350.307   161.4   25.53  20.72     5.71   302.05  301.69    10.2    600.4   -276.6 -0.2170E+01  0.6833E-01
2021  8 11 16 10  128.2152   30.0908   783.31  350.258   165.3   25.56  20.71     6.39   302.07  301.67    10.4    580.6   -281.6 -0.2062E+01 -0.3038E-02
2021  8 11 16  0  128.1983   30.0232   804.03  350.025   159.3   25.58  20.71     6.46   302.09  301.66     9.9    567.7   -248.1 -0.2288E+01 -0.2850E-01
2021  8 11 15 50  128.1819   29.9585   823.90  349.998   154.6   25.60  20.72     6.50   302.10  301.66     9.6    568.4   -226.0 -0.2515E+01 -0.4988E-01
2021  8 11 15 40  128.1661   29.8946   829.20  350.115   159.6   25.62  20.73     7.02   302.12  301.65     9.9    577.6   -241.1 -0.2395E+01  0.7125E-02
2021  8 11 15 30  128.1505   29.8300   838.65  349.996   159.3   25.64  20.75     7.40   302.13  301.64     9.9    572.2   -237.5 -0.2410E+01 -0.5854E-02
2021  8 11 15 20  128.1353   29.7659   831.72  349.886   160.0   25.66  20.77     7.91   302.14  301.62     9.9    564.0   -235.9 -0.2391E+01  0.1746E-01
2021  8 11 15 10  128.1204   29.7035   846.18  350.018   154.0   25.67  20.81     7.95   302.15  301.61     9.6    577.0   -217.9 -0.2648E+01 -0.7052E-01
2021  8 11 15  0  128.1055   29.6430   857.73  350.053   152.2   25.68  20.86     8.16   302.16  301.61     9.6    577.1   -214.9 -0.2685E+01  0.2401E-01
2021  8 11 14 50  128.0898   29.5809   834.78  350.009   158.8   25.70  20.88     9.03   302.18  301.58    10.0    554.6   -236.5 -0.2345E+01  0.2720E-01
2021  8 11 14 40  128.0722   29.5175   841.59  350.016   158.0   25.72  20.89     9.41   302.19  301.57     9.9    558.3   -228.6 -0.2442E+01 -0.9770E-02
2021  8 11 14 30  128.0525   29.4532   817.01  350.196   165.1   25.75  20.86    10.34   302.20  301.54    10.2    538.9   -242.3 -0.2224E+01  0.4272E-01
2021  8 11 14 20  128.0327   29.3871   780.46  350.210   170.1   25.77  20.82    11.43   302.21  301.49    10.4    514.4   -245.5 -0.2095E+01  0.7745E-01
2021  8 11 14 10  128.0126   29.3210   763.16  349.740   163.6   25.79  20.81    11.98   302.22  301.44     9.9    493.6   -209.3 -0.2358E+01  0.6291E-01
2021  8 11 14  0  127.9913   29.2567   756.45  349.730   159.4   25.81  20.82    12.83   302.24  301.37     9.6    481.1   -188.7 -0.2549E+01 -0.4398E-01
2021  8 11 13 50  127.9693   29.1932   781.70  350.032   162.0   25.83  20.87    14.33   302.25  301.30     9.9    486.5   -193.4 -0.2516E+01 -0.5910E-01
2021  8 11 13 40  127.9471   29.1303   822.04  350.097   160.7   25.86  20.93    15.08   302.27  301.27     9.8    497.0   -190.3 -0.2611E+01 -0.7304E-01
2021  8 11 13 30  127.9239   29.0690   849.42  350.365   158.9   25.88  20.97    14.80   302.28  301.30     9.8    520.3   -189.1 -0.2752E+01 -0.4493E-01
2021  8 11 13 20  127.9002   29.0091   838.99  350.442   156.6   25.89  20.95    13.49   302.29  301.38     9.6    531.1   -183.9 -0.2888E+01  0.4476E-01
2021  8 11 13 10  127.8771   28.9500   823.76  349.972   147.4   25.89  20.90    11.73   302.30  301.44     8.9    519.8   -155.0 -0.3353E+01  0.6481E-01
2021  8 11 13  0  127.8545   28.8908   811.64  349.751   145.4   25.89  20.89    11.37   302.30  301.46     8.7    497.4   -148.6 -0.3346E+01 -0.1489E-01
2021  8 11 12 50  127.8343   28.8308   849.13  349.908   147.1   25.89  20.93    11.48   302.30  301.47     8.9    507.7   -158.2 -0.3209E+01 -0.1298E+00
2021  8 11 12 40  127.8158   28.7694   904.71  349.999   152.9   25.88  21.01    11.99   302.30  301.48     9.5    535.3   -187.0 -0.2862E+01 -0.9164E-01
2021  8 11 12 30  127.7979   28.7067   942.85  349.873   150.3   25.89  21.09    11.97   302.30  301.48     9.5    571.0   -190.4 -0.2998E+01 -0.2701E-01
2021  8 11 12 20  127.7811   28.6446   928.65  350.133   144.8   25.88  21.14    11.55   302.30  301.49     9.3    586.3   -182.1 -0.3220E+01  0.7759E-01
2021  8 11 12 10  127.7650   28.5826   890.26  349.549   134.5   25.87  21.21    10.87   302.30  301.49     8.8    554.4   -160.7 -0.3449E+01  0.9771E-01
2021  8 11 12  0  127.7499   28.5217   906.37  349.476   125.2   25.86  21.24     9.38   302.29  301.55     8.2    592.6   -141.9 -0.4175E+01 -0.1446E+00
2021  8 11 11 50  127.7348   28.4629   962.71  349.284   123.4   25.86  21.21     7.86   302.29  301.65     8.1    674.7   -141.1 -0.4782E+01 -0.4955E-01
2021  8 11 11 40  127.7194   28.4040   962.98  349.149   119.9   25.84  21.24     7.67   302.28  301.65     7.9    675.2   -135.7 -0.4975E+01  0.3239E-01
2021  8 11 11 30  127.7014   28.3455   932.36  348.747   104.2   25.84  21.34     6.96   302.27  301.63     7.0    630.8   -103.4 -0.6102E+01  0.6225E-01
2021  8 11 11 20  127.6806   28.2869   910.11  349.042   106.7   25.83  21.33     5.62   302.26  301.76     7.2    670.3   -117.2 -0.5719E+01  0.5095E-03
2021  8 11 11 10  127.6579   28.2277   925.66  348.654   126.0   25.82  20.95     3.89   302.25  301.92     7.8    679.1   -144.4 -0.4703E+01 -0.5481E-01
2021  8 11 11  0  127.6338   28.1681   950.15  348.739   135.4   25.81  20.76     3.27   302.24  301.98     8.1    703.4   -157.7 -0.4461E+01 -0.3942E-01
2021  8 11 10 50  127.6103   28.1087   940.85  348.345   132.3   25.79  20.64     2.79   302.23  302.00     7.7    680.0   -139.6 -0.4870E+01  0.1221E+00
2021  8 11 10 40  127.5886   28.0491   896.78  348.167   136.3   25.78  20.57     2.64   302.23  302.01     7.8    628.9   -144.6 -0.4348E+01  0.9282E-02
2021  8 11 10 30  127.5693   27.9885   885.24  348.443   142.0   25.76  20.55     2.63   302.22  302.01     8.2    618.8   -161.1 -0.3841E+01  0.7025E-02
2021  8 11 10 20  127.5505   27.9258   907.81  348.179   143.9   25.75  20.56     2.91   302.21  301.98     8.3    617.0   -166.6 -0.3702E+01 -0.8512E-01
2021  8 11 10 10  127.5312   27.8621   944.76  348.252   143.1   25.75  20.59     3.02   302.21  301.97     8.3    652.5   -168.0 -0.3885E+01 -0.2037E-01
2021  8 11 10  0  127.5119   27.7965   956.23  347.958   144.1   25.75  20.63     3.26   302.21  301.95     8.5    650.2   -175.2 -0.3712E+01 -0.1898E-01
2021  8 11  9 50  127.4926   27.7299   987.26  348.233   139.3   25.74  20.68     2.92   302.20  301.97     8.3    681.8   -170.1 -0.4009E+01 -0.4367E-01
2021  8 11  9 40  127.4719   27.6630   985.66  348.326   139.4   25.74  20.70     2.75   302.19  301.98     8.4    691.8   -176.1 -0.3929E+01  0.3366E-01
2021  8 11  9 30  127.4500   27.5950   972.41  348.252   142.2   25.72  20.68     2.50   302.19  301.99     8.5    691.6   -185.6 -0.3726E+01 -0.9629E-02
2021  8 11  9 20  127.4283   27.5262   970.36  348.366   145.0   25.71  20.66     2.20   302.18  302.01     8.7    704.8   -196.0 -0.3596E+01  0.2494E-01
2021  8 11  9 10  127.4083   27.4556   955.98  348.374   149.5   25.70  20.66     2.16   302.17  302.01     9.0    704.5   -213.8 -0.3295E+01 -0.7551E-02
2021  8 11  9  0  127.3890   27.3850   964.74  348.247   141.9   25.69  20.67     1.91   302.16  302.01     8.5    706.4   -192.0 -0.3680E+01  0.4142E-01
2021  8 11  8 50  127.3693   27.3144   968.74  348.295   136.3   25.67  20.71     1.93   302.15  302.00     8.3    714.7   -179.3 -0.3985E+01 -0.4296E-01
2021  8 11  8 40  127.3491   27.2423   988.15  348.306   134.9   25.67  20.81     2.04   302.14  301.98     8.4    739.9   -189.8 -0.3898E+01 -0.3896E-01
2021  8 11  8 30  127.3299   27.1684  1008.80  348.190   133.2   25.65  20.80     1.50   302.14  302.02     8.3    752.9   -189.7 -0.3968E+01 -0.2192E-01
2021  8 11  8 20  127.3118   27.0939  1019.34  348.058   138.0   25.64  20.64     0.88   302.13  302.06     8.4    764.6   -190.3 -0.4019E+01  0.4297E-01
2021  8 11  8 10  127.2947   27.0178   993.54  347.941   152.1   25.64  20.49     0.97   302.13  302.05     8.9    735.4   -216.8 -0.3392E+01 -0.1733E-01
2021  8 11  8  0  127.2776   26.9413   985.92  347.880   149.7   25.63  20.44     0.93   302.12  302.05     8.7    723.0   -202.5 -0.3571E+01  0.4681E-01
2021  8 11  7 50  127.2620   26.8644   958.12  347.763   154.5   25.63  20.39     1.37   302.12  302.02     8.9    700.3   -207.0 -0.3384E+01  0.3546E-01
2021  8 11  7 40  127.2460   26.7866   918.76  347.698   152.3   25.63  20.46     2.09   302.11  301.96     8.9    663.1   -202.7 -0.3271E+01  0.1265E+00
2021  8 11  7 30  127.2307   26.7068   878.71  347.713   153.5   25.62  20.48     2.41   302.11  301.93     9.0    623.1   -211.2 -0.2951E+01 -0.3563E-01
2021  8 11  7 20  127.2168   26.6266   897.23  347.549   150.7   25.61  20.49     2.67   302.10  301.90     8.9    616.9   -201.5 -0.3062E+01 -0.2650E-01
2021  8 11  7 10  127.2045   26.5447   935.28  347.381   150.6   25.59  20.52     3.08   302.08  301.85     9.0    650.0   -204.6 -0.3177E+01 -0.1292E-01
2021  8 11  7  0  127.1936   26.4622   950.84  347.344   143.3   25.54  20.53     2.47   302.06  301.87     8.6    664.2   -193.2 -0.3438E+01 -0.6391E-01
2021  8 11  6 50  127.1829   26.3808   959.64  347.254   138.9   25.50  20.58     2.71   302.02  301.81     8.5    662.2   -188.3 -0.3517E+01 -0.2984E-02
2021  8 11  6 40  127.1731   26.2976   968.00  347.389   139.8   25.44  20.61     2.23   301.99  301.82     8.8    666.9   -210.2 -0.3172E+01 -0.2981E-01
2021  8 11  6 30  127.1664   26.2129   969.74  347.437   144.5   25.43  20.58     1.83   301.98  301.84     9.1    659.8   -229.8 -0.2871E+01  0.1977E-01
2021  8 11  6 20  127.1618   26.1268   964.63  347.460   156.4   25.45  20.46     1.63   301.99  301.88     9.5    660.5   -253.6 -0.2605E+01 -0.4747E-01
2021  8 11  6 10  127.1575   26.0404   992.02  347.542   170.0   25.50  20.36     2.19   302.02  301.87    10.0    677.5   -275.6 -0.2458E+01 -0.5945E-01
2021  8 11  6  0  127.1530   25.9533  1027.89  347.787   172.8   25.54  20.38     3.02   302.05  301.85    10.1    707.1   -275.4 -0.2567E+01 -0.1152E+00
2021  8 11  5 50  127.1495   25.8679  1067.40  347.936   167.7   25.60  20.43     3.76   302.09  301.84     9.8    729.4   -247.6 -0.2946E+01  0.6790E-01
2021  8 11  5 40  127.1454   25.7820  1037.32  347.651   170.5   25.67  20.45     4.82   302.13  301.81     9.8    705.2   -241.7 -0.2918E+01  0.9792E-01
2021  8 11  5 30  127.1391   25.6946  1026.54  347.618   169.2   25.72  20.48     5.48   302.16  301.79     9.7    699.3   -227.8 -0.3070E+01 -0.2194E-01
2021  8 11  5 20  127.1318   25.6068  1007.94  347.625   174.5   25.76  20.52     6.05   302.19  301.79    10.0    689.3   -243.8 -0.2827E+01  0.3447E-01
2021  8 11  5 10  127.1261   25.5168  1009.49  347.651   177.9   25.79  20.54     6.41   302.21  301.80    10.2    692.1   -250.7 -0.2761E+01  0.8715E-01
2021  8 11  5  0  127.1219   25.4234  1019.97  347.651   196.5   25.82  20.50     7.38   302.23  301.79    11.1    693.7   -308.9 -0.2246E+01 -0.1755E+00
2021  8 11  4 50  127.1172   25.3297  1069.13  347.708   188.6   25.83  20.42     6.82   302.24  301.81    10.4    715.3   -260.7 -0.2744E+01  0.1419E-01
2021  8 11  4 40  127.1125   25.2346  1045.64  347.517   199.0   25.85  20.29     7.13   302.25  301.82    10.7    686.7   -272.3 -0.2522E+01  0.4282E-01
2021  8 11  4 30  127.1087   25.1388  1026.18  347.540   200.7   25.85  20.17     6.95   302.26  301.82    10.5    652.8   -253.5 -0.2575E+01  0.9884E-02
2021  8 11  4 20  127.1072   25.0420  1021.80  347.604   208.5   25.86  20.11     7.81   302.26  301.78    10.7    641.9   -263.8 -0.2433E+01 -0.4303E-01
2021  8 11  4 10  127.1081   24.9448  1028.63  347.773   205.2   25.85  20.11     8.07   302.26  301.76    10.6    635.2   -252.3 -0.2518E+01 -0.5335E-02
2021  8 11  4  0  127.1100   24.8454   970.55  347.973   229.2   25.86  20.06     9.94   302.25  301.70    11.7    573.9   -318.9 -0.1799E+01  0.1288E+00
2021  8 11  3 50  127.1126   24.7422   976.39  348.059   235.0   25.85  19.99    10.76   302.25  301.66    11.8    551.7   -321.1 -0.1718E+01 -0.4429E-01
2021  8 11  3 40  127.1171   24.6402  1035.64  347.960   232.1   25.85  19.92    11.15   302.25  301.62    11.5    547.0   -294.2 -0.1860E+01 -0.1042E+00
2021  8 11  3 30  127.1228   24.5404  1101.46  348.054   219.9   25.84  19.89    10.94   302.26  301.60    10.9    556.0   -247.6 -0.2245E+01 -0.1143E+00
2021  8 11  3 20  127.1276   24.4435  1097.07  348.223   220.0   25.86  19.88    11.96   302.27  301.55    10.8    538.3   -238.6 -0.2256E+01 -0.2195E-01
2021  8 11  3 10  127.1326   24.3465  1124.88  348.172   214.0   25.88  19.88    12.65   302.28  301.50    10.5    530.4   -212.6 -0.2495E+01  0.2257E-01
2021  8 11  3  0  127.1372   24.2493  1111.11  348.136   206.6   25.91  19.83    12.53   302.31  301.49    10.0    515.0   -181.9 -0.2831E+01  0.2371E-02
2021  8 11  2 50  127.1399   24.1529  1110.50  348.084   202.2   25.97  19.79    11.90   302.33  301.53     9.6    507.4   -163.3 -0.3107E+01  0.9967E-01
2021  8 11  2 40  127.1423   24.0570  1092.23  348.258   204.0   26.01  19.76    12.22   302.36  301.53     9.5    508.0   -159.5 -0.3184E+01 -0.1315E+00
2021  8 11  2 30  127.1461   23.9620  1108.96  348.358   210.2   26.04  19.77    13.03   302.39  301.52     9.8    530.3   -167.9 -0.3159E+01  0.4086E-01
2021  8 11  2 20  127.1535   23.8651  1149.84  348.317   208.2   26.06  19.76    13.19   302.40  301.51     9.6    552.7   -159.7 -0.3462E+01  0.6890E-01
2021  8 11  2 10  127.1627   23.7673  1161.71  348.430   212.3   26.08  19.78    13.52   302.41  301.52     9.9    559.4   -168.7 -0.3316E+01 -0.3647E-01
2021  8 11  2  0  127.1740   23.6692  1120.29  348.635   227.4   26.09  19.82    14.84   302.41  301.51    10.6    529.2   -204.9 -0.2583E+01  0.1316E+00
2021  8 11  1 50  127.1852   23.5698  1108.49  348.560   236.3   26.10  19.81    16.38   302.41  301.45    11.0    496.3   -219.7 -0.2259E+01 -0.7613E-02
2021  8 11  1 40  127.1961   23.4708  1116.30  348.552   234.8   26.09  19.76    17.00   302.41  301.40    10.8    487.5   -207.9 -0.2345E+01 -0.3193E-01
2021  8 11  1 30  127.2065   23.3732  1109.66  348.596   226.8   26.09  19.78    17.42   302.42  301.34    10.5    486.1   -185.5 -0.2621E+01  0.6227E-01
2021  8 11  1 20  127.2157   23.2757  1053.90  348.809   219.2   26.09  19.92    17.86   302.42  301.31    10.4    470.0   -183.6 -0.2559E+01  0.2195E+00
2021  8 11  1 10  127.2249   23.1751   944.02  348.865   250.5   26.10  19.96    21.89   302.42  301.23    11.9    419.0   -261.2 -0.1604E+01  0.3228E-01
2021  8 11  1  0  127.2347   23.0726   973.28  348.960   246.5   26.11  20.00    23.40   302.42  301.14    11.8    417.0   -247.8 -0.1683E+01 -0.1463E+00
2021  8 11  0 50  127.2461   22.9705  1037.39  349.255   225.3   26.11  19.98    20.55   302.43  301.19    10.8    433.9   -197.3 -0.2200E+01 -0.2059E+00
2021  8 11  0 40  127.2559   22.8741  1006.79  349.252   227.2   26.10  19.78    19.54   302.43  301.22    10.5    396.5   -182.1 -0.2177E+01  0.4267E+00
2021  8 11  0 30  127.2673   22.7782   886.81  348.936   312.2   26.13  19.35    30.44   302.44  300.95    13.2    322.4   -300.5 -0.1073E+01  0.7897E-01
2021  8 11  0 20  127.2800   22.6783   969.90  348.413   300.4   26.15  19.57    42.94   302.44  300.34    13.0    320.1   -254.0 -0.1260E+01 -0.4348E+00
2021  8 11  0 10  127.2938   22.5805  1255.32  348.086   250.8   26.13  19.78    44.24   302.45  299.95    11.2    319.9   -158.3 -0.2021E+01 -0.7305E+00
2021  8 11  0  0  127.3146   22.4865  1423.38  348.043   183.4   26.13  20.38    37.89   302.45  299.84     9.2    336.7    -94.9 -0.3546E+01 -0.4935E+00
