2021  8 12  0  0  129.9759   32.6833   500.00  353.714    57.0   22.76  19.16    11.02   300.17  298.69     4.5    385.9    -31.7 -0.1216E+02  0.1195E-01
2021  8 11 23 50  129.9547   32.6646   494.21  353.570    39.7   22.77  19.10     7.73   300.18  298.65     2.9    388.0    -13.7 -0.2827E+02 -0.1030E-01
2021  8 11 23 40  129.9287   32.6475   522.35  353.894    37.2   22.79  18.99     7.24   300.17  298.59     2.5    384.0    -10.3 -0.3724E+02 -0.7099E-01
2021  8 11 23 30  129.9018   32.6256   548.92  353.712    32.0   22.79  18.92     5.84   300.17  298.65     2.0    398.6     -7.0 -0.5657E+02 -0.3879E-01
2021  8 11 23 20  129.8752   32.5954   524.70  353.495    22.5   22.78  18.98     3.85   300.19  298.81     1.3    394.5     -3.6 -0.1094E+03  0.6168E-01
2021  8 11 23 10  129.8496   32.5614   513.50  353.380    22.3   22.84  19.11     3.65   300.22  298.91     1.3    371.3     -3.7 -0.1014E+03  0.1779E-01
2021  8 11 23  0  129.8217   32.5234   478.25  353.575    24.9   22.91  19.19     3.74   300.26  299.07     1.5    381.2     -5.0 -0.7661E+02  0.8326E-01
2021  8 11 22 50  129.7842   32.4881   452.52  353.367    49.9   23.00  19.37     7.38   300.33  299.18     3.8    360.8    -26.3 -0.1373E+02  0.9614E-01
2021  8 11 22 40  129.7338   32.4538   389.65  353.530    69.2   23.16  19.63    11.93   300.44  299.16     5.7    338.3    -57.3 -0.5905E+01 -0.1398E+00
2021  8 11 22 30  129.6824   32.4162   450.43  354.197    71.6   23.37  19.80    11.83   300.60  299.34     5.9    328.5    -61.5 -0.5342E+01 -0.1714E+00
2021  8 11 22 20  129.6325   32.3763   517.55  354.386    74.2   23.59  19.93    11.73   300.75  299.53     6.0    349.4    -63.4 -0.5513E+01 -0.2278E+00
2021  8 11 22 10  129.5820   32.3329   571.52  354.570    69.8   23.77  20.06    10.98   300.87  299.64     5.5    356.3    -52.3 -0.6814E+01 -0.9999E-01
2021  8 11 22  0  129.5328   32.2896   622.86  355.056    57.1   23.90  20.15     8.58   300.96  299.78     4.4    377.9    -33.1 -0.1142E+02 -0.9649E-01
2021  8 11 21 50  129.4843   32.2483   602.17  355.267    52.8   24.02  20.43     6.72   301.04  300.10     4.3    452.1    -36.0 -0.1257E+02  0.1204E+00
2021  8 11 21 40  129.4344   32.2069   571.45  354.997    51.9   24.13  20.68     3.80   301.12  300.60     4.5    558.5    -50.5 -0.1107E+02 -0.1152E+00
2021  8 11 21 30  129.3835   32.1624   579.34  355.436    57.6   24.25  20.88     3.07   301.20  300.83     5.2    619.7    -76.4 -0.8107E+01  0.2052E-01
2021  8 11 21 20  129.3350   32.1127   492.87  355.770    69.0   24.37  20.93     4.24   301.27  300.84     6.3    531.2   -105.7 -0.5024E+01  0.1089E+00
2021  8 11 21 10  129.2857   32.0614   483.04  355.724    69.9   24.48  20.92     4.23   301.35  300.90     6.1    562.7    -96.5 -0.5828E+01 -0.4542E-01
2021  8 11 21  0  129.2383   32.0105   509.08  355.591    71.2   24.57  20.99     3.73   301.41  301.02     6.2    625.8   -102.6 -0.6099E+01 -0.5065E-01
2021  8 11 20 50  129.1917   31.9576   530.33  355.293    82.0   24.67  21.06     3.55   301.48  301.15     7.2    675.6   -150.8 -0.4481E+01  0.3754E-01
2021  8 11 20 40  129.1456   31.9025   507.35  355.027   108.7   24.75  20.96     4.77   301.53  301.19     9.0    619.5   -247.9 -0.2499E+01  0.1891E-01
2021  8 11 20 30  129.0984   31.8443   518.88  355.008   117.1   24.83  20.98     5.45   301.59  301.21     9.5    590.6   -276.9 -0.2133E+01 -0.7020E-01
2021  8 11 20 20  129.0500   31.7851   584.95  354.565   112.6   24.90  20.99     4.91   301.64  301.28     9.0    624.0   -239.6 -0.2605E+01 -0.7879E-01
2021  8 11 20 10  129.0016   31.7255   612.40  354.602   110.9   24.96  21.00     3.83   301.67  301.39     8.7    647.8   -228.7 -0.2832E+01 -0.3440E-01
2021  8 11 20  0  128.9538   31.6637   598.51  354.761   117.8   25.00  21.06     4.66   301.70  301.37     9.3    637.9   -266.3 -0.2395E+01 -0.3154E-02
2021  8 11 19 50  128.9081   31.5988   592.41  354.633   116.2   25.03  21.13     5.30   301.72  301.35     9.3    608.6   -260.9 -0.2333E+01  0.1839E-01
2021  8 11 19 40  128.8647   31.5325   605.10  354.759   110.7   25.05  21.20     5.56   301.73  301.33     9.0    618.6   -237.7 -0.2602E+01 -0.6364E-01
2021  8 11 19 30  128.8232   31.4681   594.01  354.988   102.2   25.08  21.26     5.31   301.75  301.34     8.4    615.3   -199.4 -0.3086E+01  0.6253E-01
2021  8 11 19 20  128.7850   31.4035   587.79  354.492    93.2   25.11  21.32     4.79   301.77  301.37     7.7    588.0   -163.7 -0.3592E+01  0.2939E-01
2021  8 11 19 10  128.7473   31.3391   610.07  354.731    89.6   25.13  21.40     4.37   301.78  301.40     7.6    656.9   -160.6 -0.4092E+01 -0.1335E+00
2021  8 11 19  0  128.7100   31.2751   621.27  354.475    97.0   25.15  21.35     3.83   301.79  301.48     8.0    666.6   -190.1 -0.3507E+01  0.1244E+00
2021  8 11 18 50  128.6786   31.2084   573.80  354.623   115.8   25.17  21.20     4.23   301.80  301.50     9.2    630.9   -253.9 -0.2485E+01  0.1986E-01
2021  8 11 18 40  128.6488   31.1420   590.63  354.350   123.6   25.17  21.08     4.52   301.81  301.49     9.4    643.3   -264.9 -0.2428E+01 -0.4364E-01
2021  8 11 18 30  128.6164   31.0770   609.47  354.363   130.4   25.18  21.03     5.19   301.82  301.47     9.8    655.4   -281.0 -0.2333E+01 -0.3976E-01
2021  8 11 18 20  128.5827   31.0122   643.51  354.252   127.3   25.20  21.04     6.25   301.83  301.40     9.5    661.5   -249.3 -0.2654E+01 -0.7869E-01
2021  8 11 18 10  128.5495   30.9489   662.43  354.039   116.1   25.22  21.10     6.38   301.84  301.37     8.7    676.0   -199.5 -0.3389E+01  0.5228E-01
2021  8 11 18  0  128.5176   30.8835   620.32  354.200   126.1   25.24  21.08     5.79   301.85  301.45     9.4    637.1   -245.7 -0.2593E+01 -0.7722E-02
2021  8 11 17 50  128.4852   30.8143   628.29  354.021   138.4   25.26  20.95     3.80   301.87  301.61     9.9    644.3   -300.3 -0.2146E+01 -0.4576E-01
2021  8 11 17 40  128.4549   30.7453   649.46  354.050   135.0   25.28  20.88     2.27   301.88  301.72     9.5    672.8   -278.0 -0.2420E+01 -0.2065E-01
2021  8 11 17 30  128.4299   30.6772   641.04  353.743   137.0   25.31  20.84     2.59   301.90  301.72     9.4    652.4   -265.4 -0.2458E+01  0.6636E-01
2021  8 11 17 20  128.4065   30.6079   595.62  353.909   144.2   25.35  20.83     3.24   301.93  301.71     9.8    610.5   -281.7 -0.2167E+01  0.1336E+00
2021  8 11 17 10  128.3843   30.5344   540.73  353.332   166.6   25.40  20.78     4.72   301.96  301.67    11.0    552.2   -366.5 -0.1507E+01  0.6884E-01
2021  8 11 17  0  128.3627   30.4591   541.22  353.137   165.5   25.43  20.74     4.93   301.98  301.68    10.8    549.1   -338.2 -0.1624E+01 -0.9363E-01
2021  8 11 16 50  128.3402   30.3868   585.38  353.376   162.3   25.45  20.75     5.11   302.00  301.68    10.5    575.3   -314.3 -0.1830E+01 -0.1185E+00
2021  8 11 16 40  128.3203   30.3162   627.66  353.484   157.9   25.48  20.76     5.21   302.01  301.68    10.2    608.5   -284.2 -0.2141E+01 -0.3097E-01
2021  8 11 16 30  128.3026   30.2463   654.44  353.544   152.8   25.50  20.73     5.17   302.03  301.69     9.8    638.2   -251.5 -0.2538E+01 -0.2099E-01
2021  8 11 16 20  128.2843   30.1766   630.96  353.234   164.2   25.54  20.69     6.11   302.05  301.67    10.3    599.9   -279.2 -0.2148E+01  0.5453E-01
2021  8 11 16 10  128.2674   30.1055   633.67  353.155   167.3   25.57  20.67     6.73   302.07  301.65    10.4    585.2   -276.5 -0.2116E+01 -0.2618E-01
2021  8 11 16  0  128.2517   30.0356   650.57  353.004   163.1   25.59  20.66     6.84   302.09  301.65    10.0    580.9   -248.9 -0.2334E+01 -0.1271E-01
2021  8 11 15 50  128.2369   29.9673   657.13  352.907   160.7   25.61  20.66     7.01   302.11  301.64     9.8    579.9   -233.5 -0.2484E+01 -0.2356E-01
2021  8 11 15 40  128.2231   29.8999   666.24  352.938   162.1   25.63  20.67     7.41   302.12  301.63     9.9    576.9   -234.1 -0.2464E+01  0.1144E-02
2021  8 11 15 30  128.2094   29.8315   665.93  352.858   166.0   25.65  20.65     8.03   302.14  301.61    10.0    559.6   -238.6 -0.2345E+01  0.8753E-02
2021  8 11 15 20  128.1967   29.7635   676.93  352.777   164.0   25.67  20.64     8.36   302.15  301.60     9.8    552.8   -223.3 -0.2476E+01 -0.6944E-01
2021  8 11 15 10  128.1836   29.6980   693.02  352.964   158.5   25.69  20.66     8.30   302.16  301.59     9.5    559.8   -204.0 -0.2744E+01  0.3018E-02
2021  8 11 15  0  128.1709   29.6336   692.96  352.963   157.3   25.70  20.70     8.65   302.17  301.58     9.5    544.3   -202.0 -0.2694E+01  0.6651E-02
2021  8 11 14 50  128.1577   29.5686   689.28  352.931   161.5   25.71  20.75     9.49   302.19  301.55     9.8    531.2   -217.5 -0.2442E+01 -0.7829E-02
2021  8 11 14 40  128.1422   29.5027   683.74  352.892   166.2   25.74  20.76    10.45   302.20  301.52    10.1    511.6   -227.3 -0.2251E+01  0.4737E-01
2021  8 11 14 30  128.1253   29.4348   661.06  352.817   176.4   25.76  20.74    11.94   302.21  301.48    10.6    482.2   -252.4 -0.1910E+01  0.1648E-01
2021  8 11 14 20  128.1082   29.3657   662.17  353.143   180.0   25.79  20.72    12.86   302.22  301.44    10.7    485.9   -252.8 -0.1922E+01 -0.4409E-01
2021  8 11 14 10  128.0903   29.2979   668.66  353.195   177.9   25.81  20.69    13.09   302.24  301.42    10.5    485.9   -234.9 -0.2069E+01  0.2272E-01
2021  8 11 14  0  128.0712   29.2314   659.94  352.916   172.8   25.82  20.65    12.98   302.25  301.40    10.0    475.3   -206.0 -0.2308E+01  0.5561E-01
2021  8 11 13 50  128.0513   29.1653   645.50  352.823   173.6   25.85  20.63    13.67   302.26  301.37    10.0    460.3   -198.0 -0.2325E+01 -0.5247E-02
2021  8 11 13 40  128.0321   29.0998   648.24  352.940   169.9   25.87  20.67    14.27   302.28  301.33     9.8    471.0   -185.1 -0.2544E+01 -0.1193E-01
2021  8 11 13 30  128.0138   29.0355   661.72  352.862   163.8   25.88  20.71    14.82   302.29  301.27     9.5    472.5   -167.9 -0.2813E+01 -0.1171E-01
2021  8 11 13 20  127.9944   28.9725   676.82  352.898   161.7   25.88  20.77    15.60   302.29  301.22     9.5    474.8   -165.1 -0.2876E+01 -0.5578E-01
2021  8 11 13 10  127.9743   28.9107   693.70  353.402   160.8   25.87  20.81    15.65   302.29  301.22     9.5    490.8   -168.7 -0.2908E+01 -0.5066E-01
2021  8 11 13  0  127.9528   28.8502   706.65  353.463   154.7   25.86  20.83    14.82   302.28  301.24     9.2    503.6   -157.7 -0.3193E+01  0.2546E-01
2021  8 11 12 50  127.9318   28.7905   703.15  353.334   151.5   25.85  20.86    14.13   302.28  301.27     9.1    507.8   -155.4 -0.3267E+01 -0.5471E-02
2021  8 11 12 40  127.9126   28.7295   714.03  353.623   154.3   25.84  20.91    13.81   302.28  301.32     9.4    519.6   -172.9 -0.3005E+01 -0.5086E-01
2021  8 11 12 30  127.8959   28.6665   739.27  353.629   159.0   25.84  20.86    13.23   302.27  301.38     9.6    519.8   -186.5 -0.2787E+01 -0.2177E-01
2021  8 11 12 20  127.8836   28.6020   766.72  353.572   160.4   25.83  20.81    12.69   302.27  301.41     9.6    519.0   -186.6 -0.2782E+01 -0.4506E-01
2021  8 11 12 10  127.8743   28.5378   799.98  353.798   158.7   25.81  20.76    12.20   302.26  301.42     9.5    523.4   -179.8 -0.2911E+01 -0.4685E-01
2021  8 11 12  0  127.8652   28.4757   782.88  354.171   146.9   25.79  20.70    11.03   302.25  301.42     8.7    517.4   -145.5 -0.3555E+01  0.7851E-01
2021  8 11 11 50  127.8557   28.4162   762.42  353.860   136.6   25.78  20.69    10.31   302.24  301.40     8.0    487.3   -119.3 -0.4084E+01  0.4134E-01
2021  8 11 11 40  127.8463   28.3575   779.23  354.036   133.4   25.76  20.76     9.82   302.23  301.43     8.0    502.0   -121.0 -0.4149E+01 -0.9133E-01
2021  8 11 11 30  127.8372   28.2988   810.94  354.565   131.7   25.74  20.88     9.40   302.21  301.47     8.1    536.5   -133.0 -0.4033E+01 -0.5261E-01
2021  8 11 11 20  127.8259   28.2412   785.49  354.607   120.0   25.72  20.96     8.65   302.20  301.46     7.6    529.9   -113.9 -0.4653E+01  0.1422E+00
2021  8 11 11 10  127.8109   28.1844   729.08  354.894   117.8   25.71  21.00     8.32   302.19  301.47     7.5    513.7   -114.5 -0.4488E+01  0.5610E-01
2021  8 11 11  0  127.7917   28.1268   693.53  354.861   123.5   25.70  21.02     8.34   302.18  301.50     8.0    501.6   -134.7 -0.3724E+01  0.4552E-01
2021  8 11 10 50  127.7703   28.0680   695.71  354.981   124.5   25.68  21.01     8.13   302.16  301.51     8.1    506.4   -139.7 -0.3625E+01 -0.4434E-01
2021  8 11 10 40  127.7510   28.0089   744.91  355.144   124.9   25.66  21.01     7.99   302.15  301.52     8.1    521.8   -143.6 -0.3635E+01 -0.9882E-01
2021  8 11 10 30  127.7357   27.9495   783.89  355.221   125.0   25.63  21.01     7.96   302.14  301.51     8.2    530.9   -146.8 -0.3616E+01 -0.3703E-01
2021  8 11 10 20  127.7217   27.8897   800.54  355.699   123.9   25.60  21.01     8.14   302.12  301.48     8.2    544.2   -146.6 -0.3713E+01 -0.3052E-01
2021  8 11 10 10  127.7059   27.8297   812.62  355.685   120.7   25.59  21.06     8.52   302.11  301.43     8.1    546.5   -141.4 -0.3866E+01  0.4529E-02
2021  8 11 10  0  127.6876   27.7687   816.14  356.162   118.7   25.58  21.12     8.59   302.10  301.41     8.1    580.1   -142.8 -0.4062E+01 -0.4273E-01
2021  8 11  9 50  127.6681   27.7071   805.76  356.587   119.6   25.57  21.15     7.23   302.10  301.53     8.3    648.9   -159.2 -0.4075E+01  0.6201E-01
2021  8 11  9 40  127.6507   27.6437   769.18  356.587   124.4   25.58  21.08     5.75   302.10  301.65     8.5    691.7   -176.4 -0.3921E+01  0.8044E-01
2021  8 11  9 30  127.6366   27.5774   714.12  357.058   129.4   25.57  21.01     4.13   302.09  301.78     8.7    734.4   -197.1 -0.3726E+01  0.1240E+00
2021  8 11  9 20  127.6256   27.5089   643.40  357.198   135.9   25.56  20.95     3.71   302.08  301.81     9.0    730.7   -221.0 -0.3306E+01  0.9884E-01
2021  8 11  9 10  127.6148   27.4396   579.40  356.747   135.7   25.55  20.89     3.34   302.07  301.83     8.9    684.7   -213.8 -0.3203E+01  0.1364E+00
2021  8 11  9  0  127.6044   27.3693   530.49  356.459   135.2   25.53  20.87     3.22   302.06  301.83     8.8    634.4   -212.1 -0.2991E+01  0.4246E-01
2021  8 11  8 50  127.5944   27.2996   514.17  356.707   132.0   25.52  20.88     3.23   302.05  301.81     8.7    632.5   -204.1 -0.3099E+01 -0.1449E-01
2021  8 11  8 40  127.5844   27.2298   520.84  356.765   127.8   25.51  20.92     3.41   302.04  301.78     8.5    629.9   -192.9 -0.3266E+01  0.3697E-03
2021  8 11  8 30  127.5743   27.1598   506.73  356.786   124.8   25.49  20.93     3.18   302.03  301.79     8.4    608.9   -187.9 -0.3240E+01  0.4927E-01
2021  8 11  8 20  127.5627   27.0881   500.23  356.392   130.3   25.49  20.96     3.31   302.03  301.78     8.8    592.6   -215.3 -0.2752E+01 -0.3569E-01
2021  8 11  8 10  127.5520   27.0138   537.47  356.479   132.0   25.46  20.95     2.78   302.02  301.81     9.0    659.7   -231.2 -0.2853E+01 -0.8319E-01
2021  8 11  8  0  127.5445   26.9390   557.04  356.303   131.9   25.44  20.91     1.99   302.00  301.85     8.9    679.0   -235.6 -0.2882E+01  0.8678E-02
2021  8 11  7 50  127.5376   26.8648   544.40  356.123   135.2   25.42  20.82     1.40   301.99  301.88     9.0    668.6   -243.1 -0.2750E+01  0.1721E-01
2021  8 11  7 40  127.5300   26.7910   536.55  356.057   140.2   25.40  20.75     1.01   301.97  301.90     9.2    664.1   -259.2 -0.2562E+01  0.1204E-01
2021  8 11  7 30  127.5233   26.7163   525.17  356.012   146.6   25.38  20.71     1.00   301.95  301.89     9.6    650.4   -285.9 -0.2275E+01  0.1379E-01
2021  8 11  7 20  127.5164   26.6407   525.37  355.785   145.1   25.35  20.71     1.17   301.94  301.85     9.6    636.8   -282.6 -0.2253E+01  0.3271E-02
2021  8 11  7 10  127.5098   26.5652   540.29  355.560   140.3   25.33  20.71     1.01   301.92  301.85     9.3    651.0   -266.4 -0.2443E+01 -0.4489E-01
2021  8 11  7  0  127.5026   26.4921   578.88  355.630   128.4   25.32  20.72     0.69   301.92  301.86     8.5    678.8   -218.9 -0.3101E+01 -0.8906E-01
2021  8 11  6 50  127.4951   26.4201   568.39  355.723   135.8   25.34  20.75     1.19   301.93  301.84     9.0    660.5   -247.2 -0.2671E+01  0.9997E-01
2021  8 11  6 40  127.4902   26.3422   524.32  355.412   151.5   25.38  20.76     1.96   301.95  301.82    10.0    599.9   -311.2 -0.1928E+01  0.6041E-01
2021  8 11  6 30  127.4880   26.2616   528.04  355.293   151.7   25.42  20.74     2.08   301.97  301.84     9.9    603.5   -298.1 -0.2025E+01 -0.3143E-01
2021  8 11  6 20  127.4869   26.1825   527.16  355.062   154.8   25.47  20.70     2.61   302.00  301.83     9.9    593.6   -285.5 -0.2079E+01 -0.7445E-02
2021  8 11  6 10  127.4855   26.1048   557.17  354.979   150.9   25.52  20.65     2.93   302.04  301.84     9.4    616.1   -243.1 -0.2534E+01 -0.4551E-01
2021  8 11  6  0  127.4828   26.0285   570.02  355.079   153.6   25.57  20.62     3.42   302.08  301.84     9.4    622.4   -233.7 -0.2663E+01 -0.1155E-02
2021  8 11  5 50  127.4794   25.9499   574.95  354.968   166.1   25.63  20.61     4.56   302.11  301.81    10.0    621.7   -263.4 -0.2360E+01 -0.5780E-01
2021  8 11  5 40  127.4755   25.8703   590.41  354.954   164.1   25.68  20.62     4.89   302.14  301.82     9.8    635.2   -243.0 -0.2614E+01  0.5137E-02
2021  8 11  5 30  127.4725   25.7907   594.31  354.841   161.8   25.73  20.62     5.29   302.18  301.82     9.6    629.1   -224.1 -0.2807E+01  0.3561E-01
2021  8 11  5 20  127.4714   25.7080   559.01  354.735   183.9   25.77  20.59     7.10   302.20  301.77    10.7    590.3   -285.6 -0.2067E+01  0.1798E-01
2021  8 11  5 10  127.4702   25.6219   562.55  354.887   186.6   25.80  20.56     8.29   302.22  301.72    10.7    584.7   -275.6 -0.2122E+01 -0.2057E-01
2021  8 11  5  0  127.4676   25.5358   565.89  355.113   183.3   25.82  20.63     9.60   302.24  301.65    10.6    578.0   -261.6 -0.2210E+01  0.1159E-01
2021  8 11  4 50  127.4659   25.4456   579.95  355.174   180.4   25.83  20.76    10.57   302.25  301.60    10.7    583.0   -267.1 -0.2182E+01 -0.9567E-01
2021  8 11  4 40  127.4650   25.3551   577.19  354.992   175.8   25.84  20.85    10.60   302.25  301.60    10.6    578.9   -265.9 -0.2178E+01  0.1188E+00
2021  8 11  4 30  127.4669   25.2628   540.96  354.626   174.5   25.83  20.82     9.67   302.24  301.64    10.5    554.2   -264.4 -0.2096E+01  0.4266E-01
2021  8 11  4 20  127.4716   25.1735   531.65  354.145   179.0   25.82  20.65     9.34   302.24  301.65    10.4    536.6   -251.4 -0.2134E+01  0.1697E-01
2021  8 11  4 10  127.4790   25.0860   520.00  353.801   186.8   25.81  20.54    10.67   302.23  301.58    10.6    507.2   -254.5 -0.1992E+01  0.7020E-01
2021  8 11  4  0  127.4889   24.9975   512.09  353.431   187.0   25.81  20.61    12.62   302.23  301.47    10.8    475.9   -255.4 -0.1864E+01  0.1302E-01
2021  8 11  3 50  127.4983   24.9070   516.15  353.372   186.6   25.80  20.70    14.26   302.23  301.38    11.0    443.7   -263.8 -0.1682E+01 -0.9519E-01
2021  8 11  3 40  127.5070   24.8147   564.53  353.587   174.9   25.79  20.78    14.41   302.23  301.33    10.5    463.5   -231.6 -0.2001E+01 -0.1017E+00
2021  8 11  3 30  127.5122   24.7227   585.91  353.775   172.2   25.79  20.78    14.13   302.23  301.34    10.3    483.7   -223.9 -0.2160E+01 -0.2583E-01
2021  8 11  3 20  127.5162   24.6310   605.41  353.594   175.4   25.79  20.70    14.69   302.23  301.30    10.4    492.8   -219.8 -0.2242E+01 -0.1849E-01
2021  8 11  3 10  127.5223   24.5391   602.04  353.208   175.2   25.78  20.73    16.60   302.23  301.19    10.4    470.0   -214.0 -0.2197E+01  0.2951E-01
2021  8 11  3  0  127.5308   24.4481   612.13  353.286   164.8   25.80  20.80    17.31   302.24  301.10     9.9    458.7   -182.7 -0.2511E+01  0.1307E-01
2021  8 11  2 50  127.5395   24.3587   591.00  353.042   164.4   25.82  20.80    18.93   302.25  301.00     9.9    424.6   -173.3 -0.2450E+01  0.6890E-01
2021  8 11  2 40  127.5472   24.2723   553.30  353.118   166.2   25.84  20.76    21.24   302.27  300.86     9.8    378.0   -160.7 -0.2353E+01  0.5071E-01
2021  8 11  2 30  127.5566   24.1875   572.60  353.322   172.8   25.85  20.65    25.56   302.27  300.60     9.9    361.3   -150.0 -0.2408E+01 -0.2840E+00
2021  8 11  2 20  127.5688   24.1031   719.80  353.634   156.1   25.86  20.51    26.08   302.28  300.33     8.6    372.6    -96.7 -0.3854E+01 -0.2358E+00
2021  8 11  2 10  127.5810   24.0206   796.06  355.372   138.5   25.87  20.27    23.47   302.29  300.20     7.1    386.7    -58.4 -0.6625E+01  0.1720E+00
2021  8 11  2  0  127.5912   23.9420   683.77  357.171   130.0   25.90  20.13    23.94   302.30  299.96     6.3    366.3    -41.6 -0.8815E+01  0.1821E+00
2021  8 11  1 50  127.5952   23.8666   623.14  357.664   106.2   25.92  20.06    20.82   302.31  299.78     4.8    356.7    -22.7 -0.1571E+02 -0.1356E+00
2021  8 11  1 40  127.5953   23.7951   567.62  358.081   109.3   25.94  20.50    16.58   302.32  300.49     5.7    432.4    -39.1 -0.1107E+02  0.5762E-01
2021  8 11  1 30  127.5940   23.7291   444.62  358.817   137.0   25.95  20.79    10.66   302.34  301.46     7.9    645.2   -114.6 -0.5630E+01  0.1430E+00
2021  8 11  1 20  127.5916   23.6626   367.00  359.126   168.2   25.97  20.82    12.45   302.35  301.52     9.8    571.7   -196.1 -0.2916E+01  0.1947E-01
2021  8 11  1 10  127.5881   23.5923   343.73  359.387   171.7   25.99  20.86    13.63   302.36  301.48    10.1    581.5   -204.9 -0.2839E+01  0.5311E-01
2021  8 11  1  0  127.5824   23.5175   316.62  359.298   181.3   26.02  20.87    14.11   302.38  301.51    10.6    573.1   -238.4 -0.2404E+01  0.5915E-01
2021  8 11  0 50  127.5757   23.4402   303.74  359.187   190.6   26.05  20.84    16.03   302.40  301.45    11.0    562.1   -253.5 -0.2217E+01  0.2182E-01
2021  8 11  0 40  127.5706   23.3626   280.86  359.072   199.6   26.08  20.79    17.77   302.42  301.40    11.3    557.0   -263.0 -0.2118E+01  0.4734E-01
2021  8 11  0 30  127.5686   23.2828   266.35  358.772   215.2   26.12  20.76    20.25   302.44  301.34    12.0    533.2   -299.4 -0.1781E+01  0.7314E-02
2021  8 11  0 20  127.5649   23.2005   250.48  358.516   220.6   26.13  20.76    22.42   302.45  301.26    12.2    515.0   -305.6 -0.1685E+01  0.1711E-01
2021  8 11  0 10  127.5590   23.1158   250.98  358.222   236.0   26.15  20.72    26.32   302.46  301.14    12.9    508.8   -337.4 -0.1508E+01 -0.1133E-01
2021  8 11  0  0  127.5543   23.0283   262.13  357.680   240.4   26.15  20.65    28.59   302.46  301.03    12.9    510.2   -326.2 -0.1564E+01 -0.1533E-01
