2021  8 12  0  0  129.9459   32.6833   500.00  354.275    52.4   22.76  19.13    10.31   300.14  298.62     4.0    384.3    -25.5 -0.1504E+02 -0.2074E-01
2021  8 11 23 50  129.9234   32.6623   506.41  354.370    34.8   22.76  18.94     6.66   300.15  298.57     2.3    381.9     -8.9 -0.4269E+02 -0.2707E-01
2021  8 11 23 40  129.8954   32.6417   533.85  354.813    32.8   22.79  18.81     6.32   300.12  298.47     1.9    379.1     -6.1 -0.6216E+02 -0.6842E-01
2021  8 11 23 30  129.8661   32.6151   530.61  354.937    29.7   22.74  18.86     4.67   300.15  298.84     1.8    387.9     -6.4 -0.6087E+02  0.9119E-01
2021  8 11 23 20  129.8381   32.5821   511.70  354.946    21.4   22.79  18.99     3.22   300.18  298.94     1.2    378.5     -3.3 -0.1136E+03 -0.5161E-01
2021  8 11 23 10  129.8076   32.5458   503.89  355.003    22.7   22.85  19.16     3.26   300.22  299.09     1.4    370.5     -4.3 -0.8580E+02  0.7111E-01
2021  8 11 23  0  129.7755   32.5080   449.98  354.973    23.3   22.96  19.33     3.70   300.29  299.08     1.5    359.2     -4.8 -0.7426E+02  0.1947E+00
2021  8 11 22 50  129.7357   32.4699   355.12  355.002    52.2   23.10  19.76     9.18   300.40  299.17     4.5    328.2    -36.2 -0.9072E+01 -0.7888E-01
2021  8 11 22 40  129.6902   32.4301   426.72  354.638    52.9   23.30  19.90     9.44   300.55  299.28     4.5    324.3    -34.9 -0.9282E+01 -0.9014E-01
2021  8 11 22 30  129.6436   32.3896   505.82  354.801    55.6   23.53  20.06     9.74   300.70  299.43     4.6    329.0    -37.1 -0.8873E+01 -0.6602E-01
2021  8 11 22 20  129.5931   32.3463   558.60  354.722    56.4   23.72  20.24     9.73   300.84  299.59     4.7    333.1    -38.5 -0.8661E+01 -0.8634E-01
2021  8 11 22 10  129.5404   32.2997   611.05  354.589    56.2   23.87  20.42     9.73   300.94  299.70     4.8    339.3    -39.8 -0.8514E+01 -0.8864E-01
2021  8 11 22  0  129.4884   32.2520   671.35  354.330    45.2   24.00  20.64     6.36   301.03  300.06     4.0    410.9    -31.8 -0.1291E+02 -0.3097E-01
2021  8 11 21 50  129.4379   32.2062   604.19  354.473    45.8   24.14  20.94     2.61   301.12  300.74     4.4    550.7    -56.0 -0.9840E+01  0.1892E+00
2021  8 11 21 40  129.3891   32.1623   582.43  353.782    48.2   24.24  21.03     1.80   301.19  300.95     4.6    581.9    -67.9 -0.8573E+01  0.2746E-01
2021  8 11 21 30  129.3420   32.1165   506.54  353.024    64.3   24.35  21.11     2.03   301.27  301.05     6.3    522.1   -130.1 -0.4013E+01  0.1610E+00
2021  8 11 21 20  129.2928   32.0666   496.99  352.077    78.4   24.46  20.96     2.40   301.34  301.12     7.1    480.2   -158.8 -0.3024E+01 -0.7136E-01
2021  8 11 21 10  129.2448   32.0188   510.43  352.011    87.9   24.56  20.73     3.68   301.40  301.07     7.1    502.8   -138.0 -0.3642E+01  0.3819E-01
2021  8 11 21  0  129.1997   31.9684   508.48  351.464   107.5   24.65  20.62     7.00   301.46  300.91     8.2    464.0   -165.2 -0.2809E+01 -0.9935E-01
2021  8 11 20 50  129.1537   31.9140   536.71  351.994   102.6   24.74  20.92     9.44   301.52  300.79     8.3    464.8   -163.9 -0.2836E+01 -0.1117E+00
2021  8 11 20 40  129.1075   31.8567   605.60  352.238    96.4   24.82  21.06     8.04   301.58  300.93     8.0    487.7   -156.0 -0.3126E+01 -0.1249E+00
2021  8 11 20 30  129.0607   31.7982   700.39  352.187    96.8   24.89  21.12     5.52   301.63  301.18     8.0    567.5   -175.2 -0.3239E+01 -0.1469E+00
2021  8 11 20 20  129.0126   31.7384   715.94  352.419   104.3   24.95  21.08     3.27   301.67  301.41     8.4    643.2   -219.8 -0.2927E+01  0.3504E-01
2021  8 11 20 10  128.9642   31.6774   701.01  352.204   110.6   24.99  21.09     3.76   301.69  301.42     8.9    612.7   -243.3 -0.2519E+01  0.7681E-02
2021  8 11 20  0  128.9175   31.6138   711.63  352.057   111.7   25.02  21.16     4.73   301.71  301.37     9.1    596.9   -249.5 -0.2392E+01 -0.7762E-01
2021  8 11 19 50  128.8729   31.5479   756.73  352.151   106.9   25.05  21.25     5.39   301.73  301.33     8.9    615.0   -230.2 -0.2671E+01 -0.1196E+00
2021  8 11 19 40  128.8281   31.4818   798.86  352.400    98.0   25.07  21.34     5.05   301.75  301.35     8.3    665.7   -195.9 -0.3399E+01  0.6259E-01
2021  8 11 19 30  128.7837   31.4155   764.66  352.412    97.9   25.11  21.30     3.83   301.77  301.46     8.1    660.9   -195.3 -0.3384E+01  0.4085E-01
2021  8 11 19 20  128.7423   31.3495   705.47  352.051   110.7   25.13  21.15     3.50   301.78  301.52     8.7    593.8   -230.3 -0.2578E+01  0.1237E+00
2021  8 11 19 10  128.7014   31.2853   740.36  352.128   115.8   25.15  21.03     4.23   301.79  301.47     8.7    621.2   -218.1 -0.2849E+01 -0.1736E+00
2021  8 11 19  0  128.6619   31.2219   726.48  352.047   128.5   25.17  20.97     5.43   301.80  301.42     9.5    585.4   -253.6 -0.2309E+01  0.1186E+00
2021  8 11 18 50  128.6261   31.1548   706.12  352.079   128.1   25.18  21.06     6.59   301.81  301.36     9.6    559.1   -258.5 -0.2163E+01 -0.1618E-01
2021  8 11 18 40  128.5914   31.0890   737.85  352.139   116.7   25.19  21.14     6.41   301.82  301.35     9.0    578.2   -216.6 -0.2670E+01 -0.6383E-01
2021  8 11 18 30  128.5567   31.0254   798.35  351.918   107.6   25.20  21.18     5.52   301.83  301.40     8.3    621.2   -184.6 -0.3364E+01 -0.1088E+00
2021  8 11 18 20  128.5223   30.9633   850.10  351.773   104.0   25.22  21.18     4.49   301.84  301.48     8.0    703.2   -173.4 -0.4055E+01 -0.7281E-01
2021  8 11 18 10  128.4873   30.9007   813.82  351.867   115.0   25.23  21.12     3.61   301.85  301.58     8.7    692.0   -221.0 -0.3131E+01  0.1526E+00
2021  8 11 18  0  128.4535   30.8350   776.98  351.524   129.7   25.26  20.99     3.04   301.86  301.65     9.4    659.3   -272.3 -0.2421E+01  0.3860E-01
2021  8 11 17 50  128.4229   30.7679   790.51  351.314   137.0   25.28  20.89     2.42   301.87  301.71     9.7    665.0   -290.2 -0.2291E+01 -0.6776E-01
2021  8 11 17 40  128.3940   30.7027   818.09  351.094   132.8   25.29  20.87     1.96   301.89  301.75     9.2    676.9   -262.0 -0.2584E+01 -0.7748E-02
2021  8 11 17 30  128.3677   30.6368   780.33  350.735   143.1   25.33  20.85     2.70   301.91  301.73     9.8    632.2   -293.7 -0.2152E+01  0.5058E-01
2021  8 11 17 20  128.3421   30.5683   747.49  350.724   149.4   25.37  20.82     3.31   301.94  301.72    10.1    611.0   -302.2 -0.2022E+01  0.1862E+00
2021  8 11 17 10  128.3167   30.4942   681.50  350.501   170.1   25.41  20.79     4.60   301.96  301.69    11.2    540.1   -393.4 -0.1373E+01  0.1265E-01
2021  8 11 17  0  128.2929   30.4218   712.51  350.468   155.6   25.43  20.78     4.20   301.98  301.71    10.2    558.1   -300.6 -0.1856E+01 -0.7479E-01
2021  8 11 16 50  128.2713   30.3528   788.69  350.560   149.3   25.45  20.79     4.17   302.00  301.72     9.8    610.5   -265.5 -0.2299E+01 -0.1998E+00
2021  8 11 16 40  128.2514   30.2857   825.84  350.636   152.8   25.48  20.78     4.56   302.02  301.71     9.9    649.6   -270.4 -0.2402E+01  0.2187E-02
2021  8 11 16 30  128.2330   30.2178   817.59  350.574   153.3   25.50  20.76     4.86   302.03  301.71     9.9    635.4   -261.5 -0.2430E+01  0.3710E-01
2021  8 11 16 20  128.2134   30.1498   783.59  350.477   160.2   25.53  20.74     5.58   302.05  301.69    10.2    594.5   -275.3 -0.2159E+01  0.6159E-01
2021  8 11 16 10  128.1957   30.0806   775.88  350.422   165.0   25.56  20.74     6.36   302.07  301.67    10.4    572.1   -286.0 -0.2000E+01 -0.7929E-02
2021  8 11 16  0  128.1791   30.0130   801.15  350.203   157.4   25.58  20.74     6.32   302.09  301.67     9.9    565.7   -246.2 -0.2297E+01 -0.2988E-01
2021  8 11 15 50  128.1631   29.9486   823.61  350.085   152.2   25.60  20.74     6.36   302.10  301.66     9.5    568.1   -220.9 -0.2571E+01 -0.5336E-01
2021  8 11 15 40  128.1474   29.8847   825.66  350.342   157.6   25.62  20.77     6.98   302.11  301.65     9.9    578.5   -240.7 -0.2403E+01 -0.3241E-02
2021  8 11 15 30  128.1321   29.8203   836.85  350.138   157.4   25.64  20.78     7.39   302.13  301.64     9.8    575.5   -236.0 -0.2438E+01  0.3962E-02
2021  8 11 15 20  128.1171   29.7562   828.11  350.040   157.7   25.66  20.80     7.85   302.14  301.62     9.9    563.9   -233.7 -0.2413E+01  0.1421E-01
2021  8 11 15 10  128.1022   29.6937   850.54  350.122   151.4   25.67  20.84     7.88   302.15  301.61     9.5    576.9   -213.7 -0.2699E+01 -0.7892E-01
2021  8 11 15  0  128.0871   29.6329   858.72  350.218   151.6   25.68  20.88     8.21   302.16  301.60     9.6    574.2   -216.5 -0.2652E+01  0.2842E-01
2021  8 11 14 50  128.0711   29.5704   838.99  350.105   158.0   25.70  20.91     9.06   302.18  301.58    10.0    556.0   -238.9 -0.2327E+01  0.1820E-01
2021  8 11 14 40  128.0533   29.5066   844.73  350.184   157.7   25.72  20.91     9.43   302.19  301.57    10.0    562.3   -230.8 -0.2436E+01 -0.1156E-02
2021  8 11 14 30  128.0337   29.4418   820.80  350.343   164.3   25.75  20.89    10.43   302.20  301.54    10.3    547.4   -245.1 -0.2234E+01  0.4229E-01
2021  8 11 14 20  128.0141   29.3753   781.76  350.395   168.5   25.77  20.87    11.50   302.21  301.49    10.4    521.1   -246.7 -0.2112E+01  0.7876E-01
2021  8 11 14 10  127.9941   29.3092   763.52  349.934   161.4   25.79  20.86    12.06   302.22  301.43     9.9    494.5   -208.4 -0.2372E+01  0.7116E-01
2021  8 11 14  0  127.9730   29.2448   756.67  349.901   156.2   25.81  20.87    12.75   302.24  301.37     9.6    483.3   -185.0 -0.2612E+01 -0.4715E-01
2021  8 11 13 50  127.9510   29.1812   781.53  350.247   158.4   25.84  20.93    14.05   302.25  301.32     9.8    492.0   -190.9 -0.2577E+01 -0.6312E-01
2021  8 11 13 40  127.9288   29.1181   822.38  350.302   157.2   25.86  20.99    14.54   302.27  301.30     9.8    506.5   -189.2 -0.2676E+01 -0.7891E-01
2021  8 11 13 30  127.9056   29.0566   851.82  350.585   155.3   25.88  21.03    13.99   302.29  301.35     9.7    535.9   -188.4 -0.2844E+01 -0.4419E-01
2021  8 11 13 20  127.8821   28.9960   842.70  350.572   154.0   25.89  20.97    12.36   302.30  301.44     9.5    549.0   -183.0 -0.3000E+01  0.4958E-01
2021  8 11 13 10  127.8595   28.9366   825.72  350.175   146.9   25.89  20.92    11.09   302.30  301.49     8.9    530.0   -158.8 -0.3338E+01  0.5736E-01
2021  8 11 13  0  127.8376   28.8772   816.85  349.959   143.8   25.89  20.91    10.73   302.30  301.50     8.7    512.3   -149.7 -0.3423E+01 -0.1203E-01
2021  8 11 12 50  127.8179   28.8172   851.27  350.034   145.0   25.89  20.96    10.95   302.30  301.50     8.9    520.9   -158.3 -0.3292E+01 -0.1269E+00
2021  8 11 12 40  127.7997   28.7556   907.74  350.159   151.6   25.89  21.05    11.53   302.31  301.51     9.5    558.5   -190.6 -0.2931E+01 -0.1074E+00
2021  8 11 12 30  127.7820   28.6929   949.62  349.966   148.1   25.89  21.13    11.52   302.30  301.51     9.5    603.5   -191.6 -0.3150E+01 -0.2614E-01
2021  8 11 12 20  127.7650   28.6306   933.87  350.246   142.0   25.88  21.20    11.04   302.30  301.53     9.3    630.3   -184.4 -0.3419E+01  0.7908E-01
2021  8 11 12 10  127.7490   28.5684   900.25  349.626   132.3   25.88  21.25     9.93   302.30  301.56     8.7    590.0   -164.2 -0.3594E+01  0.8577E-01
2021  8 11 12  0  127.7346   28.5076   917.48  349.439   124.0   25.87  21.26     8.22   302.29  301.64     8.2    635.4   -145.8 -0.4360E+01 -0.1448E+00
2021  8 11 11 50  127.7201   28.4490   962.74  349.195   122.0   25.86  21.22     7.43   302.29  301.68     8.0    680.1   -140.5 -0.4841E+01 -0.3286E-01
2021  8 11 11 40  127.7049   28.3903   962.36  349.084   115.2   25.85  21.30     7.26   302.28  301.67     7.7    677.9   -129.9 -0.5220E+01  0.3801E-01
2021  8 11 11 30  127.6868   28.3320   932.00  348.921   102.8   25.84  21.35     5.84   302.27  301.73     6.9    668.5   -105.7 -0.6327E+01  0.4762E-01
2021  8 11 11 20  127.6661   28.2733   913.75  349.086   116.9   25.83  21.12     4.29   302.26  301.89     7.5    679.6   -132.2 -0.5139E+01  0.2323E-02
2021  8 11 11 10  127.6437   28.2137   935.00  348.683   132.3   25.82  20.83     3.19   302.25  301.99     8.0    681.2   -154.6 -0.4406E+01 -0.7607E-01
2021  8 11 11  0  127.6199   28.1537   965.61  348.943   135.7   25.81  20.72     3.01   302.24  302.00     8.0    713.9   -155.8 -0.4582E+01 -0.3953E-01
2021  8 11 10 50  127.5968   28.0940   947.76  348.360   135.9   25.79  20.60     2.72   302.23  302.01     7.9    679.3   -146.1 -0.4651E+01  0.1581E+00
2021  8 11 10 40  127.5756   28.0342   896.03  348.352   136.0   25.78  20.56     2.63   302.23  302.01     7.8    626.0   -143.4 -0.4364E+01  0.1512E-01
2021  8 11 10 30  127.5564   27.9737   879.47  348.553   142.1   25.76  20.56     2.70   302.22  302.00     8.2    610.9   -162.2 -0.3765E+01 -0.2206E-03
2021  8 11 10 20  127.5377   27.9111   914.65  348.303   142.6   25.76  20.58     2.90   302.21  301.99     8.3    626.1   -165.2 -0.3789E+01 -0.1151E+00
2021  8 11 10 10  127.5182   27.8474   951.60  348.276   141.6   25.75  20.63     2.97   302.21  301.98     8.3    661.2   -168.6 -0.3923E+01 -0.1358E-01
2021  8 11 10  0  127.4988   27.7816   966.03  348.139   142.9   25.76  20.68     3.06   302.21  301.97     8.5    664.8   -178.4 -0.3726E+01 -0.3629E-01
2021  8 11  9 50  127.4796   27.7149   993.99  348.297   140.1   25.74  20.71     2.66   302.20  302.00     8.4    694.5   -178.3 -0.3895E+01 -0.2696E-01
2021  8 11  9 40  127.4587   27.6475   994.93  348.482   141.6   25.74  20.71     2.47   302.20  302.01     8.5    707.1   -186.4 -0.3793E+01  0.4092E-01
2021  8 11  9 30  127.4368   27.5790   983.22  348.408   143.6   25.73  20.69     2.23   302.19  302.02     8.6    706.0   -193.1 -0.3656E+01 -0.5645E-02
2021  8 11  9 20  127.4152   27.5097   977.58  348.449   146.7   25.72  20.66     2.04   302.18  302.03     8.8    713.2   -203.1 -0.3511E+01  0.2916E-01
2021  8 11  9 10  127.3954   27.4389   963.32  348.463   148.8   25.70  20.66     1.96   302.17  302.03     8.9    713.7   -212.6 -0.3358E+01 -0.2388E-01
2021  8 11  9  0  127.3763   27.3683   970.44  348.297   139.0   25.69  20.70     1.86   302.16  302.02     8.4    713.6   -187.3 -0.3810E+01  0.4127E-01
2021  8 11  8 50  127.3567   27.2977   976.31  348.382   131.9   25.68  20.76     1.83   302.15  302.00     8.1    729.1   -171.8 -0.4244E+01 -0.3362E-01
2021  8 11  8 40  127.3367   27.2255   995.05  348.404   132.7   25.67  20.82     1.70   302.14  302.01     8.3    753.5   -186.5 -0.4040E+01 -0.4633E-01
2021  8 11  8 30  127.3179   27.1515  1018.48  348.356   137.9   25.66  20.70     0.96   302.14  302.06     8.5    766.9   -196.8 -0.3896E+01 -0.2692E-01
2021  8 11  8 20  127.3001   27.0768  1023.61  348.259   146.0   25.65  20.51     0.82   302.13  302.07     8.6    760.9   -198.3 -0.3837E+01  0.7499E-01
2021  8 11  8 10  127.2832   27.0002   995.25  348.029   153.9   25.64  20.45     1.05   302.13  302.05     8.9    731.0   -214.2 -0.3412E+01 -0.1870E-01
2021  8 11  8  0  127.2664   26.9233   984.90  347.991   153.0   25.63  20.41     1.14   302.12  302.04     8.8    715.3   -205.4 -0.3483E+01  0.3777E-01
2021  8 11  7 50  127.2508   26.8456   962.20  347.997   151.0   25.63  20.45     1.59   302.12  302.00     8.8    698.1   -201.0 -0.3474E+01  0.2694E-01
2021  8 11  7 40  127.2344   26.7667   922.53  348.037   151.5   25.64  20.49     2.22   302.12  301.95     8.9    670.3   -203.9 -0.3288E+01  0.1349E+00
2021  8 11  7 30  127.2190   26.6856   892.24  348.059   152.2   25.62  20.50     2.43   302.11  301.93     9.0    627.5   -208.1 -0.3016E+01 -0.3390E-01
2021  8 11  7 20  127.2052   26.6043   910.19  347.885   151.8   25.63  20.50     3.33   302.09  301.85     8.9    619.8   -199.9 -0.3101E+01 -0.5683E-01
2021  8 11  7 10  127.1930   26.5214   936.16  347.758   148.6   25.57  20.54     2.56   302.08  301.89     8.9    647.6   -207.8 -0.3116E+01 -0.1806E-01
2021  8 11  7  0  127.1823   26.4382   955.84  347.794   139.4   25.53  20.57     2.24   302.05  301.88     8.5    665.9   -189.4 -0.3516E+01 -0.3583E-01
2021  8 11  6 50  127.1719   26.3559   954.99  347.782   138.9   25.49  20.59     2.65   302.01  301.81     8.6    657.4   -192.5 -0.3415E+01  0.1209E-01
2021  8 11  6 40  127.1628   26.2717   957.26  347.819   140.7   25.44  20.56     1.65   301.98  301.86     8.8    659.7   -211.6 -0.3118E+01  0.7747E-03
2021  8 11  6 30  127.1571   26.1862   937.53  347.936   152.7   25.44  20.45     1.26   301.98  301.89     9.3    642.7   -241.8 -0.2658E+01  0.6381E-01
2021  8 11  6 20  127.1528   26.0995   933.07  348.127   162.9   25.47  20.35     1.57   302.00  301.89     9.6    649.5   -256.7 -0.2530E+01 -0.3617E-01
2021  8 11  6 10  127.1481   26.0122   962.34  348.143   170.9   25.51  20.38     2.68   302.03  301.85    10.0    670.8   -276.4 -0.2427E+01 -0.6876E-01
2021  8 11  6  0  127.1434   25.9243  1010.81  348.305   168.7   25.56  20.44     3.30   302.06  301.85    10.0    704.4   -264.8 -0.2660E+01 -0.1460E+00
2021  8 11  5 50  127.1395   25.8378  1043.70  348.567   169.1   25.62  20.48     3.96   302.10  301.84     9.9    729.9   -255.4 -0.2858E+01  0.5445E-01
2021  8 11  5 40  127.1348   25.7502  1017.30  348.381   173.3   25.69  20.50     4.96   302.14  301.82    10.1    712.0   -256.1 -0.2780E+01  0.8478E-01
2021  8 11  5 30  127.1278   25.6620  1024.84  348.388   165.7   25.73  20.53     5.26   302.17  301.81     9.6    712.7   -221.9 -0.3212E+01  0.8128E-02
2021  8 11  5 20  127.1201   25.5733  1005.09  348.269   175.2   25.77  20.54     5.82   302.20  301.82    10.1    700.2   -248.8 -0.2814E+01 -0.3476E-01
2021  8 11  5 10  127.1143   25.4829  1011.17  348.185   183.9   25.80  20.50     6.20   302.22  301.83    10.4    697.3   -267.6 -0.2606E+01  0.2181E-01
2021  8 11  5  0  127.1101   25.3890  1063.81  348.258   195.3   25.83  20.43     6.66   302.24  301.83    10.8    716.3   -292.1 -0.2452E+01 -0.1896E+00
2021  8 11  4 50  127.1050   25.2949  1076.43  348.417   196.2   25.84  20.30     6.35   302.25  301.85    10.5    722.6   -267.2 -0.2705E+01  0.1168E+00
2021  8 11  4 40  127.1003   25.1988  1038.55  348.351   207.2   25.86  20.16     6.74   302.26  301.85    10.8    678.9   -277.5 -0.2447E+01  0.6412E-01
2021  8 11  4 30  127.0969   25.1025  1020.38  348.365   206.5   25.86  20.11     7.16   302.26  301.82    10.7    650.8   -262.2 -0.2482E+01  0.5252E-01
2021  8 11  4 20  127.0957   25.0052   991.99  348.580   209.3   25.86  20.10     7.85   302.26  301.78    10.8    627.8   -264.7 -0.2372E+01  0.7880E-02
2021  8 11  4 10  127.0963   24.9080   987.66  348.808   211.6   25.86  20.04     8.02   302.26  301.77    10.7    616.4   -259.8 -0.2372E+01  0.1923E-01
2021  8 11  4  0  127.0978   24.8078   930.79  348.875   240.0   25.87  19.95    10.11   302.26  301.70    11.9    560.3   -334.7 -0.1674E+01  0.3814E-01
2021  8 11  3 50  127.1000   24.7051   959.10  349.037   237.2   25.86  19.90    10.54   302.26  301.67    11.7    552.5   -310.0 -0.1782E+01 -0.6427E-01
2021  8 11  3 40  127.1044   24.6036  1008.05  348.981   233.9   25.85  19.84    10.76   302.26  301.64    11.4    551.0   -285.9 -0.1927E+01 -0.8800E-01
2021  8 11  3 30  127.1095   24.5046  1065.71  348.968   220.4   25.85  19.80    10.57   302.26  301.62    10.7    555.6   -236.0 -0.2354E+01 -0.2845E-01
2021  8 11  3 20  127.1142   24.4077  1064.21  349.095   220.4   25.87  19.80    11.88   302.28  301.55    10.6    541.9   -224.2 -0.2417E+01 -0.5360E-01
2021  8 11  3 10  127.1198   24.3108  1085.46  349.127   214.7   25.90  19.81    12.66   302.29  301.50    10.3    527.8   -201.5 -0.2619E+01  0.4335E-01
2021  8 11  3  0  127.1253   24.2136  1097.61  349.085   204.9   25.93  19.74    11.49   302.32  301.54     9.7    524.1   -169.6 -0.3090E+01  0.1176E-01
2021  8 11  2 50  127.1292   24.1174  1037.50  349.074   209.3   25.99  19.73    12.06   302.35  301.55     9.8    497.8   -171.3 -0.2906E+01  0.1727E+00
2021  8 11  2 40  127.1324   24.0212  1058.12  349.289   198.2   26.03  19.71    11.74   302.38  301.54     9.2    512.9   -142.9 -0.3589E+01 -0.1369E+00
2021  8 11  2 30  127.1388   23.9256  1056.47  349.460   210.8   26.06  19.73    12.77   302.39  301.54     9.7    530.9   -165.2 -0.3215E+01 -0.6279E-01
2021  8 11  2 20  127.1484   23.8283  1081.57  349.684   213.8   26.08  19.72    12.78   302.40  301.56     9.8    548.3   -169.4 -0.3237E+01  0.1289E-01
2021  8 11  2 10  127.1601   23.7301  1101.16  349.719   216.4   26.09  19.75    12.98   302.41  301.57    10.0    543.8   -176.0 -0.3090E+01  0.3956E-01
2021  8 11  2  0  127.1727   23.6317  1055.06  349.964   236.2   26.09  19.75    14.86   302.41  301.53    10.9    511.0   -218.4 -0.2339E+01  0.1336E-01
2021  8 11  1 50  127.1855   23.5325  1066.60  350.078   239.6   26.10  19.70    16.02   302.41  301.46    10.9    497.8   -215.7 -0.2308E+01  0.3477E-01
2021  8 11  1 40  127.1985   23.4338  1080.54  350.069   229.4   26.09  19.71    16.29   302.42  301.41    10.5    492.7   -190.5 -0.2587E+01 -0.1986E-01
2021  8 11  1 30  127.2109   23.3365  1067.50  349.805   213.7   26.10  19.87    16.41   302.42  301.36    10.0    491.8   -167.8 -0.2931E+01  0.7807E-01
2021  8 11  1 20  127.2222   23.2384   942.85  350.129   226.4   26.10  19.96    17.25   302.42  301.39    10.8    450.8   -210.2 -0.2145E+01  0.3159E+00
2021  8 11  1 10  127.2333   23.1365   895.46  350.095   255.1   26.11  19.95    20.30   302.42  301.34    12.1    413.6   -280.8 -0.1473E+01 -0.4902E-01
2021  8 11  1  0  127.2457   23.0337   967.32  350.114   237.7   26.11  19.98    18.58   302.43  301.36    11.3    422.3   -236.8 -0.1783E+01 -0.4161E-01
2021  8 11  0 50  127.2589   22.9333  1006.42  350.266   221.8   26.11  20.05    17.49   302.43  301.37    10.8    422.7   -210.8 -0.2005E+01 -0.1238E-01
2021  8 11  0 40  127.2705   22.8389   913.04  350.865   272.3   26.11  19.96    24.06   302.43  301.23    12.9    372.9   -324.9 -0.1148E+01 -0.4481E-01
2021  8 11  0 30  127.2841   22.7431   952.88  350.457   267.5   26.14  19.93    29.51   302.44  300.92    12.5    342.5   -269.0 -0.1273E+01 -0.1884E-01
2021  8 11  0 20  127.2974   22.6447  1011.15  350.440   238.5   26.15  20.08    34.77   302.44  300.49    11.4    326.0   -190.5 -0.1711E+01 -0.3250E-01
2021  8 11  0 10  127.3118   22.5480  1234.08  350.368   193.4   26.14  20.25    34.43   302.45  300.14     9.5    326.7   -110.3 -0.2963E+01 -0.1435E+00
2021  8 11  0  0  127.3321   22.4541  1354.82  350.041   152.3   26.14  20.91    27.47   302.46  300.41     8.6    351.6    -96.6 -0.3641E+01 -0.1325E+00
