2021  8 12  0  0  130.0060   32.6538   500.00  352.638    67.0   22.82  19.24    13.81   300.22  298.65     5.4    405.3    -45.4 -0.8920E+01  0.8846E-01
2021  8 11 23 50  129.9995   32.6411   420.61  352.212    57.6   22.84  19.17    12.20   300.23  298.57     4.4    384.7    -28.5 -0.1351E+02  0.1870E+00
2021  8 11 23 40  129.9948   32.6382   390.96  352.019    51.7   22.86  19.11    11.69   300.23  298.42     3.8    351.3    -20.2 -0.1738E+02 -0.8014E-01
2021  8 11 23 30  129.9887   32.6336   457.07  351.874    50.8   22.84  19.20    12.09   300.24  298.38     3.8    386.3    -20.4 -0.1892E+02 -0.1668E+00
2021  8 11 23 20  129.9826   32.6204   465.83  352.036    55.9   22.86  19.26    13.26   300.25  298.46     4.4    413.0    -27.2 -0.1517E+02  0.1375E+00
2021  8 11 23 10  129.9812   32.6071   339.30  351.947    46.3   22.89  18.87     7.52   300.26  298.86     3.1    474.4    -15.3 -0.3107E+02  0.3226E+00
2021  8 11 23  0  129.9859   32.5958   208.91  352.133    52.6   22.91  18.84     7.65   300.27  299.00     3.5    405.1    -20.3 -0.2000E+02  0.1061E+00
2021  8 11 22 50  129.9930   32.5793   164.01  352.240    58.2   22.93  18.88     8.55   300.29  299.00     4.0    385.0    -25.4 -0.1517E+02  0.4756E-01
2021  8 11 22 40  129.9936   32.5615   148.06  352.445    43.4   22.95  18.80     6.60   300.30  298.93     2.7    392.8    -12.2 -0.3211E+02  0.1721E-01
2021  8 11 22 30  129.9880   32.5469   150.36  352.849    38.5   22.96  18.71     5.41   300.31  299.00     2.2    416.1     -8.6 -0.4821E+02 -0.1638E-01
2021  8 11 22 20  129.9806   32.5325   150.85  352.830    43.0   22.96  18.70     5.71   300.31  299.08     2.6    449.0    -11.6 -0.3858E+02  0.1012E-01
2021  8 11 22 10  129.9755   32.5160   120.16  352.829    50.4   22.97  18.74     6.61   300.32  299.10     3.2    476.0    -16.7 -0.2846E+02  0.9221E-01
2021  8 11 22  0  129.9787   32.4994    69.94  352.853    53.2   22.98  18.74     7.27   300.32  299.06     3.4    483.1    -18.5 -0.2608E+02  0.7270E-01
2021  8 11 21 50  129.9903   32.4877    50.12  352.786    47.5   22.98  18.76     7.64   300.32  298.84     2.9    418.8    -13.2 -0.3177E+02  0.3457E-01
2021  8 11 21 40  130.0070   32.4808    60.93  352.919    46.4   22.97  19.07     9.80   300.31  298.53     3.1    406.7    -14.2 -0.2867E+02 -0.6077E-01
2021  8 11 21 30  130.0176   32.4685   137.62  353.060    33.2   22.98  19.22     8.03   300.29  298.33     2.3    423.1     -7.7 -0.5469E+02 -0.1955E+00
2021  8 11 21 20  130.0163   32.4486   207.43  353.613    27.4   22.47  19.21     5.70   299.87  298.15     2.0    412.3     -7.1 -0.5841E+02 -0.4710E-01
2021  8 11 21 10  130.0170   32.4320   185.28  353.749    11.8   20.35  19.21     0.39   298.16  297.73     1.5    460.3    -13.2 -0.3492E+02  0.6495E-01
2021  8 11 21  0  130.0331   32.4231   234.48  353.526     9.6   19.01  18.92   -10.99   296.91  297.23     2.8    420.8     96.8  0.4347E+01  0.9773E-01
2021  8 11 20 50  130.0539   32.3968   680.56  353.395     7.7   18.73  18.70    -5.88   296.50  296.62     4.1    357.9    482.3  0.7421E+00 -0.2343E-01
2021  8 11 20 40  130.0338   32.3516   700.77  354.715     4.6   19.13  19.12    -5.34   296.94  297.08     2.7    384.8    173.1  0.2223E+01  0.1278E+00
2021  8 11 20 30  130.0099   32.3058   627.59  354.991    19.4   20.79  19.89    -2.19   298.55  298.36     3.7    383.9   -113.3 -0.3389E+01  0.2496E-01
2021  8 11 20 20  129.9827   32.2666   704.30  353.747    16.0   21.13  20.44   -11.41   298.82  298.99     3.7    405.8  -1095.8 -0.3703E+00 -0.7311E-01
2021  8 11 20 10  129.9501   32.2300   691.70  354.951    28.3   22.90  20.65     0.83   300.26  300.14     4.2    437.2    -81.9 -0.5340E+01 -0.3927E-01
2021  8 11 20  0  129.9090   32.1893   658.25  355.187    36.3   23.25  20.87     1.55   300.51  300.32     5.0    420.4   -105.2 -0.3997E+01 -0.3196E-01
2021  8 11 19 50  129.8638   32.1432   752.04  354.935    42.5   23.62  20.94     2.67   300.77  300.44     5.1    441.4    -87.3 -0.5056E+01 -0.1165E+00
2021  8 11 19 40  129.8221   32.0933   788.48  354.793    48.0   23.85  20.92     3.04   300.93  300.56     5.2    436.5    -81.6 -0.5352E+01 -0.8370E-03
2021  8 11 19 30  129.7820   32.0412   783.13  354.552    51.3   23.95  20.94     3.37   301.00  300.60     5.4    428.8    -84.9 -0.5049E+01  0.4664E-01
2021  8 11 19 20  129.7404   31.9870   792.66  354.046    50.3   24.01  21.08     2.84   301.03  300.70     5.5    462.5    -95.4 -0.4846E+01 -0.2571E-01
2021  8 11 19 10  129.6983   31.9312   810.38  353.993    60.9   24.10  21.12     2.06   301.10  300.89     6.6    517.4   -156.5 -0.3306E+01 -0.5619E-01
2021  8 11 19  0  129.6565   31.8741   827.92  354.209    65.8   24.22  21.10     1.81   301.18  301.00     6.8    554.4   -165.4 -0.3353E+01  0.8437E-02
2021  8 11 18 50  129.6167   31.8148   826.59  353.949    74.5   24.33  21.09     2.04   301.25  301.07     7.4    574.0   -193.4 -0.2968E+01  0.3341E-02
2021  8 11 18 40  129.5789   31.7532   819.52  353.934    83.4   24.42  21.12     2.58   301.31  301.10     8.1    578.3   -235.3 -0.2457E+01 -0.7196E-02
2021  8 11 18 30  129.5434   31.6895   818.27  353.975    86.0   24.48  21.18     3.01   301.35  301.12     8.4    586.2   -248.4 -0.2360E+01 -0.2944E-01
2021  8 11 18 20  129.5102   31.6261   834.72  353.981    82.2   24.53  21.21     2.38   301.39  301.19     7.9    626.9   -223.7 -0.2802E+01  0.1999E-01
2021  8 11 18 10  129.4782   31.5643   835.50  353.975    81.7   24.58  21.17     1.43   301.43  301.30     7.7    660.5   -211.3 -0.3126E+01 -0.1998E-01
2021  8 11 18  0  129.4462   31.5042   843.21  354.370    86.6   24.64  21.10     0.77   301.47  301.40     7.8    708.2   -220.1 -0.3218E+01 -0.6383E-01
2021  8 11 17 50  129.4127   31.4435   838.61  354.451    95.9   24.71  21.10     0.88   301.52  301.45     8.4    731.6   -262.5 -0.2787E+01  0.6307E-01
2021  8 11 17 40  129.3801   31.3790   817.92  354.282   103.6   24.78  21.12     1.43   301.56  301.45     9.0    703.4   -295.8 -0.2378E+01 -0.1384E-01
2021  8 11 17 30  129.3518   31.3139   822.14  354.296    97.4   24.83  21.16     1.79   301.59  301.45     8.4    703.7   -245.6 -0.2865E+01  0.5326E-01
2021  8 11 17 20  129.3238   31.2484   822.62  353.971    97.9   24.88  21.24     2.49   301.63  301.44     8.5    699.5   -247.3 -0.2828E+01 -0.2803E-01
2021  8 11 17 10  129.2941   31.1799   824.40  353.619   102.9   24.94  21.34     3.34   301.67  301.42     9.1    690.7   -280.7 -0.2461E+01 -0.1643E-02
2021  8 11 17  0  129.2667   31.1084   822.96  353.803   108.0   25.01  21.36     3.47   301.71  301.46     9.4    701.1   -305.9 -0.2292E+01  0.6984E-02
2021  8 11 16 50  129.2416   31.0366   823.85  353.745   111.7   25.06  21.28     2.95   301.75  301.54     9.3    719.3   -295.1 -0.2438E+01 -0.1431E-01
2021  8 11 16 40  129.2166   30.9669   808.21  353.582   120.2   25.11  21.13     2.37   301.78  301.61     9.5    714.8   -301.1 -0.2374E+01  0.6214E-01
2021  8 11 16 30  129.1924   30.8985   780.93  353.488   129.9   25.16  21.01     2.23   301.81  301.66     9.8    693.2   -314.5 -0.2204E+01  0.2373E-01
2021  8 11 16 20  129.1682   30.8318   785.35  353.387   134.1   25.19  20.92     1.99   301.84  301.70     9.7    693.8   -306.5 -0.2264E+01  0.3293E-01
2021  8 11 16 10  129.1435   30.7661   800.98  353.296   137.1   25.24  20.86     2.14   301.87  301.72     9.7    701.6   -292.9 -0.2396E+01 -0.6134E-01
2021  8 11 16  0  129.1190   30.7011   788.82  353.454   141.4   25.29  20.80     2.38   301.91  301.75     9.7    692.3   -285.9 -0.2421E+01  0.7264E-01
2021  8 11 15 50  129.0963   30.6358   738.54  353.264   146.0   25.35  20.78     3.13   301.95  301.74     9.8    631.8   -281.0 -0.2248E+01  0.3997E-01
2021  8 11 15 40  129.0753   30.5709   755.63  353.546   141.8   25.40  20.80     3.42   301.98  301.75     9.4    650.4   -250.9 -0.2592E+01 -0.6295E-01
2021  8 11 15 30  129.0549   30.5061   770.61  353.684   148.8   25.45  20.84     4.01   302.02  301.75     9.9    657.5   -276.9 -0.2375E+01 -0.3202E-01
2021  8 11 15 20  129.0344   30.4402   797.11  353.724   147.3   25.49  20.87     4.68   302.04  301.73     9.8    673.6   -262.9 -0.2562E+01 -0.5649E-01
2021  8 11 15 10  129.0135   30.3756   821.17  353.750   141.2   25.51  20.88     4.91   302.06  301.72     9.3    684.5   -229.0 -0.2989E+01  0.8675E-02
2021  8 11 15  0  128.9930   30.3122   800.20  353.739   138.8   25.54  20.88     5.11   302.08  301.71     9.1    661.4   -212.7 -0.3110E+01  0.1014E+00
2021  8 11 14 50  128.9738   30.2476   778.15  353.737   140.3   25.57  20.93     5.99   302.10  301.67     9.2    625.4   -215.1 -0.2907E+01 -0.3236E-01
2021  8 11 14 40  128.9540   30.1839   794.93  354.065   134.1   25.60  21.00     6.47   302.12  301.65     8.9    640.5   -192.8 -0.3322E+01 -0.3203E-01
2021  8 11 14 30  128.9351   30.1213   794.31  354.268   131.4   25.64  21.08     7.21   302.14  301.61     8.8    631.9   -184.4 -0.3427E+01  0.2510E-01
2021  8 11 14 20  128.9184   30.0580   793.75  354.086   130.1   25.68  21.16     7.92   302.17  301.58     8.8    626.3   -180.8 -0.3464E+01 -0.5245E-03
2021  8 11 14 10  128.9035   29.9939   792.00  354.263   130.9   25.71  21.22     8.36   302.18  301.58     9.0    648.4   -187.6 -0.3457E+01  0.2352E-01
2021  8 11 14  0  128.8908   29.9280   777.64  354.315   132.9   25.73  21.25     8.81   302.20  301.57     9.1    652.3   -193.8 -0.3366E+01  0.2972E-01
2021  8 11 13 50  128.8795   29.8614   732.99  354.608   134.0   25.76  21.27     9.04   302.22  301.58     9.2    634.1   -196.8 -0.3222E+01  0.7064E-01
2021  8 11 13 40  128.8670   29.7953   713.36  354.408   130.1   25.78  21.27     8.66   302.23  301.60     8.9    617.8   -180.1 -0.3430E+01  0.1426E-01
2021  8 11 13 30  128.8497   29.7323   705.28  353.792   125.8   25.80  21.24     8.16   302.24  301.61     8.4    608.8   -158.9 -0.3831E+01  0.6441E-01
2021  8 11 13 20  128.8275   29.6712   669.30  353.785   127.4   25.81  21.19     7.93   302.25  301.64     8.4    592.2   -158.8 -0.3730E+01  0.4801E-01
2021  8 11 13 10  128.8042   29.6112   659.54  353.658   129.4   25.82  21.14     7.77   302.26  301.66     8.4    583.2   -157.5 -0.3702E+01 -0.4595E-01
2021  8 11 13  0  128.7832   29.5511   680.74  353.553   132.6   25.81  21.08     7.42   302.26  301.70     8.5    598.1   -162.4 -0.3683E+01 -0.2775E-01
2021  8 11 12 50  128.7655   29.4892   705.24  353.566   136.4   25.81  20.96     6.98   302.27  301.73     8.5    618.9   -161.9 -0.3823E+01 -0.5746E-01
2021  8 11 12 40  128.7492   29.4257   731.99  353.547   139.2   25.80  20.89     6.96   302.26  301.73     8.6    634.3   -162.6 -0.3900E+01 -0.3041E-01
2021  8 11 12 30  128.7337   29.3597   738.38  353.691   150.6   25.79  20.83     7.39   302.25  301.72     9.2    630.8   -192.8 -0.3273E+01 -0.2404E-01
2021  8 11 12 20  128.7184   29.2912   757.60  353.504   153.4   25.76  20.76     7.38   302.24  301.72     9.3    626.4   -196.9 -0.3182E+01  0.1962E-01
2021  8 11 12 10  128.7030   29.2215   741.60  353.425   159.3   25.74  20.68     7.71   302.22  301.69     9.5    587.3   -206.0 -0.2851E+01  0.8702E-01
2021  8 11 12  0  128.6850   29.1503   680.54  353.405   166.2   25.71  20.63     8.34   302.20  301.65     9.9    544.3   -223.5 -0.2436E+01  0.9422E-01
2021  8 11 11 50  128.6650   29.0788   663.05  353.595   173.5   25.69  20.57     9.58   302.18  301.57    10.2    531.4   -235.9 -0.2253E+01 -0.7316E-01
2021  8 11 11 40  128.6434   29.0084   722.36  353.632   172.5   25.66  20.53     9.99   302.17  301.52    10.1    551.1   -227.8 -0.2419E+01 -0.8877E-01
2021  8 11 11 30  128.6247   28.9399   773.45  353.910   169.7   25.63  20.47    10.07   302.15  301.49     9.9    570.4   -211.6 -0.2696E+01 -0.7875E-01
2021  8 11 11 20  128.6096   28.8725   771.90  354.051   183.4   25.61  20.46    11.25   302.13  301.45    10.7    563.4   -258.7 -0.2178E+01  0.1403E-02
2021  8 11 11 10  128.5961   28.8054   807.00  353.746   179.7   25.58  20.43    10.98   302.12  301.43    10.4    563.7   -244.1 -0.2309E+01 -0.3284E-01
2021  8 11 11  0  128.5826   28.7401   822.53  353.796   182.0   25.55  20.34     9.21   302.10  301.53    10.5    586.3   -255.1 -0.2298E+01 -0.3650E-01
2021  8 11 10 50  128.5654   28.6757   844.87  353.850   177.7   25.54  20.11     6.92   302.09  301.63     9.8    578.7   -216.2 -0.2677E+01 -0.6045E-01
2021  8 11 10 40  128.5445   28.6126   865.09  354.135   168.9   25.53  19.94     4.71   302.08  301.74     9.0    587.9   -179.4 -0.3277E+01 -0.2649E-01
2021  8 11 10 30  128.5233   28.5492   865.55  354.479   168.4   25.51  19.74     3.28   302.07  301.83     8.6    548.5   -165.1 -0.3322E+01 -0.4644E-01
2021  8 11 10 20  128.5028   28.4841   838.91  355.112   174.0   25.48  19.63     2.99   302.06  301.84     8.7    509.6   -170.0 -0.2997E+01  0.2634E-01
2021  8 11 10 10  128.4846   28.4163   778.85  355.671   179.5   25.46  19.55     3.71   302.04  301.77     8.9    419.5   -174.5 -0.2404E+01  0.3105E-01
2021  8 11 10  0  128.4691   28.3480   767.17  356.029   176.7   25.42  19.43     4.42   302.01  301.68     8.6    372.2   -154.0 -0.2417E+01 -0.2034E-01
2021  8 11  9 50  128.4561   28.2785   815.16  356.161   180.9   25.39  19.33     5.98   301.99  301.54     8.7    355.9   -148.4 -0.2398E+01 -0.8434E-01
2021  8 11  9 40  128.4456   28.2057   843.17  356.022   187.4   25.34  19.30     7.91   301.96  301.39     9.0    344.2   -155.6 -0.2212E+01  0.5712E-01
2021  8 11  9 30  128.4355   28.1292   789.08  356.327   194.6   25.28  19.37     9.55   301.92  301.27     9.6    334.8   -180.4 -0.1856E+01  0.8723E-01
2021  8 11  9 20  128.4236   28.0524   715.46  356.171   178.7   25.23  19.56     9.39   301.88  301.22     9.3    324.8   -169.6 -0.1915E+01  0.1893E+00
2021  8 11  9 10  128.4106   27.9785   677.07  355.738   161.7   25.20  19.63    10.94   301.85  301.02     8.5    323.5   -129.5 -0.2499E+01 -0.2320E-01
2021  8 11  9  0  128.3949   27.9085   647.49  355.843   151.8   25.17  19.79    13.05   301.83  300.82     8.2    322.2   -115.5 -0.2789E+01  0.1052E+00
2021  8 11  8 50  128.3802   27.8388   650.00  355.743   144.3   25.16  19.81    14.71   301.82  300.62     7.9    322.1    -97.4 -0.3308E+01 -0.1065E+00
2021  8 11  8 40  128.3647   27.7700   673.29  356.387   132.2   25.14  20.00    15.45   301.82  300.51     7.5    321.0    -85.0 -0.3775E+01 -0.3575E-01
2021  8 11  8 30  128.3506   27.7004   697.29  356.551   132.9   25.16  20.11    15.28   301.83  300.56     7.7    326.8    -94.0 -0.3479E+01 -0.5416E-01
2021  8 11  8 20  128.3405   27.6289   699.71  356.412   135.2   25.19  20.08    13.75   301.84  300.71     7.8    336.2    -99.5 -0.3379E+01  0.4227E-03
2021  8 11  8 10  128.3318   27.5571   711.27  356.396   127.9   25.22  20.17    10.15   301.87  300.99     7.5    351.7   -100.1 -0.3513E+01  0.1469E+00
2021  8 11  8  0  128.3233   27.4839   678.68  356.320   142.3   25.25  20.14     8.32   301.89  301.24     8.3    356.0   -137.8 -0.2584E+01 -0.2991E+00
2021  8 11  7 50  128.3163   27.4126   774.26  356.675   125.2   25.27  20.23     7.97   301.90  301.20     7.3    365.1   -102.7 -0.3555E+01 -0.2509E-01
2021  8 11  7 40  128.3085   27.3399   747.31  357.068   113.5   25.28  20.52     7.92   301.91  301.19     7.1    373.7    -97.5 -0.3833E+01  0.5347E-01
2021  8 11  7 30  128.3013   27.2677   699.12  357.032   100.3   25.31  20.91     7.02   301.92  301.27     6.9    414.1    -99.6 -0.4159E+01  0.9431E-01
2021  8 11  7 20  128.2950   27.1978   668.93  357.093    99.3   25.34  21.09     5.09   301.94  301.47     7.2    488.2   -122.2 -0.3994E+01  0.4569E-01
2021  8 11  7 10  128.2895   27.1289   649.30  357.068   106.0   25.38  21.13     4.78   301.96  301.56     7.7    567.3   -148.5 -0.3820E+01  0.1019E+00
2021  8 11  7  0  128.2858   27.0595   593.21  356.859   107.1   25.42  21.18     4.96   301.99  301.57     7.8    512.2   -152.2 -0.3365E+01  0.1653E+00
2021  8 11  6 50  128.2832   26.9893   551.19  356.524   108.0   25.46  21.06     4.56   302.01  301.62     7.5    502.8   -138.5 -0.3631E+01  0.3931E-01
2021  8 11  6 40  128.2820   26.9190   554.64  356.139    98.3   25.48  20.86     2.56   302.03  301.80     6.4    562.2   -100.5 -0.5593E+01 -0.5923E-02
2021  8 11  6 30  128.2831   26.8454   605.56  355.919    48.1   26.24  20.51    30.04   302.35  301.78     4.6    837.2    -35.6 -0.2351E+02 -0.3780E+00
2021  8 11  6 20  128.2851   26.7673   719.62  356.473    87.7   24.36  20.93    38.73   300.87  300.25     5.9    840.9    -83.1 -0.1012E+02 -0.1801E+00
2021  8 11  6 10  128.2862   26.6916   642.54  358.509   115.1   26.22  21.25    42.72   302.39  301.47     6.6    690.4    -74.6 -0.9249E+01  0.1018E+00
2021  8 11  6  0  128.2879   26.6201   545.51  358.956   107.5   25.60  21.30     4.60   302.10  301.72     7.7    533.6   -148.8 -0.3587E+01  0.5778E-01
2021  8 11  5 50  128.2914   26.5479   546.44  359.514    98.9   25.64  21.40     4.91   302.13  301.69     7.2    567.6   -124.9 -0.4546E+01 -0.1608E-01
2021  8 11  5 40  128.2943   26.4773   525.37  359.852   101.3   25.68  21.49     2.91   302.16  301.89     7.5    727.4   -155.3 -0.4683E+01  0.1146E+00
2021  8 11  5 30  128.2976   26.4089   457.00  360.781   113.5   25.71  21.49     0.04   302.19  302.17     8.4    859.2   -237.0 -0.3626E+01  0.1712E+00
2021  8 11  5 20  128.3032   26.3432   374.68  361.856   130.5   25.76  21.40    -1.05   302.21  302.29     9.4    885.7   -314.5 -0.2817E+01  0.1589E+00
2021  8 11  5 10  128.3109   26.2783   307.27  361.694   145.2   25.80  21.30    -0.53   302.24  302.27    10.0    837.9   -348.7 -0.2403E+01  0.7006E-01
2021  8 11  5  0  128.3190   26.2130   265.82  362.021   149.6   25.81  21.26    -0.10   302.24  302.25    10.2    839.4   -355.1 -0.2364E+01  0.3918E-01
2021  8 11  4 50  128.3270   26.1495   241.39  362.228   145.0   25.81  21.24    -0.26   302.25  302.26     9.8    872.9   -327.6 -0.2665E+01  0.1007E+00
2021  8 11  4 40  128.3375   26.0862   201.11  362.399   146.2   25.80  21.26    -0.84   302.24  302.30    10.0    887.9   -348.5 -0.2548E+01  0.1184E+00
2021  8 11  4 30  128.3526   26.0214   164.64  362.250   153.2   25.79  21.20    -1.34   302.23  302.32    10.3    786.0   -386.7 -0.2033E+01  0.5438E-01
2021  8 11  4 20  128.3694   25.9565   158.86  362.008   148.0   25.78  21.14    -1.34   302.23  302.32     9.8    753.8   -336.1 -0.2243E+01  0.1365E-03
2021  8 11  4 10  128.3853   25.8908   154.23  361.979   156.2   25.77  21.14    -1.04   302.22  302.28    10.4    795.7   -383.6 -0.2074E+01 -0.3859E-02
2021  8 11  4  0  128.3992   25.8234   155.23  362.057   153.6   25.75  21.18    -1.03   302.21  302.27    10.4    881.2   -388.0 -0.2271E+01 -0.7717E-02
2021  8 11  3 50  128.4135   25.7554   155.66  361.958   156.0   25.74  21.16    -0.96   302.20  302.26    10.5    869.3   -398.7 -0.2180E+01  0.2251E-01
2021  8 11  3 40  128.4308   25.6846   145.34  361.842   162.7   25.73  21.13    -0.87   302.20  302.25    10.9    843.8   -434.7 -0.1941E+01  0.1485E-01
2021  8 11  3 30  128.4496   25.6119   136.16  361.774   169.9   25.72  21.10    -0.78   302.19  302.24    11.3    858.6   -475.0 -0.1808E+01  0.1529E-01
2021  8 11  3 20  128.4679   25.5388   131.89  361.702   168.8   25.71  21.07    -0.85   302.19  302.24    11.2    876.2   -462.0 -0.1896E+01  0.3729E-02
2021  8 11  3 10  128.4880   25.4675   123.04  361.675   166.0   25.69  21.05    -1.06   302.18  302.25    11.0    848.7   -444.3 -0.1910E+01  0.1983E-01
2021  8 11  3  0  128.5081   25.3984   115.80  361.649   160.3   25.67  21.04    -1.06   302.17  302.24    10.6    814.2   -411.0 -0.1981E+01  0.1525E-01
2021  8 11  2 50  128.5277   25.3308   110.07  361.632   156.3   25.64  21.03    -1.08   302.16  302.22    10.4    822.5   -391.2 -0.2102E+01  0.4087E-02
2021  8 11  2 40  128.5466   25.2630   106.60  361.711   161.5   25.63  21.05    -0.70   302.15  302.19    10.8    850.4   -426.6 -0.1993E+01  0.7758E-02
2021  8 11  2 30  128.5679   25.1925   102.49  361.707   168.7   25.62  21.05    -0.23   302.14  302.15    11.3    850.2   -476.3 -0.1785E+01 -0.1430E-02
2021  8 11  2 20  128.5914   25.1235   102.45  361.738   160.3   25.62  21.07     0.26   302.14  302.12    10.8    794.2   -418.3 -0.1899E+01  0.4094E-02
2021  8 11  2 10  128.6138   25.0563    98.37  361.733   157.4   25.62  21.09     0.94   302.14  302.08    10.7    712.8   -392.5 -0.1816E+01  0.3083E-02
2021  8 11  2  0  128.6347   24.9892    99.70  361.800   156.0   25.63  21.12     1.82   302.14  302.03    10.7    701.1   -378.2 -0.1854E+01 -0.6308E-02
2021  8 11  1 50  128.6561   24.9212   101.08  361.802   160.6   25.64  21.14     2.78   302.15  301.99    11.0    688.9   -397.5 -0.1733E+01 -0.7086E-02
2021  8 11  1 40  128.6787   24.8550   107.44  361.741   147.3   25.65  21.16     3.13   302.16  301.96    10.1    699.2   -311.7 -0.2243E+01 -0.7802E-02
2021  8 11  1 30  128.7013   24.7913   111.84  361.618   147.0   25.66  21.16     3.65   302.18  301.94    10.0    687.1   -298.4 -0.2302E+01 -0.1481E-01
2021  8 11  1 20  128.7234   24.7262   112.47  361.471   154.6   25.69  21.16     4.92   302.19  301.88    10.4    669.2   -319.6 -0.2094E+01  0.8182E-02
2021  8 11  1 10  128.7467   24.6586   109.62  361.174   157.1   25.72  21.11     5.91   302.21  301.84    10.4    609.0   -300.9 -0.2024E+01  0.1305E-01
2021  8 11  1  0  128.7727   24.5904   104.84  360.742   164.0   25.76  21.01     7.38   302.24  301.78    10.5    495.7   -289.7 -0.1711E+01  0.4559E-03
2021  8 11  0 50  128.8006   24.5226   107.27  360.136   167.9   25.80  20.85     9.24   302.26  301.67    10.3    420.5   -249.1 -0.1688E+01 -0.9904E-02
2021  8 11  0 40  128.8282   24.4553   116.63  359.604   164.6   25.81  20.67    10.35   302.28  301.58     9.6    386.4   -193.6 -0.1996E+01 -0.1868E-01
2021  8 11  0 30  128.8545   24.3907   127.20  359.216   162.9   25.83  20.42    11.41   302.29  301.46     8.9    373.6   -149.2 -0.2504E+01 -0.1567E-01
2021  8 11  0 20  128.8798   24.3265   136.19  358.992   167.0   25.85  20.13    13.38   302.30  301.29     8.6    359.9   -122.4 -0.2940E+01 -0.1955E-01
2021  8 11  0 10  128.9054   24.2643   149.03  359.051   155.7   25.85  19.84    13.96   302.30  301.11     7.4    353.8    -80.2 -0.4411E+01 -0.1448E-01
2021  8 11  0  0  128.9322   24.2023   163.85  359.265   146.8   25.86  19.62    14.78   302.30  300.91     6.7    351.8    -57.0 -0.6170E+01 -0.2971E-01
