2021  8 12  0  0  129.9459   32.6116   500.00  353.228    76.9   22.85  19.32    16.16   300.23  298.66     6.5    412.6    -67.6 -0.6107E+01  0.2322E+00
2021  8 11 23 50  129.9538   32.5976   422.25  352.924    59.6   22.87  19.20    12.60   300.26  298.59     4.5    382.1    -30.5 -0.1252E+02  0.4385E-01
2021  8 11 23 40  129.9510   32.5936   353.55  352.487    51.7   22.90  19.17    11.50   300.26  298.48     3.8    351.0    -20.5 -0.1713E+02  0.1762E+00
2021  8 11 23 30  129.9473   32.5955   328.98  352.217    40.3   22.88  19.24     9.38   300.25  298.45     2.9    349.6    -12.9 -0.2714E+02 -0.8493E-01
2021  8 11 23 20  129.9434   32.5887   375.92  352.166    41.7   22.88  19.40    10.26   300.26  298.46     3.2    375.0    -15.3 -0.2443E+02 -0.1137E+00
2021  8 11 23 10  129.9376   32.5736   368.10  352.531    42.1   22.89  19.26     9.23   300.27  298.60     3.1    417.0    -15.1 -0.2768E+02  0.1964E-01
2021  8 11 23  0  129.9277   32.5596   271.37  352.091    23.7   22.92  18.65     2.88   300.28  299.18     1.2    460.0     -3.5 -0.1312E+03  0.3942E+00
2021  8 11 22 50  129.9185   32.5466   136.40  352.085    38.2   22.93  18.61     4.00   300.28  299.29     2.2    357.4     -9.4 -0.3794E+02  0.9346E-01
2021  8 11 22 40  129.9087   32.5310   108.58  351.723    41.7   22.94  18.66     4.57   300.29  299.26     2.5    331.8    -11.7 -0.2843E+02  0.6974E-02
2021  8 11 22 30  129.8939   32.5126   113.76  351.295    48.8   22.96  18.68     5.48   300.31  299.26     3.0    330.1    -16.3 -0.2019E+02 -0.2480E-01
2021  8 11 22 20  129.8748   32.4901   118.49  350.918    59.4   22.97  18.80     6.78   300.32  299.29     3.9    300.1    -26.8 -0.1118E+02  0.2897E-02
2021  8 11 22 10  129.8488   32.4612   119.65  350.482    80.9   23.03  18.85     9.63   300.36  299.27     5.5    287.7    -51.0 -0.5637E+01 -0.1239E-01
2021  8 11 22  0  129.8117   32.4313   136.63  350.343    92.5   23.13  18.87    11.86   300.43  299.24     6.2    309.4    -64.9 -0.4768E+01 -0.5789E-01
2021  8 11 21 50  129.7654   32.4038   177.27  350.791    98.7   23.30  18.91    14.44   300.54  299.14     6.5    318.6    -64.2 -0.4965E+01 -0.6390E-01
2021  8 11 21 40  129.7198   32.3687   240.62  350.785   105.3   23.53  18.98    17.27   300.70  299.06     6.6    314.8    -61.9 -0.5082E+01 -0.1580E+00
2021  8 11 21 30  129.6797   32.3257   356.21  350.890    94.6   23.74  19.15    17.66   300.85  298.98     5.8    330.4    -42.7 -0.7745E+01 -0.2342E+00
2021  8 11 21 20  129.6429   32.2804   491.81  351.073    68.1   23.90  19.46    14.14   300.97  298.96     4.1    354.2    -21.1 -0.1677E+02 -0.1654E+00
2021  8 11 21 10  129.6067   32.2368   584.20  351.002    46.2   24.00  20.02    10.02   301.03  299.19     3.1    392.5    -13.8 -0.2851E+02 -0.1408E+00
2021  8 11 21  0  129.5664   32.1968   683.39  350.711    60.5   24.04  20.01    11.12   301.06  299.40     4.1    438.5    -24.0 -0.1825E+02 -0.8993E-01
2021  8 11 20 50  129.5198   32.1513   607.59  350.085   134.9   24.10  19.38    16.74   301.10  299.81     8.4    412.7   -118.1 -0.3494E+01  0.2242E+00
2021  8 11 20 40  129.4729   32.1022   637.75  351.189   160.2   24.17  18.92    15.24   301.16  300.06     8.9    387.9   -137.3 -0.2825E+01 -0.2236E+00
2021  8 11 20 30  129.4301   32.0521   489.18  351.425   224.5   24.28  18.63    17.59   301.22  300.24    11.4    341.9   -262.7 -0.1301E+01  0.3841E+00
2021  8 11 20 20  129.3835   31.9937   477.32  351.443   238.6   24.39  18.68    21.26   301.30  300.16    12.1    333.8   -288.8 -0.1156E+01 -0.9792E-01
2021  8 11 20 10  129.3393   31.9404   518.39  351.082   207.5   24.48  19.11    21.21   301.36  300.15    11.3    345.2   -241.5 -0.1429E+01 -0.1543E-01
2021  8 11 20  0  129.2977   31.8863   525.62  351.064   191.1   24.57  19.60    22.46   301.42  300.15    11.3    355.6   -251.5 -0.1414E+01 -0.2495E-01
2021  8 11 19 50  129.2561   31.8287   560.96  351.023   163.6   24.64  20.21    20.93   301.47  300.25    11.1    371.0   -257.6 -0.1441E+01 -0.8754E-01
2021  8 11 19 40  129.2135   31.7690   600.50  350.799   144.9   24.72  20.55    15.81   301.52  300.56    10.6    452.2   -259.8 -0.1741E+01 -0.1033E+00
2021  8 11 19 30  129.1695   31.7072   639.51  351.412   138.7   24.80  20.66     7.49   301.57  301.11    10.3    532.8   -303.4 -0.1756E+01 -0.9205E-01
2021  8 11 19 20  129.1295   31.6447   689.68  351.244   132.7   24.88  20.52     2.10   301.61  301.46     9.3    586.1   -271.3 -0.2160E+01 -0.8354E-01
2021  8 11 19 10  129.0922   31.5825   717.21  352.300   132.2   24.92  20.47     1.01   301.65  301.57     9.1    667.6   -257.2 -0.2596E+01  0.9454E-01
2021  8 11 19  0  129.0606   31.5161   645.58  352.023   151.3   24.97  20.46     2.67   301.67  301.50    10.3    575.1   -329.8 -0.1744E+01  0.5174E-01
2021  8 11 18 50  129.0294   31.4473   711.37  351.651   144.2   24.99  20.44     3.15   301.68  301.47     9.7    610.8   -274.8 -0.2222E+01 -0.1225E+00
2021  8 11 18 40  128.9960   31.3823   770.31  351.733   133.0   25.00  20.46     2.78   301.70  301.50     8.9    636.9   -226.3 -0.2814E+01 -0.4395E-01
2021  8 11 18 30  128.9633   31.3185   798.52  351.618   130.3   25.02  20.47     3.14   301.72  301.48     8.7    652.3   -209.2 -0.3118E+01 -0.4810E-01
2021  8 11 18 20  128.9306   31.2541   813.74  351.814   132.7   25.05  20.52     3.76   301.73  301.46     8.9    665.7   -216.5 -0.3075E+01 -0.5185E-01
2021  8 11 18 10  128.8970   31.1883   810.12  351.891   136.9   25.08  20.58     3.98   301.75  301.47     9.3    650.0   -239.9 -0.2709E+01  0.3785E-01
2021  8 11 18  0  128.8651   31.1206   755.09  351.749   136.0   25.11  20.62     4.30   301.77  301.47     9.3    608.4   -237.4 -0.2563E+01  0.1287E+00
2021  8 11 17 50  128.8361   31.0518   701.77  351.515   137.2   25.15  20.69     5.10   301.79  301.44     9.4    571.2   -243.1 -0.2349E+01  0.2235E-01
2021  8 11 17 40  128.8065   30.9830   691.02  351.679   133.7   25.18  20.76     5.48   301.81  301.43     9.3    570.9   -231.7 -0.2464E+01  0.4645E-01
2021  8 11 17 30  128.7802   30.9127   675.03  351.434   134.5   25.21  20.83     6.03   301.84  301.42     9.4    547.7   -238.2 -0.2300E+01  0.3243E-02
2021  8 11 17 20  128.7556   30.8392   709.00  351.300   140.7   25.24  20.89     6.39   301.86  301.44     9.9    554.2   -272.0 -0.2038E+01 -0.9251E-01
2021  8 11 17 10  128.7299   30.7649   731.87  351.413   142.4   25.27  20.91     6.34   301.88  301.47    10.0    571.7   -280.3 -0.2040E+01  0.2602E-01
2021  8 11 17  0  128.7070   30.6908   735.13  351.492   143.2   25.32  20.88     6.02   301.91  301.51     9.9    584.7   -271.6 -0.2152E+01 -0.7598E-01
2021  8 11 16 50  128.6869   30.6181   766.78  351.255   145.0   25.36  20.81     5.20   301.94  301.59     9.8    612.0   -261.6 -0.2339E+01 -0.1961E-01
2021  8 11 16 40  128.6660   30.5475   773.22  351.197   148.2   25.39  20.71     4.59   301.96  301.65     9.7    606.5   -253.7 -0.2390E+01  0.2905E-01
2021  8 11 16 30  128.6447   30.4784   737.39  350.860   156.6   25.43  20.61     4.88   301.99  301.66     9.9    565.5   -258.7 -0.2186E+01  0.1527E+00
2021  8 11 16 20  128.6249   30.4089   691.66  350.760   167.9   25.47  20.55     5.72   302.01  301.65    10.3    529.7   -282.2 -0.1877E+01 -0.5552E-01
2021  8 11 16 10  128.6057   30.3415   795.40  350.854   150.0   25.49  20.58     4.76   302.03  301.69     9.2    594.4   -214.5 -0.2770E+01 -0.1815E+00
2021  8 11 16  0  128.5867   30.2766   830.77  351.139   157.7   25.51  20.57     4.90   302.05  301.71     9.6    630.1   -238.4 -0.2643E+01  0.4103E-01
2021  8 11 15 50  128.5703   30.2064   804.87  351.178   178.2   25.54  20.55     5.72   302.07  301.72    10.8    623.5   -313.6 -0.1988E+01 -0.4827E-01
2021  8 11 15 40  128.5558   30.1355   842.56  351.282   174.7   25.57  20.55     5.70   302.09  301.73    10.5    660.0   -291.3 -0.2266E+01  0.1683E-01
2021  8 11 15 30  128.5410   30.0657   877.64  351.326   171.4   25.60  20.54     5.66   302.11  301.75    10.2    670.6   -268.6 -0.2497E+01 -0.7661E-01
2021  8 11 15 20  128.5244   29.9973   909.73  351.245   172.0   25.63  20.51     5.72   302.13  301.76    10.1    681.8   -256.1 -0.2662E+01  0.1838E-01
2021  8 11 15 10  128.5086   29.9272   892.84  351.171   182.7   25.67  20.45     6.06   302.15  301.77    10.5    679.4   -282.2 -0.2407E+01 -0.3500E-01
2021  8 11 15  0  128.4921   29.8580   925.26  351.403   174.0   25.68  20.39     5.51   302.17  301.80     9.9    711.8   -235.9 -0.3018E+01 -0.5414E-01
2021  8 11 14 50  128.4735   29.7907   927.83  351.424   178.7   25.70  20.27     5.07   302.18  301.85     9.8    696.4   -231.7 -0.3005E+01  0.1500E-01
2021  8 11 14 40  128.4549   29.7225   908.36  351.349   184.2   25.72  20.14     5.43   302.20  301.84     9.8    652.7   -222.8 -0.2930E+01  0.1236E+00
2021  8 11 14 30  128.4376   29.6515   822.21  351.328   200.7   25.75  19.96     6.50   302.21  301.80    10.3    557.4   -239.1 -0.2331E+01  0.1565E+00
2021  8 11 14 20  128.4206   29.5780   752.78  351.592   202.7   25.77  19.90     7.84   302.22  301.72    10.2    504.3   -223.8 -0.2253E+01  0.7262E-01
2021  8 11 14 10  128.4015   29.5059   698.82  351.632   198.4   25.79  19.96     9.01   302.23  301.64    10.1    479.0   -210.3 -0.2278E+01  0.7726E-01
2021  8 11 14  0  128.3808   29.4353   671.36  351.499   192.3   25.80  19.98     9.84   302.24  301.58     9.8    443.4   -189.1 -0.2344E+01  0.5855E-01
2021  8 11 13 50  128.3596   29.3667   646.01  351.459   191.4   25.82  19.95    11.09   302.25  301.50     9.6    423.2   -175.6 -0.2411E+01  0.3980E-01
2021  8 11 13 40  128.3385   29.2988   641.29  351.463   197.5   25.83  19.93    12.81   302.25  301.41     9.9    407.4   -178.8 -0.2279E+01 -0.2542E-01
2021  8 11 13 30  128.3168   29.2305   668.73  351.592   205.4   25.84  19.92    14.61   302.26  301.33    10.2    396.7   -190.8 -0.2080E+01 -0.7421E-01
2021  8 11 13 20  128.2948   29.1631   724.01  351.763   206.5   25.83  19.94    15.97   302.26  301.25    10.3    394.0   -190.7 -0.2066E+01 -0.1317E+00
2021  8 11 13 10  128.2733   29.0966   781.49  351.843   207.7   25.82  19.96    17.14   302.26  301.19    10.4    396.0   -192.3 -0.2060E+01 -0.9201E-01
2021  8 11 13  0  128.2537   29.0298   815.87  351.868   212.6   25.81  20.00    18.77   302.26  301.13    10.7    401.3   -206.4 -0.1944E+01 -0.3007E-01
2021  8 11 12 50  128.2350   28.9630   819.00  351.899   207.9   25.80  20.03    19.42   302.25  301.07    10.6    413.3   -197.2 -0.2095E+01  0.4309E-01
2021  8 11 12 40  128.2167   28.8965   790.43  351.961   201.5   25.79  20.02    19.94   302.25  300.99    10.3    411.8   -178.2 -0.2310E+01  0.4963E-01
2021  8 11 12 30  128.1975   28.8299   772.09  352.058   203.2   25.77  19.98    21.00   302.24  300.91    10.3    391.7   -174.5 -0.2245E+01  0.5765E-02
2021  8 11 12 20  128.1798   28.7619   781.73  352.161   203.8   25.75  20.03    23.31   302.22  300.78    10.4    377.0   -176.9 -0.2131E+01 -0.7318E-01
2021  8 11 12 10  128.1621   28.6939   806.10  352.280   199.6   25.72  20.04    25.25   302.20  300.62    10.3    370.5   -164.7 -0.2249E+01 -0.4763E-01
2021  8 11 12  0  128.1433   28.6271   825.36  352.254   186.0   25.69  20.04    25.67   302.19  300.47     9.7    371.8   -134.9 -0.2756E+01  0.4425E-01
2021  8 11 11 50  128.1230   28.5621   831.47  351.921   169.7   25.67  20.01    24.81   302.17  300.35     8.7    369.6   -102.1 -0.3620E+01  0.8494E-01
2021  8 11 11 40  128.1031   28.4962   829.08  351.833   173.9   25.65  20.03    26.67   302.16  300.26     9.0    373.4   -107.8 -0.3463E+01 -0.1060E+00
2021  8 11 11 30  128.0846   28.4287   851.13  352.265   179.4   25.62  20.02    27.45   302.14  300.26     9.3    390.8   -119.3 -0.3277E+01 -0.6006E-01
2021  8 11 11 20  128.0676   28.3611   871.12  351.977   167.1   25.59  20.02    25.11   302.12  300.29     8.8    382.6   -103.2 -0.3707E+01  0.8454E-01
2021  8 11 11 10  128.0491   28.2945   882.52  351.920   133.5   25.57  20.28    19.81   302.11  300.39     7.3    383.4    -71.3 -0.5378E+01 -0.1616E+00
2021  8 11 11  0  128.0299   28.2303   885.91  352.023   127.3   25.56  20.39    16.48   302.10  300.63     7.2    376.7    -74.2 -0.5075E+01  0.1420E+00
2021  8 11 10 50  128.0062   28.1669   909.12  351.784   124.4   25.55  20.32    15.63   302.08  300.65     7.0    397.3    -69.4 -0.5723E+01 -0.2009E+00
2021  8 11 10 40  127.9798   28.1035   911.19  351.927   135.3   25.52  20.12    14.39   302.07  300.81     7.3    381.3    -80.1 -0.4762E+01  0.2288E+00
2021  8 11 10 30  127.9502   28.0362   835.91  351.981   166.5   25.52  20.04    17.12   302.06  300.83     8.9    356.7   -129.3 -0.2760E+01 -0.5197E-01
2021  8 11 10 20  127.9227   27.9646   858.47  352.096   177.5   25.50  19.97    18.35   302.05  300.80     9.4    348.9   -146.2 -0.2386E+01 -0.8353E-01
2021  8 11 10 10  127.9013   27.8922   975.17  352.333   163.5   25.47  19.99    18.21   302.04  300.70     8.7    358.5   -118.9 -0.3015E+01 -0.1399E+00
2021  8 11 10  0  127.8796   27.8218   988.46  352.499   157.1   25.46  20.05    16.94   302.03  300.75     8.5    363.9   -114.3 -0.3182E+01  0.1856E+00
2021  8 11  9 50  127.8578   27.7516   907.75  352.539   166.9   25.45  19.93    16.94   302.02  300.79     8.9    338.8   -126.6 -0.2677E+01  0.7225E-01
2021  8 11  9 40  127.8368   27.6807   869.04  352.795   164.9   25.44  19.89    16.74   302.01  300.77     8.7    329.9   -119.7 -0.2757E+01  0.2211E-01
2021  8 11  9 30  127.8156   27.6072   866.00  352.916   175.7   25.44  19.92    20.00   302.01  300.63     9.3    331.1   -136.6 -0.2423E+01 -0.7795E-01
2021  8 11  9 20  127.7969   27.5319   935.13  353.155   167.0   25.44  19.81    18.43   302.01  300.64     8.6    342.3   -113.0 -0.3029E+01 -0.5643E-01
2021  8 11  9 10  127.7791   27.4578   918.19  353.245   164.2   25.43  19.92    17.94   302.00  300.68     8.7    354.7   -117.8 -0.3010E+01  0.1983E-01
2021  8 11  9  0  127.7614   27.3839   904.84  353.227   154.4   25.42  20.12    15.09   302.00  300.86     8.6    376.5   -124.0 -0.3036E+01  0.3074E-01
2021  8 11  8 50  127.7430   27.3103   895.26  353.187   160.8   25.41  20.28    15.16   301.99  300.93     9.3    382.8   -159.9 -0.2395E+01 -0.3490E-01
2021  8 11  8 40  127.7248   27.2361   886.85  353.284   156.0   25.40  20.47    16.30   301.98  300.86     9.5    376.0   -165.8 -0.2267E+01  0.8498E-01
2021  8 11  8 30  127.7047   27.1616   879.24  352.903   146.3   25.40  20.58    17.84   301.98  300.71     9.1    359.0   -143.5 -0.2501E+01 -0.4583E-01
2021  8 11  8 20  127.6857   27.0848   913.06  352.815   131.3   25.39  20.95    15.59   301.97  300.85     9.0    416.9   -153.2 -0.2722E+01 -0.7748E-01
2021  8 11  8 10  127.6675   27.0045   933.38  352.997   125.3   25.38  21.07     9.50   301.96  301.27     8.9    555.9   -183.4 -0.3032E+01 -0.2760E-01
2021  8 11  8  0  127.6516   26.9232   913.31  352.765   121.9   25.35  21.06     3.44   301.95  301.69     8.8    646.1   -220.8 -0.2926E+01 -0.4352E-01
2021  8 11  7 50  127.6404   26.8423   956.47  352.586   108.4   25.32  21.07     1.79   301.92  301.78     7.9    687.9   -182.4 -0.3771E+01  0.6125E-01
2021  8 11  7 40  127.6323   26.7603   906.29  352.665   116.1   25.30  21.01     0.60   301.91  301.86     8.4    674.1   -224.6 -0.3001E+01  0.5506E-01
2021  8 11  7 30  127.6253   26.6765   872.61  352.671   142.1   25.29  20.77    -0.24   301.90  301.91     9.7    648.4   -317.6 -0.2042E+01  0.2303E-01
2021  8 11  7 20  127.6185   26.5930   870.04  352.503   144.5   25.28  20.73     0.60   301.89  301.85     9.7    621.7   -308.1 -0.2018E+01 -0.2088E-02
2021  8 11  7 10  127.6104   26.5112   886.91  352.379   125.9   25.29  20.88     1.12   301.90  301.81     8.8    634.4   -239.3 -0.2651E+01 -0.5200E-01
2021  8 11  7  0  127.6033   26.4315   893.40  352.353   119.3   25.32  20.91     0.83   301.92  301.85     8.3    658.3   -211.0 -0.3120E+01  0.5334E-01
2021  8 11  6 50  127.6011   26.3495   850.99  352.330   134.1   25.40  20.92     1.39   301.96  301.86     9.2    632.2   -263.0 -0.2404E+01  0.4340E-01
2021  8 11  6 40  127.5995   26.2646   862.29  352.365   138.1   25.46  20.91     1.35   302.00  301.91     9.3    649.0   -268.7 -0.2415E+01 -0.5917E-01
2021  8 11  6 30  127.5977   26.1799   892.22  352.310   144.7   25.52  20.83     1.30   302.04  301.95     9.4    666.8   -268.8 -0.2480E+01 -0.5351E-01
2021  8 11  6 20  127.5972   26.0964   897.60  352.271   151.3   25.58  20.70     1.80   302.09  301.96     9.5    658.3   -254.7 -0.2585E+01  0.6130E-02
2021  8 11  6 10  127.5958   26.0148   883.85  352.099   156.2   25.65  20.64     2.93   302.12  301.92     9.4    618.5   -238.7 -0.2591E+01  0.8454E-01
2021  8 11  6  0  127.5936   25.9312   857.12  352.147   164.9   25.69  20.70     3.84   302.16  301.90    10.0    600.2   -271.6 -0.2210E+01 -0.6971E-01
2021  8 11  5 50  127.5913   25.8472   859.72  352.128   160.6   25.74  20.71     4.29   302.18  301.89     9.7    598.5   -242.2 -0.2471E+01  0.9970E-01
2021  8 11  5 40  127.5888   25.7626   821.92  352.126   169.8   25.78  20.64     5.34   302.21  301.86    10.0    566.5   -250.8 -0.2259E+01  0.1425E-01
2021  8 11  5 30  127.5877   25.6781   864.18  351.966   165.9   25.81  20.62     5.91   302.23  301.83     9.6    580.9   -221.2 -0.2626E+01 -0.6932E-01
2021  8 11  5 20  127.5865   25.5923   873.32  351.818   169.9   25.84  20.63     6.88   302.24  301.79     9.8    568.2   -226.4 -0.2510E+01 -0.4916E-01
2021  8 11  5 10  127.5859   25.5045   877.51  351.983   173.3   25.85  20.67     7.79   302.25  301.75    10.1    572.0   -237.0 -0.2414E+01  0.2122E-01
2021  8 11  5  0  127.5862   25.4134   902.39  351.953   163.5   25.85  20.77     8.62   302.26  301.68     9.7    599.8   -212.6 -0.2821E+01 -0.7797E-01
2021  8 11  4 50  127.5852   25.3209   904.24  351.996   160.7   25.85  20.95     9.68   302.26  301.62     9.9    626.5   -224.8 -0.2787E+01  0.2611E-01
2021  8 11  4 40  127.5861   25.2265   931.56  351.838   154.1   25.84  20.99     7.66   302.25  301.73     9.7    693.2   -224.6 -0.3087E+01 -0.7744E-01
2021  8 11  4 30  127.5895   25.1347   897.27  351.502   162.7   25.82  20.88     5.62   302.24  301.87    10.0    677.1   -257.5 -0.2630E+01  0.1126E+00
2021  8 11  4 20  127.5975   25.0440   842.17  351.421   187.6   25.81  20.65     5.64   302.23  301.90    11.0    607.1   -322.3 -0.1883E+01  0.6190E-01
2021  8 11  4 10  127.6084   24.9539   826.12  351.109   207.0   25.80  20.45     7.00   302.23  301.83    11.6    551.2   -353.9 -0.1558E+01  0.3103E-01
2021  8 11  4  0  127.6206   24.8627   897.90  350.425   209.5   25.79  20.40     8.53   302.22  301.74    11.6    550.7   -339.7 -0.1621E+01 -0.2845E+00
2021  8 11  3 50  127.6317   24.7715   984.12  350.370   192.6   25.77  20.42    10.09   302.21  301.60    10.7    555.7   -261.5 -0.2125E+01 -0.4799E-01
2021  8 11  3 40  127.6429   24.6798   980.53  350.384   178.2   25.77  20.51    13.41   302.21  301.35    10.1    493.9   -204.0 -0.2421E+01 -0.5079E-01
2021  8 11  3 30  127.6537   24.5866   963.51  350.778   166.6   25.76  20.73    18.78   302.21  300.98     9.9    450.1   -174.0 -0.2587E+01 -0.1967E+00
2021  8 11  3 20  127.6642   24.4924   938.00  351.752   157.9   25.77  20.93    20.99   302.22  300.83     9.8    464.5   -166.9 -0.2784E+01 -0.1825E+00
2021  8 11  3 10  127.6748   24.3991   994.28  353.415   147.2   25.79  20.93    19.13   302.24  300.88     9.1    483.0   -140.3 -0.3443E+01 -0.1099E+00
2021  8 11  3  0  127.6872   24.3107   898.83  356.116   143.5   25.82  20.91    16.82   302.25  301.01     8.8    528.2   -134.4 -0.3930E+01  0.1013E+01
2021  8 11  2 50  127.6999   24.2352   573.57  358.376   143.5   25.84  20.86    14.29   302.27  301.20     8.7    641.3   -135.1 -0.4748E+01  0.9286E+00
2021  8 11  2 40  127.7112   24.1684   382.75  358.898   142.7   25.85  20.87    13.78   302.27  301.23     8.6    535.4   -132.1 -0.4052E+01  0.2642E+00
2021  8 11  2 30  127.7231   24.1051   286.70  358.928   145.9   25.86  20.76    13.36   302.28  301.27     8.5    442.6   -129.3 -0.3423E+01  0.5402E-01
2021  8 11  2 20  127.7344   24.0451   264.44  359.002   134.0   25.87  20.69    12.95   302.29  301.20     7.6    394.9    -95.8 -0.4124E+01  0.6479E-02
2021  8 11  2 10  127.7426   23.9841   258.46  359.162   135.1   25.88  20.83    15.05   302.29  301.08     7.9    389.1   -101.1 -0.3848E+01 -0.6845E-01
2021  8 11  2  0  127.7518   23.9164   245.88  359.363   142.5   25.90  21.01    18.05   302.30  300.97     8.7    395.5   -126.7 -0.3122E+01  0.4808E-01
2021  8 11  1 50  127.7612   23.8449   225.19  359.641   141.1   25.92  21.10    18.73   302.31  300.94     8.9    388.2   -131.3 -0.2956E+01  0.1365E+00
2021  8 11  1 40  127.7702   23.7738   208.77  359.832   137.8   25.93  21.09    18.62   302.32  300.92     8.6    384.2   -119.1 -0.3226E+01  0.4986E-01
2021  8 11  1 30  127.7793   23.7028   227.70  359.999   124.9   25.95  21.16    17.78   302.33  300.87     7.8    394.2    -94.9 -0.4153E+01  0.1018E+00
2021  8 11  1 20  127.7856   23.6361   202.72  360.435   119.0   25.95  21.23    15.75   302.34  300.99     7.5    433.0    -90.1 -0.4804E+01  0.2712E-01
2021  8 11  1 10  127.7903   23.5746   143.46  361.148   133.2   25.96  21.27    15.92   302.34  301.11     8.6    536.9   -128.3 -0.4184E+01 -0.1198E-01
2021  8 11  1  0  127.7919   23.5150    86.63  361.504   152.9   25.98  21.22    17.62   302.35  301.16     9.8    566.3   -178.8 -0.3168E+01  0.6126E-01
2021  8 11  0 50  127.7900   23.4549    58.79  361.430   162.2   26.00  21.13    19.55   302.37  301.10    10.1    579.4   -186.6 -0.3105E+01  0.4692E-01
2021  8 11  0 40  127.7842   23.3950    50.08  360.973   164.1   26.03  21.05    22.93   302.39  300.87     9.9    470.5   -162.3 -0.2899E+01  0.7650E-02
2021  8 11  0 30  127.7752   23.3348    57.63  360.230   175.1   26.06  20.93    26.62   302.41  300.72    10.1    393.8   -161.1 -0.2444E+01 -0.2452E-01
2021  8 11  0 20  127.7658   23.2700    50.32  359.610   204.5   26.09  20.78    31.34   302.43  300.66    11.4    432.8   -211.9 -0.2042E+01 -0.1018E-01
2021  8 11  0 10  127.7497   23.2038    50.16  358.687   228.8   26.12  20.64    40.18   302.44  300.34    12.3    441.4   -236.8 -0.1864E+01  0.1952E-01
2021  8 11  0  0  127.7317   23.1339    51.02  357.839   244.2   26.14  20.52    47.68   302.46  300.06    12.7    442.6   -240.3 -0.1842E+01 -0.2364E-01
