2021  8 12  0  0  129.9159   32.6243   500.00  354.258    64.8   22.80  19.30    13.08   300.19  298.69     5.4    403.7    -46.7 -0.8636E+01  0.1494E+00
2021  8 11 23 50  129.9146   32.6130   419.33  353.854    46.8   22.81  19.21     9.23   300.20  298.70     3.6    382.5    -21.0 -0.1822E+02  0.1167E+00
2021  8 11 23 40  129.9053   32.6071   366.14  353.804    43.0   22.82  19.14     8.39   300.20  298.67     3.1    367.2    -15.8 -0.2327E+02  0.6075E-01
2021  8 11 23 30  129.8948   32.6010   370.86  353.241    31.8   22.81  19.10     5.94   300.20  298.72     2.2    385.5     -8.1 -0.4739E+02 -0.8124E-01
2021  8 11 23 20  129.8859   32.5866   389.14  352.923    26.4   22.82  19.11     4.75   300.21  298.79     1.7    405.0     -5.4 -0.7497E+02 -0.2148E-02
2021  8 11 23 10  129.8779   32.5672   370.01  352.932    28.8   22.86  19.19     5.50   300.23  298.78     2.0    390.3     -7.1 -0.5509E+02  0.6522E-01
2021  8 11 23  0  129.8645   32.5467   309.55  352.962    40.6   22.88  19.22     6.60   300.25  298.99     3.0    362.1    -15.8 -0.2290E+02  0.6333E-01
2021  8 11 22 50  129.8372   32.5324   286.84  352.719    56.0   22.90  19.12     6.37   300.26  299.36     4.2    345.8    -34.2 -0.1011E+02  0.6339E-01
2021  8 11 22 40  129.7956   32.5228   254.77  352.434    73.2   22.89  19.08     6.40   300.26  299.55     5.6    392.3    -67.1 -0.5850E+01 -0.5124E-01
2021  8 11 22 30  129.7526   32.5095   262.55  352.285    72.9   22.95  18.97     5.20   300.30  299.70     5.3    395.0    -61.5 -0.6419E+01  0.1247E-01
2021  8 11 22 20  129.7106   32.4901   246.93  352.310    80.0   23.05  18.98     6.40   300.37  299.68     5.7    374.0    -67.1 -0.5576E+01  0.4175E-01
2021  8 11 22 10  129.6673   32.4662   203.02  352.033    93.7   23.20  18.95     8.57   300.48  299.63     6.4    364.6    -79.8 -0.4568E+01  0.1151E+00
2021  8 11 22  0  129.6240   32.4381   163.53  351.234   104.0   23.38  18.78    10.16   300.59  299.62     6.5    346.5    -75.0 -0.4622E+01  0.3297E-01
2021  8 11 21 50  129.5869   32.4070   147.82  350.494   111.2   23.53  18.57    10.17   300.70  299.70     6.4    333.5    -67.2 -0.4961E+01  0.1179E-01
2021  8 11 21 40  129.5579   32.3706   148.32  349.277   113.8   23.67  18.35    10.68   300.81  299.70     6.0    323.8    -53.7 -0.6025E+01 -0.2326E-01
2021  8 11 21 30  129.5360   32.3315   157.85  348.767   118.2   23.80  18.28    12.51   300.89  299.59     5.9    323.2    -48.1 -0.6718E+01 -0.1012E-01
2021  8 11 21 20  129.5151   32.2882   173.38  347.583   133.8   23.91  18.25    15.97   300.97  299.46     6.6    321.6    -57.1 -0.5635E+01 -0.6265E-01
2021  8 11 21 10  129.4887   32.2421   208.51  347.770   135.1   24.02  18.30    18.19   301.04  299.31     6.6    325.9    -52.9 -0.6166E+01 -0.5855E-01
2021  8 11 21  0  129.4568   32.1947   249.39  347.647   150.3   24.12  18.36    22.94   301.11  299.14     7.3    319.6    -63.0 -0.5072E+01 -0.1311E+00
2021  8 11 20 50  129.4172   32.1431   348.99  347.488   156.1   24.22  18.61    28.66   301.18  298.88     7.8    322.5    -68.9 -0.4681E+01 -0.3015E+00
2021  8 11 20 40  129.3729   32.0903   474.46  347.655   160.2   24.32  18.71    27.89   301.25  299.08     8.0    322.2    -76.6 -0.4206E+01 -0.1183E+00
2021  8 11 20 30  129.3220   32.0328   580.20  347.722   178.9   24.44  18.75    30.36   301.33  299.19     8.9    320.9    -98.7 -0.3251E+01 -0.3601E+00
2021  8 11 20 20  129.2760   31.9760   767.34  347.674   161.2   24.54  18.63    26.38   301.40  299.23     7.6    320.2    -65.6 -0.4877E+01 -0.3344E+00
2021  8 11 20 10  129.2351   31.9184   945.34  347.076   147.8   24.62  18.71    25.21   301.45  299.20     6.9    320.4    -51.3 -0.6250E+01 -0.2886E+00
2021  8 11 20  0  129.1932   31.8588  1082.45  347.048   132.0   24.70  18.98    23.82   301.51  299.21     6.3    324.1    -42.3 -0.7653E+01 -0.1504E+00
2021  8 11 19 50  129.1498   31.7983  1197.61  346.595   116.1   24.78  19.20    19.63   301.56  299.47     5.7    330.2    -35.6 -0.9278E+01 -0.1279E+00
2021  8 11 19 40  129.1107   31.7368  1302.90  346.424   101.6   24.85  19.56    16.08   301.60  299.76     5.3    342.6    -33.2 -0.1032E+02 -0.1559E+00
2021  8 11 19 30  129.0738   31.6742  1413.28  346.480    91.2   24.91  20.41     9.82   301.64  300.57     6.0    472.1    -61.1 -0.7723E+01 -0.2999E-01
2021  8 11 19 20  129.0398   31.6136  1439.48  346.458   107.7   24.96  20.80     3.57   301.67  301.36     8.0    593.7   -177.7 -0.3341E+01 -0.1775E+00
2021  8 11 19 10  129.0091   31.5570  1538.46  346.665   118.9   24.98  20.72     4.37   301.68  301.35     8.6    596.8   -201.0 -0.2970E+01  0.3216E+00
2021  8 11 19  0  128.9785   31.4985  1394.41  346.542   150.0   25.02  20.73     7.64   301.70  301.23    10.7    505.0   -327.9 -0.1540E+01 -0.9148E-01
2021  8 11 18 50  128.9498   31.4415  1483.81  347.013   146.4   25.03  20.63     7.23   301.71  301.25    10.1    536.0   -278.2 -0.1927E+01 -0.4039E+00
2021  8 11 18 40  128.9219   31.3871  1557.40  347.844   132.8   25.04  20.56     5.90   301.73  301.30     9.0    572.2   -209.3 -0.2734E+01 -0.1246E+00
2021  8 11 18 30  128.8943   31.3347  1573.30  347.547   131.8   25.06  20.54     6.32   301.74  301.27     8.9    556.4   -194.7 -0.2857E+01  0.2842E-01
2021  8 11 18 20  128.8679   31.2838  1580.27  347.617   137.5   25.08  20.53     7.23   301.75  301.24     9.2    573.3   -205.5 -0.2790E+01 -0.9526E-01
2021  8 11 18 10  128.8424   31.2345  1590.97  347.651   147.3   25.10  20.52     7.43   301.77  301.27     9.8    624.3   -241.0 -0.2591E+01  0.1924E-01
2021  8 11 18  0  128.8182   31.1853  1536.48  347.902   148.2   25.12  20.50     6.44   301.78  301.35     9.8    649.7   -247.2 -0.2628E+01  0.1338E+00
2021  8 11 17 50  128.7943   31.1349  1453.59  348.063   143.3   25.14  20.46     5.61   301.79  301.39     9.3    572.9   -220.5 -0.2598E+01  0.2207E+00
2021  8 11 17 40  128.7694   31.0825  1457.93  348.045   149.9   25.16  20.44     6.38   301.80  301.37     9.6    512.7   -232.6 -0.2205E+01 -0.1270E+00
2021  8 11 17 30  128.7434   31.0282  1526.14  348.333   159.9   25.17  20.48     7.73   301.81  301.32    10.3    534.5   -273.1 -0.1957E+01 -0.2621E+00
2021  8 11 17 20  128.7190   30.9733  1555.52  348.458   165.3   25.19  20.52     8.98   301.83  301.28    10.7    529.1   -300.2 -0.1763E+01  0.8988E-01
2021  8 11 17 10  128.6949   30.9174  1512.19  348.597   163.3   25.21  20.55    10.47   301.84  301.20    10.6    477.3   -278.6 -0.1713E+01  0.2698E+00
2021  8 11 17  0  128.6705   30.8607  1427.12  348.662   166.3   25.24  20.58    13.12   301.86  301.07    10.8    474.7   -274.0 -0.1732E+01  0.3307E-01
2021  8 11 16 50  128.6479   30.8048  1456.37  349.106   170.0   25.26  20.72    16.33   301.87  300.94    11.3    514.3   -301.5 -0.1706E+01 -0.1328E+00
2021  8 11 16 40  128.6255   30.7504  1507.09  349.811   162.3   25.28  21.02    17.32   301.89  300.93    11.7    584.0   -335.3 -0.1742E+01 -0.2080E+00
2021  8 11 16 30  128.6028   30.6988  1587.51  349.412   128.7   25.30  21.46    13.46   301.90  301.08    10.5    598.5   -286.4 -0.2089E+01  0.1197E+00
2021  8 11 16 20  128.5835   30.6475  1573.70  348.910   102.3   25.33  21.66     9.67   301.92  301.22     8.9    614.9   -200.7 -0.3063E+01 -0.5265E-01
2021  8 11 16 10  128.5671   30.5939  1491.08  348.883    98.4   25.36  21.66     8.52   301.94  301.29     8.4    610.7   -180.6 -0.3382E+01  0.1271E+00
2021  8 11 16  0  128.5527   30.5375  1267.09  349.682   101.8   25.40  21.56     6.97   301.97  301.42     8.4    641.0   -183.6 -0.3491E+01  0.1089E+00
2021  8 11 15 50  128.5391   30.4814  1140.31  349.632   101.8   25.42  21.40     4.58   301.99  301.61     7.9    676.1   -169.5 -0.3989E+01  0.4206E-01
2021  8 11 15 40  128.5233   30.4259  1068.07  348.954   103.7   25.44  21.30     3.21   302.00  301.73     7.8    668.8   -168.4 -0.3973E+01 -0.3466E-01
2021  8 11 15 30  128.5056   30.3686  1019.37  348.717   113.2   25.46  21.24     2.84   302.02  301.79     8.3    637.5   -198.4 -0.3214E+01 -0.1970E-01
2021  8 11 15 20  128.4885   30.3096  1004.78  348.499   120.5   25.48  21.19     2.77   302.03  301.82     8.7    611.1   -223.1 -0.2739E+01 -0.1401E+00
2021  8 11 15 10  128.4729   30.2498  1077.54  348.602   121.3   25.51  21.16     2.81   302.05  301.83     8.6    642.9   -214.7 -0.2994E+01 -0.1708E+00
2021  8 11 15  0  128.4575   30.1907  1168.66  348.495   123.3   25.54  21.14     2.73   302.06  301.86     8.6    680.1   -214.4 -0.3172E+01 -0.1348E+00
2021  8 11 14 50  128.4409   30.1326  1204.77  348.444   129.8   25.56  21.10     2.28   302.08  301.91     9.0    703.0   -237.8 -0.2956E+01  0.2523E-03
2021  8 11 14 40  128.4224   30.0771  1221.46  348.388   128.4   25.57  21.02     2.08   302.10  301.94     8.7    707.7   -215.6 -0.3283E+01 -0.2505E-01
2021  8 11 14 30  128.4016   30.0245  1217.67  348.506   128.0   25.60  20.96     2.34   302.11  301.93     8.4    700.9   -195.3 -0.3588E+01  0.3851E-01
2021  8 11 14 20  128.3796   29.9718  1242.73  348.303   132.6   25.63  20.92     3.09   302.13  301.89     8.6    696.4   -195.7 -0.3558E+01 -0.1196E+00
2021  8 11 14 10  128.3562   29.9193  1265.66  348.284   134.5   25.65  20.89     3.43   302.14  301.88     8.6    719.1   -192.5 -0.3735E+01  0.2795E-01
2021  8 11 14  0  128.3320   29.8657  1208.71  348.245   142.9   25.67  20.84     4.03   302.15  301.85     9.0    692.5   -207.7 -0.3334E+01  0.1285E+00
2021  8 11 13 50  128.3063   29.8113  1152.83  348.216   148.2   25.69  20.76     4.31   302.16  301.85     9.1    661.4   -210.4 -0.3144E+01  0.5513E-01
2021  8 11 13 40  128.2791   29.7568  1140.23  348.290   149.1   25.70  20.66     4.32   302.17  301.85     8.9    656.6   -196.6 -0.3340E+01 -0.2929E-02
2021  8 11 13 30  128.2530   29.7021  1121.69  348.014   152.5   25.71  20.56     4.52   302.17  301.84     8.9    628.1   -190.1 -0.3304E+01  0.1086E+00
2021  8 11 13 20  128.2288   29.6459  1081.06  348.119   155.8   25.72  20.50     4.58   302.18  301.85     9.0    608.3   -190.3 -0.3197E+01 -0.1278E-01
2021  8 11 13 10  128.2046   29.5906  1057.43  348.210   151.1   25.72  20.45     4.23   302.19  301.87     8.6    582.6   -171.3 -0.3402E+01  0.9089E-01
2021  8 11 13  0  128.1795   29.5355  1056.14  347.907   150.1   25.73  20.45     4.37   302.19  301.86     8.5    556.8   -166.0 -0.3354E+01 -0.1568E-01
2021  8 11 12 50  128.1539   29.4800  1102.28  348.007   154.0   25.73  20.48     4.59   302.20  301.86     8.8    576.4   -178.3 -0.3233E+01 -0.1520E+00
2021  8 11 12 40  128.1265   29.4260  1152.35  348.306   159.2   25.74  20.50     4.67   302.21  301.88     9.1    639.7   -195.4 -0.3273E+01 -0.9643E-01
2021  8 11 12 30  128.0989   29.3729  1174.24  348.313   165.0   25.75  20.50     4.43   302.22  301.92     9.4    652.1   -217.3 -0.3001E+01  0.2558E-01
2021  8 11 12 20  128.0737   29.3180  1124.93  348.066   170.1   25.77  20.57     4.83   302.23  301.91     9.9    599.6   -242.0 -0.2477E+01  0.1471E+00
2021  8 11 12 10  128.0508   29.2604  1120.84  347.971   159.7   25.79  20.68     4.31   302.24  301.94     9.4    608.8   -223.2 -0.2728E+01 -0.4687E-01
2021  8 11 12  0  128.0283   29.2024  1141.14  348.155   159.2   25.81  20.71     3.11   302.25  302.03     9.4    661.2   -232.8 -0.2841E+01 -0.6561E-01
2021  8 11 11 50  128.0051   29.1447  1160.64  348.302   154.6   25.82  20.73     2.72   302.26  302.07     9.2    689.3   -219.4 -0.3141E+01 -0.1085E-01
2021  8 11 11 40  127.9820   29.0874  1170.72  348.110   146.5   25.85  20.80     3.25   302.28  302.04     8.8    686.2   -193.8 -0.3541E+01 -0.2494E-01
2021  8 11 11 30  127.9573   29.0309  1179.10  348.367   135.5   25.87  20.90     3.61   302.29  302.01     8.3    710.1   -166.0 -0.4278E+01 -0.2267E-01
2021  8 11 11 20  127.9308   28.9744  1215.11  348.014   127.9   25.88  21.01     3.72   302.30  301.99     7.9    721.1   -152.4 -0.4733E+01 -0.9091E-01
2021  8 11 11 10  127.9047   28.9171  1286.21  348.113   122.6   25.88  21.08     3.23   302.30  302.02     7.7    797.1   -147.3 -0.5411E+01 -0.1189E+00
2021  8 11 11  0  127.8807   28.8594  1325.36  348.066   125.0   25.88  21.04     2.27   302.30  302.11     7.8    853.9   -157.4 -0.5425E+01 -0.4625E-01
2021  8 11 10 50  127.8591   28.8004  1332.36  348.151   135.8   25.88  20.81     1.26   302.30  302.19     8.1    823.9   -170.9 -0.4821E+01  0.2032E-01
2021  8 11 10 40  127.8392   28.7396  1306.79  348.123   146.6   25.88  20.69     1.18   302.30  302.21     8.5    772.9   -191.1 -0.4045E+01  0.3222E-01
2021  8 11 10 30  127.8190   28.6777  1292.49  348.162   145.1   25.87  20.70     1.23   302.30  302.20     8.5    749.4   -186.8 -0.4013E+01  0.1993E-01
2021  8 11 10 20  127.7977   28.6143  1272.69  348.122   159.6   25.87  20.45     0.94   302.29  302.22     8.8    716.9   -199.2 -0.3599E+01  0.2969E-01
2021  8 11 10 10  127.7750   28.5495  1267.23  348.285   172.8   25.87  20.13     0.35   302.29  302.26     9.0    691.8   -201.6 -0.3432E+01 -0.9782E-03
2021  8 11 10  0  127.7507   28.4844  1257.92  348.289   177.8   25.87  19.96     0.49   302.29  302.25     8.9    652.6   -193.4 -0.3374E+01  0.2959E-01
2021  8 11  9 50  127.7253   28.4189  1261.42  348.307   168.3   25.86  20.01     1.12   302.28  302.19     8.5    634.3   -169.2 -0.3749E+01 -0.2672E-01
2021  8 11  9 40  127.6992   28.3545  1276.96  348.264   149.3   25.86  20.15     1.61   302.27  302.14     7.7    637.5   -135.2 -0.4714E+01  0.2805E-02
2021  8 11  9 30  127.6740   28.2896  1263.10  348.475   150.2   25.84  20.19     1.70   302.26  302.12     7.9    631.8   -141.1 -0.4477E+01  0.4563E-01
2021  8 11  9 20  127.6505   28.2232  1267.66  348.421   149.7   25.83  20.25     1.94   302.25  302.09     8.0    628.0   -145.9 -0.4305E+01 -0.6264E-01
2021  8 11  9 10  127.6278   28.1572  1263.99  348.312   148.0   25.81  20.29     1.96   302.24  302.08     8.0    624.8   -148.1 -0.4220E+01  0.5133E-01
2021  8 11  9  0  127.6054   28.0914  1259.46  348.171   148.8   25.79  20.31     2.07   302.23  302.06     8.1    629.9   -152.3 -0.4135E+01 -0.3727E-01
2021  8 11  8 50  127.5844   28.0265  1281.64  348.138   148.7   25.78  20.33     2.16   302.22  302.05     8.1    648.6   -155.5 -0.4171E+01 -0.1315E-01
2021  8 11  8 40  127.5633   27.9618  1286.67  348.414   152.1   25.77  20.35     2.40   302.21  302.03     8.4    667.4   -167.3 -0.3990E+01 -0.3364E-01
2021  8 11  8 30  127.5424   27.8967  1263.32  348.289   152.7   25.77  20.37     2.89   302.21  301.99     8.5    646.9   -168.7 -0.3835E+01  0.1452E+00
2021  8 11  8 20  127.5220   27.8300  1211.14  348.136   154.8   25.77  20.38     3.51   302.21  301.94     8.6    599.7   -171.8 -0.3490E+01  0.4430E-01
2021  8 11  8 10  127.5017   27.7628  1211.82  348.105   152.2   25.76  20.38     3.74   302.20  301.91     8.5    585.2   -164.1 -0.3567E+01 -0.7322E-01
2021  8 11  8  0  127.4819   27.6953  1260.12  348.353   147.9   25.75  20.40     3.79   302.20  301.90     8.2    617.9   -154.6 -0.3997E+01 -0.5526E-01
2021  8 11  7 50  127.4639   27.6259  1284.53  348.312   146.1   25.73  20.43     3.86   302.19  301.88     8.2    621.7   -154.4 -0.4028E+01 -0.2665E-01
2021  8 11  7 40  127.4481   27.5548  1293.64  348.327   145.9   25.72  20.45     3.96   302.18  301.87     8.3    620.3   -157.1 -0.3949E+01 -0.3066E-01
2021  8 11  7 30  127.4336   27.4825  1290.52  348.414   143.4   25.70  20.45     3.63   302.17  301.88     8.2    627.2   -154.6 -0.4057E+01  0.4131E-01
2021  8 11  7 20  127.4197   27.4096  1286.14  348.305   139.4   25.69  20.46     3.45   302.15  301.87     8.0    613.0   -147.2 -0.4164E+01  0.2035E-02
2021  8 11  7 10  127.4062   27.3369  1303.09  348.499   132.6   25.67  20.53     2.95   302.14  301.89     7.7    623.7   -139.7 -0.4464E+01 -0.1884E-01
2021  8 11  7  0  127.3934   27.2631  1306.20  348.462   137.4   25.66  20.59     2.90   302.13  301.90     8.2    619.1   -162.6 -0.3809E+01 -0.8160E-01
2021  8 11  6 50  127.3822   27.1883  1321.81  348.608   139.4   25.64  20.61     2.81   302.12  301.90     8.4    630.8   -175.6 -0.3592E+01 -0.9134E-02
2021  8 11  6 40  127.3714   27.1132  1311.63  348.866   143.1   25.62  20.64     2.88   302.11  301.89     8.7    631.7   -192.8 -0.3277E+01  0.4652E-01
2021  8 11  6 30  127.3606   27.0372  1333.21  348.881   140.7   25.61  20.69     2.97   302.10  301.88     8.7    648.3   -193.7 -0.3347E+01 -0.4080E-01
2021  8 11  6 20  127.3507   26.9594  1318.57  349.197   145.0   25.60  20.77     3.03   302.09  301.88     9.1    662.5   -224.4 -0.2953E+01  0.5288E-01
2021  8 11  6 10  127.3413   26.8794  1276.28  348.838   143.4   25.59  20.78     3.34   302.09  301.84     9.1    618.9   -219.5 -0.2819E+01  0.6164E-01
2021  8 11  6  0  127.3325   26.7995  1266.59  348.473   140.7   25.58  20.75     4.04   302.08  301.78     8.9    585.7   -200.8 -0.2917E+01  0.5674E-01
2021  8 11  5 50  127.3247   26.7197  1242.44  348.071   146.4   25.56  20.74     6.17   302.07  301.63     9.2    538.3   -205.7 -0.2616E+01  0.2340E-01
2021  8 11  5 40  127.3181   26.6384  1273.94  347.501   144.3   25.54  20.75     9.10   302.05  301.40     9.1    512.6   -181.8 -0.2819E+01 -0.3397E-01
2021  8 11  5 30  127.3142   26.5568  1317.66  347.254   126.0   25.51  20.84    10.40   302.03  301.21     8.1    499.0   -130.3 -0.3829E+01 -0.9136E-01
2021  8 11  5 20  127.3127   26.4755  1331.93  346.983   110.8   25.48  21.01     9.37   302.01  301.19     7.5    486.5   -110.2 -0.4416E+01 -0.1553E-01
2021  8 11  5 10  127.3118   26.3926  1331.38  346.804   113.5   25.44  21.02     5.34   301.99  301.53     7.8    563.7   -147.7 -0.3816E+01 -0.7367E-01
2021  8 11  5  0  127.3111   26.3093  1333.90  346.356   127.5   25.40  20.78     0.20   301.96  301.95     8.5    645.1   -218.4 -0.2954E+01 -0.6539E-01
2021  8 11  4 50  127.3094   26.2267  1363.60  346.573   233.6   27.98  21.13    84.98   303.54  302.22     7.6    748.7    -74.9 -0.9991E+01  0.3924E-01
2021  8 11  4 40  127.3098   26.1418  1319.20  346.826   142.3   25.43  20.94     3.03   301.98  301.78     9.8    659.5   -285.1 -0.2313E+01 -0.5054E-02
2021  8 11  4 30  127.3125   26.0580  1318.78  346.917   141.3   25.47  20.98     3.17   302.01  301.80     9.7    648.8   -278.4 -0.2331E+01  0.3593E-01
2021  8 11  4 20  127.3165   25.9730  1312.59  346.898   151.7   25.53  20.92     4.10   302.05  301.78    10.1    633.6   -293.5 -0.2159E+01 -0.5342E-01
2021  8 11  4 10  127.3229   25.8888  1321.54  347.030   156.2   25.59  20.82     4.94   302.09  301.77    10.0    632.6   -267.3 -0.2366E+01  0.1418E+00
2021  8 11  4  0  127.3308   25.8019  1292.84  346.645   168.4   25.66  20.75     6.93   302.14  301.70    10.4    579.6   -279.9 -0.2071E+01 -0.1588E+00
2021  8 11  3 50  127.3398   25.7163  1259.35  346.195   172.5   25.71  20.68     9.42   302.17  301.58    10.3    506.4   -249.7 -0.2028E+01  0.1315E+00
2021  8 11  3 40  127.3513   25.6289  1219.77  345.955   164.4   25.76  20.66    12.25   302.20  301.38     9.7    444.9   -192.2 -0.2315E+01  0.7592E-01
2021  8 11  3 30  127.3657   25.5411  1187.67  345.482   140.7   25.80  20.91    14.01   302.22  301.17     8.7    420.6   -137.0 -0.3070E+01  0.9998E-01
2021  8 11  3 20  127.3815   25.4531  1165.20  345.414   144.0   25.81  21.11    13.11   302.23  301.31     9.4    462.1   -178.1 -0.2594E+01  0.1012E+00
2021  8 11  3 10  127.3971   25.3650  1212.25  344.604   152.5   25.82  21.18    12.89   302.24  301.40    10.1    467.8   -222.6 -0.2102E+01 -0.2001E+00
2021  8 11  3  0  127.4130   25.2765  1314.13  344.815   159.7   25.81  21.07    11.19   302.24  301.52    10.2    526.2   -241.7 -0.2177E+01 -0.1114E+00
2021  8 11  2 50  127.4292   25.1881  1413.90  345.476   154.1   25.80  21.12     9.72   302.24  301.60    10.1    659.6   -240.6 -0.2742E+01 -0.6585E-01
2021  8 11  2 40  127.4459   25.0974  1477.47  344.583   148.6   25.79  21.12     9.23   302.23  301.61     9.7    671.7   -223.4 -0.3006E+01 -0.1861E+00
2021  8 11  2 30  127.4631   25.0071  1536.04  344.437   130.8   25.78  21.20     7.82   302.23  301.65     8.7    703.3   -174.7 -0.4025E+01 -0.1189E+00
2021  8 11  2 20  127.4777   24.9185  1521.66  344.366   137.2   25.77  21.10     5.69   302.23  301.81     9.0    729.9   -200.2 -0.3647E+01  0.2191E+00
2021  8 11  2 10  127.4922   24.8274  1530.60  343.733   159.5   25.77  20.75     6.34   302.23  301.80     9.6    624.4   -222.2 -0.2811E+01 -0.1310E+00
2021  8 11  2  0  127.5077   24.7367  1581.49  343.714   153.9   25.77  20.80     8.68   302.23  301.62     9.3    545.8   -192.3 -0.2838E+01 -0.3347E-02
2021  8 11  1 50  127.5241   24.6446  1558.45  343.126   156.7   25.78  20.83     8.10   302.23  301.67     9.6    570.8   -210.2 -0.2715E+01 -0.1369E-01
2021  8 11  1 40  127.5397   24.5501  1517.82  343.423   171.3   25.79  20.78     7.17   302.23  301.78    10.3    628.7   -266.2 -0.2362E+01  0.1646E+00
2021  8 11  1 30  127.5562   24.4516  1501.23  343.276   184.7   25.80  20.62     7.95   302.24  301.75    10.7    587.2   -280.6 -0.2093E+01  0.9857E-01
2021  8 11  1 20  127.5748   24.3517  1496.72  343.933   186.3   25.82  20.58    10.40   302.25  301.61    10.6    531.2   -257.1 -0.2066E+01 -0.3057E-02
2021  8 11  1 10  127.5936   24.2511  1417.80  343.816   213.0   25.85  20.49    14.87   302.27  301.45    11.8    433.4   -316.6 -0.1369E+01 -0.1006E-01
2021  8 11  1  0  127.6142   24.1517  1506.97  343.410   191.9   25.85  20.42    16.78   302.28  301.24    10.5    387.0   -210.0 -0.1843E+01 -0.5238E-01
2021  8 11  0 50  127.6365   24.0550  1510.32  343.356   181.6   25.86  20.40    17.62   302.29  301.13     9.9    388.3   -170.2 -0.2282E+01 -0.7308E-01
2021  8 11  0 40  127.6613   23.9603  1502.67  342.727   180.8   25.89  20.45    18.34   302.30  301.09     9.9    383.7   -167.8 -0.2287E+01  0.1065E+00
2021  8 11  0 30  127.6906   23.8636  1509.34  343.259   178.1   25.91  20.48    17.22   302.31  301.16     9.8    447.4   -166.9 -0.2681E+01 -0.2023E+00
2021  8 11  0 20  127.7207   23.7686  1616.07  343.421   177.1   25.93  20.49     8.88   302.32  301.69     9.7    673.2   -195.8 -0.3438E+01  0.5999E-01
2021  8 11  0 10  127.7493   23.6725  1634.73  343.035   211.4   25.94  20.33     1.05   302.33  302.27    11.2    886.9   -365.3 -0.2428E+01 -0.7994E-01
2021  8 11  0  0  127.7726   23.5790  1541.05  342.415   231.7   25.96  20.27     0.55   302.34  302.31    12.1    754.4   -447.6 -0.1685E+01  0.2713E+00
