2021  8 12  0  0  129.9560   32.6748   500.00  354.362    55.6   22.76  19.21    10.72   300.17  298.71     4.4    382.2    -31.7 -0.1206E+02 -0.7325E-02
2021  8 11 23 50  129.9347   32.6549   499.72  354.271    38.1   22.77  19.04     7.39   300.17  298.62     2.7    381.8    -11.9 -0.3209E+02 -0.1047E-01
2021  8 11 23 40  129.9068   32.6357   521.80  354.747    36.1   22.81  18.93     6.92   300.17  298.57     2.4    377.8     -9.1 -0.4167E+02 -0.4448E-01
2021  8 11 23 30  129.8772   32.6109   533.31  354.905    30.3   22.76  18.95     5.07   300.17  298.80     1.9    389.0     -7.0 -0.5593E+02  0.1278E-01
2021  8 11 23 20  129.8476   32.5782   522.97  354.956    19.9   22.80  19.04     3.16   300.19  298.91     1.1    382.1     -2.9 -0.1318E+03 -0.2334E-01
2021  8 11 23 10  129.8168   32.5416   521.30  355.087    22.4   22.86  19.16     3.27   300.23  299.07     1.3    370.8     -4.1 -0.9137E+02  0.2933E-01
2021  8 11 23  0  129.7847   32.5029   502.02  355.017    19.9   22.96  19.26     3.06   300.30  299.10     1.2    371.0     -3.2 -0.1155E+03  0.1008E+00
2021  8 11 22 50  129.7443   32.4637   377.42  355.115    52.1   23.12  19.73     8.93   300.41  299.19     4.4    335.5    -35.0 -0.9599E+01  0.4768E-01
2021  8 11 22 40  129.6975   32.4243   445.67  354.542    53.5   23.32  19.91     9.46   300.56  299.30     4.5    324.1    -36.0 -0.9007E+01 -0.6104E-01
2021  8 11 22 30  129.6501   32.3839   526.33  354.670    55.2   23.54  20.05     9.18   300.71  299.50     4.6    329.8    -36.8 -0.8959E+01 -0.7445E-01
2021  8 11 22 20  129.5990   32.3408   585.56  354.667    55.1   23.74  20.23     9.11   300.85  299.64     4.5    336.5    -36.5 -0.9217E+01 -0.8719E-01
2021  8 11 22 10  129.5457   32.2940   635.58  354.642    55.7   23.88  20.42     8.88   300.95  299.80     4.7    345.6    -40.2 -0.8600E+01 -0.8359E-01
2021  8 11 22  0  129.4929   32.2466   682.39  354.515    44.0   24.01  20.71     5.25   301.04  300.23     4.0    451.5    -35.1 -0.1288E+02  0.2064E-01
2021  8 11 21 50  129.4417   32.2009   587.22  354.503    47.0   24.14  21.00     2.31   301.12  300.80     4.7    553.8    -66.5 -0.8331E+01  0.1862E+00
2021  8 11 21 40  129.3925   32.1571   567.27  353.745    48.1   24.24  21.10     1.79   301.19  300.96     4.8    572.3    -73.1 -0.7827E+01  0.2784E-01
2021  8 11 21 30  129.3452   32.1105   496.79  352.840    65.6   24.35  21.12     2.03   301.27  301.06     6.4    509.1   -138.5 -0.3676E+01  0.1150E+00
2021  8 11 21 20  129.2959   32.0604   500.61  352.269    78.1   24.46  20.94     2.57   301.34  301.10     7.0    482.9   -152.7 -0.3161E+01 -0.5431E-01
2021  8 11 21 10  129.2481   32.0121   507.22  352.020    87.6   24.56  20.74     4.06   301.40  301.03     7.1    487.1   -134.7 -0.3616E+01  0.4506E-01
2021  8 11 21  0  129.2029   31.9612   512.26  351.460   106.4   24.65  20.64     7.66   301.46  300.85     8.1    447.8   -158.7 -0.2821E+01 -0.1243E+00
2021  8 11 20 50  129.1567   31.9066   552.62  352.043    98.8   24.74  20.99     9.95   301.52  300.74     8.1    452.8   -154.4 -0.2932E+01 -0.1384E+00
2021  8 11 20 40  129.1105   31.8493   633.87  352.478    93.5   24.82  21.09     7.29   301.58  300.98     7.8    504.5   -153.8 -0.3280E+01 -0.1383E+00
2021  8 11 20 30  129.0637   31.7910   722.16  352.278    96.6   24.89  21.12     4.67   301.63  301.25     8.0    593.7   -183.1 -0.3242E+01 -0.1027E+00
2021  8 11 20 20  129.0157   31.7312   721.59  352.385   105.1   24.94  21.08     2.94   301.67  301.44     8.5    646.0   -229.2 -0.2818E+01  0.3644E-01
2021  8 11 20 10  128.9674   31.6702   705.01  352.184   110.2   24.99  21.11     3.64   301.69  301.43     8.9    609.9   -246.4 -0.2475E+01 -0.4958E-02
2021  8 11 20  0  128.9207   31.6065   719.88  352.151   110.7   25.02  21.17     4.53   301.71  301.38     9.0    600.6   -248.4 -0.2418E+01 -0.9624E-01
2021  8 11 19 50  128.8759   31.5408   771.39  352.227   105.2   25.04  21.26     5.02   301.73  301.35     8.7    630.6   -225.4 -0.2797E+01 -0.1269E+00
2021  8 11 19 40  128.8311   31.4750   802.47  352.550    97.9   25.07  21.32     4.63   301.75  301.38     8.2    675.1   -196.7 -0.3432E+01  0.9607E-01
2021  8 11 19 30  128.7865   31.4087   759.85  352.439   101.8   25.10  21.25     3.45   301.77  301.49     8.3    660.5   -209.2 -0.3157E+01  0.5555E-01
2021  8 11 19 20  128.7451   31.3427   703.91  352.035   115.8   25.13  21.10     3.52   301.78  301.52     9.0    589.1   -244.9 -0.2406E+01  0.8562E-01
2021  8 11 19 10  128.7038   31.2788   740.99  352.318   118.2   25.15  20.99     4.24   301.79  301.48     8.8    625.3   -222.9 -0.2806E+01 -0.1337E+00
2021  8 11 19  0  128.6643   31.2153   716.00  352.158   127.5   25.17  20.99     5.45   301.80  301.42     9.5    576.6   -254.0 -0.2270E+01  0.8424E-01
2021  8 11 18 50  128.6284   31.1483   706.36  352.195   125.3   25.18  21.09     6.49   301.81  301.36     9.5    560.1   -251.7 -0.2225E+01 -0.3218E-01
2021  8 11 18 40  128.5934   31.0827   741.11  352.305   114.6   25.19  21.16     6.07   301.82  301.37     8.8    587.4   -212.8 -0.2761E+01 -0.6962E-01
2021  8 11 18 30  128.5587   31.0194   804.16  352.077   105.7   25.20  21.20     5.18   301.83  301.42     8.2    635.7   -181.1 -0.3510E+01 -0.1047E+00
2021  8 11 18 20  128.5244   30.9575   848.39  351.981   103.1   25.22  21.18     4.18   301.84  301.50     7.9    710.1   -173.3 -0.4098E+01 -0.5358E-01
2021  8 11 18 10  128.4894   30.8947   807.59  351.966   116.8   25.23  21.10     3.37   301.85  301.60     8.8    688.6   -229.1 -0.3005E+01  0.1445E+00
2021  8 11 18  0  128.4556   30.8288   771.98  351.684   131.3   25.26  20.98     2.85   301.86  301.66     9.5    658.5   -279.4 -0.2357E+01  0.3961E-01
2021  8 11 17 50  128.4250   30.7617   785.64  351.431   137.7   25.28  20.89     2.32   301.87  301.72     9.7    664.4   -292.7 -0.2269E+01 -0.7057E-01
2021  8 11 17 40  128.3961   30.6965   813.72  351.141   132.5   25.29  20.87     1.98   301.89  301.75     9.2    673.3   -260.9 -0.2581E+01 -0.3760E-02
2021  8 11 17 30  128.3697   30.6305   780.30  350.835   143.5   25.34  20.86     2.73   301.92  301.73     9.9    635.2   -295.8 -0.2147E+01  0.2275E-01
2021  8 11 17 20  128.3441   30.5617   740.92  350.885   151.8   25.37  20.82     3.43   301.94  301.72    10.2    608.6   -314.5 -0.1935E+01  0.1939E+00
2021  8 11 17 10  128.3187   30.4873   679.00  350.697   169.5   25.42  20.80     4.56   301.96  301.70    11.2    542.0   -389.6 -0.1391E+01  0.9303E-02
2021  8 11 17  0  128.2949   30.4150   709.86  350.567   154.8   25.43  20.78     4.19   301.98  301.71    10.2    558.7   -295.4 -0.1891E+01 -0.6955E-01
2021  8 11 16 50  128.2733   30.3462   784.49  350.702   147.8   25.45  20.78     4.11   302.00  301.72     9.7    610.4   -257.8 -0.2368E+01 -0.1770E+00
2021  8 11 16 40  128.2535   30.2788   814.74  350.752   152.9   25.48  20.78     4.58   302.02  301.72     9.9    642.1   -268.6 -0.2390E+01 -0.1611E-02
2021  8 11 16 30  128.2350   30.2107   806.97  350.709   154.3   25.51  20.75     4.86   302.04  301.71     9.9    628.1   -262.6 -0.2392E+01  0.2789E-01
2021  8 11 16 20  128.2155   30.1424   778.42  350.647   161.5   25.54  20.73     5.64   302.06  301.69    10.2    590.6   -277.6 -0.2127E+01  0.4603E-01
2021  8 11 16 10  128.1977   30.0731   775.57  350.672   165.2   25.57  20.73     6.39   302.07  301.67    10.4    572.7   -283.7 -0.2019E+01 -0.1669E-01
2021  8 11 16  0  128.1811   30.0055   800.73  350.407   157.5   25.59  20.73     6.39   302.09  301.66     9.8    564.4   -243.2 -0.2321E+01 -0.1959E-01
2021  8 11 15 50  128.1652   29.9409   820.41  350.313   151.7   25.60  20.74     6.44   302.10  301.66     9.4    566.7   -217.1 -0.2611E+01 -0.3941E-01
2021  8 11 15 40  128.1497   29.8769   820.01  350.549   157.7   25.62  20.76     7.13   302.12  301.64     9.8    572.8   -237.9 -0.2408E+01 -0.1196E-01
2021  8 11 15 30  128.1345   29.8122   830.86  350.361   158.0   25.64  20.77     7.54   302.13  301.63     9.8    570.1   -234.7 -0.2429E+01  0.9378E-02
2021  8 11 15 20  128.1196   29.7479   821.09  350.253   158.2   25.66  20.79     8.00   302.14  301.61     9.9    557.7   -231.9 -0.2405E+01  0.6365E-02
2021  8 11 15 10  128.1048   29.6852   847.92  350.271   151.3   25.67  20.83     8.00   302.15  301.60     9.5    572.0   -209.1 -0.2736E+01 -0.7086E-01
2021  8 11 15  0  128.0897   29.6240   850.05  350.424   152.7   25.69  20.87     8.45   302.17  301.59     9.6    566.1   -217.1 -0.2608E+01  0.2950E-01
2021  8 11 14 50  128.0736   29.5610   837.40  350.359   158.1   25.71  20.91     9.23   302.18  301.57    10.0    552.9   -236.7 -0.2336E+01  0.4381E-02
2021  8 11 14 40  128.0558   29.4972   844.23  350.323   158.1   25.73  20.92     9.66   302.19  301.56    10.0    555.1   -232.0 -0.2393E+01  0.1316E-01
2021  8 11 14 30  128.0362   29.4320   820.77  350.480   165.2   25.75  20.91    10.66   302.20  301.53    10.4    544.8   -249.7 -0.2181E+01  0.2979E-01
2021  8 11 14 20  128.0167   29.3651   787.85  350.670   168.8   25.78  20.88    11.62   302.21  301.49    10.5    525.8   -250.5 -0.2099E+01  0.5118E-01
2021  8 11 14 10  127.9967   29.2989   767.73  350.217   161.9   25.79  20.87    12.00   302.23  301.44    10.0    498.7   -212.2 -0.2350E+01  0.9639E-01
2021  8 11 14  0  127.9759   29.2342   756.72  350.102   156.1   25.81  20.88    12.60   302.24  301.38     9.6    485.9   -186.0 -0.2612E+01 -0.2359E-01
2021  8 11 13 50  127.9542   29.1701   772.62  350.362   157.6   25.84  20.93    13.81   302.26  301.33     9.7    488.6   -188.2 -0.2596E+01 -0.5929E-01
2021  8 11 13 40  127.9324   29.1065   810.05  350.449   156.1   25.87  20.98    14.42   302.28  301.30     9.7    501.7   -184.0 -0.2726E+01 -0.7467E-01
2021  8 11 13 30  127.9095   29.0446   840.71  350.720   154.5   25.89  21.03    14.04   302.29  301.34     9.6    527.1   -184.8 -0.2852E+01 -0.4900E-01
2021  8 11 13 20  127.8862   28.9840   842.75  350.865   153.7   25.89  20.99    12.59   302.30  301.43     9.5    549.7   -183.4 -0.2997E+01  0.5473E-02
2021  8 11 13 10  127.8633   28.9246   831.52  350.508   148.4   25.89  20.92    11.13   302.30  301.50     9.0    539.5   -163.8 -0.3295E+01  0.7435E-01
2021  8 11 13  0  127.8412   28.8650   813.55  350.230   144.9   25.89  20.89    10.56   302.30  301.51     8.7    519.3   -151.5 -0.3427E+01  0.1077E-01
2021  8 11 12 50  127.8213   28.8050   842.49  350.189   144.7   25.89  20.94    10.73   302.30  301.51     8.8    518.9   -155.2 -0.3343E+01 -0.1157E+00
2021  8 11 12 40  127.8030   28.7430   898.13  350.264   151.8   25.89  21.02    11.44   302.30  301.52     9.4    548.2   -186.9 -0.2933E+01 -0.1197E+00
2021  8 11 12 30  127.7855   28.6801   947.37  350.211   148.7   25.89  21.10    11.45   302.30  301.51     9.4    593.7   -190.0 -0.3125E+01 -0.4431E-01
2021  8 11 12 20  127.7688   28.6174   941.00  350.450   143.8   25.88  21.20    11.00   302.30  301.53     9.4    641.6   -190.1 -0.3374E+01  0.5486E-01
2021  8 11 12 10  127.7530   28.5547   905.03  350.075   134.7   25.87  21.24     9.77   302.30  301.58     8.9    611.7   -173.0 -0.3536E+01  0.1001E+00
2021  8 11 12  0  127.7386   28.4938   919.51  349.705   123.6   25.86  21.25     7.96   302.29  301.66     8.2    645.4   -145.4 -0.4440E+01 -0.1172E+00
2021  8 11 11 50  127.7237   28.4354   959.50  349.553   121.3   25.85  21.23     7.14   302.28  301.70     8.0    684.3   -141.6 -0.4831E+01 -0.4335E-01
2021  8 11 11 40  127.7084   28.3768   961.60  349.461   115.5   25.84  21.29     6.84   302.27  301.70     7.8    686.5   -133.4 -0.5146E+01  0.4963E-01
2021  8 11 11 30  127.6904   28.3182   920.71  349.264   104.3   25.83  21.33     5.56   302.27  301.76     7.0    671.5   -110.5 -0.6077E+01  0.6341E-01
2021  8 11 11 20  127.6698   28.2592   898.40  349.488   115.8   25.82  21.15     4.23   302.26  301.89     7.5    679.4   -133.7 -0.5080E+01 -0.3466E-02
2021  8 11 11 10  127.6468   28.1992   920.14  349.063   131.4   25.81  20.87     3.25   302.25  301.98     8.0    681.1   -158.3 -0.4302E+01 -0.6565E-01
2021  8 11 11  0  127.6225   28.1387   956.84  349.265   135.5   25.80  20.75     2.89   302.24  302.01     8.1    718.9   -160.3 -0.4485E+01 -0.7266E-01
2021  8 11 10 50  127.5992   28.0784   941.10  348.921   136.8   25.78  20.63     2.65   302.23  302.01     8.0    693.3   -154.0 -0.4502E+01  0.1653E+00
2021  8 11 10 40  127.5781   28.0179   887.84  348.637   135.0   25.77  20.58     2.56   302.22  302.01     7.8    630.9   -144.2 -0.4376E+01  0.4188E-01
2021  8 11 10 30  127.5589   27.9570   869.08  348.802   141.0   25.76  20.58     2.61   302.22  302.01     8.2    614.2   -162.3 -0.3784E+01 -0.1560E-01
2021  8 11 10 20  127.5398   27.8943   905.01  348.635   140.8   25.75  20.59     2.74   302.21  301.99     8.2    638.1   -163.4 -0.3906E+01 -0.1028E+00
2021  8 11 10 10  127.5201   27.8303   939.96  348.662   142.1   25.75  20.64     2.82   302.21  301.99     8.4    670.4   -172.9 -0.3877E+01 -0.2652E-01
2021  8 11 10  0  127.5004   27.7641   959.37  348.517   143.6   25.75  20.68     2.86   302.20  301.99     8.5    679.6   -183.2 -0.3710E+01 -0.4259E-01
2021  8 11  9 50  127.4808   27.6970   988.57  348.632   142.8   25.74  20.69     2.44   302.20  302.01     8.5    709.0   -186.9 -0.3794E+01 -0.3069E-01
2021  8 11  9 40  127.4598   27.6290   991.21  348.868   146.7   25.73  20.66     2.27   302.19  302.02     8.7    721.6   -198.7 -0.3631E+01  0.4610E-01
2021  8 11  9 30  127.4377   27.5597   980.77  348.629   149.3   25.72  20.61     2.02   302.18  302.03     8.8    715.1   -204.1 -0.3504E+01  0.3275E-02
2021  8 11  9 20  127.4160   27.4896   964.92  348.660   151.9   25.71  20.59     1.83   302.17  302.04     9.0    711.3   -213.4 -0.3333E+01  0.3725E-01
2021  8 11  9 10  127.3965   27.4182   961.09  348.628   151.1   25.69  20.58     1.71   302.16  302.04     8.9    713.6   -211.1 -0.3380E+01 -0.5410E-01
2021  8 11  9  0  127.3775   27.3473   962.51  348.504   142.5   25.68  20.63     1.55   302.15  302.04     8.5    715.1   -193.1 -0.3703E+01  0.3695E-01
2021  8 11  8 50  127.3579   27.2763   967.65  348.481   136.0   25.67  20.67     1.51   302.15  302.03     8.2    727.2   -177.0 -0.4110E+01 -0.2340E-01
2021  8 11  8 40  127.3377   27.2039   983.17  348.680   141.7   25.66  20.65     1.21   302.14  302.05     8.6    749.4   -198.7 -0.3771E+01 -0.6073E-01
2021  8 11  8 30  127.3184   27.1298  1014.02  348.699   148.0   25.65  20.52     0.79   302.13  302.07     8.7    766.2   -205.6 -0.3728E+01 -0.4172E-01
2021  8 11  8 20  127.3003   27.0545  1010.26  348.577   151.8   25.64  20.45     0.96   302.13  302.06     8.8    750.6   -207.4 -0.3619E+01  0.9439E-01
2021  8 11  8 10  127.2830   26.9773   990.93  348.296   155.3   25.64  20.40     1.17   302.12  302.04     8.9    724.2   -211.8 -0.3420E+01 -0.9988E-02
2021  8 11  8  0  127.2661   26.8998   975.64  348.271   154.3   25.63  20.41     1.37   302.12  302.02     8.9    708.0   -208.0 -0.3404E+01  0.2731E-01
2021  8 11  7 50  127.2499   26.8213   962.41  348.372   149.6   25.63  20.46     1.71   302.12  301.99     8.7    699.1   -197.0 -0.3548E+01  0.1692E-01
2021  8 11  7 40  127.2329   26.7412   909.31  348.541   155.1   25.63  20.48     2.35   302.11  301.94     9.1    662.3   -215.0 -0.3080E+01  0.1348E+00
2021  8 11  7 30  127.2171   26.6590   894.56  348.605   151.8   25.61  20.50     2.34   302.10  301.93     9.0    640.6   -208.3 -0.3075E+01 -0.2799E-01
2021  8 11  7 20  127.2026   26.5766   926.58  348.437   152.0   25.63  20.51     3.96   302.09  301.80     9.0    648.7   -196.7 -0.3299E+01 -0.5143E-01
2021  8 11  7 10  127.1898   26.4928   938.39  348.194   147.4   25.56  20.57     2.42   302.07  301.89     8.9    657.2   -210.9 -0.3117E+01 -0.1510E-01
2021  8 11  7  0  127.1788   26.4092   960.74  348.203   138.1   25.51  20.57     1.85   302.03  301.89     8.5    673.9   -191.2 -0.3524E+01 -0.7961E-02
2021  8 11  6 50  127.1683   26.3256   950.87  348.110   141.0   25.46  20.53     1.66   302.00  301.87     8.7    659.8   -203.4 -0.3244E+01  0.3234E-01
2021  8 11  6 40  127.1598   26.2403   937.41  348.107   146.8   25.43  20.44     1.01   301.98  301.90     8.9    643.6   -220.5 -0.2919E+01  0.5420E-01
2021  8 11  6 30  127.1545   26.1539   905.18  348.257   161.7   25.45  20.35     1.17   301.99  301.91     9.6    615.8   -259.9 -0.2369E+01  0.5251E-01
2021  8 11  6 20  127.1501   26.0666   913.93  348.378   162.9   25.49  20.38     1.94   302.01  301.88     9.6    629.0   -254.7 -0.2469E+01 -0.3742E-01
2021  8 11  6 10  127.1447   25.9785   938.52  348.343   167.5   25.53  20.45     2.90   302.04  301.85    10.0    658.1   -270.9 -0.2430E+01 -0.6223E-01
2021  8 11  6  0  127.1394   25.8899  1002.11  348.359   163.8   25.58  20.48     3.23   302.08  301.86     9.7    698.8   -248.2 -0.2816E+01 -0.1740E+00
2021  8 11  5 50  127.1347   25.8023  1038.55  348.622   169.6   25.65  20.52     3.95   302.12  301.86    10.0    725.1   -260.0 -0.2789E+01 -0.2004E-01
2021  8 11  5 40  127.1294   25.7132  1037.53  348.628   174.8   25.71  20.54     4.80   302.16  301.85    10.2    722.0   -267.9 -0.2694E+01 -0.2366E-01
2021  8 11  5 30  127.1221   25.6245  1050.90  348.570   168.1   25.75  20.53     4.95   302.18  301.85     9.7    723.5   -231.6 -0.3124E+01  0.6852E-01
2021  8 11  5 20  127.1147   25.5349  1039.26  348.291   179.0   25.79  20.48     5.41   302.21  301.86    10.1    705.1   -253.0 -0.2787E+01 -0.8731E-01
2021  8 11  5 10  127.1095   25.4439  1048.05  348.276   192.6   25.82  20.41     5.88   302.23  301.87    10.7    701.3   -284.8 -0.2462E+01 -0.1369E-01
2021  8 11  5  0  127.1051   25.3499  1104.53  348.371   196.9   25.84  20.30     6.13   302.24  301.86    10.6    727.9   -273.8 -0.2658E+01 -0.7030E-01
2021  8 11  4 50  127.0997   25.2554  1087.60  348.561   206.7   25.85  20.18     6.50   302.25  301.86    10.8    709.6   -281.8 -0.2519E+01  0.1020E+00
2021  8 11  4 40  127.0955   25.1587  1060.54  348.586   208.7   25.86  20.15     6.98   302.26  301.84    10.9    671.0   -278.6 -0.2408E+01  0.2360E-01
2021  8 11  4 30  127.0932   25.0621  1042.30  348.545   210.1   25.86  20.11     7.41   302.26  301.81    10.8    633.4   -273.3 -0.2318E+01  0.1081E+00
2021  8 11  4 20  127.0927   24.9647  1014.27  348.671   213.1   25.86  20.01     7.61   302.26  301.80    10.8    605.3   -262.8 -0.2304E+01 -0.4248E-02
2021  8 11  4 10  127.0933   24.8677  1004.37  348.805   219.1   25.86  19.93     8.22   302.26  301.77    10.9    584.8   -264.6 -0.2210E+01  0.7622E-01
2021  8 11  4  0  127.0948   24.7670   958.64  348.905   241.9   25.87  19.87    10.19   302.26  301.70    11.8    549.0   -323.4 -0.1698E+01 -0.5603E-01
2021  8 11  3 50  127.0969   24.6653   996.52  348.991   236.7   25.86  19.83    10.44   302.26  301.67    11.5    550.3   -294.1 -0.1871E+01 -0.3129E-01
2021  8 11  3 40  127.1015   24.5648  1036.12  348.891   233.1   25.86  19.80    10.98   302.26  301.63    11.3    548.9   -273.1 -0.2010E+01 -0.1062E+00
2021  8 11  3 30  127.1065   24.4669  1078.63  348.788   218.3   25.86  19.79    11.23   302.27  301.57    10.6    542.7   -222.2 -0.2442E+01  0.1936E-01
2021  8 11  3 20  127.1114   24.3700  1091.19  348.932   211.8   25.88  19.81    12.41   302.28  301.49    10.2    530.7   -197.1 -0.2692E+01 -0.1143E+00
2021  8 11  3 10  127.1176   24.2732  1118.95  348.845   209.6   25.91  19.82    12.53   302.30  301.50    10.1    525.3   -189.0 -0.2780E+01 -0.2016E-01
2021  8 11  3  0  127.1242   24.1763  1136.93  348.792   201.6   25.95  19.75    10.60   302.33  301.60     9.5    536.8   -165.1 -0.3251E+01  0.1219E+00
2021  8 11  2 50  127.1295   24.0797  1052.54  348.714   212.4   26.01  19.75    11.98   302.36  301.57    10.0    506.0   -179.6 -0.2817E+01  0.4833E-01
2021  8 11  2 40  127.1337   23.9836  1103.71  348.699   192.6   26.04  19.74    10.91   302.38  301.59     8.9    538.3   -135.8 -0.3963E+01  0.9408E-02
2021  8 11  2 30  127.1421   23.8867  1091.20  348.778   206.9   26.06  19.73    11.60   302.40  301.61     9.6    546.8   -161.2 -0.3391E+01 -0.1252E+00
2021  8 11  2 20  127.1524   23.7891  1107.18  348.924   218.5   26.08  19.75    12.12   302.41  301.63    10.1    550.4   -186.1 -0.2958E+01 -0.8852E-01
2021  8 11  2 10  127.1637   23.6916  1123.57  348.761   224.8   26.09  19.75    12.99   302.41  301.60    10.4    529.6   -197.9 -0.2677E+01  0.7529E-01
2021  8 11  2  0  127.1759   23.5932  1107.83  348.943   238.5   26.10  19.72    14.62   302.41  301.55    10.9    513.3   -222.7 -0.2305E+01 -0.4369E-01
2021  8 11  1 50  127.1886   23.4942  1127.68  348.818   236.4   26.10  19.73    15.76   302.41  301.47    10.8    502.0   -211.7 -0.2371E+01 -0.4183E-01
2021  8 11  1 40  127.2020   23.3959  1147.75  348.707   216.7   26.09  19.83    15.46   302.42  301.42    10.1    507.2   -175.7 -0.2887E+01 -0.1462E-01
2021  8 11  1 30  127.2148   23.2992  1128.12  348.192   201.5   26.10  20.01    14.61   302.42  301.44     9.7    501.8   -162.5 -0.3088E+01  0.1925E+00
2021  8 11  1 20  127.2269   23.2008   974.82  347.859   238.2   26.10  20.06    16.79   302.42  301.48    11.5    426.4   -261.7 -0.1629E+01  0.1098E+00
2021  8 11  1 10  127.2389   23.0987  1005.33  348.254   242.0   26.11  20.10    17.28   302.42  301.48    11.8    423.7   -279.3 -0.1517E+01 -0.1831E+00
2021  8 11  1  0  127.2524   22.9966  1050.08  348.110   229.5   26.12  20.29    16.76   302.43  301.49    11.7    425.5   -276.2 -0.1540E+01  0.8088E-01
2021  8 11  0 50  127.2643   22.8981  1107.19  347.666   231.7   26.11  20.40    20.41   302.43  301.33    12.0    385.2   -290.0 -0.1328E+01  0.1551E+00
2021  8 11  0 40  127.2753   22.8031  1088.83  347.944   240.9   26.12  20.39    26.71   302.44  301.04    12.3    367.8   -278.7 -0.1320E+01 -0.2490E+00
2021  8 11  0 30  127.2878   22.7068  1119.53  348.147   206.9   26.14  20.47    27.69   302.44  300.78    10.7    354.9   -179.8 -0.1974E+01 -0.5280E-02
2021  8 11  0 20  127.3012   22.6079  1170.92  347.942   204.5   26.15  20.51    29.37   302.45  300.67    10.7    342.1   -174.2 -0.1965E+01 -0.3281E+00
2021  8 11  0 10  127.3196   22.5124  1396.70  348.426   162.1   26.15  20.79    25.08   302.45  300.65     9.0    364.8   -113.4 -0.3217E+01 -0.2772E+00
2021  8 11  0  0  127.3416   22.4196  1479.56  347.183   167.5   26.15  21.10    19.17   302.46  301.19    10.0    418.3   -180.4 -0.2319E+01  0.3404E-01
