2021  8 12  0  0  129.9659   32.6327   500.00  353.408    71.4   22.84  19.29    14.70   300.22  298.67     5.9    401.0    -55.4 -0.7235E+01  0.1200E+00
2021  8 11 23 50  129.9643   32.6190   438.88  352.948    55.4   22.85  19.19    11.77   300.24  298.58     4.2    385.6    -26.4 -0.1462E+02  0.6273E-01
2021  8 11 23 40  129.9546   32.6143   400.44  353.059    50.0   22.88  19.15    11.08   300.24  298.47     3.7    346.5    -19.4 -0.1790E+02  0.6497E-01
2021  8 11 23 30  129.9437   32.6110   445.93  352.497    38.9   22.85  19.18     8.65   300.23  298.50     2.8    372.0    -11.8 -0.3162E+02 -0.1855E+00
2021  8 11 23 20  129.9311   32.5962   497.17  352.074    37.0   22.85  19.28     8.18   300.24  298.59     2.7    407.3    -11.8 -0.3451E+02 -0.9178E-01
2021  8 11 23 10  129.9169   32.5756   507.74  352.236    39.0   22.88  19.21     8.18   300.25  298.65     2.8    417.9    -12.8 -0.3276E+02  0.4601E-02
2021  8 11 23  0  129.8961   32.5565   391.13  352.245    38.3   22.89  18.91     5.17   300.26  299.14     2.6    423.2    -12.3 -0.3433E+02  0.3458E+00
2021  8 11 22 50  129.8668   32.5434   268.36  352.087    48.3   22.90  18.96     4.97   300.26  299.42     3.4    377.4    -23.3 -0.1620E+02  0.9977E-01
2021  8 11 22 40  129.8297   32.5345   196.57  352.099    59.7   22.88  18.99     3.93   300.25  299.70     4.4    387.8    -44.5 -0.8711E+01  0.1608E+00
2021  8 11 22 30  129.7933   32.5231   144.84  351.805    57.5   22.89  18.83     2.63   300.26  299.86     4.1    375.8    -39.1 -0.9620E+01  0.8019E-01
2021  8 11 22 20  129.7614   32.5048   106.92  351.485    68.1   22.95  18.73     2.74   300.30  299.93     4.6    351.4    -49.4 -0.7116E+01  0.6346E-01
2021  8 11 22 10  129.7322   32.4796    77.19  350.635    83.9   23.07  18.61     4.03   300.38  299.91     5.4    332.9    -61.4 -0.5417E+01  0.4698E-01
2021  8 11 22  0  129.7063   32.4449    69.59  350.058   105.5   23.23  18.65     7.84   300.49  299.74     6.6    314.3    -85.0 -0.3695E+01 -0.1793E-01
2021  8 11 21 50  129.6777   32.4063    94.21  349.294   105.2   23.42  18.80    11.78   300.63  299.49     6.5    301.2    -70.3 -0.4283E+01 -0.5700E-01
2021  8 11 21 40  129.6459   32.3665   140.52  348.606   100.4   23.62  19.01    15.18   300.77  299.24     6.2    304.7    -54.2 -0.5623E+01 -0.1081E+00
2021  8 11 21 30  129.6166   32.3235   224.61  348.362    92.8   23.78  19.19    16.13   300.88  299.14     5.6    320.8    -41.8 -0.7667E+01 -0.1805E+00
2021  8 11 21 20  129.5844   32.2785   327.46  347.958    87.1   23.91  19.21    15.68   300.97  299.12     5.1    373.8    -32.8 -0.1141E+02 -0.1582E+00
2021  8 11 21 10  129.5479   32.2350   429.22  347.152    82.5   24.00  19.08    15.04   301.03  299.05     4.5    404.6    -23.8 -0.1697E+02 -0.1841E+00
2021  8 11 21  0  129.5109   32.1930   461.43  346.883   119.5   24.06  18.70    19.59   301.08  299.09     6.1    380.7    -43.8 -0.8685E+01  0.3236E-01
2021  8 11 20 50  129.4691   32.1476   448.40  346.629   201.2   24.16  18.36    29.01   301.14  299.26     9.9    339.1   -136.4 -0.2486E+01 -0.1084E+00
2021  8 11 20 40  129.4255   32.0980   560.25  346.343   194.8   24.23  18.34    26.82   301.20  299.38     9.4    337.0   -119.6 -0.2819E+01 -0.1227E+00
2021  8 11 20 30  129.3765   32.0448   502.17  346.362   262.9   24.36  18.19    31.19   301.27  299.62    12.1    322.6   -238.9 -0.1350E+01  0.9787E-01
2021  8 11 20 20  129.3268   31.9879   590.97  345.939   245.4   24.47  18.15    29.80   301.35  299.62    11.0    320.0   -178.0 -0.1798E+01 -0.2244E+00
2021  8 11 20 10  129.2841   31.9348   723.89  345.637   232.3   24.55  18.24    30.28   301.41  299.55    10.4    323.0   -148.7 -0.2173E+01 -0.2331E+00
2021  8 11 20  0  129.2443   31.8806   849.37  345.845   217.9   24.63  18.66    32.84   301.46  299.44    10.4    326.7   -146.1 -0.2236E+01 -0.2797E+00
2021  8 11 19 50  129.2041   31.8254   981.82  345.840   196.3   24.70  19.11    33.24   301.51  299.41    10.1    337.4   -136.1 -0.2478E+01 -0.3034E+00
2021  8 11 19 40  129.1648   31.7690  1145.58  345.882   170.2   24.77  19.61    31.29   301.55  299.47     9.5    340.6   -123.4 -0.2761E+01 -0.4316E+00
2021  8 11 19 30  129.1275   31.7109  1407.95  345.929   135.7   24.84  20.25    22.18   301.60  299.98     8.8    375.8   -120.5 -0.3118E+01 -0.5124E+00
2021  8 11 19 20  129.0917   31.6528  1617.24  345.906   117.4   24.91  20.56    10.07   301.63  300.82     8.2    500.5   -139.7 -0.3583E+01 -0.1344E+00
2021  8 11 19 10  129.0566   31.5967  1856.50  345.859   120.1   24.94  20.58     3.62   301.66  301.37     8.4    627.1   -190.5 -0.3293E+01 -0.5032E+00
2021  8 11 19  0  129.0223   31.5405  1795.59  345.915   146.7   24.98  20.55     3.06   301.68  301.48    10.1    632.8   -318.4 -0.1988E+01  0.4589E+00
2021  8 11 18 50  128.9871   31.4855  1731.40  345.610   160.0   25.02  20.50     3.65   301.70  301.48    10.8    553.4   -369.8 -0.1497E+01 -0.7325E-01
2021  8 11 18 40  128.9488   31.4370  1898.16  344.486   159.1   25.02  20.53     3.52   301.71  301.50    10.8    628.2   -372.8 -0.1685E+01 -0.5554E+00
2021  8 11 18 30  128.9110   31.3897  1947.92  343.779   154.5   25.04  20.60     4.12   301.73  301.48    10.6    726.6   -352.7 -0.2060E+01 -0.1759E+00
2021  8 11 18 20  128.8755   31.3419  1938.33  343.834   148.2   25.07  20.69     4.32   301.74  301.47    10.4    760.9   -330.3 -0.2304E+01 -0.7465E-01
2021  8 11 18 10  128.8414   31.2935  1931.78  343.824   142.9   25.09  20.74     4.23   301.76  301.49    10.1    732.3   -308.9 -0.2371E+01  0.4078E-01
2021  8 11 18  0  128.8080   31.2438  1884.02  343.768   137.8   25.11  20.68     4.36   301.77  301.47     9.5    626.6   -256.9 -0.2439E+01  0.1106E+00
2021  8 11 17 50  128.7753   31.1925  1868.61  343.404   140.6   25.14  20.47     4.99   301.79  301.43     9.1    518.7   -214.6 -0.2416E+01  0.4495E-01
2021  8 11 17 40  128.7432   31.1392  1895.40  343.220   164.3   25.15  20.22     6.04   301.80  301.40    10.0    497.8   -253.6 -0.1963E+01 -0.1649E+00
2021  8 11 17 30  128.7111   31.0857  1920.77  343.551   188.1   25.17  20.09     7.20   301.81  301.39    11.1    504.2   -323.5 -0.1559E+01 -0.4563E-01
2021  8 11 17 20  128.6804   31.0343  1965.12  343.027   186.4   25.18  20.24     8.48   301.82  301.33    11.3    490.2   -342.0 -0.1433E+01  0.3053E-02
2021  8 11 17 10  128.6505   30.9847  1925.72  342.660   169.4   25.20  20.61     9.94   301.83  301.25    11.2    497.4   -337.7 -0.1473E+01  0.1898E+00
2021  8 11 17  0  128.6188   30.9355  1838.13  342.923   153.1   25.22  21.08    10.75   301.84  301.23    11.4    525.3   -377.3 -0.1392E+01  0.9972E-01
2021  8 11 16 50  128.5877   30.8851  1806.14  342.802   134.9   25.24  21.46     9.73   301.85  301.29    11.3    542.7   -397.1 -0.1367E+01 -0.1633E-01
2021  8 11 16 40  128.5590   30.8334  1810.15  342.754   121.4   25.25  21.51     8.01   301.86  301.35    10.3    547.6   -324.0 -0.1690E+01 -0.6463E-02
2021  8 11 16 30  128.5321   30.7804  1796.93  342.726   116.4   25.26  21.41     8.43   301.87  301.29     9.5    512.6   -245.9 -0.2084E+01  0.5149E-01
2021  8 11 16 20  128.5078   30.7264  1854.19  342.441   106.2   25.29  21.36     8.93   301.89  301.20     8.4    486.4   -170.7 -0.2849E+01 -0.1566E+00
2021  8 11 16 10  128.4853   30.6740  1931.00  342.422   103.0   25.31  21.35     9.10   301.91  301.18     8.1    494.2   -149.7 -0.3301E+01 -0.1771E+00
2021  8 11 16  0  128.4636   30.6220  2008.75  342.390   101.0   25.34  21.28     8.54   301.93  301.21     7.7    503.4   -132.2 -0.3807E+01 -0.1297E+00
2021  8 11 15 50  128.4427   30.5709  2105.16  342.284   102.0   25.36  21.17     7.61   301.95  301.29     7.5    511.0   -123.4 -0.4141E+01 -0.1071E+00
2021  8 11 15 40  128.4214   30.5207  2187.85  342.444   112.2   25.38  21.04     6.15   301.97  301.46     7.9    558.1   -148.2 -0.3766E+01 -0.2492E+00
2021  8 11 15 30  128.3980   30.4708  2294.66  342.495   123.7   25.40  20.89     4.42   301.98  301.63     8.4    614.3   -180.8 -0.3398E+01 -0.1444E+00
2021  8 11 15 20  128.3728   30.4207  2362.97  342.521   129.6   25.42  20.75     2.94   301.99  301.76     8.5    635.9   -191.9 -0.3314E+01 -0.4825E-01
2021  8 11 15 10  128.3449   30.3691  2444.43  342.387   130.1   25.44  20.67     2.08   302.00  301.84     8.3    667.7   -184.0 -0.3629E+01 -0.2121E+00
2021  8 11 15  0  128.3138   30.3151  2442.66  342.359   143.6   25.46  20.65     2.17   302.01  301.86     9.1    683.1   -228.7 -0.2987E+01  0.1759E+00
2021  8 11 14 50  128.2835   30.2611  2453.29  342.393   145.4   25.48  20.67     2.16   302.03  301.87     9.2    679.3   -238.8 -0.2845E+01 -0.1681E+00
2021  8 11 14 40  128.2555   30.2076  2466.48  342.415   143.7   25.50  20.70     2.01   302.04  301.90     9.1    673.8   -233.8 -0.2882E+01  0.1418E+00
2021  8 11 14 30  128.2310   30.1554  2505.68  342.325   140.9   25.52  20.76     1.87   302.05  301.92     9.0    707.4   -232.8 -0.3038E+01 -0.3866E+00
2021  8 11 14 20  128.2092   30.1036  2597.12  342.410   126.5   25.53  20.82     1.77   302.07  301.93     8.2    776.5   -182.2 -0.4262E+01  0.2497E+00
2021  8 11 14 10  128.1888   30.0498  2482.47  342.318   138.5   25.57  20.86     2.72   302.08  301.88     9.0    674.7   -223.6 -0.3017E+01  0.7601E-01
2021  8 11 14  0  128.1686   29.9932  2502.24  342.313   132.9   25.59  20.87     2.95   302.09  301.87     8.6    644.2   -196.2 -0.3284E+01 -0.8574E-01
2021  8 11 13 50  128.1498   29.9340  2502.04  342.287   132.4   25.61  20.88     3.38   302.10  301.84     8.5    660.5   -189.1 -0.3493E+01 -0.6848E-01
2021  8 11 13 40  128.1328   29.8745  2547.16  342.246   124.9   25.62  20.90     3.38   302.11  301.84     8.0    691.2   -163.6 -0.4224E+01 -0.5656E-01
2021  8 11 13 30  128.1157   29.8163  2509.31  342.191   128.0   25.64  20.96     3.54   302.13  301.85     8.3    705.4   -178.6 -0.3949E+01  0.2039E+00
2021  8 11 13 20  128.0979   29.7610  2470.83  342.161   134.3   25.65  21.02     3.74   302.14  301.86     8.9    721.1   -211.9 -0.3402E+01 -0.1509E-01
2021  8 11 13 10  128.0794   29.7097  2497.38  342.080   129.7   25.66  21.00     3.00   302.14  301.91     8.5    736.9   -194.2 -0.3794E+01 -0.9814E-01
2021  8 11 13  0  128.0610   29.6619  2532.53  342.045   127.4   25.66  20.95     2.76   302.15  301.93     8.2    703.8   -178.8 -0.3937E+01 -0.2348E-01
2021  8 11 12 50  128.0430   29.6156  2549.26  341.972   132.9   25.67  20.89     3.25   302.16  301.91     8.4    659.7   -183.1 -0.3603E+01 -0.4114E-01
2021  8 11 12 40  128.0253   29.5690  2582.83  341.910   133.6   25.68  20.85     3.95   302.17  301.86     8.4    625.7   -174.5 -0.3586E+01 -0.8428E-01
2021  8 11 12 30  128.0089   29.5218  2627.59  341.860   126.3   25.69  20.84     4.49   302.18  301.81     7.9    598.6   -143.9 -0.4160E+01 -0.1736E-01
2021  8 11 12 20  127.9931   29.4747  2650.54  341.767   126.2   25.70  20.89     6.05   302.19  301.69     7.9    548.4   -138.1 -0.3971E+01 -0.6894E-01
2021  8 11 12 10  127.9783   29.4272  2606.13  341.749   128.5   25.72  21.01     8.41   302.20  301.54     8.3    474.6   -145.2 -0.3268E+01  0.1667E+00
2021  8 11 12  0  127.9666   29.3787  2521.60  341.523   115.3   25.75  21.18    10.20   302.21  301.34     7.6    421.2   -112.6 -0.3740E+01  0.1809E+00
2021  8 11 11 50  127.9565   29.3297  2500.41  341.508   106.1   25.76  21.39    11.47   302.22  301.22     7.4    424.3   -100.9 -0.4205E+01 -0.1299E+00
2021  8 11 11 40  127.9448   29.2823  2563.54  341.527   104.7   25.78  21.57    11.83   302.23  301.23     7.6    479.8   -111.6 -0.4299E+01 -0.1324E+00
2021  8 11 11 30  127.9318   29.2378  2555.26  341.569   106.0   25.79  21.70    12.50   302.24  301.23     8.0    503.5   -127.9 -0.3936E+01  0.1998E+00
2021  8 11 11 20  127.9187   29.1958  2532.16  342.093   111.2   25.81  21.54     8.21   302.25  301.59     8.1    658.5   -147.4 -0.4467E+01 -0.4193E-01
2021  8 11 11 10  127.9056   29.1553  2553.52  341.935   115.5   25.83  21.35     4.59   302.26  301.89     7.9    712.5   -156.5 -0.4552E+01 -0.4611E-01
2021  8 11 11  0  127.8911   29.1146  2590.08  342.030   125.5   25.84  21.06     2.39   302.27  302.07     8.0    753.4   -164.3 -0.4585E+01 -0.7753E-01
2021  8 11 10 50  127.8747   29.0716  2623.27  342.042   139.0   25.86  20.84     0.60   302.28  302.24     8.4    799.2   -193.6 -0.4128E+01 -0.2922E-01
2021  8 11 10 40  127.8594   29.0261  2652.58  342.102   135.0   25.87  20.82     0.34   302.29  302.26     8.1    828.2   -178.3 -0.4646E+01 -0.4531E-01
2021  8 11 10 30  127.8477   28.9789  2633.06  342.091   130.0   25.88  20.85     0.55   302.30  302.25     7.8    776.2   -163.7 -0.4741E+01  0.6588E-01
2021  8 11 10 20  127.8385   28.9315  2595.44  342.163   122.6   25.89  20.83     0.60   302.30  302.25     7.3    749.1   -137.1 -0.5466E+01  0.8049E-01
2021  8 11 10 10  127.8277   28.8844  2565.28  342.199   121.5   25.89  20.86     0.75   302.30  302.23     7.3    751.5   -136.0 -0.5525E+01 -0.3062E-02
2021  8 11 10  0  127.8141   28.8381  2556.78  342.310   124.3   25.90  20.92     1.02   302.30  302.22     7.5    788.6   -147.6 -0.5343E+01  0.2647E-01
2021  8 11  9 50  127.7986   28.7930  2552.81  342.314   123.9   25.90  20.93     1.05   302.31  302.22     7.5    782.9   -147.4 -0.5313E+01  0.6023E-02
2021  8 11  9 40  127.7833   28.7484  2536.43  342.383   127.6   25.91  20.96     1.33   302.31  302.20     7.8    761.1   -158.9 -0.4790E+01  0.4341E-01
2021  8 11  9 30  127.7694   28.7034  2506.03  342.374   128.5   25.92  20.95     1.52   302.31  302.18     7.8    750.9   -159.4 -0.4710E+01  0.8722E-01
2021  8 11  9 20  127.7571   28.6569  2509.72  342.477   129.9   25.91  20.93     1.66   302.31  302.17     7.9    773.4   -160.4 -0.4822E+01 -0.1626E+00
2021  8 11  9 10  127.7467   28.6087  2572.44  342.510   123.8   25.90  20.88     1.44   302.30  302.18     7.4    799.8   -139.3 -0.5743E+01 -0.3945E-02
2021  8 11  9  0  127.7375   28.5595  2546.93  342.623   121.9   25.90  20.88     1.58   302.30  302.16     7.3    811.6   -132.2 -0.6138E+01  0.8551E-01
2021  8 11  8 50  127.7288   28.5098  2542.42  342.664   118.5   25.90  20.85     1.66   302.29  302.14     7.0    814.8   -120.2 -0.6779E+01 -0.2860E-01
2021  8 11  8 40  127.7204   28.4599  2575.01  342.688   121.6   25.89  20.83     1.52   302.29  302.15     7.2    820.4   -128.1 -0.6405E+01 -0.1324E+00
2021  8 11  8 30  127.7133   28.4109  2617.68  342.772   120.1   25.87  20.79     1.15   302.28  302.17     7.1    821.2   -125.5 -0.6544E+01 -0.4749E-01
2021  8 11  8 20  127.7079   28.3622  2620.28  342.902   114.3   25.86  20.75     1.16   302.27  302.16     6.7    759.6   -108.0 -0.7037E+01  0.9619E-01
2021  8 11  8 10  127.7045   28.3119  2571.02  343.091   117.6   25.84  20.70     1.23   302.26  302.14     6.8    738.0   -112.0 -0.6591E+01  0.4487E-01
2021  8 11  8  0  127.7034   28.2595  2541.46  343.149   121.0   25.83  20.66     1.51   302.25  302.11     7.0    723.6   -116.5 -0.6209E+01  0.1411E-01
2021  8 11  7 50  127.7030   28.2060  2573.29  343.207   109.6   25.80  20.63     1.59   302.23  302.07     6.3    734.7    -89.6 -0.8200E+01 -0.5174E-01
2021  8 11  7 40  127.7026   28.1524  2580.12  343.303   106.3   25.78  20.66     1.82   302.22  302.03     6.1    715.2    -84.8 -0.8431E+01  0.9492E-02
2021  8 11  7 30  127.7030   28.0997  2580.29  343.373   106.1   25.75  20.69     1.96   302.20  302.00     6.2    686.3    -87.3 -0.7860E+01 -0.7768E-02
2021  8 11  7 20  127.7041   28.0478  2595.23  343.454   102.8   25.72  20.70     2.01   302.19  301.97     6.1    672.1    -82.8 -0.8117E+01 -0.6258E-02
2021  8 11  7 10  127.7052   27.9959  2581.23  343.565   105.7   25.70  20.68     2.18   302.17  301.94     6.2    643.8    -87.9 -0.7323E+01  0.6538E-01
2021  8 11  7  0  127.7065   27.9437  2565.13  343.703   111.1   25.68  20.61     2.37   302.15  301.91     6.5    596.5    -95.8 -0.6228E+01 -0.3418E-01
2021  8 11  6 50  127.7083   27.8936  2584.38  343.750   113.7   25.65  20.48     2.76   302.13  301.86     6.5    533.1    -92.1 -0.5790E+01 -0.4685E-01
2021  8 11  6 40  127.7110   27.8458  2587.03  343.785   122.0   25.62  20.25     3.30   302.11  301.79     6.7    491.6    -92.1 -0.5336E+01  0.2799E-01
2021  8 11  6 30  127.7155   27.7983  2588.10  343.812   128.0   25.59  19.93     3.46   302.09  301.76     6.6    479.4    -84.9 -0.5649E+01 -0.3171E-01
2021  8 11  6 20  127.7205   27.7506  2590.99  343.734   126.0   25.56  19.68     3.64   302.08  301.70     6.2    464.6    -70.2 -0.6614E+01  0.3710E-01
2021  8 11  6 10  127.7239   27.7027  2603.95  343.513   118.0   25.54  19.73     4.76   302.07  301.55     5.8    425.5    -58.5 -0.7273E+01 -0.5535E-01
2021  8 11  6  0  127.7266   27.6556  2609.47  343.715   118.8   25.53  19.87     6.52   302.06  301.37     6.0    414.5    -60.3 -0.6874E+01  0.7556E-01
2021  8 11  5 50  127.7301   27.6090  2530.09  343.749   117.1   25.52  20.14     8.68   302.05  301.17     6.3    381.1    -64.1 -0.5944E+01  0.1796E+00
2021  8 11  5 40  127.7331   27.5617  2539.27  344.254   112.6   25.51  20.73    10.88   302.04  301.04     6.9    368.5    -82.5 -0.4466E+01 -0.4034E-01
2021  8 11  5 30  127.7342   27.5137  2654.83  343.994   116.4   25.49  21.15     8.00   302.03  301.39     8.2    484.1   -151.5 -0.3195E+01 -0.1942E+00
2021  8 11  5 20  127.7353   27.4642  2770.62  341.875   126.0   25.47  21.00     0.31   302.02  302.00     8.7    740.7   -240.7 -0.3078E+01 -0.2793E+00
2021  8 11  5 10  127.7422   27.4146  2802.34  341.039   131.0   25.45  20.83    -3.70   302.01  302.29     8.7    817.9   -287.2 -0.2848E+01  0.7212E-01
2021  8 11  5  0  127.7508   27.3650  2795.79  341.045   137.6   25.43  20.70    -4.17   302.00  302.31     8.9    852.5   -302.3 -0.2821E+01 -0.4688E-01
2021  8 11  4 50  127.7587   27.3142  2795.53  341.008   140.4   25.41  20.63    -4.22   301.98  302.29     9.0    853.5   -301.9 -0.2827E+01  0.2233E-01
2021  8 11  4 40  127.7659   27.2632  2744.65  341.043   150.3   25.40  20.56    -4.31   301.97  302.27     9.5    803.0   -339.5 -0.2365E+01  0.1055E+00
2021  8 11  4 30  127.7743   27.2123  2733.47  341.068   154.6   25.39  20.49    -4.48   301.96  302.27     9.6    736.5   -348.5 -0.2113E+01  0.6320E-02
2021  8 11  4 20  127.7848   27.1627  2774.65  341.003   154.8   25.37  20.40    -4.93   301.95  302.30     9.5    695.0   -339.8 -0.2045E+01 -0.1601E+00
2021  8 11  4 10  127.7978   27.1139  2757.39  340.974   165.6   25.35  20.32    -5.84   301.94  302.33    10.0    685.2   -392.8 -0.1744E+01  0.1654E+00
2021  8 11  4  0  127.8107   27.0663  2739.75  341.065   169.3   25.32  20.26    -7.12   301.93  302.39    10.1    733.0   -428.0 -0.1713E+01 -0.5566E-01
2021  8 11  3 50  127.8233   27.0200  2735.15  341.058   173.4   25.30  20.20    -8.78   301.92  302.48    10.3    812.8   -478.6 -0.1698E+01  0.2550E-01
2021  8 11  3 40  127.8347   26.9720  2756.73  341.095   166.1   25.29  20.19    -9.55   301.91  302.54     9.9    843.1   -461.5 -0.1827E+01 -0.2578E-01
2021  8 11  3 30  127.8440   26.9215  2756.01  341.216   148.5   25.27  20.26    -9.68   301.90  302.61     9.1    851.8   -404.9 -0.2104E+01  0.3395E-01
2021  8 11  3 20  127.8514   26.8709  2751.56  341.333   143.7   25.26  20.26   -10.32   301.89  302.67     8.8    888.2   -412.1 -0.2156E+01 -0.9205E-01
2021  8 11  3 10  127.8580   26.8210  2807.80  341.389   131.9   25.25  20.28   -10.86   301.88  302.78     8.2   1031.1   -394.3 -0.2615E+01 -0.9954E-01
2021  8 11  3  0  127.8655   26.7723  2826.36  341.446   127.4   25.25  20.24   -12.63   301.89  302.98     7.9   1082.3   -459.8 -0.2354E+01  0.6843E-01
2021  8 11  2 50  127.8743   26.7249  2784.73  341.552   138.6   27.90  19.94    58.95   303.54  303.60     7.9   1056.9   -113.3 -0.9328E+01  0.1341E+00
2021  8 11  2 40  127.8828   26.6779  2801.97  341.459   144.8   27.29  19.98    41.54   303.12  302.96     8.0   1004.1   -115.1 -0.8725E+01 -0.1498E+00
2021  8 11  2 30  127.8929   26.6290  2841.56  341.339   215.0   28.87  20.09    95.30   303.95  302.69     7.5   1018.9    -62.6 -0.1627E+02 -0.4203E-01
2021  8 11  2 20  127.9056   26.5780  2877.52  341.300   129.5   25.36  20.11    -6.88   301.94  302.55     7.5    865.0   -215.9 -0.4005E+01 -0.7620E-02
2021  8 11  2 10  127.9200   26.5278  2834.51  341.383   221.7   29.27  20.05    91.20   304.27  303.14     6.6    886.5    -47.2 -0.1880E+02  0.1180E+00
2021  8 11  2  0  127.9379   26.4758  2833.71  341.324    65.2   25.86  19.23     4.38   302.18  302.14     7.0    900.2    -95.9 -0.9390E+01 -0.2681E+00
2021  8 11  1 50  127.9562   26.4242  2905.01  341.314   165.6   25.48  19.77    -7.08   302.04  302.58     8.7    827.9   -259.9 -0.3186E+01  0.7936E-01
2021  8 11  1 40  127.9722   26.3705  2908.44  341.148    64.2   33.90  19.50   188.89   306.82  303.64     8.1    965.2    -41.7 -0.2314E+02 -0.1929E+00
2021  8 11  1 30  127.9865   26.3165  2991.58  341.013   165.1   25.61  20.21     0.83   302.13  302.06     9.1    773.8   -221.1 -0.3500E+01 -0.7190E-01
2021  8 11  1 20  128.0010   26.2650  2997.48  340.569   177.5   25.66  20.26     4.23   302.16  301.88     9.8    704.3   -235.5 -0.2991E+01 -0.1858E-01
2021  8 11  1 10  128.0190   26.2137  3019.00  340.465   208.4   25.69  20.14     4.91   302.19  301.91    11.1    680.9   -320.9 -0.2122E+01 -0.6534E-01
2021  8 11  1  0  128.0366   26.1640  3064.13  339.670   209.3   25.72  20.20    -0.89   302.21  302.26    11.2    998.6   -395.1 -0.2528E+01 -0.1224E-01
2021  8 11  0 50  128.0520   26.1143  3052.47  339.710   215.7   25.74  20.02    -3.18   302.23  302.41    11.2   1018.2   -404.6 -0.2517E+01  0.2810E-01
2021  8 11  0 40  128.0684   26.0618  3049.60  339.669   211.8   25.76  19.94    -4.35   302.24  302.50    10.8    960.3   -373.4 -0.2572E+01 -0.1443E-01
2021  8 11  0 30  128.0880   26.0068  3032.27  339.696   203.0   25.78  19.97    -3.51   302.25  302.47    10.4    903.9   -329.7 -0.2742E+01  0.1820E+00
2021  8 11  0 20  128.1086   25.9515  3003.29  339.596   220.7   25.79  19.96    -3.46   302.25  302.45    11.2    881.1   -402.0 -0.2192E+01 -0.1986E+00
2021  8 11  0 10  128.1294   25.8970  3029.08  339.657   217.4   25.79  19.97    -3.52   302.25  302.46    11.1    867.9   -393.8 -0.2204E+01  0.4204E-01
2021  8 11  0  0  128.1527   25.8416  2987.48  339.626   204.7   25.78  20.04    -3.41   302.25  302.46    10.6    894.0   -351.9 -0.2541E+01  0.1867E+00
