2021  8 12  0  0  129.9659   32.6538   500.00  353.872    64.2   22.80  19.26    12.91   300.20  298.68     5.2    390.6    -43.4 -0.9000E+01  0.6086E-01
2021  8 11 23 50  129.9539   32.6386   458.56  353.595    44.9   22.81  19.18     9.28   300.21  298.61     3.4    376.9    -17.9 -0.2108E+02  0.4815E-01
2021  8 11 23 40  129.9358   32.6279   456.74  353.834    43.2   22.83  19.11     8.93   300.21  298.57     3.1    367.7    -15.0 -0.2455E+02 -0.1342E-01
2021  8 11 23 30  129.9161   32.6144   479.03  353.181    33.7   22.81  19.09     6.56   300.20  298.66     2.3    394.3     -8.9 -0.4440E+02 -0.7582E-01
2021  8 11 23 20  129.8973   32.5924   496.86  352.895    29.0   22.82  19.12     5.44   300.21  298.74     1.9    407.5     -6.6 -0.6214E+02  0.1317E-01
2021  8 11 23 10  129.8804   32.5658   466.22  352.771    30.6   22.86  19.22     5.94   300.24  298.77     2.2    392.5     -8.2 -0.4757E+02  0.8929E-01
2021  8 11 23  0  129.8606   32.5385   422.31  353.086    39.7   22.89  19.27     6.31   300.26  299.03     3.0    362.7    -15.9 -0.2286E+02 -0.1101E+00
2021  8 11 22 50  129.8271   32.5155   405.45  353.532    55.9   22.92  19.18     5.69   300.28  299.47     4.2    372.2    -36.8 -0.1010E+02  0.1229E+00
2021  8 11 22 40  129.7803   32.4980   361.23  353.686    68.8   22.97  19.17     5.96   300.31  299.62     5.3    381.2    -59.6 -0.6394E+01 -0.8277E-02
2021  8 11 22 30  129.7292   32.4768   352.61  353.671    76.0   23.07  19.18     7.62   300.39  299.55     5.7    382.7    -64.6 -0.5925E+01  0.2490E-02
2021  8 11 22 20  129.6774   32.4498   335.90  353.868    85.0   23.24  19.27    10.73   300.51  299.44     6.3    382.8    -71.5 -0.5353E+01  0.3902E-01
2021  8 11 22 10  129.6235   32.4189   321.82  354.110    97.3   23.44  19.27    13.50   300.64  299.39     6.8    398.5    -79.3 -0.5027E+01 -0.7796E-02
2021  8 11 22  0  129.5687   32.3873   272.45  354.625   101.6   23.61  19.21    14.44   300.76  299.41     6.7    392.5    -71.5 -0.5492E+01  0.1540E+00
2021  8 11 21 50  129.5152   32.3561   257.00  356.181   101.9   23.75  19.23    12.78   300.86  299.64     6.6    358.1    -70.1 -0.5110E+01  0.2617E-01
2021  8 11 21 40  129.4643   32.3230   325.33  356.451    96.8   23.89  19.19     9.14   300.96  300.01     6.0    362.1    -61.2 -0.5916E+01 -0.1607E-01
2021  8 11 21 30  129.4169   32.2876   355.45  356.578    88.1   24.03  19.20     8.01   301.05  300.09     5.1    358.4    -43.1 -0.8318E+01  0.1283E+00
2021  8 11 21 20  129.3750   32.2516   327.89  356.852    84.3   24.16  19.29     8.71   301.13  300.03     4.8    356.2    -35.7 -0.9985E+01  0.6435E-01
2021  8 11 21 10  129.3346   32.2133   299.88  357.285    86.0   24.26  19.61     9.34   301.21  300.11     5.2    362.2    -43.2 -0.8375E+01  0.7123E-01
2021  8 11 21  0  129.2904   32.1696   277.34  357.597   107.0   24.37  19.85    10.95   301.28  300.28     7.0    362.0    -87.7 -0.4127E+01 -0.2891E-01
2021  8 11 20 50  129.2437   32.1235   287.91  357.684   117.4   24.47  19.82    13.18   301.35  300.21     7.4    356.6    -94.3 -0.3781E+01 -0.3267E-01
2021  8 11 20 40  129.1995   32.0751   341.29  357.774   119.4   24.56  19.70    15.15   301.41  300.06     7.2    350.9    -78.6 -0.4464E+01 -0.9900E-01
2021  8 11 20 30  129.1555   32.0281   364.38  357.865   111.3   24.65  19.80    14.27   301.47  300.12     6.6    368.5    -66.3 -0.5557E+01  0.3624E-01
2021  8 11 20 20  129.1114   31.9818   313.04  358.289   107.5   24.74  20.09    11.27   301.53  300.47     6.8    443.5    -79.0 -0.5615E+01  0.7588E-01
2021  8 11 20 10  129.0705   31.9339   297.64  358.672   110.6   24.82  20.24     9.23   301.58  300.76     7.2    533.9    -98.7 -0.5412E+01 -0.3455E-01
2021  8 11 20  0  129.0334   31.8841   286.04  358.969   111.8   24.88  20.46     7.95   301.62  300.94     7.6    592.9   -123.3 -0.4809E+01  0.8823E-01
2021  8 11 19 50  128.9970   31.8327   223.15  359.035   124.6   24.93  20.63     6.30   301.65  301.18     8.8    569.1   -199.5 -0.2853E+01  0.1073E+00
2021  8 11 19 40  128.9593   31.7801   194.15  358.981   132.2   24.97  20.61     5.85   301.68  301.27     9.3    530.1   -229.1 -0.2314E+01  0.9596E-02
2021  8 11 19 30  128.9245   31.7275   195.22  358.958   128.1   25.00  20.64     6.63   301.70  301.22     9.0    515.1   -204.6 -0.2517E+01 -0.1480E-02
2021  8 11 19 20  128.8937   31.6734   184.34  358.919   127.6   25.03  20.69     7.42   301.71  301.18     9.0    494.3   -200.3 -0.2468E+01  0.2010E-01
2021  8 11 19 10  128.8604   31.6168   172.02  358.806   139.9   25.06  20.73     9.49   301.73  301.10     9.9    459.0   -244.0 -0.1881E+01  0.1151E-01
2021  8 11 19  0  128.8285   31.5545   191.40  358.645   145.8   25.09  20.77    11.50   301.74  301.02    10.4    467.0   -265.4 -0.1760E+01 -0.5783E-01
2021  8 11 18 50  128.8005   31.4895   212.96  358.683   143.9   25.10  20.80    12.12   301.76  300.99    10.3    486.3   -253.5 -0.1918E+01 -0.1805E-01
2021  8 11 18 40  128.7772   31.4240   233.19  358.295   139.8   25.11  20.77    12.31   301.77  300.95     9.9    491.8   -222.3 -0.2212E+01 -0.3015E-01
2021  8 11 18 30  128.7512   31.3603   244.80  358.168   136.7   25.12  20.76    12.12   301.78  300.95     9.6    492.3   -206.4 -0.2386E+01  0.1079E-01
2021  8 11 18 20  128.7236   31.2974   243.74  357.883   135.8   25.14  20.75    12.54   301.79  300.92     9.5    470.2   -195.4 -0.2407E+01  0.2022E-01
2021  8 11 18 10  128.6963   31.2345   255.88  357.328   132.3   25.15  20.74    12.57   301.80  300.90     9.1    457.8   -175.5 -0.2609E+01 -0.3020E-01
2021  8 11 18  0  128.6696   31.1700   278.59  357.219   136.6   25.16  20.78    13.49   301.80  300.88     9.5    474.4   -192.8 -0.2461E+01 -0.9667E-01
2021  8 11 17 50  128.6425   31.1032   298.81  357.560   144.1   25.18  20.81    14.93   301.81  300.85    10.1    508.6   -222.4 -0.2287E+01 -0.4100E-01
2021  8 11 17 40  128.6172   31.0338   310.32  357.504   145.2   25.20  20.84    15.85   301.83  300.81    10.2    518.8   -224.6 -0.2309E+01 -0.1583E-01
2021  8 11 17 30  128.5959   30.9645   311.24  357.788   135.1   25.21  20.96    16.20   301.84  300.77     9.8    528.1   -197.8 -0.2670E+01  0.1086E-01
2021  8 11 17 20  128.5748   30.8955   293.07  358.532   122.8   25.23  21.17    16.37   301.85  300.72     9.3    512.6   -177.1 -0.2894E+01  0.1319E+00
2021  8 11 17 10  128.5538   30.8222   279.39  358.453   129.1   25.26  21.24    18.20   301.86  300.68    10.0    445.8   -205.9 -0.2165E+01  0.1338E-01
2021  8 11 17  0  128.5322   30.7479   332.78  359.407   114.4   25.27  21.10    12.43   301.88  300.93     8.4    488.2   -144.8 -0.3371E+01 -0.1894E+00
2021  8 11 16 50  128.5135   30.6773   362.45  359.619   109.4   25.31  21.13     8.65   301.91  301.20     8.0    592.8   -145.5 -0.4075E+01  0.7019E-01
2021  8 11 16 40  128.5011   30.6037   313.64  359.637   120.6   25.36  21.24     5.80   301.94  301.52     9.2    625.8   -231.7 -0.2701E+01  0.9840E-01
2021  8 11 16 30  128.4926   30.5303   280.82  359.483   148.1   25.41  20.98     4.05   301.97  301.71    10.3    624.4   -325.1 -0.1921E+01  0.1449E-01
2021  8 11 16 20  128.4854   30.4577   289.43  359.278   156.9   25.44  20.84     3.62   301.99  301.76    10.5    676.4   -330.1 -0.2049E+01 -0.4044E-01
2021  8 11 16 10  128.4811   30.3867   298.22  359.169   157.6   25.47  20.81     4.27   302.01  301.74    10.4    699.6   -311.0 -0.2249E+01 -0.3026E-01
2021  8 11 16  0  128.4784   30.3165   303.32  359.114   150.6   25.49  20.86     4.14   302.03  301.76    10.0    705.7   -282.0 -0.2502E+01  0.2159E-01
2021  8 11 15 50  128.4734   30.2454   278.14  359.247   162.3   25.51  20.83     4.63   302.05  301.76    10.6    666.3   -326.6 -0.2040E+01  0.6047E-01
2021  8 11 15 40  128.4693   30.1718   272.94  359.232   165.5   25.55  20.80     5.11   302.07  301.76    10.6    676.9   -321.2 -0.2107E+01  0.1882E-01
2021  8 11 15 30  128.4671   30.1002   260.72  358.979   166.4   25.58  20.74     5.50   302.09  301.75    10.4    663.8   -296.9 -0.2236E+01  0.3302E-01
2021  8 11 15 20  128.4655   30.0288   262.42  358.788   166.8   25.61  20.74     5.93   302.12  301.74    10.4    683.1   -287.1 -0.2379E+01 -0.2239E-01
2021  8 11 15 10  128.4623   29.9589   260.08  358.758   167.3   25.64  20.73     6.33   302.14  301.74    10.3    705.5   -276.0 -0.2556E+01  0.4442E-01
2021  8 11 15  0  128.4598   29.8901   248.21  358.674   160.5   25.67  20.69     6.25   302.16  301.74     9.8    683.7   -235.8 -0.2900E+01  0.2304E-01
2021  8 11 14 50  128.4553   29.8256   234.70  358.598   154.2   25.68  20.66     5.72   302.17  301.77     9.3    672.4   -206.5 -0.3257E+01  0.5159E-01
2021  8 11 14 40  128.4491   29.7627   214.49  358.710   156.6   25.70  20.61     5.84   302.19  301.78     9.3    623.7   -203.4 -0.3067E+01  0.4034E-01
2021  8 11 14 30  128.4411   29.6999   191.20  358.423   164.9   25.73  20.51     6.48   302.20  301.75     9.5    565.3   -207.9 -0.2719E+01  0.4938E-01
2021  8 11 14 20  128.4320   29.6364   171.66  357.941   170.6   25.76  20.44     7.24   302.21  301.72     9.6    523.6   -207.5 -0.2523E+01  0.2303E-01
2021  8 11 14 10  128.4207   29.5745   166.93  357.727   166.4   25.78  20.40     7.57   302.22  301.69     9.3    506.4   -183.8 -0.2755E+01  0.4226E-02
2021  8 11 14  0  128.4076   29.5144   166.83  357.549   166.8   25.79  20.36     8.17   302.23  301.65     9.2    503.0   -174.1 -0.2889E+01 -0.9647E-02
2021  8 11 13 50  128.3945   29.4540   174.34  357.248   171.5   25.80  20.34     8.98   302.24  301.61     9.4    516.9   -180.2 -0.2868E+01 -0.2401E-01
2021  8 11 13 40  128.3818   29.3914   183.63  356.958   181.7   25.81  20.34    10.27   302.24  301.57     9.9    524.1   -201.3 -0.2603E+01 -0.2982E-01
2021  8 11 13 30  128.3683   29.3260   189.23  356.827   190.9   25.82  20.34    11.55   302.25  301.52    10.4    510.9   -225.5 -0.2266E+01 -0.1209E-01
2021  8 11 13 20  128.3528   29.2597   193.05  356.539   191.3   25.82  20.31    12.48   302.26  301.47    10.3    471.8   -217.4 -0.2170E+01 -0.9099E-02
2021  8 11 13 10  128.3358   29.1932   195.89  356.124   195.9   25.82  20.29    13.80   302.26  301.40    10.5    450.6   -222.1 -0.2029E+01 -0.1190E-01
2021  8 11 13  0  128.3206   29.1263   198.86  355.814   198.4   25.81  20.24    14.80   302.26  301.34    10.6    428.1   -219.8 -0.1948E+01 -0.4296E-02
2021  8 11 12 50  128.3080   29.0592   204.64  354.968   201.3   25.80  20.07    15.62   302.25  301.27    10.4    405.6   -200.2 -0.2026E+01  0.3425E-02
2021  8 11 12 40  128.2959   28.9928   212.71  354.243   202.1   25.78  19.94    16.04   302.24  301.22    10.2    411.6   -184.0 -0.2237E+01 -0.1485E-01
2021  8 11 12 30  128.2829   28.9266   218.06  353.635   211.8   25.77  19.83    17.58   302.24  301.15    10.4    414.2   -191.7 -0.2161E+01 -0.1756E-01
2021  8 11 12 20  128.2696   28.8587   214.27  352.874   216.0   25.75  19.96    20.81   302.22  300.99    11.0    399.3   -213.3 -0.1872E+01  0.5202E-02
2021  8 11 12 10  128.2565   28.7902   214.47  351.554   216.1   25.73  19.91    22.96   302.21  300.85    10.9    370.0   -201.4 -0.1837E+01  0.4175E-01
2021  8 11 12  0  128.2418   28.7249   222.64  351.315   211.2   25.70  19.68    23.72   302.19  300.70    10.2    348.0   -160.3 -0.2171E+01 -0.1072E-01
2021  8 11 11 50  128.2272   28.6626   246.26  351.335   215.8   25.67  19.54    26.43   302.18  300.51    10.2    339.1   -149.7 -0.2265E+01 -0.7786E-01
2021  8 11 11 40  128.2146   28.6001   287.35  351.111   243.5   25.64  19.48    33.33   302.15  300.28    11.4    339.0   -192.0 -0.1766E+01 -0.1190E+00
2021  8 11 11 30  128.2052   28.5365   340.82  351.019   244.7   25.60  19.47    37.62   302.13  300.03    11.5    342.6   -189.2 -0.1811E+01 -0.7477E-01
2021  8 11 11 20  128.1973   28.4767   376.63  350.795   228.0   25.57  19.31    37.32   302.11  299.82    10.5    336.4   -139.2 -0.2417E+01 -0.1121E-01
2021  8 11 11 10  128.1902   28.4198   486.48  350.848   216.0   25.53  19.45    40.28   302.09  299.56    10.2    347.2   -122.5 -0.2835E+01 -0.2984E+00
2021  8 11 11  0  128.1792   28.3641   564.26  350.935   214.4   25.49  19.69    41.86   302.06  299.56    10.7    380.1   -143.6 -0.2647E+01 -0.1309E+00
2021  8 11 10 50  128.1593   28.3084   533.43  350.915   190.1   25.48  19.42    33.58   302.05  299.68     9.0    354.6    -94.6 -0.3747E+01  0.1493E+00
2021  8 11 10 40  128.1332   28.2569   617.36  350.802   152.5   25.47  19.43    29.44   302.04  299.45     7.0    331.9    -49.8 -0.6669E+01 -0.2800E+00
2021  8 11 10 30  128.1068   28.2064   706.31  351.160   149.1   25.46  19.34    31.21   302.04  299.19     6.7    325.4    -42.1 -0.7725E+01 -0.1656E+00
2021  8 11 10 20  128.0811   28.1531   755.93  351.018   136.5   25.46  19.21    28.94   302.04  299.08     5.9    324.7    -30.8 -0.1053E+02  0.2566E-01
2021  8 11 10 10  128.0515   28.0980   708.91  351.136   118.8   25.46  19.38    25.76   302.03  299.09     5.2    323.8    -23.4 -0.1385E+02  0.3904E+00
2021  8 11 10  0  128.0174   28.0391   753.63  351.452   120.9   25.45  19.65    27.18   302.03  299.14     5.6    325.4    -28.5 -0.1141E+02 -0.6774E-01
2021  8 11  9 50  127.9831   27.9738   922.77  351.302   121.7   25.44  19.81    26.40   302.03  299.33     5.9    334.2    -33.8 -0.9881E+01 -0.2356E+00
2021  8 11  9 40  127.9489   27.9029  1037.72  351.496   121.4   25.44  19.99    24.81   302.02  299.58     6.2    363.5    -40.5 -0.8977E+01 -0.1854E+00
2021  8 11  9 30  127.9158   27.8288  1135.25  352.343   114.8   25.43  20.31    21.62   302.02  299.90     6.4    377.2    -48.6 -0.7760E+01 -0.2234E-01
2021  8 11  9 20  127.8846   27.7536  1168.54  351.754   133.3   25.44  20.34    21.37   302.01  300.23     7.7    381.0    -80.3 -0.4742E+01 -0.7764E-01
2021  8 11  9 10  127.8546   27.6782  1137.98  351.320   146.2   25.44  20.34    22.27   302.00  300.31     8.5    371.1   -104.0 -0.3569E+01  0.1453E+00
2021  8 11  9  0  127.8273   27.6012  1229.03  350.202   124.2   25.43  20.40    17.52   302.00  300.46     7.2    386.2    -75.0 -0.5153E+01 -0.1086E+00
2021  8 11  8 50  127.8015   27.5252  1228.18  350.305   126.5   25.43  20.52    11.49   302.00  301.03     7.7    433.3   -105.2 -0.4120E+01 -0.5413E-01
2021  8 11  8 40  127.7768   27.4497  1263.04  350.275   117.2   25.43  20.63    10.68   302.00  301.06     7.3    432.5    -95.2 -0.4544E+01 -0.6532E-01
2021  8 11  8 30  127.7525   27.3726  1246.83  350.135   121.8   25.43  20.76     8.51   302.00  301.29     7.9    502.4   -127.3 -0.3946E+01  0.2458E-02
2021  8 11  8 20  127.7292   27.2942  1218.33  350.459   127.5   25.42  20.69     4.62   301.99  301.61     8.2    555.4   -160.6 -0.3457E+01  0.5437E-01
2021  8 11  8 10  127.7087   27.2161  1157.82  350.133   151.5   25.41  20.43     1.39   301.98  301.88     9.2    511.8   -237.3 -0.2157E+01  0.2289E+00
2021  8 11  8  0  127.6909   27.1375  1089.30  350.279   164.8   25.40  20.29     1.87   301.98  301.85     9.7    439.0   -261.9 -0.1676E+01  0.4635E-01
2021  8 11  7 50  127.6744   27.0582  1096.00  350.378   161.0   25.39  20.30     2.93   301.97  301.77     9.5    420.8   -239.2 -0.1759E+01 -0.5229E-01
2021  8 11  7 40  127.6582   26.9775  1090.12  350.254   155.0   25.38  20.34     4.13   301.96  301.67     9.3    417.7   -215.5 -0.1939E+01  0.3513E-01
2021  8 11  7 30  127.6414   26.8951  1071.14  350.128   139.1   25.35  20.45     4.90   301.94  301.57     8.5    418.9   -173.9 -0.2409E+01  0.8741E-01
2021  8 11  7 20  127.6253   26.8125  1044.68  350.157   135.1   25.33  20.54     5.57   301.92  301.50     8.5    419.3   -172.6 -0.2429E+01  0.3860E-02
2021  8 11  7 10  127.6110   26.7278  1067.59  350.251   135.4   25.31  20.60     6.44   301.91  301.43     8.7    423.6   -178.7 -0.2371E+01 -0.6228E-01
2021  8 11  7  0  127.5976   26.6413  1103.14  350.262   128.4   25.30  20.65     7.44   301.90  301.32     8.3    430.9   -155.8 -0.2767E+01 -0.1174E+00
2021  8 11  6 50  127.5844   26.5546  1159.06  350.164   100.8   25.29  20.85     6.24   301.90  301.31     6.8    492.6   -100.3 -0.4913E+01 -0.2894E-01
2021  8 11  6 40  127.5742   26.4675  1087.70  350.212   128.1   25.32  20.83     2.62   301.91  301.70     8.8    569.7   -217.7 -0.2617E+01  0.2442E+00
2021  8 11  6 30  127.5692   26.3783  1016.97  350.250   162.3   25.37  20.59     2.57   301.94  301.78    10.3    538.9   -321.0 -0.1679E+01 -0.3270E-01
2021  8 11  6 20  127.5660   26.2894  1051.81  350.279   154.4   25.43  20.61     3.71   301.98  301.73     9.7    538.0   -259.8 -0.2071E+01 -0.6035E-01
2021  8 11  6 10  127.5635   26.2009  1075.39  350.271   148.7   25.48  20.67     4.71   302.02  301.69     9.4    546.6   -227.4 -0.2403E+01 -0.3492E-01
2021  8 11  6  0  127.5607   26.1125  1095.33  350.341   137.2   25.55  20.76     5.01   302.06  301.69     8.7    568.3   -185.9 -0.3058E+01 -0.2672E-01
2021  8 11  5 50  127.5584   26.0233  1076.97  350.458   135.6   25.62  20.92     5.45   302.10  301.70     8.8    579.3   -191.2 -0.3030E+01  0.1284E+00
2021  8 11  5 40  127.5558   25.9329  1070.27  350.550   145.4   25.67  20.86     4.74   302.14  301.80     9.2    589.8   -215.5 -0.2736E+01 -0.8209E-01
2021  8 11  5 30  127.5526   25.8430  1106.03  350.507   171.5   25.73  20.60     5.18   302.18  301.84    10.1    592.0   -259.8 -0.2279E+01 -0.3961E-01
2021  8 11  5 20  127.5512   25.7523  1130.18  350.349   184.1   25.77  20.55     8.19   302.20  301.70    10.6    563.0   -270.4 -0.2082E+01 -0.9467E-01
2021  8 11  5 10  127.5488   25.6600  1174.62  350.105   168.9   25.80  20.76     8.78   302.23  301.66    10.1    583.5   -238.9 -0.2443E+01 -0.1102E+00
2021  8 11  5  0  127.5454   25.5677  1163.66  350.057   171.4   25.82  20.76     8.16   302.24  301.72    10.2    566.8   -250.2 -0.2266E+01  0.1407E+00
2021  8 11  4 50  127.5436   25.4728  1116.67  350.130   195.9   25.84  20.59     9.50   302.25  301.70    11.2    512.9   -305.7 -0.1678E+01  0.2343E-01
2021  8 11  4 40  127.5443   25.3771  1068.70  349.839   196.3   25.85  20.58    11.68   302.25  301.57    11.1    467.5   -286.5 -0.1632E+01  0.7837E-01
2021  8 11  4 30  127.5475   25.2787  1066.98  349.706   172.6   25.84  20.70    12.23   302.25  301.46    10.1    470.1   -215.0 -0.2186E+01 -0.1551E-01
2021  8 11  4 20  127.5514   25.1806  1072.45  349.678   153.2   25.83  20.84    11.01   302.24  301.47     9.3    491.3   -177.8 -0.2763E+01  0.5930E-01
2021  8 11  4 10  127.5580   25.0819  1069.21  349.472   164.6   25.82  20.81     9.93   302.24  301.58    10.0    505.5   -221.5 -0.2282E+01 -0.1232E+00
2021  8 11  4  0  127.5676   24.9836  1098.89  349.573   180.9   25.81  20.70    10.06   302.23  301.61    10.7    502.5   -266.6 -0.1885E+01 -0.5246E-02
2021  8 11  3 50  127.5791   24.8848  1131.46  349.769   183.0   25.79  20.71    10.44   302.22  301.60    10.9    501.9   -281.3 -0.1785E+01 -0.1114E+00
2021  8 11  3 40  127.5905   24.7876  1199.63  350.215   181.8   25.78  20.62     9.83   302.22  301.61    10.6    507.4   -261.4 -0.1941E+01 -0.7828E-01
2021  8 11  3 30  127.6012   24.6907  1201.47  350.433   194.0   25.77  20.48    11.27   302.22  301.55    11.0    496.3   -274.0 -0.1811E+01 -0.5594E-02
2021  8 11  3 20  127.6102   24.5916  1172.27  350.197   195.6   25.77  20.46    14.18   302.22  301.38    10.9    464.8   -254.6 -0.1825E+01  0.1062E+00
2021  8 11  3 10  127.6198   24.4915  1183.22  350.177   167.2   25.77  20.58    15.01   302.23  301.21     9.6    479.4   -171.1 -0.2803E+01 -0.8145E-01
2021  8 11  3  0  127.6318   24.3923  1179.24  350.123   164.3   25.80  20.69    16.65   302.24  301.12     9.6    482.3   -168.3 -0.2865E+01 -0.1552E+00
2021  8 11  2 50  127.6497   24.2966  1183.19  350.520   159.5   25.82  20.65    17.13   302.26  301.05     9.2    438.4   -144.9 -0.3026E+01  0.6717E-01
2021  8 11  2 40  127.6715   24.2024  1178.48  349.911   160.8   25.85  20.74    18.37   302.27  301.00     9.4    402.6   -151.3 -0.2661E+01  0.2062E-01
2021  8 11  2 30  127.6962   24.1063  1148.27  349.981   146.3   25.86  20.76    17.10   302.28  300.99     8.5    410.0   -117.8 -0.3479E+01  0.5172E-01
2021  8 11  2 20  127.7209   24.0072  1136.51  350.257   123.2   25.88  20.88    15.16   302.29  300.96     7.3    416.0    -81.7 -0.5094E+01  0.9554E-01
2021  8 11  2 10  127.7443   23.9078  1093.19  350.413   116.8   25.90  21.35    13.02   302.30  301.22     7.8    445.0   -108.8 -0.4089E+01 -0.4663E-01
2021  8 11  2  0  127.7657   23.8078  1176.32  349.233   141.3   25.93  21.31     3.11   302.32  302.08     9.5    789.4   -253.5 -0.3114E+01 -0.3151E+00
2021  8 11  1 50  127.7822   23.7093  1265.06  347.982   197.1   25.94  20.77    -2.03   302.33  302.45    11.5    850.7   -471.8 -0.1803E+01  0.5369E-01
2021  8 11  1 40  127.7960   23.6107  1249.74  347.767   220.0   25.96  20.66    -1.62   302.34  302.42    12.4    843.7   -557.4 -0.1514E+01 -0.1358E+00
2021  8 11  1 30  127.8071   23.5110  1292.83  348.229   225.3   25.98  20.63    -1.48   302.35  302.43    12.6    908.6   -566.9 -0.1603E+01 -0.7209E-01
2021  8 11  1 20  127.8179   23.4108  1311.30  348.309   229.4   26.02  20.62    -0.73   302.38  302.42    12.7    934.8   -559.7 -0.1670E+01  0.7847E-01
2021  8 11  1 10  127.8283   23.3096  1320.64  347.952   226.8   26.08  20.63     0.03   302.42  302.41    12.4    945.2   -512.8 -0.1843E+01  0.3566E-02
2021  8 11  1  0  127.8374   23.2089  1258.90  347.911   232.2   26.12  20.62     0.80   302.44  302.40    12.5    899.4   -514.3 -0.1749E+01  0.1197E+00
2021  8 11  0 50  127.8477   23.1068  1214.68  347.652   238.2   26.16  20.62     1.50   302.46  302.39    12.8    836.1   -529.6 -0.1579E+01  0.5423E-01
2021  8 11  0 40  127.8590   23.0050  1172.45  347.765   242.3   26.17  20.63     1.83   302.48  302.39    13.0    791.8   -546.2 -0.1450E+01  0.1620E-01
2021  8 11  0 30  127.8702   22.9047  1180.56  347.480   245.4   26.18  20.61     2.25   302.48  302.37    13.0    765.8   -547.7 -0.1398E+01 -0.2113E-01
2021  8 11  0 20  127.8803   22.8053  1170.96  347.610   251.8   26.18  20.57     2.80   302.48  302.35    13.3    752.2   -564.9 -0.1332E+01  0.7518E-01
2021  8 11  0 10  127.8900   22.7070  1157.88  347.836   242.6   26.18  20.56     2.99   302.48  302.33    12.8    755.2   -504.5 -0.1497E+01  0.1531E-01
2021  8 11  0  0  127.9002   22.6090  1128.26  347.764   247.8   26.17  20.54     3.69   302.47  302.29    13.0    737.7   -522.9 -0.1411E+01  0.1218E+00
