2021  8 12  0  0  130.0059   32.6327   500.00  352.486    71.5   22.85  19.29    15.13   300.24  298.64     5.9    411.9    -53.7 -0.7665E+01  0.1226E+00
2021  8 11 23 50  130.0051   32.6165   421.88  352.287    62.4   22.87  19.17    13.30   300.25  298.57     4.7    393.2    -32.4 -0.1213E+02  0.1035E+00
2021  8 11 23 40  130.0009   32.6106   346.82  352.114    58.5   22.90  19.07    13.20   300.26  298.40     4.2    349.2    -24.2 -0.1443E+02  0.1485E+00
2021  8 11 23 30  129.9942   32.6064   349.17  351.969    48.4   22.89  19.11    11.87   300.26  298.27     3.4    336.8    -15.8 -0.2132E+02 -0.1473E+00
2021  8 11 23 20  129.9832   32.5920   448.32  351.875    53.7   22.89  19.27    14.04   300.27  298.26     4.1    352.8    -22.0 -0.1604E+02 -0.2753E+00
2021  8 11 23 10  129.9686   32.5708   408.73  352.882    46.0   22.92  19.22    10.09   300.29  298.56     3.4    400.6    -16.6 -0.2413E+02  0.1933E+00
2021  8 11 23  0  129.9573   32.5502   325.02  352.905    44.8   22.96  18.99     6.07   300.30  299.14     3.0    388.0    -16.4 -0.2373E+02  0.2789E+00
2021  8 11 22 50  129.9530   32.5298   228.09  352.344    42.3   22.97  18.92     5.47   300.31  299.19     2.8    362.8    -14.2 -0.2561E+02  0.4751E-01
2021  8 11 22 40  129.9418   32.5111   206.73  351.944    31.4   22.98  18.80     4.01   300.32  299.15     1.8    352.2     -6.1 -0.5818E+02  0.3557E-01
2021  8 11 22 30  129.9201   32.4941   188.20  351.123    44.0   22.98  18.85     5.61   300.32  299.18     2.8    338.9    -14.0 -0.2428E+02  0.1376E-01
2021  8 11 22 20  129.8950   32.4721   195.43  351.062    58.8   22.99  18.96     7.40   300.33  299.24     4.0    331.9    -28.1 -0.1182E+02 -0.2955E-01
2021  8 11 22 10  129.8652   32.4423   216.88  351.131    74.7   23.04  19.00     9.89   300.37  299.21     5.2    322.4    -46.2 -0.6982E+01 -0.4845E-01
2021  8 11 22  0  129.8268   32.4137   238.39  351.218    83.2   23.15  18.94    11.10   300.44  299.22     5.6    333.3    -51.5 -0.6467E+01 -0.2575E-01
2021  8 11 21 50  129.7811   32.3879   244.05  351.468    90.7   23.33  18.99    13.19   300.56  299.19     6.0    324.3    -54.5 -0.5955E+01  0.1665E-01
2021  8 11 21 40  129.7345   32.3549   278.83  351.581   100.3   23.56  19.03    16.51   300.72  299.09     6.3    321.2    -55.5 -0.5788E+01 -0.1459E+00
2021  8 11 21 30  129.6919   32.3139   387.88  351.523    89.1   23.77  19.26    16.88   300.87  299.01     5.5    329.1    -39.2 -0.8401E+01 -0.2110E+00
2021  8 11 21 20  129.6524   32.2692   515.11  351.227    63.0   23.93  19.74    13.08   300.98  299.11     4.1    358.1    -22.3 -0.1606E+02 -0.1654E+00
2021  8 11 21 10  129.6133   32.2250   615.39  351.101    51.2   24.01  20.11    10.20   301.04  299.37     3.6    411.3    -19.3 -0.2130E+02 -0.1472E+00
2021  8 11 21  0  129.5691   32.1835   680.38  350.493    75.5   24.05  19.87    11.83   301.07  299.65     5.1    444.6    -39.4 -0.1127E+02 -0.5534E-01
2021  8 11 20 50  129.5215   32.1355   607.08  350.869   156.2   24.12  19.08    16.35   301.11  299.93     9.0    386.3   -140.2 -0.2756E+01  0.9312E-01
2021  8 11 20 40  129.4766   32.0862   686.32  351.809   158.7   24.18  18.89    12.49   301.16  300.25     8.8    386.4   -140.5 -0.2751E+01  0.4409E-01
2021  8 11 20 30  129.4336   32.0340   504.86  351.600   221.5   24.29  18.70    15.85   301.23  300.34    11.5    335.5   -275.4 -0.1218E+01  0.1827E+00
2021  8 11 20 20  129.3869   31.9763   556.99  351.617   216.5   24.40  18.88    19.36   301.30  300.20    11.4    335.2   -252.7 -0.1326E+01 -0.5606E-01
2021  8 11 20 10  129.3426   31.9229   571.61  351.351   185.7   24.49  19.41    19.04   301.37  300.22    10.7    346.0   -223.0 -0.1552E+01 -0.1303E-02
2021  8 11 20  0  129.2999   31.8682   581.68  351.252   166.4   24.58  19.92    19.94   301.42  300.22    10.6    365.8   -222.4 -0.1645E+01 -0.4184E-01
2021  8 11 19 50  129.2572   31.8103   623.10  351.303   140.8   24.65  20.46    17.35   301.47  300.37    10.2    394.6   -219.8 -0.1795E+01 -0.9692E-01
2021  8 11 19 40  129.2132   31.7504   656.14  351.143   129.4   24.73  20.67    11.26   301.52  300.78     9.7    476.4   -232.0 -0.2053E+01 -0.9577E-01
2021  8 11 19 30  129.1680   31.6885   673.90  351.838   132.5   24.82  20.59     3.52   301.58  301.34     9.6    557.7   -284.4 -0.1961E+01 -0.4703E-01
2021  8 11 19 20  129.1274   31.6261   704.44  351.769   131.7   24.88  20.46     1.32   301.62  301.52     9.1    592.9   -260.0 -0.2280E+01 -0.1509E+00
2021  8 11 19 10  129.0901   31.5640   729.17  352.405   133.5   24.93  20.46     1.79   301.65  301.52     9.1    627.9   -249.7 -0.2515E+01  0.1378E+00
2021  8 11 19  0  129.0579   31.4960   670.90  352.384   149.7   24.97  20.47     3.40   301.67  301.45    10.2    567.9   -312.1 -0.1820E+01 -0.7548E-01
2021  8 11 18 50  129.0248   31.4276   743.08  352.240   137.4   24.99  20.49     3.68   301.69  301.43     9.3    609.8   -244.2 -0.2497E+01 -0.1164E+00
2021  8 11 18 40  128.9908   31.3627   787.16  352.162   127.6   25.00  20.50     3.20   301.70  301.46     8.6    632.8   -206.2 -0.3069E+01 -0.2910E-01
2021  8 11 18 30  128.9575   31.2984   807.79  351.853   124.2   25.03  20.58     3.49   301.72  301.45     8.5    646.9   -197.1 -0.3283E+01 -0.3478E-01
2021  8 11 18 20  128.9245   31.2335   821.61  352.105   124.2   25.06  20.67     3.83   301.74  301.45     8.6    656.6   -204.4 -0.3213E+01 -0.6386E-01
2021  8 11 18 10  128.8906   31.1675   810.02  352.116   130.3   25.09  20.73     4.00   301.76  301.47     9.2    641.0   -239.8 -0.2673E+01  0.3801E-01
2021  8 11 18  0  128.8586   31.0992   762.65  351.822   130.5   25.12  20.79     4.19   301.78  301.48     9.3    613.7   -247.0 -0.2485E+01  0.1148E+00
2021  8 11 17 50  128.8290   31.0297   730.29  351.563   131.6   25.16  20.84     4.83   301.80  301.46     9.4    593.2   -249.5 -0.2378E+01 -0.2462E-01
2021  8 11 17 40  128.7993   30.9605   718.07  351.488   128.7   25.19  20.90     4.91   301.82  301.47     9.3    585.6   -239.1 -0.2449E+01  0.9046E-01
2021  8 11 17 30  128.7733   30.8894   685.49  351.491   134.0   25.22  20.91     5.26   301.84  301.48     9.6    559.9   -258.9 -0.2162E+01  0.1223E-02
2021  8 11 17 20  128.7489   30.8158   717.19  351.235   141.4   25.25  20.93     5.46   301.87  301.51    10.1    565.5   -293.5 -0.1927E+01 -0.1056E+00
2021  8 11 17 10  128.7233   30.7423   750.70  351.235   141.9   25.29  20.91     5.24   301.89  301.55    10.0    588.0   -284.2 -0.2069E+01  0.3963E-01
2021  8 11 17  0  128.7005   30.6686   752.83  351.393   147.6   25.33  20.83     5.18   301.92  301.58    10.1    604.0   -286.7 -0.2107E+01 -0.7206E-01
2021  8 11 16 50  128.6799   30.5960   785.00  351.298   151.3   25.37  20.75     4.71   301.94  301.64    10.0    623.0   -280.5 -0.2221E+01 -0.3416E-01
2021  8 11 16 40  128.6587   30.5250   784.66  351.332   155.1   25.41  20.65     4.56   301.97  301.67     9.9    607.9   -269.8 -0.2253E+01  0.4957E-01
2021  8 11 16 30  128.6373   30.4546   719.67  351.118   165.4   25.44  20.58     4.88   302.00  301.69    10.3    557.5   -290.4 -0.1920E+01  0.1669E+00
2021  8 11 16 20  128.6180   30.3837   710.37  351.049   164.3   25.48  20.54     4.80   302.02  301.71    10.1    552.1   -270.2 -0.2043E+01 -0.1416E+00
2021  8 11 16 10  128.5989   30.3170   796.24  351.088   152.3   25.50  20.48     4.01   302.04  301.75     9.2    617.0   -210.9 -0.2925E+01 -0.6550E-01
2021  8 11 16  0  128.5801   30.2500   785.13  351.105   171.9   25.53  20.40     4.56   302.06  301.76    10.1    615.7   -264.7 -0.2326E+01  0.4229E-01
2021  8 11 15 50  128.5640   30.1783   797.67  351.067   186.7   25.56  20.33     4.84   302.08  301.78    10.7    628.2   -306.4 -0.2050E+01 -0.1315E+00
2021  8 11 15 40  128.5496   30.1073   832.04  351.212   189.6   25.59  20.30     4.98   302.10  301.80    10.7    653.8   -303.8 -0.2152E+01 -0.5904E-01
2021  8 11 15 30  128.5349   30.0379   889.23  351.388   185.3   25.61  20.25     4.76   302.12  301.82    10.4    693.1   -271.7 -0.2551E+01 -0.9540E-01
2021  8 11 15 20  128.5185   29.9700   905.93  351.260   189.2   25.65  20.23     5.31   302.14  301.81    10.4    686.0   -271.3 -0.2529E+01  0.6709E-01
2021  8 11 15 10  128.5037   29.9000   890.72  351.173   200.6   25.68  20.15     5.80   302.16  301.81    10.8    670.5   -291.8 -0.2297E+01 -0.4314E-01
2021  8 11 15  0  128.4876   29.8319   920.35  351.383   188.9   25.69  20.16     5.69   302.18  301.81    10.2    693.1   -245.8 -0.2820E+01 -0.3984E-01
2021  8 11 14 50  128.4697   29.7657   930.91  351.382   192.0   25.71  20.08     5.70   302.19  301.82    10.2    685.5   -240.9 -0.2846E+01 -0.4444E-01
2021  8 11 14 40  128.4516   29.6986   908.62  351.380   193.9   25.73  20.07     6.39   302.20  301.79    10.2    653.9   -236.7 -0.2763E+01  0.1392E+00
2021  8 11 14 30  128.4351   29.6276   826.42  351.237   205.1   25.75  20.02     7.74   302.21  301.74    10.6    560.3   -254.0 -0.2205E+01  0.1570E+00
2021  8 11 14 20  128.4185   29.5541   757.09  351.339   200.3   25.78  20.02     8.82   302.22  301.67    10.3    497.2   -228.4 -0.2177E+01  0.1063E+00
2021  8 11 14 10  128.3997   29.4815   689.12  351.481   198.4   25.79  20.05     9.78   302.23  301.61    10.2    474.7   -218.9 -0.2169E+01  0.5931E-01
2021  8 11 14  0  128.3792   29.4106   658.71  351.430   194.9   25.80  20.05    10.70   302.24  301.54    10.0    448.0   -201.4 -0.2224E+01  0.7513E-01
2021  8 11 13 50  128.3583   29.3414   628.89  351.410   195.2   25.82  19.98    12.03   302.25  301.45     9.9    414.2   -183.7 -0.2255E+01  0.5917E-01
2021  8 11 13 40  128.3376   29.2731   615.41  351.397   199.3   25.84  19.92    13.54   302.26  301.37     9.9    398.6   -178.3 -0.2236E+01 -0.9244E-02
2021  8 11 13 30  128.3160   29.2051   634.77  351.428   203.5   25.84  19.91    15.20   302.26  301.28    10.1    387.8   -181.7 -0.2135E+01 -0.6509E-01
2021  8 11 13 20  128.2945   29.1380   691.68  351.404   202.6   25.83  19.92    16.44   302.26  301.20    10.1    386.1   -175.6 -0.2199E+01 -0.1185E+00
2021  8 11 13 10  128.2741   29.0713   746.75  351.448   204.3   25.82  19.92    17.74   302.26  301.13    10.2    386.8   -176.7 -0.2189E+01 -0.1024E+00
2021  8 11 13  0  128.2555   29.0042   784.80  351.441   211.1   25.81  19.95    19.69   302.26  301.05    10.6    392.5   -192.0 -0.2044E+01 -0.5442E-01
2021  8 11 12 50  128.2377   28.9366   795.32  351.478   209.9   25.79  20.00    20.82   302.25  300.98    10.6    402.3   -194.0 -0.2074E+01  0.3364E-01
2021  8 11 12 40  128.2202   28.8690   779.75  351.331   203.4   25.78  20.01    21.37   302.24  300.91    10.4    401.9   -178.6 -0.2250E+01  0.6110E-01
2021  8 11 12 30  128.2016   28.8010   756.12  351.398   203.0   25.76  19.98    22.47   302.23  300.82    10.3    391.7   -171.8 -0.2280E+01  0.7835E-02
2021  8 11 12 20  128.1843   28.7322   771.70  351.368   200.0   25.74  20.00    24.25   302.21  300.68    10.2    379.0   -162.8 -0.2328E+01 -0.8157E-01
2021  8 11 12 10  128.1673   28.6631   814.84  351.623   191.6   25.70  20.04    25.65   302.19  300.52     9.9    378.0   -145.1 -0.2606E+01 -0.1370E+00
2021  8 11 12  0  128.1497   28.5949   875.24  351.628   179.2   25.66  20.06    25.79   302.17  300.40     9.4    379.9   -122.9 -0.3090E+01 -0.9539E-01
2021  8 11 11 50  128.1308   28.5278   864.12  351.591   167.3   25.64  20.08    25.14   302.16  300.32     8.8    380.3   -104.1 -0.3653E+01  0.1331E+00
2021  8 11 11 40  128.1129   28.4582   847.91  351.227   161.1   25.62  20.06    24.43   302.14  300.29     8.4    375.0    -93.4 -0.4016E+01  0.7050E-01
2021  8 11 11 30  128.0971   28.3868   849.69  351.546   161.5   25.58  20.09    24.68   302.12  300.28     8.6    379.6    -98.1 -0.3871E+01 -0.1425E+00
2021  8 11 11 20  128.0825   28.3160   869.30  352.015   160.5   25.55  20.18    24.79   302.10  300.28     8.8    393.8   -106.3 -0.3705E+01 -0.2954E-01
2021  8 11 11 10  128.0675   28.2471   923.22  351.821   127.5   25.52  20.34    18.77   302.08  300.42     7.2    404.0    -70.0 -0.5773E+01 -0.4640E-01
2021  8 11 11  0  128.0527   28.1824   864.56  352.073   144.6   25.51  20.25    16.89   302.06  300.72     8.1    370.0   -101.0 -0.3663E+01  0.1253E+00
2021  8 11 10 50  128.0320   28.1190   911.65  352.333   161.9   25.49  20.09    18.03   302.05  300.73     8.8    395.8   -123.5 -0.3205E+01 -0.2239E+00
2021  8 11 10 40  128.0073   28.0557   923.55  352.714   149.2   25.47  20.25    15.49   302.04  300.86     8.4    400.3   -117.5 -0.3407E+01  0.2429E+00
2021  8 11 10 30  127.9786   27.9868   835.27  352.250   161.8   25.48  20.30    16.17   302.03  300.91     9.3    379.2   -152.2 -0.2491E+01  0.5333E-01
2021  8 11 10 20  127.9527   27.9136   834.64  352.680   164.6   25.45  20.20    15.22   302.02  300.97     9.3    369.0   -155.9 -0.2367E+01 -0.1467E+00
2021  8 11 10 10  127.9319   27.8421   943.26  352.771   158.1   25.43  20.06    15.35   302.02  300.87     8.7    359.5   -124.7 -0.2882E+01 -0.2536E+00
2021  8 11 10  0  127.9124   27.7708  1006.25  352.734   151.0   25.42  20.04    15.31   302.01  300.81     8.2    358.5   -108.2 -0.3314E+01  0.2031E-01
2021  8 11  9 50  127.8944   27.6977  1000.69  352.652   141.7   25.41  20.03    15.42   301.99  300.71     7.7    358.9    -89.3 -0.4019E+01 -0.1634E-01
2021  8 11  9 40  127.8771   27.6234   929.39  352.725   135.9   25.40  20.08    14.95   301.99  300.70     7.4    360.0    -83.7 -0.4303E+01  0.2172E+00
2021  8 11  9 30  127.8605   27.5450   905.26  352.318   147.5   25.40  20.10    14.56   301.98  300.83     8.2    367.8   -111.0 -0.3312E+01 -0.7576E-01
2021  8 11  9 20  127.8465   27.4671   920.45  352.218   141.0   25.39  20.11    12.32   301.98  300.97     7.9    375.8   -104.7 -0.3589E+01 -0.1853E-03
2021  8 11  9 10  127.8330   27.3896   924.67  352.175   138.0   25.38  20.24    11.86   301.97  301.01     8.0    383.3   -112.1 -0.3418E+01 -0.3503E-01
2021  8 11  9  0  127.8200   27.3125   933.88  351.713   142.2   25.38  20.31    11.44   301.97  301.08     8.4    385.8   -130.7 -0.2951E+01  0.1067E+00
2021  8 11  8 50  127.8076   27.2353   968.48  351.785   135.4   25.36  20.37    11.46   301.96  301.04     8.1    393.4   -121.0 -0.3251E+01 -0.2141E+00
2021  8 11  8 40  127.7944   27.1590   983.22  351.638   144.5   25.35  20.37    11.79   301.95  301.07     8.7    407.4   -144.5 -0.2819E+01  0.4213E-01
2021  8 11  8 30  127.7803   27.0799   962.56  351.497   136.7   25.34  20.36    12.09   301.94  300.98     8.2    408.4   -122.4 -0.3336E+01 -0.1483E+00
2021  8 11  8 20  127.7639   27.0005   995.47  351.613   125.6   25.33  20.40    10.44   301.93  301.04     7.6    417.2   -105.7 -0.3947E+01 -0.3067E-01
2021  8 11  8 10  127.7453   26.9195  1012.53  351.875   135.8   25.30  20.39     7.85   301.91  301.29     8.3    430.0   -147.0 -0.2925E+01 -0.4755E-01
2021  8 11  8  0  127.7281   26.8382  1064.20  351.711   134.3   25.26  20.28     6.08   301.89  301.40     8.1    430.7   -142.0 -0.3033E+01 -0.1043E+00
2021  8 11  7 50  127.7132   26.7569  1053.56  351.550   126.6   25.24  20.32     3.73   301.87  301.56     7.7    524.2   -138.8 -0.3776E+01  0.3871E-01
2021  8 11  7 40  127.6995   26.6737  1045.48  351.672   109.0   25.25  20.48     1.82   301.87  301.71     6.8    638.8   -117.0 -0.5458E+01  0.1011E-01
2021  8 11  7 30  127.6868   26.5896  1047.63  351.554   105.8   25.26  20.54    -0.24   301.88  301.90     6.8    719.4   -127.9 -0.5623E+01 -0.5295E-01
2021  8 11  7 20  127.6753   26.5054  1051.04  351.530   108.2   25.29  20.73    -2.03   301.90  302.08     7.3    783.0   -174.4 -0.4488E+01  0.2125E-01
2021  8 11  7 10  127.6650   26.4211  1025.15  351.317   124.7   25.35  20.57    -3.66   301.93  302.24     8.0    780.3   -226.0 -0.3453E+01  0.7890E-01
2021  8 11  7  0  127.6585   26.3363  1000.32  351.225   140.4   25.42  20.33    -3.73   301.98  302.28     8.4    728.9   -233.9 -0.3117E+01  0.1853E-01
2021  8 11  6 50  127.6541   26.2501  1001.20  351.083   113.1   26.57  20.05    21.49   302.71  302.50     7.9    735.0   -122.9 -0.5978E+01 -0.2557E-01
2021  8 11  6 40  127.6494   26.1632  1011.69  350.863   142.9   26.03  20.42    14.80   302.36  302.05     9.3    654.1   -199.7 -0.3276E+01  0.4403E-01
2021  8 11  6 30  127.6459   26.0760  1000.04  350.680   160.8   25.65  20.63     3.69   302.12  301.87     9.7    591.2   -248.3 -0.2380E+01 -0.4152E-01
2021  8 11  6 20  127.6423   25.9908  1029.17  350.858   153.8   25.68  20.69     3.85   302.15  301.88     9.3    607.0   -224.1 -0.2708E+01 -0.4760E-01
2021  8 11  6 10  127.6382   25.9045  1014.57  350.842   163.0   25.74  20.75     5.30   302.18  301.83     9.9    595.8   -250.9 -0.2375E+01 -0.6480E-02
2021  8 11  6  0  127.6335   25.8166  1022.14  350.855   158.3   25.77  20.76     5.31   302.20  301.84     9.6    613.7   -227.7 -0.2696E+01  0.1846E-01
2021  8 11  5 50  127.6294   25.7269  1005.77  350.688   172.2   25.80  20.64     5.54   302.22  301.86    10.1    621.1   -254.3 -0.2443E+01 -0.3651E-02
2021  8 11  5 40  127.6253   25.6363  1029.55  350.824   168.3   25.82  20.53     5.40   302.24  301.87     9.6    656.8   -216.6 -0.3033E+01  0.5451E-01
2021  8 11  5 30  127.6216   25.5448  1006.90  350.596   166.3   25.85  20.61     6.59   302.25  301.80     9.5    622.2   -209.9 -0.2964E+01  0.2429E-02
2021  8 11  5 20  127.6179   25.4530   974.97  350.505   153.7   25.86  20.84     7.41   302.26  301.74     9.2    596.0   -193.9 -0.3073E+01  0.1231E+00
2021  8 11  5 10  127.6154   25.3598   992.91  350.669   146.8   25.85  20.92     6.50   302.26  301.79     9.0    626.1   -191.0 -0.3277E+01 -0.1153E+00
2021  8 11  5  0  127.6153   25.2671   979.24  350.624   176.7   25.85  20.70     6.03   302.26  301.87    10.3    619.9   -269.7 -0.2298E+01  0.2686E-01
2021  8 11  4 50  127.6171   25.1733  1026.11  350.657   188.3   25.83  20.52     6.84   302.25  301.83    10.6    616.6   -278.4 -0.2215E+01 -0.9566E-01
2021  8 11  4 40  127.6211   25.0810  1011.27  350.492   187.9   25.82  20.56     8.72   302.24  301.71    10.7    564.8   -272.1 -0.2076E+01  0.3524E-01
2021  8 11  4 30  127.6265   24.9888   999.36  350.590   178.9   25.80  20.64    10.31   302.23  301.58    10.4    538.9   -244.2 -0.2206E+01 -0.2224E-01
2021  8 11  4 20  127.6336   24.8966  1011.92  350.610   169.3   25.79  20.72    12.28   302.22  301.42    10.0    523.3   -210.5 -0.2486E+01 -0.6019E-02
2021  8 11  4 10  127.6428   24.8038  1025.60  350.544   170.4   25.79  20.76    15.09   302.21  301.25    10.2    511.8   -208.5 -0.2455E+01 -0.7146E-01
2021  8 11  4  0  127.6519   24.7113  1058.60  350.842   153.4   25.77  20.84    15.82   302.21  301.11     9.4    516.1   -162.4 -0.3179E+01  0.2814E-01
2021  8 11  3 50  127.6610   24.6201  1051.66  350.960   142.7   25.77  20.86    15.96   302.21  301.03     8.7    507.0   -133.8 -0.3790E+01  0.1395E+00
2021  8 11  3 40  127.6703   24.5274   998.19  350.874   143.2   25.77  20.85    17.49   302.22  300.92     8.7    457.7   -127.2 -0.3597E+01  0.1556E+00
2021  8 11  3 30  127.6805   24.4331   989.21  350.164   129.7   25.79  20.85    16.44   302.23  300.87     7.8    425.5    -94.6 -0.4497E+01 -0.2695E-01
2021  8 11  3 20  127.6937   24.3387  1029.07  349.087   128.4   25.81  20.84    16.78   302.25  300.84     7.6    427.1    -89.1 -0.4792E+01 -0.1785E+00
2021  8 11  3 10  127.7091   24.2436   990.19  351.454   136.1   25.84  20.99    18.62   302.26  300.84     8.4    431.9   -112.2 -0.3850E+01 -0.3796E+00
2021  8 11  3  0  127.7227   24.1472  1152.71  350.697   109.1   25.85  21.27    13.19   302.28  301.10     7.1    422.4    -86.1 -0.4907E+01 -0.2316E+00
2021  8 11  2 50  127.7325   24.0510  1154.06  349.584   136.1   25.87  21.26     0.84   302.29  302.20     9.1    886.2   -249.8 -0.3547E+01  0.2416E+00
2021  8 11  2 40  127.7434   23.9553  1041.29  349.717   194.6   25.90  20.80    -1.84   302.30  302.40    11.5    790.5   -472.4 -0.1673E+01  0.6098E-01
2021  8 11  2 30  127.7579   23.8583  1053.84  349.847   201.7   25.91  20.76    -2.59   302.31  302.45    11.8    822.8   -511.9 -0.1607E+01 -0.1114E+00
2021  8 11  2 20  127.7730   23.7593  1104.12  349.716   222.3   25.94  20.63    -2.03   302.32  302.43    12.5    868.4   -573.1 -0.1515E+01 -0.1574E+00
2021  8 11  2 10  127.7876   23.6598  1191.56  349.194   219.0   25.95  20.62    -1.70   302.33  302.42    12.3    918.7   -536.8 -0.1711E+01 -0.1248E+00
2021  8 11  2  0  127.7993   23.5605  1253.09  348.557   216.4   25.97  20.60    -1.31   302.35  302.42    12.1    954.5   -501.9 -0.1902E+01 -0.8663E-01
2021  8 11  1 50  127.8083   23.4619  1285.25  348.017   208.2   25.99  20.60    -0.77   302.36  302.41    11.6    947.4   -436.3 -0.2171E+01  0.4423E-01
2021  8 11  1 40  127.8161   23.3633  1229.04  347.866   212.0   26.05  20.61     0.24   302.40  302.38    11.7    879.1   -430.4 -0.2043E+01  0.1097E+00
2021  8 11  1 30  127.8248   23.2645  1157.74  347.681   219.2   26.10  20.60     1.12   302.43  302.37    11.9    785.3   -438.4 -0.1791E+01  0.1397E+00
2021  8 11  1 20  127.8338   23.1654  1071.12  347.683   239.1   26.14  20.53     1.91   302.45  302.36    12.7    711.5   -504.1 -0.1411E+01  0.5820E-01
2021  8 11  1 10  127.8441   23.0651  1067.68  347.608   261.4   26.17  20.46     3.23   302.47  302.32    13.5    680.5   -576.4 -0.1180E+01 -0.5785E-01
2021  8 11  1  0  127.8558   22.9639  1098.02  347.792   259.3   26.19  20.49     3.69   302.48  302.30    13.4    696.4   -564.5 -0.1234E+01 -0.4193E-01
2021  8 11  0 50  127.8670   22.8648  1112.83  347.829   250.6   26.18  20.48     3.69   302.48  302.30    13.0    700.8   -511.1 -0.1371E+01  0.4929E-01
2021  8 11  0 40  127.8777   22.7670  1093.85  347.853   260.6   26.18  20.40     4.29   302.48  302.27    13.3    671.7   -533.0 -0.1260E+01  0.7772E-02
2021  8 11  0 30  127.8880   22.6688  1115.84  347.686   270.2   26.18  20.36     4.92   302.48  302.24    13.6    667.2   -562.9 -0.1185E+01 -0.7643E-01
2021  8 11  0 20  127.8974   22.5721  1153.61  347.820   254.1   26.15  20.40     4.32   302.47  302.26    13.0    695.8   -501.5 -0.1387E+01  0.1865E-02
2021  8 11  0 10  127.9067   22.4741  1151.27  347.747   271.7   26.16  20.40     5.68   302.46  302.20    13.8    687.8   -585.3 -0.1175E+01 -0.4921E-01
2021  8 11  0  0  127.9178   22.3744  1196.18  347.876   259.9   26.15  20.43     5.55   302.46  302.19    13.4    713.3   -537.2 -0.1328E+01 -0.5972E-01
