2021  8 12  0  0  129.9259   32.5947   500.00  353.105    80.2   22.86  19.41    17.81   300.24  298.63     7.0    428.0    -81.0 -0.5283E+01  0.3847E+00
2021  8 11 23 50  129.9425   32.5809   374.76  352.791    62.0   22.89  19.27    13.23   300.27  298.62     4.9    385.9    -35.4 -0.1090E+02  0.1208E+00
2021  8 11 23 40  129.9489   32.5755   282.33  352.745    51.8   22.92  19.20    11.48   300.27  298.51     3.8    356.0    -20.9 -0.1704E+02  0.1689E+00
2021  8 11 23 30  129.9519   32.5783   231.48  352.675    42.4   22.91  19.30    10.14   300.27  298.44     3.2    336.3    -14.6 -0.2311E+02  0.9036E-02
2021  8 11 23 20  129.9535   32.5747   249.86  352.730    41.5   22.91  19.43    10.59   300.28  298.40     3.2    347.7    -14.8 -0.2346E+02 -0.7163E-01
2021  8 11 23 10  129.9513   32.5600   292.97  353.256    43.2   22.92  19.45    10.85   300.29  298.45     3.4    382.0    -16.5 -0.2315E+02 -0.1740E+00
2021  8 11 23  0  129.9447   32.5419   252.16  352.762    42.7   22.96  19.01     6.09   300.30  299.11     2.9    409.3    -15.3 -0.2678E+02  0.3250E+00
2021  8 11 22 50  129.9464   32.5244   156.93  352.566    41.3   22.97  18.90     5.21   300.31  299.21     2.7    359.3    -13.4 -0.2685E+02  0.3362E-01
2021  8 11 22 40  129.9427   32.5103   144.46  352.185    31.1   22.98  18.80     3.99   300.32  299.15     1.7    353.3     -5.9 -0.5948E+02  0.1758E-01
2021  8 11 22 30  129.9272   32.4986   134.47  351.922    42.5   22.98  18.87     5.59   300.32  299.15     2.7    346.0    -12.9 -0.2679E+02  0.1065E-01
2021  8 11 22 20  129.9063   32.4827   140.56  351.505    57.9   22.98  18.99     7.52   300.33  299.21     4.0    340.1    -27.9 -0.1221E+02 -0.2336E-01
2021  8 11 22 10  129.8796   32.4577   152.86  351.027    77.8   23.02  19.05    10.45   300.35  299.20     5.6    329.0    -54.5 -0.6041E+01 -0.3207E-01
2021  8 11 22  0  129.8441   32.4316   170.41  350.853    84.4   23.08  18.99    11.42   300.40  299.19     5.9    336.1    -58.9 -0.5707E+01 -0.2441E-01
2021  8 11 21 50  129.8013   32.4096   183.43  350.646    93.9   23.21  18.90    13.00   300.48  299.18     6.2    325.5    -62.1 -0.5238E+01 -0.1925E-01
2021  8 11 21 40  129.7561   32.3811   232.92  350.834   109.5   23.41  18.98    17.10   300.62  299.11     7.1    323.9    -77.7 -0.4166E+01 -0.1439E+00
2021  8 11 21 30  129.7138   32.3441   332.75  351.118   105.5   23.62  19.11    19.05   300.77  298.99     6.7    327.7    -61.5 -0.5328E+01 -0.1829E+00
2021  8 11 21 20  129.6758   32.3059   460.98  351.085    90.1   23.81  19.33    18.57   300.90  298.89     5.6    334.7    -38.9 -0.8596E+01 -0.2031E+00
2021  8 11 21 10  129.6405   32.2697   660.75  351.080    64.9   23.94  19.65    14.30   300.99  298.95     4.1    343.9    -20.7 -0.1663E+02 -0.2621E+00
2021  8 11 21  0  129.5993   32.2378   843.00  352.083    58.3   23.97  20.26    14.31   301.03  299.11     4.4    375.0    -26.1 -0.1436E+02 -0.4932E+00
2021  8 11 20 50  129.5603   32.2055   595.48  355.693    71.0   24.03  20.30    16.34   301.06  299.24     5.5    389.4    -41.6 -0.9359E+01  0.7685E+00
2021  8 11 20 40  129.5293   32.1791   377.90  356.270    92.4   24.08  20.00    20.43   301.08  299.15     6.7    366.2    -60.6 -0.6044E+01  0.5736E+00
2021  8 11 20 30  129.5118   32.1540   247.92  356.976   106.9   24.10  19.75    23.24   301.10  299.06     7.2    340.2    -67.5 -0.5037E+01 -0.6333E-01
2021  8 11 20 20  129.4929   32.1317   216.40  357.251   102.9   24.14  19.65    21.74   301.13  299.06     6.5    325.5    -53.3 -0.6105E+01  0.4837E-01
2021  8 11 20 10  129.4734   32.1045   251.15  356.848   122.3   24.19  19.67    24.57   301.16  299.19     7.7    319.4    -81.8 -0.3907E+01 -0.7449E-01
2021  8 11 20  0  129.4586   32.0683   239.15  358.938   124.4   24.23  20.33    24.28   301.19  299.62     9.6    348.8   -164.1 -0.2125E+01 -0.1377E+00
2021  8 11 19 50  129.4427   32.0338   258.71  360.993    71.4   24.27  21.14     6.88   301.22  300.73     7.3    631.2   -154.8 -0.4079E+01  0.3230E+00
2021  8 11 19 40  129.4325   31.9956   153.66  362.675    54.1   24.33  21.29    -0.01   301.25  301.26     5.8    683.1   -141.5 -0.4826E+01  0.1080E+00
2021  8 11 19 30  129.4208   31.9603   113.81  362.718    55.4   24.38  21.20    -0.86   301.28  301.38     5.5    789.7   -131.1 -0.6025E+01 -0.2334E-03
2021  8 11 19 20  129.4086   31.9289    93.86  362.686    57.9   24.43  21.16    -0.36   301.31  301.35     5.6    687.2   -124.5 -0.5519E+01  0.3492E-01
2021  8 11 19 10  129.3948   31.8949    85.13  362.646    63.9   24.47  21.16    -0.25   301.34  301.37     6.1    643.2   -147.3 -0.4367E+01 -0.2638E-02
2021  8 11 19  0  129.3803   31.8588    87.42  362.557    69.6   24.51  21.16    -0.07   301.37  301.37     6.6    687.8   -168.6 -0.4079E+01 -0.6051E-02
2021  8 11 18 50  129.3660   31.8164    84.97  362.492    85.4   24.55  21.17     0.19   301.40  301.38     8.1    705.1   -265.4 -0.2657E+01  0.6373E-02
2021  8 11 18 40  129.3523   31.7672    83.90  362.342    91.9   24.59  21.13     0.59   301.43  301.38     8.5    738.1   -286.4 -0.2577E+01  0.6634E-02
2021  8 11 18 30  129.3401   31.7175    79.01  362.238    91.6   24.63  21.10     0.93   301.45  301.38     8.3    732.3   -255.5 -0.2867E+01  0.1115E-01
2021  8 11 18 20  129.3300   31.6681    72.72  362.111    95.3   24.67  21.06     1.45   301.48  301.37     8.4    679.9   -250.6 -0.2713E+01  0.6368E-02
2021  8 11 18 10  129.3211   31.6195    71.86  362.013    91.7   24.70  21.03     1.62   301.50  301.37     7.9    669.0   -210.2 -0.3182E+01 -0.1122E-02
2021  8 11 18  0  129.3125   31.5729    72.40  361.935    93.0   24.73  21.02     1.98   301.53  301.36     7.9    651.1   -202.9 -0.3210E+01 -0.6699E-03
2021  8 11 17 50  129.3027   31.5244    70.38  361.835   101.7   24.77  21.01     2.51   301.55  301.36     8.5    641.3   -237.3 -0.2702E+01  0.6062E-02
2021  8 11 17 40  129.2910   31.4725    69.22  361.723   108.3   24.80  20.99     3.15   301.58  301.34     8.9    633.0   -257.9 -0.2454E+01 -0.3339E-02
2021  8 11 17 30  129.2793   31.4199    73.47  361.580   108.6   24.83  20.96     3.79   301.59  301.31     8.8    625.8   -236.1 -0.2650E+01 -0.1024E-01
2021  8 11 17 20  129.2714   31.3683    79.77  361.473   106.7   24.85  20.95     4.08   301.61  301.30     8.5    652.8   -213.8 -0.3053E+01 -0.1242E-01
2021  8 11 17 10  129.2661   31.3160    82.21  361.366   113.5   24.88  20.94     4.84   301.62  301.27     9.0    665.1   -237.9 -0.2795E+01 -0.2864E-02
2021  8 11 17  0  129.2619   31.2610    83.30  361.267   117.5   24.90  20.93     5.55   301.64  301.25     9.2    667.7   -244.2 -0.2735E+01  0.5766E-02
2021  8 11 16 50  129.2587   31.2041    80.15  361.166   122.9   24.94  20.91     6.56   301.66  301.21     9.5    611.8   -251.9 -0.2429E+01  0.4886E-02
2021  8 11 16 40  129.2546   31.1471    77.33  361.072   123.1   24.98  20.89     7.20   301.69  301.19     9.3    578.4   -233.7 -0.2475E+01  0.5413E-02
2021  8 11 16 30  129.2495   31.0906    74.75  360.947   128.0   25.02  20.88     8.25   301.72  301.15     9.5    546.1   -237.4 -0.2301E+01  0.1836E-02
2021  8 11 16 20  129.2437   31.0334    76.18  360.791   128.7   25.06  20.86     8.95   301.75  301.13     9.4    533.0   -222.5 -0.2396E+01 -0.1298E-02
2021  8 11 16 10  129.2383   30.9778    75.83  360.645   126.1   25.09  20.81     8.94   301.77  301.13     9.0    517.8   -194.9 -0.2656E+01  0.5340E-02
2021  8 11 16  0  129.2349   30.9224    75.19  360.463   131.7   25.12  20.77     9.65   301.79  301.11     9.2    493.6   -200.5 -0.2461E+01 -0.2474E-02
2021  8 11 15 50  129.2342   30.8667    79.73  360.266   132.5   25.15  20.74    10.15   301.81  301.09     9.1    488.3   -189.8 -0.2572E+01 -0.7322E-02
2021  8 11 15 40  129.2334   30.8114    84.02  360.027   134.4   25.17  20.68    10.65   301.84  301.07     9.1    478.2   -181.0 -0.2643E+01 -0.7484E-02
2021  8 11 15 30  129.2312   30.7568    89.16  359.752   136.4   25.21  20.62    10.82   301.86  301.08     9.0    481.8   -172.2 -0.2799E+01 -0.1197E-01
2021  8 11 15 20  129.2277   30.7042    91.57  359.469   135.1   25.25  20.52    10.55   301.89  301.09     8.6    475.6   -151.0 -0.3149E+01  0.4741E-02
2021  8 11 15 10  129.2236   30.6528    86.98  359.250   137.9   25.30  20.46    10.88   301.92  301.10     8.5    451.7   -144.9 -0.3117E+01  0.1068E-01
2021  8 11 15  0  129.2190   30.6021    80.37  359.085   139.0   25.35  20.42    11.58   301.95  301.06     8.4    431.8   -134.9 -0.3201E+01  0.1078E-01
2021  8 11 14 50  129.2149   30.5517    75.23  358.975   141.9   25.39  20.40    12.86   301.98  301.00     8.5    429.6   -130.3 -0.3296E+01  0.4420E-02
2021  8 11 14 40  129.2112   30.5017    74.27  358.706   145.6   25.44  20.33    14.02   302.01  300.94     8.5    427.5   -124.9 -0.3422E+01 -0.2567E-02
2021  8 11 14 30  129.2090   30.4523    73.60  358.433   146.6   25.47  20.27    15.02   302.03  300.87     8.3    424.3   -115.3 -0.3680E+01  0.3571E-02
2021  8 11 14 20  129.2081   30.4031    77.27  358.225   144.2   25.49  20.27    15.84   302.05  300.79     8.1    447.2   -104.7 -0.4271E+01 -0.1513E-01
2021  8 11 14 10  129.2073   30.3549    86.91  358.000   142.2   25.51  20.28    16.53   302.06  300.73     8.0    469.2    -97.8 -0.4798E+01 -0.1561E-01
2021  8 11 14  0  129.2033   30.3081    91.58  357.696   137.4   25.53  20.28    16.61   302.08  300.69     7.7    480.1    -87.6 -0.5482E+01  0.1072E-02
2021  8 11 13 50  129.1951   30.2621    85.88  357.636   129.6   25.55  20.29    16.59   302.09  300.62     7.2    450.8    -73.3 -0.6147E+01  0.1893E-01
2021  8 11 13 40  129.1860   30.2199    75.09  357.588   112.8   25.57  20.21    14.42   302.11  300.61     6.0    421.3    -47.2 -0.8920E+01  0.2511E-01
2021  8 11 13 30  129.1773   30.1787    66.87  357.190   123.4   25.60  20.06    16.29   302.12  300.51     6.3    381.1    -51.0 -0.7478E+01  0.5185E-02
2021  8 11 13 20  129.1688   30.1359    73.94  356.504   129.3   25.63  19.79    18.43   302.14  300.30     6.2    374.3    -44.6 -0.8399E+01 -0.2066E-01
2021  8 11 13 10  129.1576   30.0916   105.76  356.415   133.2   25.65  19.50    21.28   302.16  299.98     5.9    360.4    -36.6 -0.9857E+01 -0.8748E-01
2021  8 11 13  0  129.1406   30.0462   179.34  356.697   136.1   25.68  19.52    24.47   302.18  299.73     6.0    343.9    -35.9 -0.9585E+01 -0.1455E+00
2021  8 11 12 50  129.1194   29.9949   260.56  357.081   149.1   25.68  19.97    28.08   302.20  299.84     7.4    350.7    -59.8 -0.5860E+01 -0.1254E+00
2021  8 11 12 40  129.0972   29.9354   319.12  357.529   148.1   25.70  20.38    24.59   302.21  300.28     8.1    371.4    -84.6 -0.4390E+01  0.5319E-01
2021  8 11 12 30  129.0769   29.8745   307.46  356.968   155.9   25.74  20.51    19.71   302.22  300.76     8.8    439.4   -119.9 -0.3665E+01  0.2289E+00
2021  8 11 12 20  129.0591   29.8111   230.00  356.664   171.6   25.75  20.52    17.86   302.23  301.05     9.8    420.1   -168.8 -0.2489E+01  0.6494E-01
2021  8 11 12 10  129.0424   29.7500   207.56  356.297   167.7   25.76  20.52    18.29   302.24  301.00     9.5    408.0   -155.1 -0.2631E+01  0.3401E-01
2021  8 11 12  0  129.0233   29.6932   191.47  355.031   163.8   25.77  20.44    19.83   302.24  300.83     9.1    369.5   -129.6 -0.2851E+01  0.3451E-01
2021  8 11 11 50  128.9977   29.6394   197.62  354.433   163.9   25.77  20.42    21.84   302.24  300.69     9.0    357.5   -121.8 -0.2934E+01 -0.3826E-01
2021  8 11 11 40  128.9679   29.5858   233.16  353.970   171.3   25.77  20.53    25.55   302.24  300.54     9.6    359.7   -138.2 -0.2601E+01 -0.1503E+00
2021  8 11 11 30  128.9370   29.5262   317.52  354.393   182.5   25.77  20.73    30.23   302.24  300.44    10.7    389.1   -183.6 -0.2120E+01 -0.3365E+00
2021  8 11 11 20  128.9056   29.4601   384.57  355.202   192.3   25.76  20.82    28.99   302.24  300.64    11.6    443.9   -242.7 -0.1829E+01 -0.1632E+00
2021  8 11 11 10  128.8761   29.3899   389.81  354.813   203.5   25.75  20.67    24.65   302.23  300.90    11.9    425.3   -281.8 -0.1509E+01  0.3147E-01
2021  8 11 11  0  128.8475   29.3156   349.25  355.121   216.6   25.74  20.50    21.05   302.22  301.12    12.2    401.3   -318.3 -0.1261E+01 -0.1172E+00
2021  8 11 10 50  128.8240   29.2417   354.71  355.280   217.2   25.71  20.44    21.02   302.21  301.10    12.2    407.9   -312.9 -0.1304E+01 -0.1196E+00
2021  8 11 10 40  128.8055   29.1688   355.08  355.373   210.9   25.69  20.47    22.98   302.19  300.95    12.0    392.9   -288.9 -0.1360E+01 -0.6811E-02
2021  8 11 10 30  128.7912   29.0969   358.41  355.392   203.3   25.66  20.51    24.72   302.17  300.81    11.7    383.1   -264.1 -0.1451E+01 -0.8920E-01
2021  8 11 10 20  128.7787   29.0266   386.59  355.169   209.2   25.63  20.56    28.47   302.15  300.65    12.3    384.4   -288.4 -0.1333E+01 -0.5796E-01
2021  8 11 10 10  128.7680   28.9569   390.96  355.120   221.2   25.60  20.56    34.91   302.14  300.41    13.0    367.4   -321.9 -0.1141E+01 -0.6194E-02
2021  8 11 10  0  128.7578   28.8911   407.02  355.614   227.5   25.59  20.44    38.11   302.12  300.26    13.1    346.8   -310.2 -0.1118E+01  0.9754E-01
2021  8 11  9 50  128.7491   28.8289   436.96  355.672   230.3   25.57  20.27    37.63   302.11  300.23    12.8    328.8   -285.6 -0.1151E+01 -0.6051E-01
2021  8 11  9 40  128.7451   28.7669   465.69  356.326   217.0   25.54  20.57    32.79   302.09  300.48    13.0    343.7   -331.1 -0.1038E+01 -0.2176E+00
2021  8 11  9 30  128.7442   28.7007   539.16  357.261   182.7   25.51  21.07    21.00   302.07  301.04    12.5    386.4   -388.0 -0.9959E+00 -0.2065E+00
2021  8 11  9 20  128.7424   28.6299   613.04  357.518   135.4   25.48  21.56     5.43   302.05  301.77    10.9    507.1   -416.7 -0.1217E+01  0.1074E+00
2021  8 11  9 10  128.7367   28.5544   638.00  357.695   105.5   25.43  21.69    -1.73   302.02  302.15     9.1    830.0   -360.5 -0.2303E+01  0.2864E+00
2021  8 11  9  0  128.7294   28.4763   573.45  357.768    99.0   25.36  21.63    -2.58   301.96  302.17     8.5    985.6   -330.4 -0.2983E+01  0.1649E+00
2021  8 11  8 50  128.7235   28.3987   470.87  358.068    95.9   25.23  21.56    -3.12   301.87  302.12     8.4    947.5   -338.8 -0.2796E+01  0.1056E+00
2021  8 11  8 40  128.7218   28.3258   402.37  358.091    81.0   25.10  21.50    -3.28   301.78  302.08     7.3    832.5   -258.1 -0.3225E+01  0.8330E-01
2021  8 11  8 30  128.7221   28.2591   376.93  358.132    75.1   25.00  21.44    -3.96   301.72  302.11     6.8    804.6   -243.8 -0.3300E+01 -0.2293E-01
2021  8 11  8 20  128.7216   28.1929   369.25  358.201    93.8   24.98  21.27    -5.43   301.71  302.16     8.1    893.6   -374.3 -0.2388E+01 -0.5799E-01
2021  8 11  8 10  128.7192   28.1242   400.50  357.933   105.0   25.01  21.14    -6.05   301.74  302.20     8.6    948.8   -416.5 -0.2278E+01 -0.3503E-01
2021  8 11  8  0  128.7163   28.0540   418.78  357.784   111.9   25.06  21.05    -6.18   301.77  302.23     8.8    963.3   -415.2 -0.2320E+01  0.2746E-02
2021  8 11  7 50  128.7149   27.9818   416.35  357.734   121.5   25.08  20.98    -6.51   301.78  302.24     9.3    941.6   -460.4 -0.2045E+01  0.6839E-02
2021  8 11  7 40  128.7144   27.9095   402.03  357.698   124.1   25.06  20.88    -6.98   301.77  302.26     9.3    905.7   -466.4 -0.1942E+01  0.1807E-01
2021  8 11  7 30  128.7139   27.8372   389.89  357.617   129.7   25.04  20.80    -7.56   301.75  302.27     9.5    880.9   -497.9 -0.1769E+01  0.4229E-01
2021  8 11  7 20  128.7144   27.7640   382.01  357.613   135.6   25.03  20.70    -8.02   301.74  302.29     9.7    867.1   -523.9 -0.1655E+01 -0.6969E-02
2021  8 11  7 10  128.7148   27.6905   388.62  357.556   143.4   25.06  20.62    -8.16   301.76  302.30    10.0    875.1   -530.4 -0.1650E+01 -0.3421E-01
2021  8 11  7  0  128.7155   27.6171   407.45  357.502   146.7   25.12  20.56    -7.99   301.80  302.33     9.9    892.1   -499.5 -0.1786E+01 -0.3629E-01
2021  8 11  6 50  128.7160   27.5440   438.66  357.467   144.3   25.18  20.53    -7.60   301.84  302.37     9.5    941.1   -436.4 -0.2157E+01 -0.5587E-01
2021  8 11  6 40  128.7154   27.4714   467.84  357.299   137.8   25.43  20.39    -2.95   302.01  302.46     9.0    962.0   -320.6 -0.3000E+01 -0.2664E-01
2021  8 11  6 30  128.7151   27.3977   475.48  357.266   161.5   25.35  20.50    -6.47   301.95  302.37    10.2    919.1   -441.1 -0.2084E+01 -0.3503E-02
2021  8 11  6 20  128.7144   27.3221   492.75  357.311   169.3   25.44  20.52    -5.78   302.01  302.37    10.5    936.6   -449.9 -0.2082E+01 -0.7621E-01
2021  8 11  6 10  128.7136   27.2468   520.97  357.099   165.3   25.51  20.52    -5.02   302.06  302.39    10.1    941.0   -387.4 -0.2429E+01  0.4402E-02
2021  8 11  6  0  128.7136   27.1706   518.34  356.741   173.8   25.58  20.49    -4.62   302.10  302.39    10.4    897.9   -398.3 -0.2254E+01 -0.4731E-02
2021  8 11  5 50  128.7164   27.0928   524.13  356.471   180.3   25.63  20.47    -4.28   302.13  302.40    10.6    874.5   -408.0 -0.2144E+01 -0.1246E-01
2021  8 11  5 40  128.7208   27.0142   533.14  356.319   184.2   25.66  20.44    -4.09   302.15  302.41    10.7    871.6   -406.9 -0.2142E+01 -0.1934E-01
2021  8 11  5 30  128.7260   26.9352   556.81  356.171   183.7   25.68  20.42    -3.88   302.17  302.41    10.5    888.2   -388.1 -0.2289E+01 -0.6427E-01
2021  8 11  5 20  128.7299   26.8571   573.01  355.870   185.0   25.69  20.38    -3.85   302.17  302.41    10.5    881.8   -380.5 -0.2318E+01  0.2057E-01
2021  8 11  5 10  128.7329   26.7786   580.06  355.664   183.7   25.69  20.34    -3.71   302.17  302.41    10.3    874.0   -360.1 -0.2427E+01 -0.3021E-01
2021  8 11  5  0  128.7340   26.6998   600.27  355.541   190.1   25.70  20.30    -3.63   302.18  302.41    10.6    890.7   -377.1 -0.2362E+01 -0.4068E-01
2021  8 11  4 50  128.7347   26.6191   622.71  355.316   193.9   25.71  20.26    -3.44   302.19  302.40    10.7    892.7   -378.1 -0.2361E+01 -0.1802E-01
2021  8 11  4 40  128.7353   26.5383   621.75  355.127   192.2   25.72  20.21    -3.10   302.20  302.39    10.4    872.5   -349.3 -0.2498E+01  0.3316E-01
2021  8 11  4 30  128.7352   26.4579   609.00  354.975   190.2   25.72  20.16    -2.88   302.20  302.38    10.2    842.0   -325.7 -0.2585E+01  0.2526E-01
2021  8 11  4 20  128.7364   26.3761   596.55  354.809   199.6   25.71  20.09    -2.63   302.19  302.35    10.6    785.6   -350.3 -0.2242E+01  0.1269E-01
2021  8 11  4 10  128.7395   26.2912   603.31  354.853   207.8   25.69  20.03    -2.43   302.17  302.32    10.9    790.8   -372.6 -0.2122E+01 -0.7480E-01
2021  8 11  4  0  128.7432   26.2059   632.97  354.881   203.5   25.67  19.99    -2.18   302.17  302.30    10.6    818.9   -344.6 -0.2376E+01 -0.1833E-01
2021  8 11  3 50  128.7473   26.1180   643.35  354.799   212.7   25.68  19.96    -1.35   302.17  302.25    11.0    762.7   -366.9 -0.2078E+01  0.2810E-02
2021  8 11  3 40  128.7529   26.0277   646.07  354.833   216.3   25.68  19.90    -0.49   302.17  302.20    11.1    726.6   -358.6 -0.2026E+01 -0.5801E-02
2021  8 11  3 30  128.7606   25.9361   652.87  354.883   223.0   25.67  19.82     0.44   302.16  302.14    11.3    685.4   -359.5 -0.1906E+01 -0.1230E-01
2021  8 11  3 20  128.7705   25.8441   658.48  354.908   219.2   25.64  19.75     0.98   302.16  302.10    11.0    642.3   -327.0 -0.1964E+01 -0.2350E-01
2021  8 11  3 10  128.7828   25.7526   644.97  354.945   221.6   25.63  19.71     1.85   302.15  302.04    11.0    579.2   -321.7 -0.1801E+01  0.2094E-01
2021  8 11  3  0  128.7950   25.6613   658.01  354.950   205.6   25.62  19.71     2.57   302.15  301.98    10.3    539.0   -260.2 -0.2072E+01 -0.6264E-02
2021  8 11  2 50  128.8071   25.5713   662.23  354.767   191.2   25.62  19.78     3.56   302.15  301.91     9.7    495.8   -216.7 -0.2288E+01  0.9885E-02
2021  8 11  2 40  128.8207   25.4812   647.24  354.780   187.6   25.62  19.95     4.31   302.15  301.86     9.8    478.5   -224.3 -0.2134E+01  0.1022E-01
2021  8 11  2 30  128.8356   25.3895   631.62  354.678   181.6   25.62  20.20     3.88   302.15  301.89    10.0    507.9   -249.9 -0.2032E+01  0.5224E-01
2021  8 11  2 20  128.8527   25.2978   600.03  354.656   179.6   25.62  20.35     3.37   302.14  301.93    10.3    525.5   -279.5 -0.1880E+01  0.3185E-01
2021  8 11  2 10  128.8726   25.2074   579.59  354.466   190.6   25.61  20.21     4.80   302.14  301.84    10.6    430.2   -284.8 -0.1511E+01  0.8376E-02
2021  8 11  2  0  128.8935   25.1163   599.06  354.305   193.5   25.60  20.01     7.78   302.13  301.64    10.3    360.7   -236.4 -0.1526E+01 -0.7356E-01
2021  8 11  1 50  128.9135   25.0241   610.26  354.131   182.9   25.60  20.02    10.26   302.13  301.44     9.7    337.0   -188.9 -0.1784E+01  0.1028E-01
2021  8 11  1 40  128.9333   24.9313   634.23  354.074   162.9   25.61  20.14    10.03   302.14  301.40     8.8    345.9   -148.8 -0.2325E+01 -0.8148E-01
2021  8 11  1 30  128.9532   24.8417   647.23  354.017   150.4   25.64  20.43     8.02   302.16  301.55     8.6    408.7   -152.9 -0.2674E+01  0.3466E-02
2021  8 11  1 20  128.9754   24.7530   677.30  353.974   136.5   25.68  20.56     7.31   302.19  301.59     7.9    473.3   -127.6 -0.3709E+01 -0.1110E-01
2021  8 11  1 10  128.9987   24.6656   709.04  354.279   117.1   25.72  20.69     7.10   302.22  301.56     6.9    566.7    -90.6 -0.6255E+01 -0.1098E+00
2021  8 11  1  0  129.0206   24.5778   734.05  354.619   122.1   25.77  21.15     3.93   302.25  301.92     8.1    827.8   -165.8 -0.4992E+01 -0.7319E-01
2021  8 11  0 50  129.0401   24.4894   757.79  354.301   149.3   25.80  21.18    -1.94   302.27  302.39    10.0    968.5   -360.0 -0.2690E+01  0.9476E-02
2021  8 11  0 40  129.0584   24.4022   746.44  353.547   177.1   25.82  20.95    -3.07   302.29  302.47    11.1    952.0   -472.1 -0.2016E+01  0.5317E-01
2021  8 11  0 30  129.0774   24.3151   732.87  353.397   174.3   25.83  20.95    -2.95   302.30  302.47    10.9    933.9   -442.1 -0.2112E+01  0.7525E-01
2021  8 11  0 20  129.0978   24.2271   697.42  353.048   187.0   25.85  20.87    -2.73   302.30  302.46    11.4    886.5   -488.3 -0.1816E+01  0.1636E-01
2021  8 11  0 10  129.1198   24.1395   689.29  352.484   189.2   25.85  20.81    -2.84   302.30  302.47    11.4    862.2   -479.2 -0.1799E+01  0.3052E-01
2021  8 11  0  0  129.1410   24.0503   678.66  352.376   196.6   25.85  20.74    -2.81   302.30  302.45    11.6    860.8   -499.4 -0.1724E+01 -0.4675E-01
