2021  8 12  0  0  129.9960   32.6538   500.00  352.966    67.4   22.82  19.24    13.79   300.21  298.66     5.5    400.7    -46.4 -0.8638E+01  0.6850E-01
2021  8 11 23 50  129.9879   32.6410   428.58  352.392    54.8   22.83  19.17    11.57   300.23  298.57     4.2    381.1    -25.7 -0.1484E+02  0.1840E+00
2021  8 11 23 40  129.9814   32.6384   409.40  352.270    49.4   22.85  19.12    11.07   300.23  298.44     3.6    355.4    -18.8 -0.1895E+02 -0.1015E+00
2021  8 11 23 30  129.9732   32.6325   485.68  351.978    46.4   22.84  19.18    10.59   300.23  298.45     3.4    398.9    -17.1 -0.2329E+02 -0.1909E+00
2021  8 11 23 20  129.9649   32.6186   481.28  352.075    48.4   22.85  19.24    10.86   300.24  298.54     3.7    433.8    -20.4 -0.2127E+02  0.2344E+00
2021  8 11 23 10  129.9615   32.6064   321.88  352.027    34.9   22.88  18.83     5.67   300.25  298.86     2.2    491.5     -8.2 -0.5970E+02  0.3088E+00
2021  8 11 23  0  129.9606   32.5973   179.59  352.377    31.7   22.89  18.67     4.10   300.26  299.09     1.8    439.8     -6.1 -0.7239E+02  0.1645E+00
2021  8 11 22 50  129.9620   32.5853   112.83  352.521    45.7   22.91  18.76     5.86   300.27  299.12     2.9    369.1    -14.9 -0.2473E+02  0.7006E-01
2021  8 11 22 40  129.9592   32.5693   100.38  352.594    42.9   22.93  18.88     6.00   300.29  299.06     2.8    365.2    -13.4 -0.2735E+02 -0.2001E-01
2021  8 11 22 30  129.9498   32.5533   118.36  352.840    46.8   22.94  18.92     6.46   300.30  299.09     3.1    389.6    -16.7 -0.2328E+02 -0.3794E-01
2021  8 11 22 20  129.9368   32.5363   131.69  353.131    53.0   22.94  18.98     6.84   300.30  299.20     3.7    425.3    -23.8 -0.1786E+02 -0.9615E-02
2021  8 11 22 10  129.9196   32.5166   113.92  353.451    66.5   22.96  19.11     8.87   300.31  299.21     4.9    420.6    -42.1 -0.9987E+01  0.6545E-01
2021  8 11 22  0  129.8964   32.4910    79.09  354.050    78.5   22.99  19.27    11.72   300.32  299.14     6.2    365.6    -69.9 -0.5231E+01  0.4510E-01
2021  8 11 21 50  129.8664   32.4633    70.24  354.219    80.5   23.02  19.34    12.88   300.35  299.09     6.5    355.9    -74.6 -0.4772E+01 -0.2853E-03
2021  8 11 21 40  129.8340   32.4315    62.67  354.314   104.5   23.10  19.44    18.30   300.40  299.04     8.6    349.5   -140.4 -0.2490E+01  0.1108E-01
2021  8 11 21 30  129.7981   32.3898    64.18  354.241   115.2   23.28  19.44    21.04   300.53  299.03     9.0    350.4   -146.8 -0.2388E+01 -0.4790E-02
2021  8 11 21 20  129.7635   32.3498    66.76  353.911   115.8   23.50  19.35    20.12   300.69  299.13     8.3    351.6   -111.6 -0.3152E+01  0.7911E-02
2021  8 11 21 10  129.7290   32.3088    68.99  353.139   132.3   23.73  19.17    18.81   300.85  299.43     8.5    345.6   -120.9 -0.2858E+01 -0.8248E-02
2021  8 11 21  0  129.6982   32.2658    81.58  351.717   133.6   23.90  19.04    15.90   300.97  299.70     8.0    330.3   -103.3 -0.3196E+01 -0.1226E-01
2021  8 11 20 50  129.6754   32.2159   116.52  351.314   127.0   24.01  19.42    19.27   301.04  299.53     8.1    337.8   -101.8 -0.3317E+01 -0.1520E+00
2021  8 11 20 40  129.6473   32.1615   226.39  351.614   103.4   24.05  19.74    21.71   301.07  299.13     6.9    378.8    -64.5 -0.5874E+01 -0.3016E+00
2021  8 11 20 30  129.6068   32.1031   461.21  351.066    72.6   24.07  19.44    17.96   301.08  298.60     4.1    328.3    -18.1 -0.1816E+02 -0.6310E+00
2021  8 11 20 20  129.5589   32.0443   689.09  353.045    43.9   24.11  19.18     9.97   301.12  298.64     2.0    321.0     -4.9 -0.6501E+02 -0.6675E+00
2021  8 11 20 10  129.5065   31.9833   594.44  353.368    71.8   24.24  19.83    11.40   301.20  299.66     4.6    345.8    -29.8 -0.1162E+02  0.9762E-01
2021  8 11 20  0  129.4575   31.9231   486.88  354.164    72.5   24.36  21.06     1.69   301.28  301.07     7.1    588.7   -169.6 -0.3472E+01  0.9641E-01
2021  8 11 19 50  129.4137   31.8656   481.80  354.775    89.6   24.46  21.15    -3.06   301.34  301.56     8.8    737.5   -415.8 -0.1774E+01 -0.1234E+00
2021  8 11 19 40  129.3710   31.8085   500.36  355.293   106.9   24.54  20.97    -3.88   301.40  301.66     9.5    841.1   -483.6 -0.1739E+01 -0.8000E-01
2021  8 11 19 30  129.3324   31.7515   502.56  356.474   106.0   24.61  20.89    -3.33   301.44  301.69     9.0    879.6   -394.4 -0.2230E+01  0.1122E+00
2021  8 11 19 20  129.2943   31.6913   403.03  357.302   130.3   24.70  20.81    -2.43   301.49  301.64    10.5    663.2   -513.3 -0.1292E+01  0.8415E-01
2021  8 11 19 10  129.2563   31.6288   407.25  356.754   128.0   24.77  20.79    -1.62   301.54  301.65    10.1    670.0   -424.8 -0.1577E+01 -0.5305E-01
2021  8 11 19  0  129.2215   31.5662   448.57  356.290   129.7   24.84  20.80    -0.98   301.58  301.65    10.0    711.5   -400.1 -0.1778E+01 -0.9686E-01
2021  8 11 18 50  129.1867   31.5042   482.18  356.004   131.0   24.88  20.78    -0.65   301.62  301.66     9.9    762.4   -380.5 -0.2004E+01 -0.4116E-01
2021  8 11 18 40  129.1517   31.4435   506.79  355.675   128.7   24.91  20.75    -0.42   301.64  301.67     9.6    764.5   -340.8 -0.2243E+01 -0.3636E-01
2021  8 11 18 30  129.1186   31.3839   534.57  355.534   122.0   24.94  20.76    -0.27   301.66  301.68     9.1    776.3   -293.0 -0.2649E+01 -0.3882E-01
2021  8 11 18 20  129.0888   31.3256   542.73  355.382   115.4   24.96  20.79     0.18   301.68  301.66     8.6    762.0   -250.4 -0.3043E+01  0.4347E-02
2021  8 11 18 10  129.0618   31.2673   543.53  355.256   109.8   24.99  20.83     0.60   301.69  301.64     8.2    739.2   -217.3 -0.3402E+01 -0.1055E-01
2021  8 11 18  0  129.0343   31.2082   520.72  355.383   113.4   25.02  20.87     1.03   301.71  301.63     8.5    710.8   -232.6 -0.3056E+01  0.6647E-01
2021  8 11 17 50  129.0047   31.1454   492.23  354.949   121.9   25.05  20.88     1.79   301.73  301.60     9.1    650.1   -264.8 -0.2455E+01  0.4843E-01
2021  8 11 17 40  128.9743   31.0791   470.82  354.755   134.6   25.09  20.85     2.52   301.76  301.59     9.8    623.6   -311.8 -0.2000E+01 -0.4157E-02
2021  8 11 17 30  128.9443   31.0083   469.07  354.794   147.3   25.13  20.86     3.46   301.78  301.57    10.7    618.6   -373.9 -0.1655E+01 -0.1989E-01
2021  8 11 17 20  128.9167   30.9342   460.85  354.313   151.6   25.17  20.82     4.20   301.81  301.56    10.7    608.7   -364.8 -0.1668E+01  0.6074E-01
2021  8 11 17 10  128.8940   30.8577   432.66  353.924   163.3   25.22  20.76     5.11   301.85  301.55    11.2    565.5   -392.0 -0.1442E+01 -0.3398E-02
2021  8 11 17  0  128.8719   30.7812   465.56  353.605   159.2   25.27  20.77     5.51   301.88  301.55    10.8    582.5   -349.1 -0.1669E+01 -0.1016E+00
2021  8 11 16 50  128.8479   30.7074   506.51  352.920   154.9   25.31  20.78     6.15   301.91  301.52    10.5    595.3   -308.1 -0.1932E+01 -0.5077E-01
2021  8 11 16 40  128.8229   30.6366   533.98  352.183   147.4   25.35  20.73     6.42   301.94  301.51     9.7    601.3   -245.6 -0.2448E+01 -0.5401E-02
2021  8 11 16 30  128.7997   30.5673   525.55  351.947   152.1   25.39  20.64     6.57   301.96  301.52     9.7    562.5   -238.1 -0.2362E+01  0.1265E-01
2021  8 11 16 20  128.7782   30.4975   521.19  351.747   158.9   25.43  20.57     6.69   301.99  301.55     9.9    535.4   -244.4 -0.2191E+01  0.9334E-02
2021  8 11 16 10  128.7570   30.4277   550.36  351.628   156.7   25.46  20.59     6.88   302.01  301.55     9.7    549.5   -232.1 -0.2367E+01 -0.1530E+00
2021  8 11 16  0  128.7352   30.3595   575.65  351.674   156.4   25.49  20.56     7.06   302.03  301.55     9.6    555.3   -219.5 -0.2530E+01  0.7552E-01
2021  8 11 15 50  128.7182   30.2881   558.10  351.551   169.4   25.52  20.52     7.83   302.05  301.55    10.2    535.6   -254.2 -0.2107E+01 -0.3701E-01
2021  8 11 15 40  128.7021   30.2147   577.66  351.521   172.7   25.55  20.48     7.84   302.08  301.58    10.3    532.4   -253.2 -0.2102E+01  0.6672E-02
2021  8 11 15 30  128.6851   30.1412   595.93  351.399   169.5   25.58  20.45     8.06   302.10  301.57     9.9    526.0   -227.8 -0.2309E+01 -0.4998E-02
2021  8 11 15 20  128.6684   30.0679   583.98  351.267   172.6   25.61  20.49     9.23   302.12  301.52    10.1    508.8   -232.2 -0.2191E+01  0.2573E-02
2021  8 11 15 10  128.6532   29.9931   593.67  351.348   172.3   25.65  20.54    10.23   302.14  301.48    10.1    511.9   -227.7 -0.2248E+01 -0.7991E-01
2021  8 11 15  0  128.6350   29.9197   631.22  351.389   162.4   25.67  20.58    10.32   302.16  301.46     9.6    528.8   -194.4 -0.2720E+01 -0.3788E-01
2021  8 11 14 50  128.6143   29.8475   648.52  351.332   153.9   25.70  20.65    10.41   302.19  301.45     9.2    535.0   -173.5 -0.3084E+01  0.2249E-01
2021  8 11 14 40  128.5938   29.7741   632.67  351.246   153.6   25.73  20.75    11.29   302.20  301.41     9.3    514.7   -178.3 -0.2887E+01  0.3004E-01
2021  8 11 14 30  128.5749   29.6986   624.52  351.231   154.2   25.76  20.83    12.12   302.22  301.38     9.4    504.7   -182.2 -0.2770E+01  0.1858E-01
2021  8 11 14 20  128.5567   29.6226   605.67  351.225   152.2   25.79  20.77    11.47   302.23  301.41     9.1    502.7   -167.7 -0.2997E+01  0.4784E-01
2021  8 11 14 10  128.5370   29.5490   564.73  351.081   149.9   25.80  20.62     9.85   302.24  301.50     8.7    489.5   -148.9 -0.3288E+01  0.8220E-01
2021  8 11 14  0  128.5147   29.4786   528.35  351.002   151.5   25.81  20.39     8.64   302.25  301.57     8.3    465.7   -133.5 -0.3487E+01  0.1199E+00
2021  8 11 13 50  128.4913   29.4104   504.09  351.038   161.3   25.82  20.08     8.50   302.25  301.58     8.3    436.3   -127.5 -0.3423E+01  0.2474E-01
2021  8 11 13 40  128.4680   29.3426   505.69  350.944   178.8   25.82  19.89     9.90   302.25  301.52     8.8    425.8   -141.9 -0.3002E+01 -0.5796E-01
2021  8 11 13 30  128.4454   29.2730   537.57  350.865   193.1   25.81  19.83    11.30   302.25  301.47     9.5    422.0   -163.9 -0.2575E+01 -0.9167E-01
2021  8 11 13 20  128.4224   29.2022   560.07  350.813   200.9   25.80  19.78    12.34   302.25  301.43     9.8    409.4   -174.8 -0.2343E+01 -0.1045E-01
2021  8 11 13 10  128.3993   29.1297   573.01  350.841   211.4   25.79  19.75    14.08   302.24  301.35    10.3    386.2   -192.3 -0.2008E+01 -0.3528E-01
2021  8 11 13  0  128.3782   29.0559   597.24  350.752   220.1   25.77  19.72    15.85   302.23  301.27    10.6    364.9   -206.8 -0.1765E+01 -0.6350E-01
2021  8 11 12 50  128.3591   28.9820   632.07  350.697   222.9   25.75  19.69    17.84   302.22  301.15    10.8    366.5   -205.9 -0.1780E+01 -0.4731E-01
2021  8 11 12 40  128.3408   28.9090   657.39  350.673   218.1   25.73  19.64    19.09   302.21  301.03    10.5    375.6   -184.2 -0.2039E+01 -0.1326E-01
2021  8 11 12 30  128.3221   28.8365   650.44  350.672   221.7   25.72  19.64    21.67   302.20  300.88    10.6    377.4   -185.8 -0.2031E+01  0.2126E-01
2021  8 11 12 20  128.3018   28.7646   662.46  350.616   213.5   25.70  19.63    23.34   302.19  300.71    10.2    378.0   -160.8 -0.2351E+01 -0.1074E-01
2021  8 11 12 10  128.2811   28.6928   679.56  350.594   203.9   25.66  19.75    25.75   302.17  300.52    10.0    374.8   -146.7 -0.2555E+01 -0.5929E-01
2021  8 11 12  0  128.2608   28.6209   666.89  350.585   197.6   25.62  19.77    27.42   302.15  300.35     9.8    368.1   -135.3 -0.2720E+01  0.6014E-02
2021  8 11 11 50  128.2415   28.5500   643.99  350.536   190.0   25.59  19.68    28.90   302.12  300.13     9.3    352.0   -112.0 -0.3143E+01  0.3898E-01
2021  8 11 11 40  128.2231   28.4785   656.37  350.470   172.4   25.55  19.69    30.45   302.10  299.81     8.5    341.6    -83.2 -0.4108E+01  0.2822E-01
2021  8 11 11 30  128.2056   28.4050   712.03  350.354   156.4   25.51  19.81    31.82   302.07  299.51     7.8    343.4    -65.4 -0.5250E+01 -0.1616E+00
2021  8 11 11 20  128.1881   28.3318   786.11  350.487   157.3   25.46  19.92    32.24   302.05  299.54     8.1    349.2    -74.0 -0.4716E+01 -0.1267E+00
2021  8 11 11 10  128.1704   28.2586   842.31  350.648   148.2   25.43  19.93    27.48   302.02  299.78     7.7    363.2    -69.8 -0.5207E+01 -0.2883E+00
2021  8 11 11  0  128.1472   28.1881   994.72  350.565   106.8   25.42  19.98    18.10   302.01  299.98     5.4    445.9    -33.4 -0.1334E+02 -0.3807E-02
2021  8 11 10 50  128.1237   28.1215   881.45  350.661   156.0   25.40  19.86    21.13   302.00  300.35     8.1    397.6    -91.0 -0.4371E+01  0.3139E+00
2021  8 11 10 40  128.0978   28.0555   804.59  350.710   186.6   25.40  19.81    28.41   302.00  300.12     9.7    355.8   -132.0 -0.2696E+01 -0.1056E+00
2021  8 11 10 30  128.0703   27.9851   803.93  350.858   187.2   25.40  19.90    31.66   301.99  299.94     9.9    352.3   -133.5 -0.2639E+01  0.7513E-01
2021  8 11 10 20  128.0375   27.9087   876.67  351.106   179.6   25.39  19.90    30.48   301.98  299.93     9.5    355.1   -121.6 -0.2921E+01 -0.3601E+00
2021  8 11 10 10  128.0070   27.8357  1041.51  351.128   150.7   25.38  19.87    22.41   301.98  300.18     7.9    366.3    -81.7 -0.4485E+01 -0.2658E-01
2021  8 11 10  0  127.9829   27.7614  1099.14  351.087   150.4   25.38  19.72    19.20   301.98  300.38     7.6    358.3    -78.5 -0.4565E+01 -0.2105E+00
2021  8 11  9 50  127.9627   27.6865  1161.97  351.205   137.8   25.37  19.67    17.37   301.97  300.39     6.9    359.3    -61.8 -0.5813E+01 -0.5252E-01
2021  8 11  9 40  127.9432   27.6106  1183.44  351.195   122.1   25.36  19.82    14.84   301.96  300.47     6.2    380.7    -51.4 -0.7400E+01  0.1332E+00
2021  8 11  9 30  127.9248   27.5304  1144.54  351.339   133.8   25.35  20.05    13.70   301.95  300.76     7.4    393.4    -84.9 -0.4634E+01  0.5107E-01
2021  8 11  9 20  127.9093   27.4510  1150.23  351.436   126.2   25.35  20.13    10.68   301.95  300.98     7.1    402.7    -84.2 -0.4782E+01  0.1257E-01
2021  8 11  9 10  127.8982   27.3734  1081.45  351.522   139.4   25.36  20.27     9.92   301.95  301.16     8.2    388.7   -128.5 -0.3026E+01  0.1001E+00
2021  8 11  9  0  127.8889   27.2959  1090.63  351.857   151.9   25.36  20.32     8.73   301.95  301.32     9.1    381.1   -176.5 -0.2159E+01 -0.1152E+00
2021  8 11  8 50  127.8838   27.2201  1175.32  351.760   145.7   25.34  20.17     8.31   301.95  301.30     8.4    391.7   -144.1 -0.2718E+01 -0.1585E+00
2021  8 11  8 40  127.8812   27.1447  1237.61  351.351   162.2   25.32  19.90     7.69   301.93  301.36     8.9    394.8   -161.8 -0.2440E+01 -0.2599E-01
2021  8 11  8 30  127.8788   27.0662  1239.12  351.526   166.9   25.30  19.78     7.30   301.91  301.38     8.9    389.2   -164.5 -0.2365E+01 -0.1112E+00
2021  8 11  8 20  127.8755   26.9867  1201.44  351.595   156.5   25.28  19.88     8.24   301.90  301.27     8.5    372.8   -145.1 -0.2570E+01  0.1719E+00
2021  8 11  8 10  127.8710   26.9054  1174.49  351.268   140.5   25.27  19.85     8.94   301.89  301.13     7.6    354.6   -104.6 -0.3389E+01  0.1232E+00
2021  8 11  8  0  127.8671   26.8251  1127.79  351.096   138.4   25.26  19.71     8.95   301.89  301.09     7.2    351.7    -90.3 -0.3897E+01  0.5483E-01
2021  8 11  7 50  127.8640   26.7439  1137.14  351.149   142.9   25.27  19.39     8.91   301.89  301.08     7.0    349.5    -79.4 -0.4402E+01 -0.8981E-01
2021  8 11  7 40  127.8588   26.6614  1191.56  351.485   131.9   24.04  19.53    -8.48   301.05  300.67     7.1    357.0   -117.9 -0.3028E+01 -0.7518E-01
2021  8 11  7 30  127.8535   26.5780  1185.94  351.448   132.3   25.31  19.73    10.86   301.92  300.91     6.8    364.3    -72.7 -0.5012E+01  0.3219E-01
2021  8 11  7 20  127.8475   26.4941  1235.38  350.543   112.4   22.87  19.63   -18.66   300.19  300.29     4.9    443.4   -101.4 -0.4372E+01 -0.2072E+00
2021  8 11  7 10  127.8414   26.4084  1299.93  350.740    33.7   26.07  19.16    33.79   302.37  301.74     4.7    736.0    -31.5 -0.2339E+02 -0.2371E-01
2021  8 11  7  0  127.8355   26.3224  1319.64  350.487    10.2   26.34  19.92    45.75   302.51  301.66     5.0    780.5    -35.6 -0.2189E+02  0.8341E-01
2021  8 11  6 50  127.8310   26.2377  1256.07  349.887   119.7   25.62  20.60     5.81   302.10  301.57     7.1    565.9   -103.3 -0.5476E+01  0.1438E+00
2021  8 11  6 40  127.8276   26.1527  1249.02  349.758   172.2   25.72  20.32     6.94   302.15  301.67     9.5    565.2   -202.6 -0.2789E+01 -0.1259E+00
2021  8 11  6 30  127.8244   26.0695  1237.19  349.758   160.1   25.74  20.24     6.37   302.18  301.70     8.6    533.9   -153.2 -0.3485E+01  0.8479E-01
2021  8 11  6 20  127.8243   25.9856  1234.87  349.454   134.8   25.78  20.52     7.18   302.21  301.60     7.6    534.4   -111.9 -0.4775E+01 -0.5625E-01
2021  8 11  6 10  127.8246   25.9020  1247.32  348.582   123.1   25.80  20.78     6.31   302.23  301.67     7.3    610.0   -108.7 -0.5614E+01 -0.2799E-03
2021  8 11  6  0  127.8247   25.8181  1229.90  348.393   133.5   25.82  20.88     4.40   302.23  301.88     8.1    690.7   -155.5 -0.4442E+01  0.5664E-01
2021  8 11  5 50  127.8267   25.7314  1243.22  349.062   146.9   25.82  20.80     3.56   302.24  301.98     8.8    731.8   -195.6 -0.3742E+01 -0.1794E+00
2021  8 11  5 40  127.8296   25.6437  1294.05  348.751   141.3   25.84  20.84     3.66   302.25  301.97     8.5    762.3   -180.4 -0.4225E+01  0.2549E-01
2021  8 11  5 30  127.8328   25.5538  1251.92  348.097   147.7   25.85  20.88     3.59   302.26  302.00     9.0    771.6   -208.8 -0.3695E+01  0.1191E+00
2021  8 11  5 20  127.8375   25.4613  1226.21  347.991   151.1   25.86  20.89     2.90   302.26  302.05     9.3    773.7   -228.0 -0.3394E+01  0.4673E-02
2021  8 11  5 10  127.8422   25.3683  1216.85  347.792   153.8   25.86  20.86     2.03   302.26  302.11     9.4    754.2   -241.1 -0.3129E+01  0.6464E-01
2021  8 11  5  0  127.8468   25.2744  1190.00  347.603   164.1   25.85  20.83     1.47   302.26  302.16     9.9    711.5   -285.4 -0.2493E+01  0.1062E+00
2021  8 11  4 50  127.8498   25.1788  1180.71  347.527   181.1   25.84  20.74     0.79   302.25  302.20    10.7    684.6   -355.9 -0.1924E+01 -0.1151E+00
2021  8 11  4 40  127.8493   25.0840  1186.91  347.793   186.2   25.82  20.72     0.60   302.24  302.20    11.0    695.1   -388.0 -0.1791E+01 -0.5964E-01
2021  8 11  4 30  127.8496   24.9885  1238.87  348.214   189.2   25.79  20.78     0.23   302.22  302.21    11.4    753.8   -439.7 -0.1714E+01 -0.1383E+00
2021  8 11  4 20  127.8516   24.8930  1272.60  347.276   186.5   25.77  20.84     0.40   302.21  302.19    11.5    761.4   -449.0 -0.1696E+01  0.3920E-01
2021  8 11  4 10  127.8550   24.7971  1237.48  347.179   180.7   25.75  20.91     0.23   302.20  302.18    11.4    759.0   -448.0 -0.1694E+01  0.1065E+00
2021  8 11  4  0  127.8589   24.7009  1283.53  346.574   167.4   25.75  21.00    -0.18   302.19  302.20    10.8    773.7   -402.7 -0.1921E+01 -0.1294E+00
2021  8 11  3 50  127.8638   24.6050  1284.10  347.045   171.8   25.75  21.04    -0.87   302.20  302.25    11.2    805.0   -457.2 -0.1761E+01 -0.1039E+00
2021  8 11  3 40  127.8695   24.5088  1286.25  347.126   183.4   25.78  20.98    -1.24   302.22  302.29    11.6    796.2   -509.6 -0.1562E+01  0.8317E-01
2021  8 11  3 30  127.8762   24.4126  1321.53  347.109   180.1   25.79  20.92    -1.81   302.23  302.34    11.3    794.9   -464.8 -0.1710E+01 -0.6847E-01
2021  8 11  3 20  127.8813   24.3179  1331.34  347.071   187.0   25.82  20.89    -1.57   302.25  302.34    11.5    781.0   -484.7 -0.1611E+01 -0.3741E-01
2021  8 11  3 10  127.8853   24.2233  1345.34  347.008   188.2   25.85  20.89    -1.32   302.27  302.35    11.5    777.3   -476.7 -0.1631E+01 -0.2588E-01
2021  8 11  3  0  127.8905   24.1294  1349.37  347.434   179.1   25.86  20.92    -1.22   302.28  302.35    11.0    805.6   -423.0 -0.1905E+01  0.8647E-01
2021  8 11  2 50  127.8991   24.0347  1316.96  346.757   183.3   25.89  20.93    -0.63   302.29  302.33    11.2    752.7   -435.2 -0.1729E+01  0.7496E-01
2021  8 11  2 40  127.9090   23.9382  1304.82  347.020   187.3   25.90  20.93    -0.62   302.30  302.34    11.4    748.9   -455.4 -0.1645E+01 -0.2653E-01
2021  8 11  2 30  127.9190   23.8414  1250.97  347.498   206.0   25.93  20.84    -0.54   302.32  302.35    12.2    733.2   -531.9 -0.1378E+01  0.8699E-01
2021  8 11  2 20  127.9287   23.7435  1305.39  347.509   215.0   25.94  20.73    -0.75   302.33  302.37    12.4    763.6   -545.5 -0.1400E+01 -0.1640E+00
2021  8 11  2 10  127.9364   23.6479  1368.38  347.229   217.8   25.94  20.64    -0.77   302.33  302.38    12.3    806.1   -524.6 -0.1537E+01 -0.4405E-01
2021  8 11  2  0  127.9425   23.5523  1393.45  347.083   218.3   25.96  20.59    -0.51   302.34  302.37    12.1    843.3   -498.6 -0.1691E+01 -0.1993E-01
2021  8 11  1 50  127.9472   23.4561  1416.18  347.126   215.5   25.99  20.61    -0.28   302.36  302.38    12.0    880.6   -474.9 -0.1854E+01 -0.7363E-01
2021  8 11  1 40  127.9515   23.3586  1417.35  346.858   221.8   26.05  20.66     0.57   302.40  302.37    12.3    874.7   -495.3 -0.1766E+01  0.3182E-01
2021  8 11  1 30  127.9571   23.2606  1376.86  346.782   221.1   26.10  20.71     1.21   302.44  302.37    12.2    809.6   -482.1 -0.1679E+01  0.1460E+00
2021  8 11  1 20  127.9638   23.1628  1337.84  346.945   224.7   26.14  20.73     1.51   302.46  302.38    12.4    772.5   -496.6 -0.1556E+01  0.3456E-01
2021  8 11  1 10  127.9723   23.0650  1299.46  346.792   237.1   26.17  20.73     2.44   302.47  302.35    13.0    747.0   -546.9 -0.1366E+01  0.4915E-01
2021  8 11  1  0  127.9813   22.9674  1290.28  346.793   235.5   26.18  20.73     2.85   302.48  302.34    12.8    745.9   -526.5 -0.1417E+01  0.4710E-01
2021  8 11  0 50  127.9907   22.8707  1282.80  346.664   236.6   26.19  20.71     3.14   302.49  302.33    12.8    742.6   -520.8 -0.1426E+01 -0.1923E-01
2021  8 11  0 40  128.0009   22.7750  1262.13  346.711   243.0   26.18  20.68     3.60   302.49  302.31    13.1    740.9   -544.2 -0.1361E+01  0.5745E-01
2021  8 11  0 30  128.0100   22.6789  1260.59  346.713   243.7   26.17  20.67     3.90   302.48  302.29    13.1    748.0   -544.2 -0.1375E+01 -0.2709E-01
2021  8 11  0 20  128.0178   22.5830  1297.80  346.959   235.5   26.14  20.66     3.64   302.47  302.28    12.8    797.9   -503.5 -0.1585E+01 -0.6854E-01
2021  8 11  0 10  128.0271   22.4862  1272.77  346.906   254.7   26.14  20.63     4.78   302.45  302.23    13.6    769.1   -593.0 -0.1297E+01  0.1430E+00
2021  8 11  0  0  128.0384   22.3881  1256.44  346.853   248.6   26.12  20.59     4.61   302.44  302.22    13.3    755.1   -552.4 -0.1367E+01 -0.1025E-01
