2021  8 12  0  0  129.9660   32.6749   500.00  354.072    57.6   22.77  19.20    11.24   300.17  298.70     4.6    383.7    -33.5 -0.1145E+02  0.1387E-01
2021  8 11 23 50  129.9454   32.6560   493.95  353.941    39.7   22.78  19.09     7.81   300.18  298.63     2.9    382.8    -13.4 -0.2862E+02  0.1575E-02
2021  8 11 23 40  129.9186   32.6385   515.65  354.426    37.0   22.80  18.99     7.10   300.18  298.60     2.5    380.2    -10.2 -0.3732E+02 -0.4980E-01
2021  8 11 23 30  129.8902   32.6159   537.45  354.397    30.9   22.78  18.97     5.45   300.18  298.73     2.0    394.6     -7.1 -0.5588E+02 -0.4777E-01
2021  8 11 23 20  129.8613   32.5846   526.23  354.328    18.1   22.79  19.03     3.05   300.19  298.84     1.0    388.5     -2.3 -0.1658E+03  0.2475E-01
2021  8 11 23 10  129.8320   32.5491   516.74  354.461    22.3   22.85  19.16     3.52   300.23  298.99     1.3    361.3     -3.9 -0.9249E+02  0.3410E-01
2021  8 11 23  0  129.8017   32.5104   502.87  354.424    20.2   22.94  19.17     3.01   300.28  299.09     1.1    381.9     -3.1 -0.1239E+03 -0.2953E-01
2021  8 11 22 50  129.7611   32.4715   418.20  354.590    50.7   23.07  19.55     8.44   300.38  299.14     4.1    353.3    -29.4 -0.1204E+02  0.3357E+00
2021  8 11 22 40  129.7130   32.4329   431.96  353.639    59.3   23.26  19.83    10.12   300.52  299.28     5.0    323.5    -44.5 -0.7270E+01 -0.1293E+00
2021  8 11 22 30  129.6645   32.3933   516.84  353.201    60.4   23.49  19.96    10.02   300.68  299.45     5.0    332.5    -43.2 -0.7696E+01 -0.1809E+00
2021  8 11 22 20  129.6139   32.3509   595.22  353.677    60.3   23.69  20.12     9.54   300.82  299.64     4.9    341.8    -42.2 -0.8108E+01 -0.1232E+00
2021  8 11 22 10  129.5613   32.3046   650.63  353.523    58.9   23.85  20.31     8.99   300.93  299.80     4.8    353.2    -42.9 -0.8239E+01 -0.1044E+00
2021  8 11 22  0  129.5089   32.2576   710.82  352.927    46.5   23.98  20.54     5.98   301.01  300.10     4.0    402.2    -32.2 -0.1248E+02 -0.1318E+00
2021  8 11 21 50  129.4573   32.2117   646.95  353.254    45.8   24.11  20.95     2.96   301.10  300.67     4.5    534.9    -56.4 -0.9491E+01  0.1972E+00
2021  8 11 21 40  129.4065   32.1675   622.88  352.952    49.3   24.21  21.06     2.04   301.17  300.91     4.9    566.1    -74.9 -0.7562E+01 -0.1916E-01
2021  8 11 21 30  129.3578   32.1210   563.16  352.260    57.6   24.33  21.19     2.45   301.25  300.98     5.8    526.2   -107.9 -0.4877E+01  0.1852E+00
2021  8 11 21 20  129.3082   32.0699   541.34  351.416    70.6   24.44  21.10     2.63   301.32  301.07     6.7    498.1   -142.1 -0.3507E+01 -0.9909E-01
2021  8 11 21 10  129.2594   32.0203   562.70  351.004    77.0   24.54  20.96     3.43   301.39  301.06     6.7    511.4   -130.0 -0.3934E+01  0.1155E-01
2021  8 11 21  0  129.2132   31.9689   570.39  351.222   101.1   24.63  20.79     6.56   301.45  300.93     8.1    496.7   -172.5 -0.2878E+01 -0.1395E+00
2021  8 11 20 50  129.1665   31.9141   606.61  351.133   104.0   24.72  20.96    10.14   301.51  300.74     8.6    480.5   -175.4 -0.2740E+01 -0.1035E+00
2021  8 11 20 40  129.1198   31.8564   689.55  351.250    96.2   24.80  21.10     7.87   301.57  300.94     8.1    502.2   -165.0 -0.3044E+01 -0.1741E+00
2021  8 11 20 30  129.0725   31.7974   783.24  351.325    97.2   24.87  21.14     5.51   301.62  301.18     8.1    576.2   -182.7 -0.3154E+01 -0.1959E+00
2021  8 11 20 20  129.0248   31.7374   796.83  351.651   103.8   24.94  21.10     3.11   301.66  301.42     8.5    658.3   -225.3 -0.2922E+01  0.4236E-01
2021  8 11 20 10  128.9767   31.6765   776.91  351.400   109.0   24.98  21.13     3.53   301.69  301.43     8.9    627.7   -248.9 -0.2522E+01  0.2872E-01
2021  8 11 20  0  128.9302   31.6129   786.52  351.345   111.4   25.02  21.18     4.39   301.71  301.39     9.1    615.1   -258.3 -0.2381E+01 -0.7449E-01
2021  8 11 19 50  128.8858   31.5473   831.62  351.309   106.7   25.04  21.26     4.77   301.73  301.38     8.9    641.2   -240.0 -0.2671E+01 -0.1247E+00
2021  8 11 19 40  128.8418   31.4813   864.82  351.408    98.9   25.07  21.31     4.29   301.75  301.41     8.3    678.9   -205.0 -0.3312E+01  0.9429E-01
2021  8 11 19 30  128.7981   31.4151   809.14  351.496    99.5   25.10  21.28     3.22   301.76  301.51     8.2    662.1   -206.4 -0.3208E+01  0.7047E-01
2021  8 11 19 20  128.7574   31.3491   758.19  350.949   110.7   25.13  21.14     3.22   301.78  301.53     8.7    590.3   -231.4 -0.2551E+01  0.8222E-01
2021  8 11 19 10  128.7166   31.2853   794.08  351.350   116.6   25.15  21.02     3.86   301.79  301.50     8.8    633.4   -225.1 -0.2814E+01 -0.1133E+00
2021  8 11 19  0  128.6774   31.2220   768.73  351.069   130.0   25.17  20.96     5.14   301.80  301.45     9.6    581.0   -263.0 -0.2209E+01  0.9719E-01
2021  8 11 18 50  128.6422   31.1555   759.43  351.125   129.5   25.18  21.03     6.30   301.81  301.38     9.7    564.4   -262.3 -0.2152E+01 -0.2604E-01
2021  8 11 18 40  128.6077   31.0904   791.19  351.124   118.6   25.19  21.12     6.38   301.82  301.36     9.0    576.6   -221.6 -0.2602E+01 -0.4504E-01
2021  8 11 18 30  128.5729   31.0272   852.63  350.838   110.1   25.20  21.18     5.80   301.83  301.39     8.5    613.7   -193.2 -0.3176E+01 -0.1401E+00
2021  8 11 18 20  128.5381   30.9653   909.03  350.704   105.0   25.22  21.19     5.04   301.84  301.44     8.1    694.8   -175.9 -0.3950E+01 -0.6412E-01
2021  8 11 18 10  128.5031   30.9030   870.57  350.641   114.7   25.23  21.13     4.35   301.85  301.52     8.7    678.8   -214.5 -0.3165E+01  0.1605E+00
2021  8 11 18  0  128.4693   30.8379   836.82  350.428   129.2   25.26  21.01     3.52   301.86  301.61     9.4    653.8   -267.4 -0.2445E+01  0.2103E-01
2021  8 11 17 50  128.4380   30.7715   856.14  350.181   137.1   25.28  20.91     2.57   301.87  301.70     9.7    663.3   -292.7 -0.2266E+01 -0.8955E-01
2021  8 11 17 40  128.4083   30.7069   893.64  349.856   133.4   25.29  20.87     1.98   301.89  301.75     9.3    680.1   -265.7 -0.2560E+01 -0.1904E-01
2021  8 11 17 30  128.3818   30.6422   855.83  349.772   142.4   25.33  20.85     2.71   301.91  301.73     9.8    638.0   -291.0 -0.2192E+01  0.6664E-01
2021  8 11 17 20  128.3561   30.5751   821.05  349.801   148.7   25.37  20.81     3.28   301.94  301.72    10.0    609.4   -297.9 -0.2046E+01  0.1977E+00
2021  8 11 17 10  128.3310   30.5025   741.52  349.441   170.8   25.41  20.79     4.72   301.96  301.69    11.3    541.6   -394.3 -0.1374E+01  0.4934E-01
2021  8 11 17  0  128.3070   30.4305   769.83  349.444   157.4   25.43  20.77     4.39   301.98  301.70    10.3    548.7   -307.2 -0.1786E+01 -0.9541E-01
2021  8 11 16 50  128.2847   30.3624   848.44  349.536   151.9   25.45  20.78     4.38   302.00  301.71     9.9    604.2   -275.1 -0.2196E+01 -0.2113E+00
2021  8 11 16 40  128.2640   30.2964   895.89  349.486   153.0   25.48  20.78     4.67   302.01  301.71     9.9    646.9   -271.7 -0.2381E+01  0.2286E-02
2021  8 11 16 30  128.2447   30.2302   891.54  349.413   153.0   25.50  20.76     4.90   302.03  301.71     9.8    640.8   -260.2 -0.2463E+01  0.3191E-01
2021  8 11 16 20  128.2243   30.1645   851.28  349.353   159.7   25.53  20.74     5.60   302.05  301.69    10.1    602.3   -273.8 -0.2200E+01  0.9134E-01
2021  8 11 16 10  128.2057   30.0975   838.27  349.293   164.6   25.56  20.73     6.31   302.07  301.67    10.4    579.3   -284.6 -0.2036E+01 -0.4473E-03
2021  8 11 16  0  128.1885   30.0314   861.56  349.015   158.8   25.58  20.73     6.34   302.08  301.67    10.0    566.0   -252.3 -0.2244E+01 -0.4784E-01
2021  8 11 15 50  128.1716   29.9683   889.31  349.001   154.0   25.60  20.75     6.23   302.10  301.68     9.6    574.0   -231.7 -0.2478E+01 -0.5773E-01
2021  8 11 15 40  128.1550   29.9062   896.51  349.107   157.7   25.61  20.77     6.69   302.11  301.67     9.9    586.0   -245.0 -0.2392E+01  0.1673E-01
2021  8 11 15 30  128.1389   29.8434   904.90  348.919   157.1   25.63  20.79     7.06   302.12  301.65     9.9    584.2   -240.6 -0.2428E+01 -0.1480E-01
2021  8 11 15 20  128.1229   29.7813   902.71  349.011   156.0   25.65  20.83     7.45   302.13  301.64     9.8    583.0   -237.3 -0.2457E+01  0.1073E-01
2021  8 11 15 10  128.1073   29.7205   907.04  349.065   152.1   25.66  20.87     7.65   302.15  301.63     9.7    588.5   -225.2 -0.2613E+01 -0.6297E-01
2021  8 11 15  0  128.0917   29.6615   928.96  348.962   149.1   25.67  20.89     7.63   302.16  301.63     9.5    592.3   -213.0 -0.2780E+01  0.1911E-01
2021  8 11 14 50  128.0751   29.6014   894.11  348.993   156.2   25.69  20.88     8.40   302.17  301.61     9.9    567.0   -233.0 -0.2433E+01  0.7534E-01
2021  8 11 14 40  128.0568   29.5392   882.52  349.162   158.1   25.71  20.86     8.95   302.18  301.59     9.9    561.3   -228.3 -0.2458E+01 -0.2714E-01
2021  8 11 14 30  128.0364   29.4766   863.48  349.157   161.4   25.74  20.83     9.91   302.19  301.54    10.0    536.9   -226.4 -0.2371E+01  0.7876E-01
2021  8 11 14 20  128.0155   29.4122   819.51  348.914   165.4   25.76  20.82    11.31   302.20  301.47    10.1    504.2   -226.4 -0.2227E+01  0.1143E+00
2021  8 11 14 10  127.9942   29.3473   805.50  348.771   162.3   25.78  20.83    12.52   302.22  301.39     9.9    485.6   -206.3 -0.2353E+01 -0.3398E-01
2021  8 11 14  0  127.9712   29.2845   827.54  349.047   158.9   25.80  20.89    13.47   302.23  301.33     9.8    494.1   -194.5 -0.2540E+01 -0.7932E-01
2021  8 11 13 50  127.9471   29.2230   872.13  349.052   161.1   25.82  20.95    14.48   302.24  301.30    10.0    510.7   -204.4 -0.2498E+01 -0.7275E-01
2021  8 11 13 40  127.9227   29.1620   898.46  349.115   160.9   25.84  20.98    14.33   302.26  301.33    10.0    525.7   -206.0 -0.2552E+01 -0.5006E-01
2021  8 11 13 30  127.8979   29.1019   897.72  349.014   158.4   25.87  20.94    13.14   302.28  301.40     9.7    531.7   -193.5 -0.2748E+01  0.3013E-01
2021  8 11 13 20  127.8735   29.0424   874.61  348.694   150.6   25.88  20.91    12.17   302.29  301.42     9.1    509.0   -165.6 -0.3075E+01  0.8928E-01
2021  8 11 13 10  127.8503   28.9836   856.81  348.732   143.1   25.89  20.93    11.65   302.30  301.43     8.7    495.4   -146.0 -0.3392E+01 -0.1454E-01
2021  8 11 13  0  127.8270   28.9251   889.22  348.700   142.9   25.89  20.99    11.56   302.30  301.45     8.8    517.4   -152.5 -0.3393E+01 -0.9746E-01
2021  8 11 12 50  127.8047   28.8663   935.89  348.716   147.0   25.89  21.08    11.52   302.30  301.50     9.2    563.2   -178.0 -0.3164E+01 -0.8549E-01
2021  8 11 12 40  127.7840   28.8062   958.73  348.933   149.2   25.89  21.17    11.41   302.31  301.54     9.6    601.5   -201.5 -0.2984E+01  0.5055E-02
2021  8 11 12 30  127.7646   28.7446   946.17  348.529   146.9   25.90  21.15    11.41   302.31  301.52     9.4    573.2   -190.2 -0.3014E+01  0.5280E-01
2021  8 11 12 20  127.7459   28.6832   942.14  348.092   137.3   25.90  21.16    10.70   302.31  301.52     8.8    547.9   -160.8 -0.3407E+01  0.3576E-01
2021  8 11 12 10  127.7282   28.6227   945.83  347.984   132.2   25.89  21.23    10.46   302.31  301.52     8.6    556.3   -153.7 -0.3619E+01 -0.8545E-01
2021  8 11 12  0  127.7115   28.5626   981.54  348.215   130.1   25.89  21.29     9.82   302.30  301.56     8.6    610.4   -159.6 -0.3826E+01 -0.6910E-01
2021  8 11 11 50  127.6959   28.5039  1004.09  348.214   122.1   25.88  21.33     8.52   302.30  301.63     8.2    670.5   -145.3 -0.4614E+01 -0.4480E-02
2021  8 11 11 40  127.6779   28.4461   982.19  347.973   116.9   25.88  21.28     6.79   302.29  301.73     7.7    667.8   -132.1 -0.5055E+01  0.6587E-01
2021  8 11 11 30  127.6582   28.3885   982.60  348.004   125.4   25.86  20.91     4.54   302.29  301.90     7.6    672.9   -129.1 -0.5213E+01 -0.3852E-01
2021  8 11 11 20  127.6368   28.3309   984.73  347.934   139.1   25.86  20.66     3.58   302.28  301.99     8.0    673.8   -148.0 -0.4553E+01  0.2250E-01
2021  8 11 11 10  127.6152   28.2718   974.91  347.849   144.3   25.85  20.61     3.72   302.27  301.98     8.2    667.1   -157.6 -0.4233E+01 -0.1434E-01
2021  8 11 11  0  127.5930   28.2119   974.93  347.578   146.9   25.84  20.54     3.64   302.26  301.98     8.3    659.3   -159.7 -0.4128E+01  0.4910E-01
2021  8 11 10 50  127.5704   28.1525   957.26  347.135   138.3   25.83  20.53     3.42   302.26  301.97     7.8    623.9   -136.8 -0.4559E+01  0.2030E-01
2021  8 11 10 40  127.5486   28.0929   954.32  347.374   140.9   25.81  20.56     3.47   302.25  301.97     8.0    623.3   -147.9 -0.4213E+01 -0.2907E-01
2021  8 11 10 30  127.5290   28.0314   955.64  347.181   142.2   25.79  20.58     3.63   302.24  301.95     8.2    607.5   -154.9 -0.3922E+01  0.4420E-01
2021  8 11 10 20  127.5103   27.9679   953.10  347.064   143.3   25.79  20.65     4.07   302.24  301.92     8.4    602.4   -164.1 -0.3671E+01 -0.5407E-01
2021  8 11 10 10  127.4906   27.9032   989.17  347.263   137.7   25.79  20.72     4.06   302.23  301.91     8.2    634.8   -156.1 -0.4068E+01 -0.2720E-01
2021  8 11 10  0  127.4709   27.8374  1003.32  347.232   139.1   25.79  20.78     4.31   302.23  301.89     8.4    642.7   -166.5 -0.3861E+01 -0.5577E-01
2021  8 11  9 50  127.4512   27.7705  1018.55  347.394   135.2   25.78  20.85     4.28   302.23  301.89     8.3    657.5   -164.4 -0.3999E+01  0.1960E-01
2021  8 11  9 40  127.4290   27.7041   999.31  347.114   127.7   25.78  20.89     4.15   302.22  301.88     7.9    641.7   -146.9 -0.4368E+01  0.4067E-01
2021  8 11  9 30  127.4051   27.6370   988.42  347.163   123.7   25.77  20.96     3.94   302.22  301.89     7.8    638.7   -144.9 -0.4408E+01 -0.2217E-03
2021  8 11  9 20  127.3823   27.5686  1000.01  347.293   120.1   25.76  21.02     3.66   302.21  301.90     7.7    659.1   -143.6 -0.4591E+01 -0.3163E-01
2021  8 11  9 10  127.3605   27.4981  1007.36  347.678   118.6   25.75  21.10     3.53   302.20  301.90     7.8    686.7   -151.7 -0.4526E+01  0.1197E-01
2021  8 11  9  0  127.3399   27.4267  1014.06  347.790   114.8   25.73  21.13     3.11   302.19  301.92     7.6    715.6   -147.7 -0.4844E+01 -0.4226E-01
2021  8 11  8 50  127.3195   27.3550  1042.65  347.809   119.5   25.72  21.05     2.42   302.18  301.98     7.8    754.8   -159.5 -0.4733E+01 -0.5411E-01
2021  8 11  8 40  127.3000   27.2819  1065.46  347.542   129.3   25.71  20.90     2.06   302.17  302.00     8.2    769.1   -176.8 -0.4350E+01 -0.5485E-01
2021  8 11  8 30  127.2824   27.2068  1086.60  347.412   127.7   25.69  20.86     1.48   302.16  302.04     8.0    786.7   -173.6 -0.4531E+01  0.1633E-01
2021  8 11  8 20  127.2659   27.1309  1086.36  346.964   140.6   25.68  20.65     1.13   302.15  302.06     8.4    761.7   -190.6 -0.3996E+01 -0.4789E-02
2021  8 11  8 10  127.2502   27.0537  1057.74  346.792   151.8   25.67  20.57     1.25   302.15  302.06     9.0    733.4   -219.2 -0.3346E+01  0.2161E-01
2021  8 11  8  0  127.2348   26.9762  1081.54  346.625   145.6   25.66  20.52     1.31   302.14  302.04     8.5    726.1   -191.0 -0.3802E+01  0.2067E-02
2021  8 11  7 50  127.2201   26.8993  1044.92  346.492   147.5   25.66  20.53     1.74   302.14  302.01     8.7    694.9   -196.3 -0.3539E+01  0.1112E+00
2021  8 11  7 40  127.2046   26.8214   996.01  346.126   154.3   25.66  20.50     2.52   302.13  301.95     9.0    644.9   -208.9 -0.3087E+01  0.4502E-01
2021  8 11  7 30  127.1890   26.7421   977.77  346.139   153.4   25.65  20.56     2.78   302.12  301.92     9.1    640.3   -215.2 -0.2975E+01  0.3482E-01
2021  8 11  7 20  127.1764   26.6620   983.46  346.213   150.4   25.63  20.58     2.77   302.11  301.91     9.0    648.1   -210.6 -0.3077E+01  0.2003E-02
2021  8 11  7 10  127.1654   26.5804   990.64  346.201   156.8   25.62  20.60     3.40   302.10  301.86     9.5    654.5   -235.3 -0.2782E+01 -0.7645E-01
2021  8 11  7  0  127.1560   26.4983  1026.44  346.309   147.6   25.58  20.61     3.05   302.08  301.86     9.0    684.0   -210.7 -0.3247E+01 -0.3754E-01
2021  8 11  6 50  127.1465   26.4181  1036.22  346.238   136.6   25.54  20.66     2.93   302.05  301.82     8.5    681.9   -184.6 -0.3695E+01  0.5502E-01
2021  8 11  6 40  127.1371   26.3366  1034.71  346.331   137.9   25.48  20.74     3.16   302.01  301.78     8.9    690.4   -210.2 -0.3285E+01 -0.6253E-01
2021  8 11  6 30  127.1301   26.2538  1070.65  346.494   137.1   25.45  20.74     2.51   301.99  301.80     8.9    717.3   -219.1 -0.3274E+01 -0.2882E-01
2021  8 11  6 20  127.1250   26.1694  1059.52  346.491   154.0   25.45  20.55     1.96   301.99  301.86     9.5    712.5   -258.7 -0.2754E+01 -0.8473E-02
2021  8 11  6 10  127.1207   26.0836  1061.82  346.545   173.1   25.49  20.35     2.10   302.01  301.87    10.2    711.8   -290.6 -0.2450E+01 -0.5672E-01
2021  8 11  6  0  127.1165   25.9968  1103.90  346.561   176.1   25.52  20.26     2.61   302.04  301.87    10.1    725.4   -271.9 -0.2667E+01 -0.5920E-01
2021  8 11  5 50  127.1129   25.9111  1109.49  346.369   168.7   25.57  20.28     3.51   302.07  301.83     9.6    711.1   -231.3 -0.3075E+01  0.3785E-01
2021  8 11  5 40  127.1083   25.8250  1090.43  346.275   167.5   25.64  20.34     4.69   302.11  301.79     9.5    694.4   -216.4 -0.3209E+01  0.3061E-01
2021  8 11  5 30  127.1020   25.7366  1076.34  346.246   175.3   25.70  20.38     5.84   302.15  301.76     9.9    682.5   -232.4 -0.2937E+01 -0.1181E+00
2021  8 11  5 20  127.0958   25.6472  1123.87  346.314   172.8   25.74  20.41     6.04   302.18  301.77     9.7    705.4   -220.8 -0.3195E+01 -0.2704E-01
2021  8 11  5 10  127.0919   25.5554  1133.18  346.270   176.0   25.78  20.43     6.48   302.21  301.78     9.9    707.1   -225.7 -0.3132E+01 -0.5689E-01
2021  8 11  5  0  127.0902   25.4605  1092.20  346.180   199.8   25.82  20.40     7.59   302.23  301.78    11.0    682.8   -298.5 -0.2287E+01  0.1133E-01
2021  8 11  4 50  127.0881   25.3631  1140.05  346.183   188.4   25.83  20.32     6.92   302.24  301.80    10.2    696.1   -241.4 -0.2883E+01  0.2327E-01
2021  8 11  4 40  127.0845   25.2655  1129.91  346.065   196.5   25.85  20.22     7.02   302.25  301.81    10.4    670.1   -249.1 -0.2691E+01 -0.3373E-01
2021  8 11  4 30  127.0820   25.1672  1135.51  346.247   200.4   25.86  20.08     6.42   302.26  301.85    10.3    663.0   -239.1 -0.2773E+01  0.5423E-01
2021  8 11  4 20  127.0816   25.0685  1109.55  346.468   214.2   25.87  19.97     7.06   302.26  301.83    10.7    635.1   -262.0 -0.2424E+01  0.6079E-01
2021  8 11  4 10  127.0837   24.9692  1084.65  346.598   213.2   25.87  19.96     7.67   302.26  301.79    10.7    602.0   -255.0 -0.2361E+01  0.3754E-01
2021  8 11  4  0  127.0863   24.8685  1046.57  346.715   227.3   25.87  19.96     9.19   302.26  301.73    11.3    561.1   -293.1 -0.1914E+01  0.1897E+00
2021  8 11  3 50  127.0902   24.7637  1037.25  346.898   238.9   25.86  19.92    10.35   302.26  301.69    11.8    545.9   -321.6 -0.1698E+01 -0.7963E-01
2021  8 11  3 40  127.0966   24.6597  1105.06  346.874   235.8   25.85  19.88    10.60   302.26  301.66    11.6    553.8   -300.6 -0.1842E+01 -0.1553E+00
2021  8 11  3 30  127.1043   24.5574  1180.89  347.098   226.4   25.85  19.81    10.07   302.26  301.66    11.0    578.9   -261.1 -0.2217E+01 -0.1579E+00
2021  8 11  3 20  127.1099   24.4583  1194.21  347.133   224.8   25.86  19.75    10.50   302.27  301.64    10.8    557.3   -240.6 -0.2316E+01  0.2270E-01
2021  8 11  3 10  127.1150   24.3599  1191.23  347.069   224.0   25.88  19.71    11.43   302.28  301.58    10.6    531.2   -223.7 -0.2374E+01  0.2786E-01
2021  8 11  3  0  127.1192   24.2614  1174.35  346.897   219.0   25.92  19.67    12.41   302.30  301.52    10.3    508.2   -194.7 -0.2610E+01 -0.3532E-01
2021  8 11  2 50  127.1213   24.1636  1190.41  346.823   212.8   25.96  19.63    12.00   302.33  301.54     9.8    503.6   -170.6 -0.2953E+01  0.7456E-01
2021  8 11  2 40  127.1230   24.0660  1171.05  346.959   216.0   26.01  19.62    13.02   302.36  301.51     9.9    495.8   -169.1 -0.2932E+01 -0.1505E+00
2021  8 11  2 30  127.1252   23.9699  1208.63  347.043   211.1   26.04  19.64    13.47   302.39  301.48     9.6    517.2   -155.1 -0.3334E+01  0.1261E+00
2021  8 11  2 20  127.1310   23.8719  1218.29  346.999   212.6   26.06  19.63    14.10   302.40  301.45     9.6    523.2   -153.7 -0.3404E+01 -0.8316E-02
2021  8 11  2 10  127.1389   23.7732  1211.09  347.022   214.6   26.08  19.65    14.36   302.41  301.45     9.7    526.8   -156.6 -0.3364E+01  0.4763E-01
2021  8 11  2  0  127.1494   23.6734  1147.83  347.129   228.4   26.09  19.65    15.20   302.41  301.46    10.3    498.0   -184.9 -0.2693E+01  0.1370E+00
2021  8 11  1 50  127.1603   23.5725  1162.73  346.933   236.9   26.10  19.63    16.27   302.41  301.42    10.7    479.1   -198.2 -0.2417E+01 -0.7902E-01
2021  8 11  1 40  127.1712   23.4724  1186.26  346.780   238.5   26.09  19.62    17.01   302.41  301.38    10.7    469.1   -198.1 -0.2368E+01 -0.1927E-01
2021  8 11  1 30  127.1814   23.3739  1191.48  346.739   233.1   26.09  19.66    17.78   302.42  301.32    10.5    468.9   -185.8 -0.2524E+01 -0.1185E-01
2021  8 11  1 20  127.1908   23.2757  1164.12  346.922   224.1   26.09  19.84    18.50   302.42  301.27    10.5    481.1   -183.0 -0.2629E+01  0.1656E+00
2021  8 11  1 10  127.2004   23.1739  1021.48  347.092   253.7   26.10  19.92    22.39   302.42  301.21    12.0    426.3   -262.6 -0.1623E+01  0.1683E+00
2021  8 11  1  0  127.2106   23.0707   989.79  347.184   251.4   26.11  19.99    24.57   302.42  301.10    12.0    410.5   -257.0 -0.1598E+01 -0.7692E-01
2021  8 11  0 50  127.2228   22.9681  1041.73  347.242   224.9   26.11  20.03    22.18   302.43  301.10    10.9    424.4   -196.4 -0.2162E+01 -0.1814E+00
2021  8 11  0 40  127.2338   22.8700  1037.97  346.600   210.5   26.10  19.80    18.40   302.43  301.20     9.8    414.9   -149.6 -0.2773E+01  0.5457E+00
2021  8 11  0 30  127.2448   22.7727   824.50  346.081   297.3   26.13  19.42    29.43   302.43  300.95    12.7    325.5   -272.6 -0.1194E+01  0.6585E-01
2021  8 11  0 20  127.2579   22.6715   951.60  345.905   295.7   26.14  19.58    41.86   302.44  300.36    12.8    320.8   -245.5 -0.1307E+01 -0.6380E+00
2021  8 11  0 10  127.2734   22.5718  1325.36  344.707   236.4   26.13  19.75    41.49   302.44  299.95    10.6    320.2   -134.3 -0.2384E+01 -0.8788E+00
2021  8 11  0  0  127.2908   22.4736  1654.72  345.150   153.4   26.13  20.37    29.12   302.45  300.06     7.6    355.6    -62.8 -0.5661E+01 -0.2904E+00
