2021  8 12  0  0  129.9660   32.6454   500.00  353.711    67.0   22.82  19.27    13.57   300.21  298.68     5.5    395.5    -47.9 -0.8256E+01  0.7784E-01
2021  8 11 23 50  129.9579   32.6313   449.34  353.325    48.9   22.83  19.19    10.26   300.22  298.59     3.7    379.5    -21.0 -0.1808E+02  0.5612E-01
2021  8 11 23 40  129.9432   32.6231   435.85  353.559    45.8   22.85  19.14     9.77   300.22  298.53     3.4    360.2    -16.8 -0.2143E+02  0.9464E-02
2021  8 11 23 30  129.9269   32.6134   467.12  352.849    35.3   22.83  19.13     7.19   300.22  298.61     2.5    389.8     -9.8 -0.3979E+02 -0.1007E+00
2021  8 11 23 20  129.9108   32.5943   509.52  352.538    31.7   22.83  19.19     6.39   300.22  298.68     2.2    409.1     -8.2 -0.4969E+02 -0.5709E-01
2021  8 11 23 10  129.8939   32.5689   491.62  352.572    34.8   22.87  19.26     7.05   300.24  298.71     2.5    400.5    -10.8 -0.3724E+02  0.1310E+00
2021  8 11 23  0  129.8745   32.5454   380.89  352.961    43.5   22.89  19.18     7.06   300.26  299.00     3.2    380.4    -18.1 -0.2107E+02  0.1575E+00
2021  8 11 22 50  129.8449   32.5297   336.92  352.829    51.3   22.91  19.07     5.33   300.26  299.44     3.8    363.5    -28.6 -0.1273E+02  0.1252E+00
2021  8 11 22 40  129.8027   32.5189   267.76  352.502    68.4   22.91  19.07     5.20   300.27  299.66     5.2    396.4    -60.0 -0.6611E+01  0.2075E-01
2021  8 11 22 30  129.7598   32.5062   254.16  352.102    73.0   22.95  18.89     3.95   300.30  299.83     5.2    400.6    -62.4 -0.6424E+01  0.4581E-01
2021  8 11 22 20  129.7186   32.4873   226.23  352.214    79.1   23.05  18.91     5.28   300.37  299.78     5.5    371.8    -65.5 -0.5676E+01  0.5663E-01
2021  8 11 22 10  129.6771   32.4633   178.84  351.704    92.3   23.20  18.87     7.34   300.47  299.73     6.2    357.9    -75.7 -0.4725E+01  0.1143E+00
2021  8 11 22  0  129.6376   32.4341   134.67  351.280   104.1   23.37  18.66     8.55   300.59  299.74     6.4    336.3    -72.5 -0.4638E+01  0.5658E-01
2021  8 11 21 50  129.6051   32.4020   117.86  350.767   111.8   23.53  18.53     9.86   300.70  299.73     6.4    323.3    -67.1 -0.4820E+01 -0.1181E-02
2021  8 11 21 40  129.5790   32.3658   127.76  349.546   111.8   23.67  18.46    11.70   300.80  299.59     6.0    322.1    -52.9 -0.6092E+01 -0.3308E-01
2021  8 11 21 30  129.5587   32.3268   147.36  348.554   115.4   23.80  18.46    14.03   300.89  299.45     6.0    327.5    -48.6 -0.6731E+01 -0.4173E-01
2021  8 11 21 20  129.5375   32.2840   182.46  347.563   123.2   23.91  18.45    17.00   300.97  299.29     6.3    336.2    -49.9 -0.6742E+01 -0.9011E-01
2021  8 11 21 10  129.5093   32.2401   234.16  346.616   121.3   24.00  18.38    18.60   301.03  299.11     5.9    338.7    -40.4 -0.8381E+01 -0.7804E-01
2021  8 11 21  0  129.4759   32.1956   276.23  346.368   147.5   24.09  18.36    23.39   301.10  299.06     7.2    332.3    -60.7 -0.5473E+01 -0.1085E+00
2021  8 11 20 50  129.4346   32.1458   355.94  346.586   178.9   24.20  18.49    30.54   301.16  298.98     8.9    324.2    -95.9 -0.3381E+01 -0.2871E+00
2021  8 11 20 40  129.3898   32.0946   485.23  346.404   172.3   24.29  18.61    29.56   301.23  299.06     8.6    326.2    -89.3 -0.3652E+01 -0.1235E+00
2021  8 11 20 30  129.3384   32.0387   548.52  346.768   210.6   24.41  18.60    33.80   301.31  299.22    10.2    320.1   -140.1 -0.2285E+01 -0.3160E+00
2021  8 11 20 20  129.2911   31.9829   737.53  347.138   189.0   24.51  18.49    30.18   301.38  299.23     8.8    320.4    -94.0 -0.3409E+01 -0.4064E+00
2021  8 11 20 10  129.2501   31.9279   938.25  347.091   179.2   24.59  18.53    29.29   301.44  299.21     8.2    321.3    -77.9 -0.4126E+01 -0.3984E+00
2021  8 11 20  0  129.2084   31.8707  1104.47  347.037   164.2   24.68  18.79    28.97   301.49  299.16     7.8    324.6    -66.7 -0.4869E+01 -0.2585E+00
2021  8 11 19 50  129.1635   31.8119  1237.88  346.871   140.5   24.76  19.05    25.31   301.54  299.26     6.8    329.8    -50.0 -0.6598E+01 -0.2421E+00
2021  8 11 19 40  129.1205   31.7515  1394.13  346.656   119.3   24.83  19.26    20.58   301.59  299.48     5.8    327.9    -37.6 -0.8715E+01 -0.3042E+00
2021  8 11 19 30  129.0786   31.6893  1545.49  346.539    94.9   24.90  19.93    14.04   301.64  300.03     5.4    359.8    -37.7 -0.9540E+01 -0.2072E+00
2021  8 11 19 20  129.0387   31.6288  1589.83  346.622   100.3   24.96  20.69     6.71   301.67  301.04     7.2    538.4   -113.1 -0.4759E+01 -0.2364E+00
2021  8 11 19 10  129.0008   31.5726  1755.35  346.624   111.4   24.99  20.72     3.88   301.69  301.37     8.0    637.5   -172.1 -0.3705E+01  0.4826E-01
2021  8 11 19  0  128.9634   31.5163  1576.32  346.755   154.4   25.02  20.67     6.77   301.70  301.30    10.8    533.5   -347.6 -0.1535E+01  0.5414E-01
2021  8 11 18 50  128.9297   31.4609  1607.63  346.713   159.2   25.04  20.57     7.77   301.72  301.25    10.8    515.6   -325.0 -0.1586E+01 -0.1445E+00
2021  8 11 18 40  128.8974   31.4075  1743.93  346.700   143.3   25.05  20.49     7.16   301.73  301.24     9.5    537.5   -228.7 -0.2351E+01 -0.1117E+00
2021  8 11 18 30  128.8647   31.3554  1763.58  346.618   140.6   25.07  20.47     7.96   301.75  301.18     9.2    526.5   -202.3 -0.2603E+01  0.9915E-01
2021  8 11 18 20  128.8329   31.3035  1740.77  346.843   145.8   25.10  20.43     9.43   301.76  301.11     9.4    520.6   -201.8 -0.2580E+01 -0.4448E-01
2021  8 11 18 10  128.8024   31.2525  1732.82  347.226   157.7   25.11  20.36    10.64   301.78  301.08    10.0    544.4   -226.5 -0.2404E+01  0.4840E-01
2021  8 11 18  0  128.7741   31.2018  1701.79  347.537   165.4   25.13  20.24    10.69   301.79  301.10    10.2    566.6   -234.7 -0.2414E+01  0.4927E-01
2021  8 11 17 50  128.7473   31.1489  1654.80  347.636   163.2   25.15  20.10     9.71   301.80  301.14     9.7    535.7   -204.7 -0.2617E+01  0.1464E+00
2021  8 11 17 40  128.7203   31.0925  1634.83  347.608   174.6   25.17  19.89     8.69   301.81  301.23     9.8    468.7   -214.0 -0.2190E+01 -0.4028E-01
2021  8 11 17 30  128.6926   31.0350  1767.11  347.569   188.9   25.18  19.63     7.91   301.82  301.30    10.0    449.8   -221.2 -0.2033E+01 -0.3941E+00
2021  8 11 17 20  128.6662   30.9777  1867.82  348.312   208.3   25.19  19.42     9.11   301.83  301.27    10.5    456.5   -240.8 -0.1896E+01  0.3394E-02
2021  8 11 17 10  128.6416   30.9199  1836.26  348.178   224.8   25.22  19.10    10.50   301.84  301.21    10.7    397.5   -235.3 -0.1689E+01  0.2465E+00
2021  8 11 17  0  128.6158   30.8609  1760.86  348.281   228.3   25.24  18.96    13.77   301.86  301.01    10.5    350.7   -203.4 -0.1724E+01 -0.8265E-02
2021  8 11 16 50  128.5892   30.8029  1779.21  348.545   236.2   25.26  19.08    20.80   301.87  300.66    11.0    338.0   -209.7 -0.1612E+01 -0.3954E-01
2021  8 11 16 40  128.5648   30.7451  1808.46  349.029   234.6   25.28  19.56    29.21   301.88  300.31    11.9    345.8   -244.4 -0.1415E+01 -0.2193E-01
2021  8 11 16 30  128.5438   30.6878  1889.57  349.377   200.1   25.30  20.34    31.00   301.90  300.24    12.0    373.3   -260.9 -0.1431E+01 -0.1707E+00
2021  8 11 16 20  128.5267   30.6322  1937.67  347.995   158.3   25.34  21.07    25.05   301.93  300.50    11.4    425.2   -265.2 -0.1603E+01 -0.1570E+00
2021  8 11 16 10  128.5134   30.5763  2045.56  346.518   118.4   25.37  21.60    14.97   301.95  300.97    10.0    521.4   -232.5 -0.2243E+01 -0.1255E+00
2021  8 11 16  0  128.4999   30.5203  2021.46  344.951   105.3   25.40  21.58     7.79   301.97  301.39     8.8    607.3   -201.4 -0.3015E+01 -0.1065E+00
2021  8 11 15 50  128.4865   30.4652  2098.93  344.676   104.3   25.43  21.37     4.17   301.99  301.65     8.0    676.4   -179.2 -0.3774E+01 -0.1963E+00
2021  8 11 15 40  128.4695   30.4136  2173.47  344.432   101.6   25.44  21.23     2.42   302.00  301.79     7.5    650.0   -156.6 -0.4150E+01 -0.3190E-01
2021  8 11 15 30  128.4510   30.3638  2216.40  344.716   107.8   25.46  21.21     2.06   302.01  301.84     7.8    631.9   -177.0 -0.3570E+01 -0.1665E+00
2021  8 11 15 20  128.4290   30.3145  2237.23  344.796   115.8   25.47  21.16     2.10   302.03  301.86     8.3    647.6   -203.6 -0.3181E+01  0.1002E+00
2021  8 11 15 10  128.4049   30.2663  2192.54  344.465   125.7   25.50  21.04     2.40   302.04  301.86     8.7    643.1   -216.8 -0.2967E+01  0.1075E+00
2021  8 11 15  0  128.3819   30.2174  2183.10  344.697   131.8   25.52  20.92     2.32   302.05  301.88     8.8    663.9   -219.4 -0.3026E+01 -0.1019E+00
2021  8 11 14 50  128.3613   30.1685  2187.67  344.853   143.2   25.53  20.82     2.26   302.06  301.90     9.3    672.6   -246.0 -0.2734E+01  0.5184E-01
2021  8 11 14 40  128.3419   30.1200  2202.42  344.890   145.5   25.55  20.70     2.05   302.08  301.93     9.1    681.3   -232.1 -0.2936E+01 -0.7301E-01
2021  8 11 14 30  128.3208   30.0733  2239.57  344.743   138.9   25.56  20.59     1.82   302.09  301.95     8.4    689.7   -188.0 -0.3668E+01  0.5504E-02
2021  8 11 14 20  128.2995   30.0265  2169.52  344.730   151.6   25.59  20.51     2.48   302.10  301.92     9.0    657.7   -211.0 -0.3117E+01  0.1499E+00
2021  8 11 14 10  128.2804   29.9780  2155.31  344.875   156.3   25.61  20.46     2.88   302.11  301.91     9.1    658.5   -212.8 -0.3095E+01 -0.5375E-01
2021  8 11 14  0  128.2635   29.9268  2140.91  344.957   158.0   25.64  20.43     3.29   302.12  301.89     9.1    684.6   -208.7 -0.3281E+01  0.6644E-01
2021  8 11 13 50  128.2466   29.8735  2110.41  344.838   152.5   25.65  20.40     3.48   302.13  301.87     8.7    682.4   -182.9 -0.3730E+01  0.6451E-01
2021  8 11 13 40  128.2282   29.8209  2094.56  344.664   149.9   25.66  20.37     3.52   302.14  301.87     8.5    648.9   -169.0 -0.3840E+01  0.2487E-01
2021  8 11 13 30  128.2102   29.7691  2075.04  344.535   156.9   25.68  20.38     3.95   302.15  301.86     8.9    617.7   -186.7 -0.3310E+01 -0.6157E-02
2021  8 11 13 20  128.1938   29.7165  2077.15  344.406   157.1   25.69  20.39     4.21   302.16  301.85     8.9    586.3   -185.7 -0.3157E+01  0.9721E-02
2021  8 11 13 10  128.1771   29.6666  2069.64  344.394   150.5   25.69  20.47     4.22   302.17  301.85     8.6    598.6   -175.1 -0.3419E+01  0.4145E-01
2021  8 11 13  0  128.1581   29.6218  2067.54  344.539   152.9   25.69  20.64     4.51   302.17  301.85     9.1    667.3   -204.6 -0.3262E+01 -0.6519E-01
2021  8 11 12 50  128.1380   29.5791  2085.77  344.555   144.4   25.70  20.80     4.64   302.18  301.84     8.9    678.0   -198.5 -0.3416E+01  0.1337E-01
2021  8 11 12 40  128.1175   29.5359  2110.49  344.616   138.3   25.71  20.91     4.36   302.19  301.86     8.8    656.0   -194.1 -0.3380E+01 -0.1086E+00
2021  8 11 12 30  128.0985   29.4914  2153.05  344.438   131.3   25.71  20.94     3.70   302.20  301.91     8.4    659.3   -177.2 -0.3720E+01 -0.2121E-01
2021  8 11 12 20  128.0817   29.4465  2152.81  344.224   130.8   25.73  20.91     3.45   302.20  301.93     8.2    655.4   -168.9 -0.3880E+01  0.6643E-01
2021  8 11 12 10  128.0663   29.4012  2117.65  344.465   144.2   25.74  20.84     3.87   302.21  301.93     8.9    661.5   -202.3 -0.3270E+01 -0.4235E-02
2021  8 11 12  0  128.0519   29.3550  2065.65  343.897   142.4   25.76  20.77     4.19   302.22  301.90     8.7    639.8   -182.5 -0.3505E+01  0.1547E+00
2021  8 11 11 50  128.0392   29.3085  2033.48  343.418   129.7   25.77  20.75     4.38   302.23  301.86     7.8    613.3   -136.2 -0.4503E+01 -0.1938E-01
2021  8 11 11 40  128.0274   29.2626  2064.71  343.449   127.8   25.79  20.74     4.50   302.24  301.85     7.6    635.3   -127.2 -0.4996E+01 -0.3140E-01
2021  8 11 11 30  128.0137   29.2183  2101.73  343.753   136.9   25.80  20.80     5.41   302.25  301.82     8.2    644.8   -153.5 -0.4202E+01 -0.1750E+00
2021  8 11 11 20  127.9965   29.1759  2183.75  342.689   140.2   25.82  20.96     6.67   302.26  301.76     8.7    653.6   -176.0 -0.3714E+01 -0.1415E+00
2021  8 11 11 10  127.9781   29.1351  2203.56  342.336   138.6   25.84  21.11     7.49   302.27  301.72     9.0    643.3   -186.8 -0.3443E+01 -0.2545E-01
2021  8 11 11  0  127.9599   29.0940  2256.55  342.052   130.1   25.85  21.31     8.64   302.28  301.64     8.8    628.8   -174.9 -0.3596E+01 -0.1221E+00
2021  8 11 10 50  127.9426   29.0511  2327.82  341.965   118.6   25.86  21.51     9.17   302.29  301.58     8.4    678.0   -157.1 -0.4315E+01 -0.1266E+00
2021  8 11 10 40  127.9257   29.0058  2384.31  341.906   117.8   25.87  21.33     5.94   302.29  301.82     8.0    781.6   -148.9 -0.5249E+01 -0.5712E-01
2021  8 11 10 30  127.9105   28.9584  2388.01  341.959   124.6   25.88  20.88     1.82   302.30  302.14     7.5    842.0   -141.8 -0.5940E+01  0.3956E-01
2021  8 11 10 20  127.8978   28.9109  2338.28  341.847   120.6   25.88  20.72     0.88   302.30  302.22     7.0    764.0   -120.2 -0.6355E+01  0.1278E+00
2021  8 11 10 10  127.8853   28.8631  2269.72  341.868   122.0   25.88  20.68     0.87   302.30  302.21     7.0    718.9   -119.9 -0.5997E+01  0.8437E-01
2021  8 11 10  0  127.8706   28.8153  2264.88  341.891   127.1   25.88  20.70     0.96   302.29  302.21     7.3    730.3   -133.4 -0.5474E+01 -0.5600E-01
2021  8 11  9 50  127.8526   28.7685  2294.75  341.983   128.2   25.88  20.69     0.92   302.30  302.21     7.4    762.1   -136.2 -0.5594E+01 -0.2827E-02
2021  8 11  9 40  127.8328   28.7228  2272.43  341.893   131.8   25.89  20.74     1.21   302.30  302.19     7.7    735.4   -149.1 -0.4932E+01  0.4145E-01
2021  8 11  9 30  127.8147   28.6765  2233.80  341.849   134.0   25.90  20.75     1.48   302.30  302.17     7.8    719.1   -153.4 -0.4688E+01  0.9211E-01
2021  8 11  9 20  127.7994   28.6284  2256.02  341.911   131.5   25.89  20.75     1.55   302.29  302.16     7.7    734.1   -147.3 -0.4983E+01 -0.1786E+00
2021  8 11  9 10  127.7870   28.5790  2303.11  341.932   127.0   25.88  20.74     1.48   302.29  302.16     7.4    765.2   -134.8 -0.5676E+01  0.2673E-01
2021  8 11  9  0  127.7760   28.5285  2280.05  341.928   127.4   25.88  20.75     1.64   302.29  302.14     7.5    746.5   -135.5 -0.5509E+01  0.3496E-01
2021  8 11  8 50  127.7650   28.4776  2282.05  342.000   122.9   25.87  20.73     1.81   302.28  302.12     7.2    755.7   -121.9 -0.6201E+01  0.8672E-02
2021  8 11  8 40  127.7535   28.4268  2306.14  341.934   120.8   25.86  20.75     1.74   302.27  302.11     7.1    775.8   -119.0 -0.6520E+01 -0.8933E-01
2021  8 11  8 30  127.7423   28.3771  2335.90  341.984   116.7   25.84  20.74     1.40   302.27  302.13     6.8    820.5   -112.0 -0.7323E+01 -0.5312E-01
2021  8 11  8 20  127.7319   28.3274  2321.02  341.917   113.9   25.83  20.70     1.22   302.26  302.14     6.6    788.5   -104.0 -0.7580E+01  0.1353E+00
2021  8 11  8 10  127.7224   28.2754  2261.39  341.888   115.4   25.82  20.68     1.12   302.25  302.14     6.7    758.7   -106.8 -0.7103E+01  0.7768E-01
2021  8 11  8  0  127.7150   28.2210  2243.64  341.839   114.0   25.81  20.67     1.09   302.24  302.13     6.6    772.0   -104.8 -0.7367E+01 -0.4860E-01
2021  8 11  7 50  127.7086   28.1660  2266.08  341.807   106.6   25.78  20.68     0.99   302.22  302.12     6.2    826.3    -91.1 -0.9074E+01  0.1078E-01
2021  8 11  7 40  127.7030   28.1106  2259.15  341.716   110.7   25.76  20.70     0.78   302.21  302.12     6.5    831.3   -104.4 -0.7965E+01 -0.6230E-02
2021  8 11  7 30  127.6985   28.0554  2276.40  341.626   114.7   25.73  20.71     0.60   302.19  302.13     6.8    821.3   -118.4 -0.6939E+01 -0.8550E-01
2021  8 11  7 20  127.6947   28.0008  2306.96  341.607   110.1   25.71  20.75     0.55   302.17  302.12     6.7    782.9   -113.3 -0.6910E+01 -0.2134E-01
2021  8 11  7 10  127.6910   27.9462  2284.07  341.546   111.6   25.69  20.83     0.74   302.16  302.09     6.9    725.3   -125.8 -0.5767E+01  0.1273E+00
2021  8 11  7  0  127.6877   27.8914  2262.22  341.416   107.8   25.66  20.91     0.83   302.14  302.06     6.9    693.4   -125.0 -0.5548E+01 -0.1462E-01
2021  8 11  6 50  127.6847   27.8381  2280.02  341.270   107.5   25.64  20.96     1.00   302.12  302.03     7.0    700.1   -128.7 -0.5440E+01 -0.6166E-01
2021  8 11  6 40  127.6824   27.7854  2293.60  341.154   107.5   25.62  20.99     1.14   302.11  302.00     7.1    707.3   -134.0 -0.5279E+01 -0.1110E-01
2021  8 11  6 30  127.6817   27.7326  2318.41  340.963   104.5   25.59  21.04     1.12   302.09  301.99     7.0    714.7   -132.3 -0.5401E+01 -0.7730E-01
2021  8 11  6 20  127.6815   27.6804  2333.83  340.773   102.6   25.57  21.06     1.22   302.08  301.97     6.9    703.4   -130.8 -0.5379E+01  0.5823E-02
2021  8 11  6 10  127.6809   27.6276  2348.72  340.638    96.7   25.56  21.06     0.95   302.08  301.98     6.6    694.7   -116.5 -0.5962E+01 -0.3357E-01
2021  8 11  6  0  127.6806   27.5736  2294.92  340.604   103.9   25.55  21.08     0.26   302.07  302.04     7.1    676.7   -147.9 -0.4575E+01  0.2030E+00
2021  8 11  5 50  127.6800   27.5191  2202.25  340.441   119.0   25.54  21.03    -0.22   302.06  302.07     8.1    643.2   -205.4 -0.3132E+01  0.9850E-01
2021  8 11  5 40  127.6790   27.4664  2213.15  340.402   121.1   25.52  20.97    -0.15   302.05  302.06     8.2    616.0   -206.7 -0.2981E+01 -0.1060E+00
2021  8 11  5 30  127.6791   27.4139  2254.54  340.605   124.1   25.50  20.90    -0.18   302.04  302.05     8.3    619.6   -210.2 -0.2948E+01 -0.3524E-01
2021  8 11  5 20  127.6808   27.3593  2258.93  340.352   129.3   25.48  20.80    -0.12   302.02  302.03     8.4    605.5   -217.1 -0.2789E+01  0.1341E-01
2021  8 11  5 10  127.6824   27.3039  2260.26  340.053   131.0   25.46  20.71     0.35   302.01  301.98     8.4    576.1   -206.7 -0.2788E+01  0.1831E-01
2021  8 11  5  0  127.6853   27.2482  2235.34  339.947   137.2   25.44  20.64     1.31   302.00  301.90     8.7    520.6   -212.6 -0.2449E+01 -0.8184E-01
2021  8 11  4 50  127.6891   27.1928  2243.40  339.811   138.6   25.42  20.61     2.41   301.99  301.81     8.7    474.0   -204.8 -0.2314E+01  0.9499E-02
2021  8 11  4 40  127.6932   27.1372  2205.28  339.618   150.8   25.41  20.66     4.13   301.98  301.70     9.6    499.0   -252.2 -0.1978E+01  0.1029E+00
2021  8 11  4 30  127.6970   27.0808  2205.89  339.584   146.0   25.39  20.76     3.97   301.97  301.72     9.6    609.6   -259.6 -0.2349E+01  0.1022E+00
2021  8 11  4 20  127.7003   27.0234  2156.72  339.521   139.0   25.37  20.82     0.59   301.95  301.96     9.4    742.3   -287.6 -0.2582E+01 -0.4752E-01
2021  8 11  4 10  127.7043   26.9661  2177.93  339.503   122.3   25.35  20.84    -3.91   301.94  302.26     8.4    909.4   -278.1 -0.3270E+01 -0.3832E-01
2021  8 11  4  0  127.7095   26.9084  2200.86  339.508   115.4   25.31  20.79    -5.81   301.92  302.40     7.9    980.8   -277.1 -0.3540E+01 -0.1289E-01
2021  8 11  3 50  127.7162   26.8488  2239.25  339.494   113.0   25.28  20.73    -6.44   301.89  302.45     7.7    942.9   -274.1 -0.3440E+01 -0.8486E-01
2021  8 11  3 40  127.7246   26.7892  2251.38  339.445   123.8   25.25  20.63    -7.54   301.88  302.48     8.3    921.6   -335.6 -0.2746E+01  0.4150E-01
2021  8 11  3 30  127.7351   26.7299  2301.94  339.498   127.3   25.25  20.56    -7.44   301.87  302.46     8.4    967.5   -332.6 -0.2909E+01 -0.1517E+00
2021  8 11  3 20  127.7478   26.6730  2336.25  339.497   125.2   25.23  20.48    -8.63   301.87  302.58     8.1    972.1   -338.9 -0.2868E+01 -0.4961E-01
2021  8 11  3 10  127.7611   26.6154  2342.66  339.446   132.7   25.24  20.35    -9.57   301.88  302.65     8.3    926.9   -364.0 -0.2546E+01  0.2166E-02
2021  8 11  3  0  127.7743   26.5564  2318.85  339.429   143.3   25.28  20.21   -10.77   301.90  302.73     8.7    860.2   -402.9 -0.2135E+01 -0.1021E+00
2021  8 11  2 50  127.7862   26.4986  2393.24  339.445   127.3   25.30  20.17   -10.50   301.92  302.85     7.6    834.0   -318.5 -0.2618E+01 -0.1294E-01
2021  8 11  2 40  127.7981   26.4412  2372.79  339.460   256.6   29.88  20.00   100.82   304.62  303.31     7.1    965.1    -51.3 -0.1880E+02 -0.5837E-01
2021  8 11  2 30  127.8108   26.3836  2414.73  339.374   164.5   34.76  19.67   233.47   307.13  303.70     6.9   1027.7    -27.6 -0.3724E+02  0.4784E-01
2021  8 11  2 20  127.8245   26.3257  2408.73  339.171    13.2   31.56  19.62   173.60   305.53  303.08     7.6    921.9    -43.5 -0.2121E+02 -0.1970E+00
2021  8 11  2 10  127.8405   26.2703  2483.60  338.932   170.8   25.56  20.39    -2.40   302.09  302.25    10.0    848.3   -323.0 -0.2627E+01  0.6243E-01
2021  8 11  2  0  127.8571   26.2159  2442.61  338.998   192.9   25.62  20.28    -2.22   302.13  302.26    10.8    793.1   -386.8 -0.2050E+01  0.1933E-01
2021  8 11  1 50  127.8746   26.1594  2434.02  338.991   195.6   25.67  20.23    -2.06   302.16  302.29    10.8    825.5   -369.9 -0.2232E+01 -0.5215E-01
2021  8 11  1 40  127.8928   26.1034  2428.00  338.971   197.5   25.71  20.14    -1.96   302.19  302.31    10.6    803.7   -345.0 -0.2330E+01  0.1925E+00
2021  8 11  1 30  127.9088   26.0506  2377.19  338.927   217.7   25.75  20.00    -2.33   302.21  302.35    11.2    750.4   -396.7 -0.1891E+01 -0.6902E-01
2021  8 11  1 20  127.9241   25.9997  2432.77  338.801   227.7   25.77  19.86    -2.61   302.23  302.38    11.4    762.2   -399.9 -0.1906E+01 -0.1209E+00
2021  8 11  1 10  127.9408   25.9488  2524.37  338.721   230.5   25.78  19.72    -3.17   302.24  302.43    11.2    775.0   -380.5 -0.2037E+01 -0.1928E+00
2021  8 11  1  0  127.9593   25.8974  2624.95  338.844   224.6   25.78  19.67    -4.05   302.25  302.49    10.8    831.1   -355.0 -0.2341E+01 -0.1099E+00
2021  8 11  0 50  127.9808   25.8447  2662.00  338.909   212.3   25.78  19.77    -4.64   302.25  302.54    10.5    914.7   -338.1 -0.2705E+01  0.5845E-01
2021  8 11  0 40  128.0040   25.7904  2592.23  338.902   212.5   25.78  19.91    -4.85   302.25  302.55    10.7    938.6   -373.7 -0.2512E+01  0.1402E+00
2021  8 11  0 30  128.0273   25.7356  2533.30  338.911   215.3   25.80  20.03    -4.54   302.25  302.52    11.1    924.3   -411.4 -0.2247E+01 -0.2266E-02
2021  8 11  0 20  128.0494   25.6814  2497.80  338.871   206.5   25.79  20.15    -4.30   302.25  302.51    10.9    935.7   -398.8 -0.2346E+01  0.2145E+00
2021  8 11  0 10  128.0691   25.6267  2458.13  338.903   209.1   25.79  20.18    -4.01   302.25  302.48    11.1    910.4   -416.9 -0.2184E+01 -0.8957E-01
2021  8 11  0  0  128.0883   25.5713  2502.44  338.872   210.9   25.78  20.15    -4.00   302.25  302.48    11.1    922.5   -418.2 -0.2206E+01 -0.7870E-01
