2021  8 12  0  0  129.9759   32.6327   500.00  353.166    72.1   22.84  19.29    14.93   300.23  298.66     6.0    402.3    -56.1 -0.7173E+01  0.9323E-01
2021  8 11 23 50  129.9740   32.6186   439.90  352.676    57.6   22.86  19.18    12.23   300.24  298.58     4.4    388.8    -28.1 -0.1385E+02  0.7985E-01
2021  8 11 23 40  129.9653   32.6148   391.18  352.637    51.8   22.88  19.12    11.55   300.24  298.45     3.8    345.9    -20.1 -0.1718E+02  0.8258E-01
2021  8 11 23 30  129.9561   32.6131   449.75  352.301    41.4   22.86  19.19     9.61   300.24  298.42     3.0    364.0    -13.1 -0.2783E+02 -0.2654E+00
2021  8 11 23 20  129.9451   32.6000   483.44  351.961    42.1   22.86  19.30     9.70   300.25  298.53     3.2    403.7    -15.3 -0.2632E+02  0.2185E-01
2021  8 11 23 10  129.9348   32.5830   410.81  352.173    40.4   22.88  19.12     7.84   300.26  298.71     2.9    444.1    -13.2 -0.3360E+02  0.1832E+00
2021  8 11 23  0  129.9215   32.5704   293.98  351.753    24.2   22.90  18.62     2.91   300.26  299.16     1.2    458.4     -3.4 -0.1335E+03  0.3171E+00
2021  8 11 22 50  129.9031   32.5595   167.58  351.729    43.8   22.90  18.66     4.29   300.26  299.35     2.7    393.8    -14.1 -0.2793E+02  0.1278E+00
2021  8 11 22 40  129.8830   32.5439   116.62  351.377    49.0   22.90  18.65     4.68   300.27  299.38     3.1    335.6    -18.3 -0.1830E+02  0.5138E-01
2021  8 11 22 30  129.8649   32.5230    96.74  350.778    49.9   22.92  18.66     4.92   300.28  299.36     3.2    313.8    -18.5 -0.1697E+02  0.1593E-01
2021  8 11 22 20  129.8461   32.4982    87.92  350.564    58.7   22.95  18.76     5.77   300.31  299.41     3.9    283.6    -27.5 -0.1031E+02  0.1789E-01
2021  8 11 22 10  129.8207   32.4683    83.56  350.094    81.5   23.03  18.78     8.47   300.36  299.39     5.4    274.4    -52.1 -0.5263E+01 -0.8333E-02
2021  8 11 22  0  129.7848   32.4351   104.45  349.774    95.7   23.16  18.86    11.46   300.44  299.32     6.4    292.4    -70.9 -0.4126E+01 -0.7539E-01
2021  8 11 21 50  129.7401   32.4032   160.77  349.807    98.3   23.34  18.99    14.24   300.58  299.20     6.5    301.3    -66.2 -0.4549E+01 -0.1038E+00
2021  8 11 21 40  129.6963   32.3647   236.63  349.788   101.3   23.58  19.08    17.02   300.73  299.08     6.4    305.6    -57.8 -0.5288E+01 -0.1746E+00
2021  8 11 21 30  129.6582   32.3194   364.99  349.646    87.1   23.77  19.24    16.60   300.88  298.99     5.3    326.3    -35.7 -0.9146E+01 -0.2629E+00
2021  8 11 21 20  129.6214   32.2718   503.95  349.609    66.3   23.92  19.56    13.52   300.98  299.06     4.1    377.9    -21.6 -0.1748E+02 -0.1661E+00
2021  8 11 21 10  129.5836   32.2262   589.97  349.543    60.5   24.01  19.73    11.85   301.04  299.21     3.8    425.4    -19.5 -0.2183E+02 -0.1455E+00
2021  8 11 21  0  129.5434   32.1837   635.08  349.041   105.6   24.06  19.18    16.80   301.07  299.35     6.1    409.8    -49.0 -0.8358E+01 -0.1555E-01
2021  8 11 20 50  129.4990   32.1370   577.00  349.361   188.1   24.13  18.56    21.77   301.12  299.68     9.7    358.4   -149.0 -0.2405E+01  0.7349E-02
2021  8 11 20 40  129.4557   32.0884   681.01  349.230   193.0   24.20  18.34    18.28   301.18  299.94     9.4    353.0   -141.9 -0.2488E+01 -0.7461E-02
2021  8 11 20 30  129.4108   32.0353   518.86  349.222   249.5   24.32  18.25    20.58   301.25  300.13    11.8    323.8   -258.8 -0.1251E+01  0.1751E+00
2021  8 11 20 20  129.3631   31.9776   570.80  348.772   237.5   24.43  18.40    22.53   301.32  300.04    11.3    325.5   -219.4 -0.1484E+01 -0.5694E-01
2021  8 11 20 10  129.3187   31.9237   598.95  348.314   216.4   24.52  18.74    23.89   301.39  299.96    10.8    326.1   -192.3 -0.1696E+01 -0.3057E-01
2021  8 11 20  0  129.2766   31.8683   647.38  347.991   190.1   24.60  19.38    26.05   301.44  299.86    10.6    333.7   -184.9 -0.1805E+01 -0.1254E+00
2021  8 11 19 50  129.2354   31.8106   735.80  347.315   159.6   24.67  20.03    25.42   301.49  299.88    10.1    350.0   -172.0 -0.2035E+01 -0.2180E+00
2021  8 11 19 40  129.1946   31.7511   843.63  347.339   130.3   24.75  20.60    18.22   301.54  300.30     9.5    397.1   -176.2 -0.2254E+01 -0.2894E+00
2021  8 11 19 30  129.1551   31.6910   950.64  347.195   123.8   24.83  20.66     7.03   301.58  301.06     9.1    515.6   -211.5 -0.2438E+01 -0.2233E+00
2021  8 11 19 20  129.1201   31.6318  1016.75  347.378   128.7   24.89  20.51     1.82   301.62  301.49     9.0    594.4   -247.4 -0.2403E+01 -0.1301E+00
2021  8 11 19 10  129.0870   31.5735  1066.07  348.025   131.6   24.93  20.47     1.43   301.65  301.55     9.0    652.4   -248.5 -0.2625E+01  0.1253E+00
2021  8 11 19  0  129.0585   31.5112   960.39  347.670   151.7   24.97  20.46     2.90   301.67  301.48    10.3    571.8   -328.1 -0.1743E+01  0.3453E-01
2021  8 11 18 50  129.0302   31.4473  1044.69  347.492   144.1   24.99  20.44     3.13   301.68  301.47     9.7    611.9   -274.4 -0.2230E+01 -0.1479E+00
2021  8 11 18 40  129.0013   31.3870  1121.03  347.615   134.1   24.99  20.45     2.56   301.70  301.51     9.0    642.8   -232.2 -0.2768E+01 -0.6072E-01
2021  8 11 18 30  128.9739   31.3282  1162.61  347.611   132.6   25.01  20.45     2.61   301.71  301.52     8.8    672.0   -220.7 -0.3045E+01 -0.7750E-01
2021  8 11 18 20  128.9477   31.2698  1180.12  347.742   136.7   25.04  20.45     2.89   301.73  301.52     9.1    688.6   -232.6 -0.2961E+01 -0.1250E-01
2021  8 11 18 10  128.9207   31.2114  1149.31  347.809   143.1   25.06  20.43     3.05   301.74  301.53     9.4    658.0   -250.8 -0.2624E+01  0.1012E+00
2021  8 11 18  0  128.8938   31.1527  1060.96  347.565   146.7   25.09  20.39     3.52   301.76  301.52     9.5    585.4   -247.8 -0.2362E+01  0.1773E+00
2021  8 11 17 50  128.8687   31.0937  1000.36  347.524   144.8   25.12  20.38     4.14   301.78  301.49     9.3    552.8   -228.0 -0.2424E+01  0.1027E+00
2021  8 11 17 40  128.8426   31.0338   976.06  347.218   148.4   25.15  20.43     5.05   301.80  301.45     9.5    520.9   -238.1 -0.2188E+01  0.7327E-01
2021  8 11 17 30  128.8169   30.9711   986.50  347.251   154.1   25.18  20.53     6.18   301.82  301.41    10.1    527.1   -268.7 -0.1962E+01 -0.1466E+00
2021  8 11 17 20  128.7931   30.9062  1012.99  347.787   161.8   25.20  20.63     7.42   301.84  301.39    10.8    549.1   -320.0 -0.1716E+01 -0.5665E-01
2021  8 11 17 10  128.7701   30.8400  1027.15  347.444   156.5   25.24  20.75     8.68   301.86  301.33    10.7    536.7   -303.5 -0.1769E+01  0.6565E-01
2021  8 11 17  0  128.7501   30.7744   985.98  347.311   155.8   25.28  20.78     9.62   301.88  301.29    10.6    519.9   -288.3 -0.1803E+01  0.8214E-01
2021  8 11 16 50  128.7322   30.7096  1000.11  347.173   150.7   25.31  20.86    10.01   301.90  301.27    10.4    515.4   -272.6 -0.1890E+01 -0.8543E-01
2021  8 11 16 40  128.7146   30.6476  1093.76  347.094   136.7   25.33  20.99     9.90   301.93  301.26     9.7    543.3   -227.5 -0.2389E+01 -0.1603E+00
2021  8 11 16 30  128.6982   30.5887  1151.85  347.034   134.9   25.37  21.06    10.64   301.95  301.23     9.6    569.1   -219.1 -0.2597E+01 -0.8569E-01
2021  8 11 16 20  128.6840   30.5308  1204.92  347.131   141.6   25.40  21.07    10.32   301.97  301.30    10.1    596.6   -250.1 -0.2386E+01 -0.2393E+00
2021  8 11 16 10  128.6700   30.4748  1262.35  347.891   147.2   25.43  21.03     8.04   301.99  301.48    10.3    627.6   -283.6 -0.2213E+01 -0.8206E-01
2021  8 11 16  0  128.6542   30.4204  1391.29  346.842   142.4   25.45  20.98     5.08   302.01  301.67     9.8    601.3   -269.9 -0.2228E+01 -0.2511E+00
2021  8 11 15 50  128.6387   30.3696  1437.26  347.288   139.5   25.47  21.02     5.09   302.02  301.68     9.7    586.4   -258.8 -0.2266E+01  0.3721E-01
2021  8 11 15 40  128.6247   30.3173  1347.67  347.544   143.9   25.49  21.03     5.55   302.04  301.67     9.9    551.4   -273.5 -0.2016E+01  0.2382E+00
2021  8 11 15 30  128.6099   30.2626  1325.30  347.074   149.1   25.52  21.04     5.88   302.05  301.68    10.2    538.4   -294.9 -0.1826E+01 -0.3968E-01
2021  8 11 15 20  128.5939   30.2062  1357.38  346.995   156.1   25.54  21.05     5.79   302.07  301.72    10.7    573.1   -335.5 -0.1708E+01 -0.1008E+00
2021  8 11 15 10  128.5759   30.1494  1391.43  347.402   160.7   25.56  21.06     5.65   302.09  301.75    11.0    609.9   -360.3 -0.1693E+01 -0.2696E-01
2021  8 11 15  0  128.5566   30.0931  1368.25  347.318   162.0   25.59  21.06     5.53   302.10  301.77    11.0    607.9   -365.6 -0.1663E+01  0.1052E+00
2021  8 11 14 50  128.5348   30.0378  1385.97  347.017   151.7   25.61  21.05     4.64   302.12  301.82    10.2    596.2   -302.6 -0.1970E+01 -0.1108E+00
2021  8 11 14 40  128.5103   29.9859  1463.86  347.277   143.1   25.62  21.06     3.86   302.13  301.87     9.7    629.6   -264.9 -0.2376E+01 -0.2033E+00
2021  8 11 14 30  128.4856   29.9362  1526.15  346.915   137.1   25.65  21.11     3.65   302.15  301.89     9.3    698.1   -244.8 -0.2852E+01 -0.5230E-01
2021  8 11 14 20  128.4609   29.8861  1505.81  346.487   130.6   25.67  21.20     3.51   302.16  301.90     9.0    738.5   -228.9 -0.3226E+01  0.1299E+00
2021  8 11 14 10  128.4371   29.8338  1441.97  346.128   130.5   25.70  21.27     3.62   302.17  301.91     9.1    721.0   -235.0 -0.3067E+01  0.9384E-01
2021  8 11 14  0  128.4132   29.7801  1409.79  346.162   131.2   25.71  21.27     3.68   302.18  301.91     9.1    724.3   -235.6 -0.3074E+01  0.2589E-01
2021  8 11 13 50  128.3867   29.7265  1385.51  346.094   130.1   25.73  21.17     3.70   302.19  301.91     8.8    706.6   -208.5 -0.3389E+01  0.5069E-01
2021  8 11 13 40  128.3595   29.6734  1327.34  345.804   134.1   25.75  21.09     4.37   302.19  301.87     8.8    664.0   -200.6 -0.3310E+01  0.1078E+00
2021  8 11 13 30  128.3333   29.6197  1323.45  345.864   134.9   25.75  21.02     4.66   302.20  301.85     8.7    665.4   -188.9 -0.3523E+01 -0.7792E-01
2021  8 11 13 20  128.3074   29.5670  1338.26  345.779   134.3   25.75  20.94     4.80   302.21  301.84     8.5    666.8   -174.1 -0.3829E+01  0.5376E-01
2021  8 11 13 10  128.2814   29.5149  1308.59  345.592   135.5   25.75  20.84     4.83   302.21  301.83     8.3    625.7   -164.6 -0.3801E+01  0.5885E-01
2021  8 11 13  0  128.2539   29.4625  1281.96  345.599   143.5   25.76  20.79     5.27   302.22  301.82     8.7    589.8   -179.8 -0.3281E+01 -0.4627E-01
2021  8 11 12 50  128.2251   29.4091  1296.13  345.858   143.9   25.77  20.73     5.26   302.23  301.83     8.6    589.2   -171.7 -0.3431E+01  0.1579E-01
2021  8 11 12 40  128.1960   29.3552  1279.27  345.336   142.9   25.78  20.66     5.51   302.24  301.81     8.4    539.7   -156.4 -0.3450E+01  0.1268E+00
2021  8 11 12 30  128.1683   29.3001  1288.56  345.446   147.3   25.79  20.65     5.89   302.25  301.80     8.6    548.1   -162.9 -0.3365E+01 -0.1587E+00
2021  8 11 12 20  128.1426   29.2440  1334.99  346.034   167.4   25.80  20.63     6.87   302.25  301.79     9.7    619.1   -219.8 -0.2817E+01 -0.9756E-01
2021  8 11 12 10  128.1180   29.1872  1372.67  346.055   169.5   25.82  20.55     6.89   302.26  301.79     9.7    641.3   -214.2 -0.2994E+01 -0.9093E-02
2021  8 11 12  0  128.0942   29.1307  1381.87  345.777   164.1   25.83  20.54     7.20   302.27  301.76     9.3    600.8   -190.6 -0.3153E+01  0.6951E-01
2021  8 11 11 50  128.0707   29.0733  1370.92  345.718   152.1   25.84  20.65     7.10   302.28  301.75     8.8    585.8   -166.1 -0.3526E+01 -0.5310E-01
2021  8 11 11 40  128.0473   29.0157  1378.58  346.066   158.4   25.86  20.56     5.40   302.29  301.89     9.0    664.9   -182.7 -0.3639E+01 -0.4875E-01
2021  8 11 11 30  128.0222   28.9588  1394.31  345.781   162.7   25.87  20.22     2.82   302.29  302.07     8.6    706.4   -167.5 -0.4216E+01  0.8318E-01
2021  8 11 11 20  127.9946   28.9033  1369.51  346.136   157.2   25.86  20.22     2.42   302.29  302.09     8.3    725.7   -155.5 -0.4668E+01 -0.3675E-01
2021  8 11 11 10  127.9665   28.8495  1397.22  345.900   145.2   25.86  20.39     2.53   302.28  302.07     7.9    740.5   -143.4 -0.5164E+01 -0.4668E-01
2021  8 11 11  0  127.9389   28.7953  1435.10  346.104   139.0   25.85  20.53     2.62   302.28  302.06     7.8    770.3   -141.0 -0.5463E+01 -0.7388E-01
2021  8 11 10 50  127.9131   28.7394  1463.93  346.178   142.3   25.85  20.58     2.57   302.28  302.07     8.1    754.8   -155.5 -0.4854E+01 -0.1324E-01
2021  8 11 10 40  127.8892   28.6816  1468.27  346.025   143.7   25.85  20.64     2.83   302.28  302.05     8.3    705.9   -165.8 -0.4259E+01  0.2312E-01
2021  8 11 10 30  127.8669   28.6216  1453.93  346.125   143.0   25.84  20.79     3.30   302.28  302.02     8.5    695.7   -180.2 -0.3861E+01  0.6396E-02
2021  8 11 10 20  127.8452   28.5595  1455.51  346.214   138.6   25.84  20.90     3.71   302.27  301.99     8.5    704.8   -179.8 -0.3920E+01 -0.5121E-01
2021  8 11 10 10  127.8215   28.4969  1470.04  346.236   131.8   25.83  20.93     3.38   302.27  302.00     8.1    719.5   -162.8 -0.4420E+01  0.2047E-01
2021  8 11 10  0  127.7953   28.4337  1461.24  346.164   141.1   25.83  20.61     2.08   302.26  302.09     8.1    722.8   -161.5 -0.4476E+01  0.2809E-01
2021  8 11  9 50  127.7674   28.3696  1466.48  346.138   166.3   25.82  19.99     0.14   302.26  302.25     8.5    721.3   -173.9 -0.4148E+01 -0.5003E-01
2021  8 11  9 40  127.7388   28.3058  1484.72  346.110   164.2   25.82  19.98     0.77   302.25  302.19     8.3    691.0   -163.2 -0.4234E+01 -0.2142E-01
2021  8 11  9 30  127.7112   28.2416  1482.79  345.973   153.4   25.81  20.16     1.22   302.24  302.14     8.1    665.6   -152.8 -0.4355E+01  0.1732E-02
2021  8 11  9 20  127.6850   28.1764  1485.40  346.059   145.4   25.79  20.25     1.21   302.23  302.13     7.8    647.0   -143.6 -0.4505E+01  0.1038E-01
2021  8 11  9 10  127.6601   28.1101  1466.06  346.160   143.0   25.77  20.31     1.31   302.22  302.11     7.8    612.7   -144.8 -0.4230E+01  0.3222E-01
2021  8 11  9  0  127.6368   28.0423  1459.53  346.054   140.3   25.76  20.35     1.41   302.21  302.09     7.7    588.4   -142.2 -0.4137E+01 -0.1342E-01
2021  8 11  8 50  127.6163   27.9740  1459.93  345.947   137.5   25.74  20.37     1.35   302.20  302.08     7.6    588.8   -139.3 -0.4225E+01  0.2591E-01
2021  8 11  8 40  127.5972   27.9051  1459.18  345.867   142.0   25.73  20.40     1.41   302.19  302.07     7.9    608.2   -154.4 -0.3939E+01 -0.3183E-01
2021  8 11  8 30  127.5799   27.8350  1423.35  345.977   153.7   25.72  20.42     1.76   302.18  302.05     8.7    626.2   -192.0 -0.3262E+01  0.7606E-01
2021  8 11  8 20  127.5636   27.7640  1424.35  345.779   149.2   25.71  20.43     1.84   302.17  302.03     8.5    652.0   -180.6 -0.3611E+01 -0.8595E-02
2021  8 11  8 10  127.5469   27.6944  1437.99  345.586   142.0   25.70  20.47     1.74   302.17  302.03     8.1    683.5   -164.8 -0.4148E+01 -0.2520E-01
2021  8 11  8  0  127.5309   27.6252  1426.67  345.559   146.6   25.69  20.47     1.81   302.16  302.02     8.4    684.4   -180.2 -0.3797E+01 -0.9547E-02
2021  8 11  7 50  127.5170   27.5551  1442.73  345.544   147.1   25.67  20.48     1.69   302.15  302.02     8.5    706.4   -186.8 -0.3781E+01  0.6748E-02
2021  8 11  7 40  127.5049   27.4842  1471.26  345.629   144.9   25.65  20.48     1.58   302.14  302.01     8.4    735.4   -183.0 -0.4018E+01 -0.7548E-01
2021  8 11  7 30  127.4941   27.4128  1470.29  345.569   152.0   25.64  20.48     1.66   302.12  302.00     8.9    727.7   -208.4 -0.3492E+01  0.1149E-01
2021  8 11  7 20  127.4842   27.3409  1482.04  345.714   146.6   25.62  20.48     1.56   302.11  301.99     8.6    731.3   -194.2 -0.3765E+01 -0.1443E-01
2021  8 11  7 10  127.4749   27.2693  1462.20  345.518   146.5   25.61  20.48     1.63   302.10  301.98     8.6    698.9   -194.4 -0.3595E+01  0.7926E-01
2021  8 11  7  0  127.4664   27.1965  1445.82  345.438   147.8   25.59  20.49     1.54   302.09  301.97     8.7    682.8   -203.4 -0.3358E+01 -0.2541E-01
2021  8 11  6 50  127.4585   27.1230  1487.62  345.478   142.9   25.57  20.51     1.19   302.08  301.99     8.5    710.9   -195.0 -0.3646E+01 -0.6647E-01
2021  8 11  6 40  127.4515   27.0492  1497.05  345.177   144.6   25.55  20.51     1.03   302.07  301.99     8.7    704.3   -205.3 -0.3431E+01  0.2213E-01
2021  8 11  6 30  127.4452   26.9745  1483.14  345.397   149.7   25.54  20.51     1.02   302.05  301.98     9.0    707.2   -225.8 -0.3133E+01 -0.9411E-02
2021  8 11  6 20  127.4398   26.8987  1479.70  345.248   158.3   25.52  20.48     1.03   302.04  301.97     9.5    699.2   -259.4 -0.2695E+01 -0.5447E-01
2021  8 11  6 10  127.4349   26.8226  1473.14  345.241   161.5   25.50  20.45     1.02   302.03  301.96     9.7    697.7   -269.8 -0.2586E+01  0.1191E+00
2021  8 11  6  0  127.4317   26.7453  1484.61  345.079   158.3   25.47  20.42     0.91   302.01  301.95     9.5    693.9   -257.3 -0.2697E+01 -0.7866E-01
2021  8 11  5 50  127.4308   26.6674  1490.40  345.013   158.2   25.44  20.41     0.84   301.99  301.93     9.5    669.3   -261.1 -0.2564E+01  0.1007E+00
2021  8 11  5 40  127.4311   26.5872  1435.74  345.046   161.9   25.40  20.40     0.83   301.96  301.91     9.8    617.5   -283.8 -0.2176E+01  0.5997E-01
2021  8 11  5 30  127.4317   26.5072  1415.75  345.018   158.3   25.37  20.42     0.67   301.95  301.90     9.7    610.0   -277.5 -0.2198E+01  0.7254E-01
2021  8 11  5 20  127.4324   26.4274  1401.57  345.021   163.0   25.37  20.42     0.77   301.94  301.89    10.0    626.8   -301.6 -0.2079E+01  0.2513E-02
2021  8 11  5 10  127.4326   26.3470  1463.30  344.731   164.5   25.38  20.43     0.90   301.95  301.89    10.1    674.8   -307.4 -0.2195E+01 -0.1623E+00
2021  8 11  5  0  127.4328   26.2673  1515.71  344.462   158.4   25.39  20.43     0.77   301.96  301.91     9.7    713.0   -275.6 -0.2587E+01  0.1138E+00
2021  8 11  4 50  127.4342   26.1868  1458.22  344.265   171.2   25.43  20.44     1.17   301.99  301.91    10.4    690.1   -326.1 -0.2116E+01  0.1934E-02
2021  8 11  4 40  127.4356   26.1060  1491.58  344.015   164.8   25.48  20.45     1.13   302.02  301.95     9.9    700.4   -287.6 -0.2435E+01 -0.6365E-01
2021  8 11  4 30  127.4383   26.0253  1488.57  343.952   170.0   25.54  20.48     1.57   302.06  301.96    10.1    696.6   -299.0 -0.2330E+01  0.1051E+00
2021  8 11  4 20  127.4430   25.9425  1513.91  343.878   169.0   25.60  20.53     1.96   302.10  301.97    10.1    714.7   -289.7 -0.2467E+01 -0.1105E+00
2021  8 11  4 10  127.4491   25.8609  1499.63  343.733   179.6   25.67  20.63     2.82   302.14  301.97    10.7    702.0   -338.1 -0.2076E+01  0.8595E-01
2021  8 11  4  0  127.4571   25.7771  1480.05  343.614   179.1   25.72  20.72     3.41   302.18  301.97    10.8    684.6   -341.6 -0.2004E+01  0.1124E+00
2021  8 11  3 50  127.4670   25.6929  1454.77  343.483   185.3   25.77  20.76     4.26   302.21  301.96    11.2    659.0   -363.2 -0.1814E+01  0.9313E-01
2021  8 11  3 40  127.4784   25.6077  1413.42  343.445   187.6   25.80  20.78     5.20   302.23  301.93    11.3    628.9   -363.2 -0.1732E+01  0.1147E+00
2021  8 11  3 30  127.4905   25.5215  1401.21  343.357   186.4   25.83  20.86     6.43   302.24  301.87    11.3    610.5   -360.6 -0.1693E+01 -0.1199E+00
2021  8 11  3 20  127.5025   25.4362  1456.89  343.212   179.4   25.83  20.97     7.34   302.25  301.82    11.2    642.0   -341.5 -0.1880E+01 -0.3936E-01
2021  8 11  3 10  127.5148   25.3504  1431.53  343.359   179.7   25.83  21.06     8.37   302.25  301.77    11.4    627.5   -362.0 -0.1734E+01  0.3489E-01
2021  8 11  3  0  127.5274   25.2629  1455.80  342.726   163.3   25.82  21.18     8.07   302.25  301.76    10.7    584.7   -309.0 -0.1892E+01  0.1655E+00
2021  8 11  2 50  127.5408   25.1730  1442.29  342.272   157.4   25.81  21.31     8.46   302.24  301.73    10.7    551.2   -310.1 -0.1777E+01 -0.1308E+00
2021  8 11  2 40  127.5560   25.0810  1515.59  342.110   135.9   25.79  21.49     6.88   302.24  301.78     9.8    650.1   -259.1 -0.2509E+01 -0.2461E+00
2021  8 11  2 30  127.5724   24.9888  1624.36  342.492   125.6   25.78  21.40     2.48   302.23  302.04     8.9    766.9   -234.7 -0.3268E+01 -0.8524E-01
2021  8 11  2 20  127.5898   24.8971  1619.41  342.253   165.4   25.77  20.97     2.06   302.22  302.10    10.5    728.0   -344.0 -0.2116E+01  0.8367E-01
2021  8 11  2 10  127.6071   24.8047  1624.24  341.974   165.2   25.76  20.95     2.83   302.22  302.04    10.5    724.3   -327.6 -0.2211E+01 -0.4452E-01
2021  8 11  2  0  127.6235   24.7130  1615.96  341.905   162.4   25.76  21.09     3.95   302.21  301.97    10.7    736.0   -341.5 -0.2155E+01 -0.2295E+00
2021  8 11  1 50  127.6372   24.6230  1639.29  342.053   163.6   25.76  21.01     2.99   302.21  302.03    10.5    847.2   -336.2 -0.2520E+01  0.2154E+00
2021  8 11  1 40  127.6513   24.5298  1578.17  342.449   182.2   25.77  20.76     0.94   302.22  302.16    11.0    903.8   -387.6 -0.2332E+01  0.5369E-01
2021  8 11  1 30  127.6664   24.4348  1522.01  342.336   212.0   25.79  20.36    -1.18   302.23  302.29    11.6    909.1   -446.9 -0.2034E+01  0.7477E-01
2021  8 11  1 20  127.6837   24.3375  1543.74  342.788   221.9   25.82  20.26    -0.88   302.25  302.29    11.9    937.0   -454.4 -0.2062E+01 -0.3671E-01
2021  8 11  1 10  127.7053   24.2385  1553.94  342.753   243.0   25.84  20.15    -0.99   302.27  302.32    12.6    929.6   -523.9 -0.1774E+01 -0.1007E+00
2021  8 11  1  0  127.7275   24.1420  1597.79  342.919   242.3   25.85  20.00    -2.20   302.28  302.39    12.2    950.4   -482.8 -0.1969E+01  0.5788E-01
2021  8 11  0 50  127.7502   24.0474  1601.30  343.140   232.0   25.86  19.97    -1.90   302.29  302.39    11.6    938.2   -420.7 -0.2230E+01  0.1142E+00
2021  8 11  0 40  127.7719   23.9518  1564.52  342.599   241.2   25.89  19.93    -1.20   302.30  302.36    11.9    858.0   -435.3 -0.1971E+01 -0.4509E-01
2021  8 11  0 30  127.7917   23.8554  1599.86  342.424   234.2   25.90  20.00    -1.14   302.31  302.37    11.7    848.2   -416.0 -0.2039E+01 -0.1322E+00
2021  8 11  0 20  127.8118   23.7593  1608.46  342.375   241.8   25.93  20.02    -0.60   302.32  302.36    12.0    808.8   -443.3 -0.1825E+01 -0.4403E-01
2021  8 11  0 10  127.8319   23.6633  1626.38  342.374   232.6   25.94  20.07    -0.38   302.33  302.35    11.7    802.0   -413.3 -0.1940E+01  0.3313E-02
2021  8 11  0  0  127.8510   23.5687  1565.82  342.105   251.8   25.95  20.07     0.11   302.34  302.34    12.6    748.9   -493.5 -0.1517E+01  0.1702E+00
