2021  8 12  0  0  130.0059   32.6622   500.00  352.709    65.5   22.81  19.22    13.46   300.21  298.63     5.2    399.2    -42.4 -0.9415E+01  0.8871E-01
2021  8 11 23 50  129.9971   32.6493   430.33  352.258    55.1   22.82  19.15    11.55   300.22  298.57     4.2    380.3    -25.9 -0.1471E+02  0.1581E+00
2021  8 11 23 40  129.9905   32.6455   422.49  352.138    50.1   22.85  19.13    11.29   300.22  298.43     3.7    359.2    -19.5 -0.1841E+02 -0.1381E+00
2021  8 11 23 30  129.9832   32.6393   498.10  351.935    50.3   22.83  19.22    11.68   300.23  298.44     3.8    406.0    -20.8 -0.1947E+02 -0.1478E+00
2021  8 11 23 20  129.9762   32.6258   483.05  351.871    50.9   22.84  19.19    11.27   300.24  298.55     3.9    436.4    -22.2 -0.1964E+02  0.2003E+00
2021  8 11 23 10  129.9729   32.6137   343.04  351.763    38.9   22.87  18.80     5.93   300.25  298.91     2.4    500.3    -10.3 -0.4865E+02  0.2793E+00
2021  8 11 23  0  129.9734   32.6045   209.60  352.054    39.4   22.89  18.72     5.38   300.26  299.05     2.4    434.4    -10.3 -0.4210E+02  0.1552E+00
2021  8 11 22 50  129.9755   32.5904   143.10  352.140    51.2   22.91  18.80     6.91   300.27  299.08     3.4    381.0    -19.3 -0.1972E+02  0.7839E-01
2021  8 11 22 40  129.9728   32.5722   122.80  352.346    45.7   22.93  18.85     6.50   300.29  299.03     3.0    379.4    -14.8 -0.2557E+02 -0.2889E-02
2021  8 11 22 30  129.9641   32.5553   137.00  352.770    46.4   22.95  18.88     6.47   300.30  299.07     3.0    399.4    -15.8 -0.2526E+02 -0.3936E-01
2021  8 11 22 20  129.9527   32.5380   149.40  353.283    52.7   22.95  18.95     6.74   300.31  299.20     3.6    445.2    -22.8 -0.1950E+02 -0.5543E-02
2021  8 11 22 10  129.9400   32.5179   123.24  353.384    63.1   22.96  19.01     8.22   300.32  299.21     4.5    439.9    -34.7 -0.1268E+02  0.7353E-01
2021  8 11 22  0  129.9257   32.4927    84.47  353.070    78.3   22.99  18.93    10.35   300.33  299.16     5.5    390.1    -51.2 -0.7626E+01  0.4958E-01
2021  8 11 21 50  129.9055   32.4639    69.34  352.636    85.6   23.00  18.84    11.27   300.34  299.15     5.9    379.4    -58.7 -0.6457E+01  0.4117E-02
2021  8 11 21 40  129.8842   32.4309    60.58  351.373   111.1   23.04  18.60    12.82   300.36  299.24     7.3    369.2    -92.6 -0.3989E+01  0.2940E-01
2021  8 11 21 30  129.8645   32.3872    55.44  349.995   132.1   23.11  18.33    12.54   300.41  299.41     8.0    340.9   -117.1 -0.2910E+01 -0.5655E-02
2021  8 11 21 20  129.8481   32.3436    64.15  348.741   122.7   23.22  18.24    13.60   300.49  299.26     7.0    320.5    -76.8 -0.4172E+01 -0.1771E-01
2021  8 11 21 10  129.8253   32.3000    92.83  348.047   131.8   23.41  18.49    18.97   300.63  299.06     7.6    325.3    -85.2 -0.3817E+01 -0.1009E+00
2021  8 11 21  0  129.7911   32.2547   188.03  347.408   132.0   23.68  19.03    23.89   300.82  298.98     8.2    338.5    -95.7 -0.3539E+01 -0.2973E+00
2021  8 11 20 50  129.7514   32.2032   376.39  347.834   123.2   23.90  19.59    25.82   300.97  299.02     8.4    354.7   -101.3 -0.3500E+01 -0.4534E+00
2021  8 11 20 40  129.7094   32.1457   601.00  347.198   121.7   24.00  19.59    25.97   301.04  299.01     8.0    359.8    -88.0 -0.4088E+01 -0.4736E+00
2021  8 11 20 30  129.6614   32.0853   892.97  348.060   108.8   24.03  19.49    22.72   301.06  298.99     6.8    323.9    -58.1 -0.5573E+01 -0.5768E+00
2021  8 11 20 20  129.6142   32.0270   847.77  349.868    66.1   24.09  19.70    13.19   301.09  299.21     4.1    319.8    -21.5 -0.1485E+02  0.4535E+00
2021  8 11 20 10  129.5698   31.9659   761.99  349.210    70.5   24.19  19.91    12.01   301.16  299.59     4.6    322.6    -30.2 -0.1068E+02 -0.1929E+00
2021  8 11 20  0  129.5243   31.9081   832.68  349.086    66.5   24.30  20.25     6.42   301.24  300.39     4.8    411.7    -43.4 -0.9489E+01 -0.2102E-01
2021  8 11 19 50  129.4771   31.8522   885.49  348.583    77.4   24.40  20.88     0.44   301.30  301.24     6.9    670.1   -170.5 -0.3929E+01 -0.2586E+00
2021  8 11 19 40  129.4306   31.7959   972.80  348.665   108.3   24.49  20.86    -3.57   301.36  301.61     9.4    796.1   -455.9 -0.1746E+01 -0.2711E+00
2021  8 11 19 30  129.3882   31.7380  1103.57  348.524   105.7   24.57  20.78    -3.24   301.42  301.66     8.8    875.6   -363.6 -0.2408E+01 -0.1864E+00
2021  8 11 19 20  129.3499   31.6788   970.47  348.981   124.5   24.66  20.73    -2.41   301.46  301.62     9.9    693.6   -436.1 -0.1590E+01  0.1795E+00
2021  8 11 19 10  129.3114   31.6176   927.98  349.169   131.6   24.73  20.71    -1.95   301.51  301.64    10.2    668.1   -447.3 -0.1494E+01 -0.2046E-01
2021  8 11 19  0  129.2719   31.5565   972.59  349.225   135.5   24.80  20.73    -1.32   301.56  301.64    10.4    695.1   -441.1 -0.1576E+01 -0.1597E+00
2021  8 11 18 50  129.2335   31.4964  1032.23  349.348   131.7   24.85  20.74    -0.85   301.60  301.65    10.0    731.4   -384.5 -0.1902E+01 -0.6076E-01
2021  8 11 18 40  129.1959   31.4372  1060.85  349.212   127.8   24.89  20.73    -0.58   301.63  301.67     9.5    743.4   -336.2 -0.2211E+01 -0.2931E-01
2021  8 11 18 30  129.1597   31.3785  1081.38  349.108   122.3   24.92  20.73    -0.40   301.65  301.68     9.0    741.7   -290.9 -0.2550E+01  0.4157E-02
2021  8 11 18 20  129.1263   31.3201  1090.08  349.047   115.3   24.95  20.75     0.08   301.67  301.66     8.5    742.0   -243.8 -0.3043E+01 -0.2078E-01
2021  8 11 18 10  129.0948   31.2617  1102.07  349.173   110.1   24.98  20.81     0.47   301.69  301.65     8.2    755.8   -217.8 -0.3470E+01 -0.5517E-01
2021  8 11 18  0  129.0633   31.2035  1065.69  349.532   113.4   25.01  20.85     0.85   301.71  301.64     8.5    735.1   -234.5 -0.3135E+01  0.1502E+00
2021  8 11 17 50  129.0309   31.1426  1017.54  349.275   122.2   25.05  20.87     1.59   301.73  301.61     9.1    664.1   -268.1 -0.2477E+01  0.7313E-01
2021  8 11 17 40  128.9994   31.0798   979.91  349.566   132.8   25.08  20.89     2.29   301.75  301.60     9.8    634.3   -317.0 -0.2001E+01 -0.8444E-02
2021  8 11 17 30  128.9687   31.0145   972.76  349.826   141.7   25.12  20.95     3.20   301.78  301.58    10.6    628.9   -375.7 -0.1674E+01  0.4873E-02
2021  8 11 17 20  128.9405   30.9474   962.80  349.746   143.1   25.16  20.96     3.82   301.81  301.57    10.6    617.1   -365.4 -0.1689E+01  0.7422E-01
2021  8 11 17 10  128.9168   30.8796   918.50  349.943   148.1   25.21  21.03     4.50   301.84  301.57    11.0    596.5   -402.5 -0.1482E+01  0.3295E-01
2021  8 11 17  0  128.8934   30.8117   936.04  350.171   147.0   25.25  21.08     5.16   301.87  301.56    10.9    596.1   -387.1 -0.1540E+01 -0.1037E+00
2021  8 11 16 50  128.8695   30.7464   997.92  350.020   136.0   25.29  21.18     5.59   301.89  301.54    10.3    600.2   -324.7 -0.1849E+01 -0.5103E-01
2021  8 11 16 40  128.8459   30.6836  1037.53  349.978   126.6   25.33  21.22     5.76   301.92  301.53     9.6    606.2   -264.9 -0.2289E+01 -0.8180E-01
2021  8 11 16 30  128.8238   30.6231  1061.23  350.241   122.0   25.36  21.23     5.93   301.94  301.52     9.2    615.0   -233.7 -0.2631E+01 -0.2127E-01
2021  8 11 16 20  128.8034   30.5626  1032.63  350.524   126.2   25.40  21.24     6.12   301.97  301.54     9.4    592.7   -247.5 -0.2395E+01  0.8669E-01
2021  8 11 16 10  128.7830   30.5013  1071.86  350.289   128.9   25.43  21.21     6.03   301.99  301.57     9.5    584.2   -249.4 -0.2342E+01 -0.1619E+00
2021  8 11 16  0  128.7632   30.4422  1082.59  350.680   129.2   25.45  21.18     5.85   302.01  301.60     9.4    584.4   -240.7 -0.2428E+01  0.8114E-01
2021  8 11 15 50  128.7455   30.3834  1064.55  350.460   131.3   25.47  21.09     5.87   302.02  301.61     9.3    555.9   -227.6 -0.2443E+01  0.1462E-01
2021  8 11 15 40  128.7290   30.3241  1082.71  350.733   134.3   25.49  21.06     5.52   302.04  301.65     9.3    556.2   -232.9 -0.2388E+01 -0.3631E-01
2021  8 11 15 30  128.7112   30.2633  1084.18  350.709   149.6   25.52  21.01     5.77   302.06  301.69    10.2    532.6   -289.8 -0.1838E+01 -0.2871E-01
2021  8 11 15 20  128.6936   30.2008  1117.15  350.808   153.8   25.55  20.98     5.90   302.08  301.70    10.3    537.8   -297.1 -0.1810E+01 -0.3066E-01
2021  8 11 15 10  128.6773   30.1370  1100.46  350.724   165.7   25.58  20.95     7.06   302.10  301.68    10.9    535.6   -334.6 -0.1601E+01  0.2011E-01
2021  8 11 15  0  128.6601   30.0729  1110.29  351.016   165.3   25.61  20.94     7.33   302.12  301.67    10.8    560.3   -320.3 -0.1749E+01 -0.5846E-01
2021  8 11 14 50  128.6385   30.0119  1130.61  350.857   157.6   25.63  20.92     6.98   302.14  301.69    10.2    584.4   -274.9 -0.2126E+01  0.3434E-02
2021  8 11 14 40  128.6148   29.9540  1147.05  350.648   150.7   25.65  20.91     6.57   302.15  301.71     9.7    597.6   -237.0 -0.2521E+01 -0.1563E-01
2021  8 11 14 30  128.5918   29.8976  1141.54  350.764   150.9   25.68  20.90     6.74   302.17  301.71     9.6    608.1   -229.9 -0.2646E+01  0.1753E-01
2021  8 11 14 20  128.5711   29.8404  1110.53  350.773   160.1   25.71  20.88     7.49   302.18  301.70    10.1    602.5   -250.9 -0.2401E+01  0.5402E-01
2021  8 11 14 10  128.5512   29.7819  1092.38  350.796   162.1   25.74  20.88     7.75   302.20  301.70    10.1    604.9   -253.9 -0.2382E+01  0.6738E-01
2021  8 11 14  0  128.5298   29.7229  1061.81  350.820   160.5   25.75  20.90     7.57   302.21  301.71    10.1    600.0   -249.2 -0.2408E+01  0.4506E-01
2021  8 11 13 50  128.5069   29.6633  1055.31  350.963   163.7   25.77  20.93     7.82   302.22  301.72    10.3    603.3   -264.2 -0.2283E+01 -0.5294E-01
2021  8 11 13 40  128.4826   29.6042  1079.28  351.081   163.0   25.79  20.93     7.97   302.23  301.71    10.2    615.7   -258.2 -0.2385E+01 -0.3180E-01
2021  8 11 13 30  128.4574   29.5468  1079.12  350.924   160.5   25.80  21.00     7.87   302.23  301.73    10.2    643.1   -261.2 -0.2462E+01 -0.4520E-02
2021  8 11 13 20  128.4326   29.4912  1075.72  350.694   152.3   25.79  21.06     6.85   302.23  301.78     9.9    658.0   -245.6 -0.2679E+01  0.5307E-01
2021  8 11 13 10  128.4087   29.4364  1057.15  350.382   144.1   25.79  21.12     6.18   302.24  301.81     9.5    651.8   -227.7 -0.2863E+01  0.4392E-01
2021  8 11 13  0  128.3843   29.3811  1032.20  350.299   143.2   25.79  21.16     5.98   302.24  301.83     9.5    650.3   -231.1 -0.2815E+01  0.5880E-02
2021  8 11 12 50  128.3597   29.3249   998.30  350.129   142.2   25.80  21.18     5.52   302.25  301.87     9.5    622.1   -233.7 -0.2662E+01  0.1212E+00
2021  8 11 12 40  128.3352   29.2664   975.81  349.907   143.8   25.81  21.17     5.12   302.26  301.91     9.5    609.3   -241.6 -0.2522E+01 -0.5057E-01
2021  8 11 12 30  128.3105   29.2081   989.99  350.226   136.1   25.81  21.15     4.42   302.26  301.94     9.0    634.1   -210.4 -0.3013E+01 -0.3545E-01
2021  8 11 12 20  128.2853   29.1497  1010.77  349.714   128.7   25.82  21.13     4.27   302.26  301.93     8.4    616.8   -177.5 -0.3475E+01  0.3770E-01
2021  8 11 12 10  128.2604   29.0899  1044.46  349.644   125.8   25.82  21.14     4.30   302.26  301.92     8.2    628.2   -167.5 -0.3751E+01 -0.1271E+00
2021  8 11 12  0  128.2367   29.0279  1095.24  350.011   132.8   25.81  21.17     4.93   302.26  301.89     8.8    666.5   -193.9 -0.3437E+01 -0.1280E+00
2021  8 11 11 50  128.2140   28.9646  1129.47  350.105   132.5   25.81  21.15     5.34   302.26  301.86     8.7    677.6   -187.7 -0.3610E+01 -0.1411E-01
2021  8 11 11 40  128.1924   28.9007  1127.42  349.994   133.5   25.80  21.08     5.32   302.25  301.85     8.6    665.4   -182.0 -0.3655E+01  0.6464E-01
2021  8 11 11 30  128.1712   28.8361  1110.64  350.039   138.0   25.78  20.92     4.74   302.24  301.88     8.6    663.9   -181.7 -0.3655E+01  0.2372E-01
2021  8 11 11 20  128.1485   28.7730  1087.15  350.117   131.6   25.77  20.73     4.07   302.23  301.89     7.9    661.2   -142.3 -0.4646E+01  0.7319E-01
2021  8 11 11 10  128.1245   28.7117  1052.14  350.002   122.1   25.76  20.67     4.11   302.22  301.85     7.2    648.2   -111.6 -0.5809E+01  0.4299E-01
2021  8 11 11  0  128.0988   28.6510  1032.44  350.200   120.6   25.75  20.71     3.63   302.21  301.88     7.2    664.3   -114.5 -0.5803E+01 -0.2097E-01
2021  8 11 10 50  128.0721   28.5900  1052.88  350.311   128.5   25.73  20.45     2.54   302.20  301.97     7.2    676.2   -117.8 -0.5738E+01 -0.3299E-01
2021  8 11 10 40  128.0469   28.5290  1077.82  350.398   133.1   25.72  20.38     2.36   302.20  301.99     7.4    684.6   -124.1 -0.5517E+01 -0.8577E-01
2021  8 11 10 30  128.0230   28.4667  1151.32  350.345   138.0   25.70  20.30     1.40   302.19  302.07     7.6    748.0   -136.8 -0.5470E+01 -0.1186E+00
2021  8 11 10 20  127.9979   28.4020  1179.41  350.452   148.2   25.68  20.18     0.50   302.18  302.13     8.0    812.2   -159.3 -0.5098E+01 -0.8970E-01
2021  8 11 10 10  127.9702   28.3342  1194.29  350.546   153.8   25.66  20.13     0.03   302.16  302.16     8.3    848.7   -175.1 -0.4847E+01  0.2721E-01
2021  8 11 10  0  127.9408   28.2636  1184.24  350.651   156.7   25.65  20.10    -0.09   302.15  302.16     8.4    852.5   -183.3 -0.4650E+01  0.3157E-01
2021  8 11  9 50  127.9101   28.1910  1155.25  350.541   155.9   25.64  20.03    -0.21   302.14  302.16     8.3    807.8   -173.6 -0.4652E+01  0.1070E+00
2021  8 11  9 40  127.8788   28.1172  1133.64  350.548   152.4   25.62  19.98     0.46   302.13  302.09     8.0    751.7   -155.6 -0.4830E+01 -0.2612E-02
2021  8 11  9 30  127.8465   28.0448  1131.48  350.517   143.0   25.61  19.97     2.13   302.12  301.94     7.5    692.6   -122.7 -0.5644E+01 -0.2203E-01
2021  8 11  9 20  127.8151   27.9728  1109.99  350.532   142.3   25.60  20.02     4.74   302.11  301.70     7.5    557.9   -113.0 -0.4939E+01  0.4848E-01
2021  8 11  9 10  127.7854   27.8971  1090.75  350.529   141.9   25.58  20.10     7.42   302.10  301.47     7.6    444.0   -108.3 -0.4098E+01 -0.2336E-01
2021  8 11  9  0  127.7584   27.8184  1130.69  350.363   117.6   25.55  20.43     8.29   302.08  301.29     6.7    431.5    -80.9 -0.5337E+01 -0.4984E-01
2021  8 11  8 50  127.7345   27.7388  1155.32  350.197   112.3   25.54  20.56     5.83   302.07  301.50     6.7    527.8    -88.5 -0.5963E+01  0.7174E-02
2021  8 11  8 40  127.7142   27.6598  1114.09  350.245   161.9   25.53  19.83     1.41   302.06  301.94     8.4    606.8   -164.5 -0.3689E+01  0.1135E+00
2021  8 11  8 30  127.6952   27.5822  1050.70  350.400   172.5   25.53  19.60     2.00   302.06  301.91     8.5    557.4   -163.1 -0.3416E+01  0.9045E-01
2021  8 11  8 20  127.6760   27.5048   993.46  350.343   151.2   25.53  19.90     3.29   302.06  301.79     7.9    506.1   -135.2 -0.3743E+01  0.1650E+00
2021  8 11  8 10  127.6593   27.4241   924.60  350.353   143.4   25.52  20.18     4.57   302.05  301.68     8.0    473.2   -138.3 -0.3421E+01  0.4293E-01
2021  8 11  8  0  127.6449   27.3422   879.69  350.300   130.4   25.50  20.49     5.27   302.04  301.60     7.8    452.9   -134.1 -0.3378E+01  0.1226E+00
2021  8 11  7 50  127.6318   27.2597   833.71  350.288   135.8   25.48  20.53     4.84   302.03  301.64     8.3    446.0   -158.9 -0.2807E+01 -0.2738E-02
2021  8 11  7 40  127.6180   27.1767   860.01  350.121   153.6   25.47  20.28     4.36   302.02  301.69     8.9    450.4   -186.3 -0.2418E+01 -0.9998E-01
2021  8 11  7 30  127.6017   27.0927   908.93  350.160   169.9   25.46  20.15     5.72   302.01  301.62     9.5    448.5   -212.3 -0.2113E+01 -0.9528E-01
2021  8 11  7 20  127.5851   27.0078   972.42  350.145   160.1   25.45  20.19     7.03   302.00  301.49     9.1    449.1   -180.6 -0.2487E+01 -0.5732E-01
2021  8 11  7 10  127.5700   26.9231   942.43  350.053   158.1   25.42  20.24     7.93   301.98  301.42     9.1    439.0   -179.1 -0.2451E+01  0.1399E+00
2021  8 11  7  0  127.5560   26.8375   890.77  350.159   161.3   25.40  20.26     9.73   301.97  301.29     9.4    432.3   -184.9 -0.2339E+01  0.2155E-01
2021  8 11  6 50  127.5409   26.7511   896.01  350.265   155.1   25.38  20.34    11.41   301.95  301.15     9.2    448.2   -169.3 -0.2647E+01 -0.3570E-01
2021  8 11  6 40  127.5245   26.6638   945.76  350.191   145.1   25.36  20.40    10.50   301.94  301.16     8.8    482.0   -154.7 -0.3116E+01 -0.1398E+00
2021  8 11  6 30  127.5092   26.5764  1000.13  350.124   140.0   25.34  20.39     7.96   301.92  301.31     8.5    518.8   -152.5 -0.3402E+01  0.3144E-01
2021  8 11  6 20  127.4986   26.4856   966.15  350.105   160.1   25.33  20.26     7.04   301.92  301.43     9.4    512.7   -206.1 -0.2488E+01  0.4082E-01
2021  8 11  6 10  127.4921   26.3931   920.37  350.130   169.3   25.35  20.28     7.64   301.93  301.43    10.0    489.5   -238.9 -0.2049E+01  0.5370E-01
2021  8 11  6  0  127.4869   26.3002   919.19  350.138   175.0   25.39  20.36     9.37   301.96  301.37    10.4    475.6   -258.2 -0.1842E+01 -0.2870E-01
2021  8 11  5 50  127.4827   26.2070  1003.38  350.146   156.6   25.44  20.43     9.19   301.99  301.36     9.4    493.6   -193.5 -0.2551E+01 -0.1032E+00
2021  8 11  5 40  127.4784   26.1154   985.29  350.154   164.7   25.51  20.47     8.92   302.03  301.44     9.9    488.1   -220.6 -0.2213E+01  0.3705E-01
2021  8 11  5 30  127.4754   26.0213  1035.05  350.241   175.8   25.57  20.34     7.13   302.08  301.61    10.1    514.1   -240.4 -0.2139E+01 -0.1537E+00
2021  8 11  5 20  127.4729   25.9276  1064.29  350.208   181.8   25.63  20.18     5.83   302.12  301.73    10.0    544.7   -232.7 -0.2341E+01  0.3364E-01
2021  8 11  5 10  127.4718   25.8328  1021.74  350.183   182.2   25.70  20.21     6.58   302.16  301.73     9.9    529.1   -222.8 -0.2375E+01  0.1163E+00
2021  8 11  5  0  127.4716   25.7351   982.78  350.123   192.3   25.75  20.23     7.42   302.20  301.73    10.4    505.6   -248.4 -0.2036E+01 -0.3262E-01
2021  8 11  4 50  127.4715   25.6379  1004.57  350.233   191.3   25.79  20.22     8.00   302.22  301.71    10.2    504.4   -231.8 -0.2176E+01  0.3571E-01
2021  8 11  4 40  127.4739   25.5382   958.28  350.229   202.8   25.83  20.31     9.60   302.24  301.67    10.9    489.8   -273.7 -0.1789E+01 -0.2864E-01
2021  8 11  4 30  127.4782   25.4378   965.11  350.178   199.9   25.84  20.34     9.08   302.25  301.70    10.8    476.0   -271.2 -0.1755E+01  0.8129E-01
2021  8 11  4 20  127.4845   25.3362   968.45  350.248   228.3   25.84  20.14    11.22   302.25  301.63    11.8    440.9   -327.1 -0.1348E+01 -0.1414E+00
2021  8 11  4 10  127.4912   25.2360  1008.92  350.459   223.3   25.83  20.16    15.00   302.24  301.41    11.6    438.4   -285.9 -0.1533E+01 -0.1157E-02
2021  8 11  4  0  127.4975   25.1339  1047.66  350.357   190.1   25.82  20.50    17.29   302.24  301.18    10.6    446.0   -217.6 -0.2049E+01 -0.1736E+00
2021  8 11  3 50  127.5041   25.0310  1137.01  350.250   170.9   25.80  20.68    12.96   302.23  301.38    10.1    497.1   -207.3 -0.2397E+01 -0.2798E-01
2021  8 11  3 40  127.5138   24.9285  1098.98  350.297   215.4   25.79  20.43    13.72   302.23  301.48    11.9    447.6   -334.1 -0.1340E+01  0.5586E-01
2021  8 11  3 30  127.5239   24.8278  1067.23  350.368   223.1   25.78  20.32    16.24   302.22  301.35    12.1    426.2   -324.2 -0.1315E+01  0.7702E-01
2021  8 11  3 20  127.5316   24.7264  1083.31  350.420   195.7   25.78  20.53    17.71   302.22  301.19    11.1    441.0   -248.3 -0.1776E+01 -0.1138E+00
2021  8 11  3 10  127.5405   24.6250  1106.50  350.676   169.4   25.78  20.65    15.01   302.23  301.24     9.9    488.7   -189.1 -0.2584E+01  0.2511E-01
2021  8 11  3  0  127.5538   24.5249  1070.02  350.494   188.0   25.78  20.46    15.18   302.23  301.29    10.6    480.1   -223.3 -0.2150E+01  0.3680E-01
2021  8 11  2 50  127.5695   24.4274  1020.69  350.340   194.9   25.80  20.45    18.60   302.24  301.12    10.8    432.3   -223.8 -0.1932E+01  0.1064E+00
2021  8 11  2 40  127.5862   24.3299   983.38  350.533   191.3   25.83  20.48    21.18   302.25  300.96    10.6    422.2   -200.9 -0.2102E+01 -0.8904E-03
2021  8 11  2 30  127.6046   24.2333   982.72  350.378   185.0   25.85  20.46    23.84   302.27  300.75    10.2    386.1   -166.5 -0.2319E+01 -0.9960E-02
2021  8 11  2 20  127.6257   24.1369  1027.81  350.070   165.4   25.86  20.51    24.56   302.28  300.54     9.1    378.4   -118.9 -0.3182E+01 -0.1786E-01
2021  8 11  2 10  127.6477   24.0407  1041.16  350.498   156.5   25.87  20.49    25.79   302.29  300.35     8.5    358.8    -94.8 -0.3787E+01 -0.2133E+00
2021  8 11  2  0  127.6707   23.9427  1111.61  351.255   145.9   25.90  20.57    26.70   302.30  300.17     7.9    361.8    -77.3 -0.4682E+01 -0.2342E+00
2021  8 11  1 50  127.6937   23.8408  1186.73  351.201   134.6   25.92  20.82    23.59   302.31  300.37     7.8    369.4    -78.3 -0.4716E+01 -0.2420E-01
2021  8 11  1 40  127.7152   23.7398  1274.98  350.903   123.8   25.93  21.14    16.93   302.33  300.92     7.8    427.1    -94.7 -0.4510E+01  0.1128E+00
2021  8 11  1 30  127.7365   23.6399  1226.39  350.747   127.9   25.95  21.16     8.88   302.34  301.63     8.1    679.1   -133.9 -0.5070E+01  0.4287E+00
2021  8 11  1 20  127.7580   23.5381  1130.79  351.714   154.3   25.98  21.09     4.17   302.35  302.06     9.7    804.0   -247.4 -0.3249E+01  0.3051E+00
2021  8 11  1 10  127.7739   23.4378  1090.93  352.514   194.3   26.02  20.83     0.92   302.37  302.32    11.4    815.1   -409.1 -0.1992E+01  0.1854E+00
2021  8 11  1  0  127.7857   23.3361  1141.01  353.375   230.9   26.07  20.58    -0.23   302.41  302.42    12.6    845.3   -537.9 -0.1571E+01 -0.1081E+00
2021  8 11  0 50  127.7956   23.2360  1155.44  352.293   231.0   26.11  20.58     0.79   302.44  302.40    12.4    911.1   -499.9 -0.1822E+01  0.9120E-01
2021  8 11  0 40  127.8070   23.1340  1117.14  351.724   234.2   26.14  20.63     1.75   302.46  302.37    12.6    893.6   -508.9 -0.1756E+01  0.3992E-01
2021  8 11  0 30  127.8181   23.0320  1064.98  351.621   234.3   26.17  20.64     2.09   302.47  302.37    12.6    866.7   -500.6 -0.1731E+01  0.1242E+00
2021  8 11  0 20  127.8297   22.9293  1001.29  351.719   247.3   26.18  20.64     2.75   302.48  302.35    13.2    807.9   -562.2 -0.1437E+01  0.3367E-01
2021  8 11  0 10  127.8405   22.8269  1030.45  351.191   228.5   26.17  20.66     2.59   302.48  302.34    12.3    827.9   -466.8 -0.1773E+01 -0.8436E-02
2021  8 11  0  0  127.8503   22.7275   998.31  351.078   226.6   26.18  20.68     2.84   302.48  302.33    12.3    795.8   -458.3 -0.1736E+01  0.5651E-01
