# m =   1.00000
# k =   1.00000
# t0=   0.00000
# te=  30.00000
# x0=   1.00000
# u0=   0.00000
# dt=   0.05000
# n =       600
# t, x, u, xa, ua
   0.00000  0.100000E+01  0.000000E+00  0.100000E+01  0.000000E+00
   0.05000  0.100000E+01 -0.500000E-01  0.998750E+00 -0.499792E-01
   0.10000  0.997500E+00 -0.100000E+00  0.995004E+00 -0.998334E-01
   0.15000  0.992500E+00 -0.149875E+00  0.988771E+00 -0.149438E+00
   0.20000  0.985006E+00 -0.199500E+00  0.980067E+00 -0.198669E+00
   0.25000  0.975031E+00 -0.248750E+00  0.968912E+00 -0.247404E+00
   0.30000  0.962594E+00 -0.297502E+00  0.955337E+00 -0.295520E+00
   0.35000  0.947719E+00 -0.345632E+00  0.939373E+00 -0.342898E+00
   0.40000  0.930437E+00 -0.393017E+00  0.921061E+00 -0.389418E+00
   0.45000  0.910786E+00 -0.439539E+00  0.900447E+00 -0.434966E+00
   0.50000  0.888809E+00 -0.485079E+00  0.877583E+00 -0.479426E+00
   0.55000  0.864555E+00 -0.529519E+00  0.852525E+00 -0.522687E+00
   0.60000  0.838079E+00 -0.572747E+00  0.825336E+00 -0.564642E+00
   0.65000  0.809442E+00 -0.614651E+00  0.796084E+00 -0.605186E+00
   0.70000  0.778709E+00 -0.655123E+00  0.764842E+00 -0.644218E+00
   0.75000  0.745953E+00 -0.694058E+00  0.731689E+00 -0.681639E+00
   0.80000  0.711250E+00 -0.731356E+00  0.696707E+00 -0.717356E+00
   0.85000  0.674683E+00 -0.766919E+00  0.659983E+00 -0.751280E+00
   0.90000  0.636337E+00 -0.800653E+00  0.621610E+00 -0.783327E+00
   0.95000  0.596304E+00 -0.832470E+00  0.581683E+00 -0.813416E+00
   1.00000  0.554681E+00 -0.862285E+00  0.540302E+00 -0.841471E+00
   1.05000  0.511566E+00 -0.890019E+00  0.497571E+00 -0.867423E+00
   1.10000  0.467065E+00 -0.915597E+00  0.453596E+00 -0.891207E+00
   1.15000  0.421285E+00 -0.938950E+00  0.408487E+00 -0.912764E+00
   1.20000  0.374338E+00 -0.960015E+00  0.362358E+00 -0.932039E+00
   1.25000  0.326337E+00 -0.978732E+00  0.315322E+00 -0.948985E+00
   1.30000  0.277401E+00 -0.995048E+00  0.267499E+00 -0.963558E+00
   1.35000  0.227648E+00 -0.100892E+01  0.219007E+00 -0.975723E+00
   1.40000  0.177202E+00 -0.102030E+01  0.169967E+00 -0.985450E+00
   1.45000  0.126187E+00 -0.102916E+01  0.120503E+00 -0.992713E+00
   1.50000  0.747292E-01 -0.103547E+01  0.707372E-01 -0.997495E+00
   1.55000  0.229557E-01 -0.103921E+01  0.207948E-01 -0.999784E+00
   1.60000 -0.290047E-01 -0.104035E+01 -0.291995E-01 -0.999574E+00
   1.65000 -0.810224E-01 -0.103890E+01 -0.791209E-01 -0.996865E+00
   1.70000 -0.132968E+00 -0.103485E+01 -0.128845E+00 -0.991665E+00
   1.75000 -0.184710E+00 -0.102821E+01 -0.178246E+00 -0.983986E+00
   1.80000 -0.236121E+00 -0.101897E+01 -0.227202E+00 -0.973848E+00
   1.85000 -0.287069E+00 -0.100716E+01 -0.275590E+00 -0.961275E+00
   1.90000 -0.337427E+00 -0.992810E+00 -0.323290E+00 -0.946300E+00
   1.95000 -0.387068E+00 -0.975939E+00 -0.370181E+00 -0.928960E+00
   2.00000 -0.435865E+00 -0.956585E+00 -0.416147E+00 -0.909297E+00
   2.05000 -0.483694E+00 -0.934792E+00 -0.461073E+00 -0.887362E+00
   2.10000 -0.530434E+00 -0.910607E+00 -0.504846E+00 -0.863209E+00
   2.15000 -0.575964E+00 -0.884086E+00 -0.547358E+00 -0.836899E+00
   2.20000 -0.620168E+00 -0.855287E+00 -0.588501E+00 -0.808496E+00
   2.25000 -0.662933E+00 -0.824279E+00 -0.628174E+00 -0.778073E+00
   2.30000 -0.704147E+00 -0.791132E+00 -0.666276E+00 -0.745705E+00
   2.35000 -0.743703E+00 -0.755925E+00 -0.702713E+00 -0.711473E+00
   2.40000 -0.781499E+00 -0.718740E+00 -0.737394E+00 -0.675463E+00
   2.45000 -0.817436E+00 -0.679665E+00 -0.770231E+00 -0.637765E+00
   2.50000 -0.851420E+00 -0.638793E+00 -0.801144E+00 -0.598472E+00
   2.55000 -0.883359E+00 -0.596222E+00 -0.830054E+00 -0.557684E+00
   2.60000 -0.913170E+00 -0.552054E+00 -0.856889E+00 -0.515501E+00
   2.65000 -0.940773E+00 -0.506396E+00 -0.881582E+00 -0.472030E+00
   2.70000 -0.966093E+00 -0.459357E+00 -0.904072E+00 -0.427380E+00
   2.75000 -0.989061E+00 -0.411052E+00 -0.924302E+00 -0.381661E+00
   2.80000 -0.100961E+01 -0.361599E+00 -0.942222E+00 -0.334988E+00
   2.85000 -0.102769E+01 -0.311119E+00 -0.957787E+00 -0.287478E+00
   2.90000 -0.104325E+01 -0.259734E+00 -0.970958E+00 -0.239249E+00
   2.95000 -0.105624E+01 -0.207572E+00 -0.981702E+00 -0.190423E+00
   3.00000 -0.106661E+01 -0.154760E+00 -0.989992E+00 -0.141120E+00
   3.05000 -0.107435E+01 -0.101429E+00 -0.995808E+00 -0.914647E-01
   3.10000 -0.107942E+01 -0.477115E-01 -0.999135E+00 -0.415805E-01
   3.15000 -0.108181E+01  0.625974E-02 -0.999965E+00  0.840734E-02
   3.20000 -0.108150E+01  0.603502E-01 -0.998295E+00  0.583742E-01
   3.25000 -0.107848E+01  0.114425E+00 -0.994130E+00  0.108195E+00
   3.30000 -0.107276E+01  0.168349E+00 -0.987480E+00  0.157746E+00
   3.35000 -0.106434E+01  0.221987E+00 -0.978362E+00  0.206902E+00
   3.40000 -0.105324E+01  0.275204E+00 -0.966798E+00  0.255541E+00
   3.45000 -0.103948E+01  0.327866E+00 -0.952818E+00  0.303542E+00
   3.50000 -0.102309E+01  0.379840E+00 -0.936457E+00  0.350783E+00
   3.55000 -0.100410E+01  0.430994E+00 -0.917755E+00  0.397148E+00
   3.60000 -0.982546E+00  0.481199E+00 -0.896758E+00  0.442521E+00
   3.65000 -0.958486E+00  0.530326E+00 -0.873521E+00  0.486787E+00
   3.70000 -0.931970E+00  0.578251E+00 -0.848100E+00  0.529836E+00
   3.75000 -0.903057E+00  0.624849E+00 -0.820559E+00  0.571561E+00
   3.80000 -0.871815E+00  0.670002E+00 -0.790968E+00  0.611858E+00
   3.85000 -0.838315E+00  0.713593E+00 -0.759399E+00  0.650625E+00
   3.90000 -0.802635E+00  0.755508E+00 -0.725932E+00  0.687766E+00
   3.95000 -0.764859E+00  0.795640E+00 -0.690651E+00  0.723188E+00
   4.00000 -0.725078E+00  0.833883E+00 -0.653644E+00  0.756802E+00
   4.05000 -0.683383E+00  0.870137E+00 -0.615002E+00  0.788525E+00
   4.10000 -0.639876E+00  0.904306E+00 -0.574824E+00  0.818277E+00
   4.15000 -0.594661E+00  0.936300E+00 -0.533209E+00  0.845984E+00
   4.20000 -0.547846E+00  0.966033E+00 -0.490261E+00  0.871576E+00
   4.25000 -0.499545E+00  0.993425E+00 -0.446087E+00  0.894989E+00
   4.30000 -0.449873E+00  0.101840E+01 -0.400799E+00  0.916166E+00
   4.35000 -0.398953E+00  0.104090E+01 -0.354509E+00  0.935053E+00
   4.40000 -0.346908E+00  0.106084E+01 -0.307333E+00  0.951602E+00
   4.45000 -0.293866E+00  0.107819E+01 -0.259388E+00  0.965773E+00
   4.50000 -0.239957E+00  0.109288E+01 -0.210796E+00  0.977530E+00
   4.55000 -0.185313E+00  0.110488E+01 -0.161676E+00  0.986844E+00
   4.60000 -0.130068E+00  0.111415E+01 -0.112153E+00  0.993691E+00
   4.65000 -0.743612E-01  0.112065E+01 -0.623484E-01  0.998054E+00
   4.70000 -0.183287E-01  0.112437E+01 -0.123884E-01  0.999923E+00
   4.75000  0.378897E-01  0.112528E+01  0.376022E-01  0.999293E+00
   4.80000  0.941539E-01  0.112339E+01  0.874992E-01  0.996165E+00
   4.85000  0.150323E+00  0.111868E+01  0.137177E+00  0.990547E+00
   4.90000  0.206257E+00  0.111117E+01  0.186512E+00  0.982453E+00
   4.95000  0.261816E+00  0.110085E+01  0.235382E+00  0.971903E+00
   5.00000  0.316858E+00  0.108776E+01  0.283662E+00  0.958924E+00
   5.05000  0.371247E+00  0.107192E+01  0.331234E+00  0.943549E+00
   5.10000  0.424843E+00  0.105336E+01  0.377978E+00  0.925815E+00
   5.15000  0.477510E+00  0.103211E+01  0.423777E+00  0.905767E+00
   5.20000  0.529116E+00  0.100824E+01  0.468517E+00  0.883455E+00
   5.25000  0.579528E+00  0.981783E+00  0.512085E+00  0.858935E+00
   5.30000  0.628617E+00  0.952807E+00  0.554375E+00  0.832267E+00
   5.35000  0.676258E+00  0.921376E+00  0.595277E+00  0.803520E+00
   5.40000  0.722326E+00  0.887563E+00  0.634693E+00  0.772764E+00
   5.45000  0.766705E+00  0.851447E+00  0.672522E+00  0.740077E+00
   5.50000  0.809277E+00  0.813112E+00  0.708670E+00  0.705540E+00
   5.55000  0.849933E+00  0.772648E+00  0.743047E+00  0.669240E+00
   5.60000  0.888565E+00  0.730151E+00  0.775566E+00  0.631267E+00
   5.65000  0.925072E+00  0.685723E+00  0.806147E+00  0.591716E+00
   5.70000  0.959359E+00  0.639470E+00  0.834713E+00  0.550685E+00
   5.75000  0.991332E+00  0.591502E+00  0.861192E+00  0.508279E+00
   5.80000  0.102091E+01  0.541935E+00  0.885520E+00  0.464602E+00
   5.85000  0.104800E+01  0.490890E+00  0.907633E+00  0.419764E+00
   5.90000  0.107255E+01  0.438489E+00  0.927478E+00  0.373877E+00
   5.95000  0.109447E+01  0.384862E+00  0.945005E+00  0.327055E+00
   6.00000  0.111372E+01  0.330138E+00  0.960170E+00  0.279415E+00
   6.05000  0.113022E+01  0.274453E+00  0.972935E+00  0.231078E+00
   6.10000  0.114395E+01  0.217941E+00  0.983268E+00  0.182163E+00
   6.15000  0.115484E+01  0.160744E+00  0.991144E+00  0.132792E+00
   6.20000  0.116288E+01  0.103002E+00  0.996542E+00  0.830891E-01
   6.25000  0.116803E+01  0.448580E-01  0.999449E+00  0.331792E-01
   6.30000  0.117027E+01 -0.135435E-01  0.999859E+00 -0.168141E-01
   6.35000  0.116960E+01 -0.720572E-01  0.997769E+00 -0.667649E-01
   6.40000  0.116599E+01 -0.130537E+00  0.993185E+00 -0.116549E+00
   6.45000  0.115947E+01 -0.188837E+00  0.986119E+00 -0.166042E+00
   6.50000  0.115002E+01 -0.246810E+00  0.976588E+00 -0.215120E+00
   6.55000  0.113768E+01 -0.304311E+00  0.964616E+00 -0.263660E+00
   6.60000  0.112247E+01 -0.361195E+00  0.950233E+00 -0.311541E+00
   6.65000  0.110441E+01 -0.417319E+00  0.933474E+00 -0.358644E+00
   6.70000  0.108354E+01 -0.472539E+00  0.914383E+00 -0.404850E+00
   6.75000  0.105992E+01 -0.526716E+00  0.893006E+00 -0.450044E+00
   6.80000  0.103358E+01 -0.579712E+00  0.869397E+00 -0.494114E+00
   6.85000  0.100459E+01 -0.631391E+00  0.843616E+00 -0.536948E+00
   6.90000  0.973024E+00 -0.681621E+00  0.815725E+00 -0.578440E+00
   6.95000  0.938943E+00 -0.730272E+00  0.785796E+00 -0.618486E+00
   7.00000  0.902430E+00 -0.777219E+00  0.753902E+00 -0.656987E+00
   7.05000  0.863569E+00 -0.822340E+00  0.720124E+00 -0.693845E+00
   7.10000  0.822452E+00 -0.865519E+00  0.684547E+00 -0.728969E+00
   7.15000  0.779176E+00 -0.906642E+00  0.647258E+00 -0.762271E+00
   7.20000  0.733844E+00 -0.945600E+00  0.608351E+00 -0.793668E+00
   7.25000  0.686564E+00 -0.982293E+00  0.567924E+00 -0.823081E+00
   7.30000  0.637449E+00 -0.101662E+01  0.526077E+00 -0.850437E+00
   7.35000  0.586618E+00 -0.104849E+01  0.482916E+00 -0.875667E+00
   7.40000  0.534193E+00 -0.107782E+01  0.438547E+00 -0.898708E+00
   7.45000  0.480302E+00 -0.110453E+01  0.393082E+00 -0.919503E+00
   7.50000  0.425076E+00 -0.112855E+01  0.346635E+00 -0.938000E+00
   7.55000  0.368648E+00 -0.114980E+01  0.299321E+00 -0.954152E+00
   7.60000  0.311158E+00 -0.116824E+01  0.251260E+00 -0.967920E+00
   7.65000  0.252746E+00 -0.118379E+01  0.202570E+00 -0.979268E+00
   7.70000  0.193557E+00 -0.119643E+01  0.153374E+00 -0.988168E+00
   7.75000  0.133735E+00 -0.120611E+01  0.103794E+00 -0.994599E+00
   7.80000  0.734297E-01 -0.121279E+01  0.539552E-01 -0.998543E+00
   7.85000  0.127899E-01 -0.121647E+01  0.398172E-02 -0.999992E+00
   7.90000 -0.480334E-01 -0.121711E+01 -0.460022E-01 -0.998941E+00
   7.95000 -0.108889E+00 -0.121470E+01 -0.958712E-01 -0.995394E+00
   8.00000 -0.169624E+00 -0.120926E+01 -0.145500E+00 -0.989358E+00
   8.05000 -0.230087E+00 -0.120078E+01 -0.194766E+00 -0.980850E+00
   8.10000 -0.290126E+00 -0.118927E+01 -0.243545E+00 -0.969890E+00
   8.15000 -0.349590E+00 -0.117477E+01 -0.291715E+00 -0.956505E+00
   8.20000 -0.408328E+00 -0.115729E+01 -0.339155E+00 -0.940731E+00
   8.25000 -0.466192E+00 -0.113687E+01 -0.385748E+00 -0.922604E+00
   8.30000 -0.523036E+00 -0.111356E+01 -0.431377E+00 -0.902172E+00
   8.35000 -0.578714E+00 -0.108741E+01 -0.475928E+00 -0.879484E+00
   8.40000 -0.633085E+00 -0.105848E+01 -0.519289E+00 -0.854599E+00
   8.45000 -0.686008E+00 -0.102682E+01 -0.561352E+00 -0.827577E+00
   8.50000 -0.737349E+00 -0.992520E+00 -0.602012E+00 -0.798487E+00
   8.55000 -0.786976E+00 -0.955653E+00 -0.641167E+00 -0.767401E+00
   8.60000 -0.834758E+00 -0.916304E+00 -0.678720E+00 -0.734397E+00
   8.65000 -0.880573E+00 -0.874566E+00 -0.714577E+00 -0.699557E+00
   8.70000 -0.924302E+00 -0.830538E+00 -0.748646E+00 -0.662969E+00
   8.75000 -0.965829E+00 -0.784323E+00 -0.780846E+00 -0.624724E+00
   8.80000 -0.100504E+01 -0.736031E+00 -0.811093E+00 -0.584917E+00
   8.85000 -0.104185E+01 -0.685779E+00 -0.839313E+00 -0.543648E+00
   8.90000 -0.107614E+01 -0.633686E+00 -0.865435E+00 -0.501020E+00
   8.95000 -0.110782E+01 -0.579880E+00 -0.889394E+00 -0.457141E+00
   9.00000 -0.113681E+01 -0.524489E+00 -0.911130E+00 -0.412118E+00
   9.05000 -0.116304E+01 -0.467648E+00 -0.930589E+00 -0.366066E+00
   9.10000 -0.118642E+01 -0.409496E+00 -0.947722E+00 -0.319098E+00
   9.15000 -0.120690E+01 -0.350175E+00 -0.962486E+00 -0.271333E+00
   9.20000 -0.122440E+01 -0.289830E+00 -0.974844E+00 -0.222890E+00
   9.25000 -0.123890E+01 -0.228610E+00 -0.984765E+00 -0.173889E+00
   9.30000 -0.125033E+01 -0.166665E+00 -0.992225E+00 -0.124454E+00
   9.35000 -0.125866E+01 -0.104149E+00 -0.997205E+00 -0.747079E-01
   9.40000 -0.126387E+01 -0.412162E-01 -0.999693E+00 -0.247749E-01
   9.45000 -0.126593E+01  0.219771E-01 -0.999682E+00  0.252192E-01
   9.50000 -0.126483E+01  0.852735E-01 -0.997172E+00  0.751511E-01
   9.55000 -0.126056E+01  0.148515E+00 -0.992170E+00  0.124895E+00
   9.60000 -0.125314E+01  0.211543E+00 -0.984688E+00  0.174327E+00
   9.65000 -0.124256E+01  0.274200E+00 -0.974744E+00  0.223323E+00
   9.70000 -0.122885E+01  0.336328E+00 -0.962365E+00  0.271760E+00
   9.75000 -0.121204E+01  0.397771E+00 -0.947580E+00  0.319519E+00
   9.80000 -0.119215E+01  0.458373E+00 -0.930426E+00  0.366479E+00
   9.85000 -0.116923E+01  0.517980E+00 -0.910947E+00  0.412523E+00
   9.90000 -0.114333E+01  0.576441E+00 -0.889191E+00  0.457536E+00
   9.95000 -0.111451E+01  0.633608E+00 -0.865213E+00  0.501405E+00
  10.00000 -0.108283E+01  0.689333E+00 -0.839072E+00  0.544021E+00
  10.05000 -0.104836E+01  0.743475E+00 -0.810833E+00  0.585277E+00
  10.10000 -0.101119E+01  0.795893E+00 -0.780568E+00  0.625071E+00
  10.15000 -0.971392E+00  0.846452E+00 -0.748352E+00  0.663302E+00
  10.20000 -0.929069E+00  0.895021E+00 -0.714266E+00  0.699875E+00
  10.25000 -0.884318E+00  0.941475E+00 -0.678394E+00  0.734698E+00
  10.30000 -0.837245E+00  0.985691E+00 -0.640826E+00  0.767686E+00
  10.35000 -0.787960E+00  0.102755E+01 -0.601657E+00  0.798755E+00
  10.40000 -0.736582E+00  0.106695E+01 -0.560984E+00  0.827827E+00
  10.45000 -0.683235E+00  0.110378E+01 -0.518909E+00  0.854829E+00
  10.50000 -0.628046E+00  0.113794E+01 -0.475537E+00  0.879696E+00
  10.55000 -0.571149E+00  0.116934E+01 -0.430976E+00  0.902363E+00
  10.60000 -0.512682E+00  0.119790E+01 -0.385338E+00  0.922776E+00
  10.65000 -0.452787E+00  0.122354E+01 -0.338737E+00  0.940881E+00
  10.70000 -0.391610E+00  0.124617E+01 -0.291289E+00  0.956635E+00
  10.75000 -0.329301E+00  0.126576E+01 -0.243113E+00  0.969998E+00
  10.80000 -0.266013E+00  0.128222E+01 -0.194330E+00  0.980936E+00
  10.85000 -0.201902E+00  0.129552E+01 -0.145060E+00  0.989423E+00
  10.90000 -0.137126E+00  0.130562E+01 -0.954283E-01  0.995436E+00
  10.95000 -0.718453E-01  0.131247E+01 -0.455587E-01  0.998962E+00
  11.00000 -0.622170E-02  0.131606E+01  0.442570E-02  0.999990E+00
  11.05000  0.595815E-01  0.131638E+01  0.543990E-01  0.998519E+00
  11.10000  0.125400E+00  0.131340E+01  0.104236E+00  0.994553E+00
  11.15000  0.191070E+00  0.130713E+01  0.153813E+00  0.988100E+00
  11.20000  0.256427E+00  0.129757E+01  0.203005E+00  0.979178E+00
  11.25000  0.321305E+00  0.128475E+01  0.251690E+00  0.967808E+00
  11.30000  0.385543E+00  0.126869E+01  0.299746E+00  0.954019E+00
  11.35000  0.448977E+00  0.124941E+01  0.347052E+00  0.937846E+00
  11.40000  0.511448E+00  0.122696E+01  0.393491E+00  0.919328E+00
  11.45000  0.572796E+00  0.120139E+01  0.438946E+00  0.898513E+00
  11.50000  0.632865E+00  0.117275E+01  0.483305E+00  0.875452E+00
  11.55000  0.691503E+00  0.114111E+01  0.526455E+00  0.850203E+00
  11.60000  0.748558E+00  0.110653E+01  0.568290E+00  0.822828E+00
  11.65000  0.803884E+00  0.106910E+01  0.608704E+00  0.793397E+00
  11.70000  0.857339E+00  0.102891E+01  0.647596E+00  0.761984E+00
  11.75000  0.908785E+00  0.986041E+00  0.684870E+00  0.728665E+00
  11.80000  0.958087E+00  0.940602E+00  0.720433E+00  0.693525E+00
  11.85000  0.100512E+01  0.892697E+00  0.754194E+00  0.656651E+00
  11.90000  0.104975E+01  0.842442E+00  0.786071E+00  0.618137E+00
  11.95000  0.109187E+01  0.789954E+00  0.815982E+00  0.578078E+00
  12.00000  0.113137E+01  0.735360E+00  0.843854E+00  0.536573E+00
  12.05000  0.116814E+01  0.678792E+00  0.869617E+00  0.493727E+00
  12.10000  0.120208E+01  0.620385E+00  0.893206E+00  0.449647E+00
  12.15000  0.123310E+01  0.560281E+00  0.914563E+00  0.404443E+00
  12.20000  0.126111E+01  0.498626E+00  0.933634E+00  0.358229E+00
  12.25000  0.128604E+01  0.435570E+00  0.950371E+00  0.311119E+00
  12.30000  0.130782E+01  0.371268E+00  0.964733E+00  0.263232E+00
  12.35000  0.132639E+01  0.305877E+00  0.976683E+00  0.214686E+00
  12.40000  0.134168E+01  0.239558E+00  0.986192E+00  0.165604E+00
  12.45000  0.135366E+01  0.172474E+00  0.993237E+00  0.116108E+00
  12.50000  0.136228E+01  0.104791E+00  0.997798E+00  0.663219E-01
  12.55000  0.136752E+01  0.366768E-01  0.999866E+00  0.163697E-01
  12.60000  0.136935E+01 -0.316993E-01  0.999435E+00 -0.336234E-01
  12.65000  0.136777E+01 -0.100167E+00  0.996505E+00 -0.835325E-01
  12.70000  0.136276E+01 -0.168555E+00  0.991085E+00 -0.133232E+00
  12.75000  0.135433E+01 -0.236694E+00  0.983187E+00 -0.182599E+00
  12.80000  0.134250E+01 -0.304410E+00  0.972833E+00 -0.231510E+00
  12.85000  0.132728E+01 -0.371535E+00  0.960046E+00 -0.279842E+00
  12.90000  0.130870E+01 -0.437899E+00  0.944860E+00 -0.327475E+00
  12.95000  0.128681E+01 -0.503334E+00  0.927312E+00 -0.374288E+00
  13.00000  0.126164E+01 -0.567674E+00  0.907447E+00 -0.420167E+00
  13.05000  0.123326E+01 -0.630756E+00  0.885313E+00 -0.464996E+00
  13.10000  0.120172E+01 -0.692419E+00  0.860966E+00 -0.508662E+00
  13.15000  0.116710E+01 -0.752505E+00  0.834468E+00 -0.551057E+00
  13.20000  0.112947E+01 -0.810860E+00  0.805884E+00 -0.592073E+00
  13.25000  0.108893E+01 -0.867334E+00  0.775285E+00 -0.631611E+00
  13.30000  0.104556E+01 -0.921780E+00  0.742749E+00 -0.669570E+00
  13.35000  0.999473E+00 -0.974058E+00  0.708356E+00 -0.705855E+00
  13.40000  0.950770E+00 -0.102403E+01  0.672193E+00 -0.740376E+00
  13.45000  0.899569E+00 -0.107157E+01  0.634350E+00 -0.773046E+00
  13.50000  0.845990E+00 -0.111655E+01  0.594921E+00 -0.803784E+00
  13.55000  0.790163E+00 -0.115885E+01  0.554005E+00 -0.832514E+00
  13.60000  0.732221E+00 -0.119836E+01  0.511704E+00 -0.859162E+00
  13.65000  0.672303E+00 -0.123497E+01  0.468124E+00 -0.883663E+00
  13.70000  0.610554E+00 -0.126858E+01  0.423375E+00 -0.905955E+00
  13.75000  0.547125E+00 -0.129911E+01  0.377567E+00 -0.925982E+00
  13.80000  0.482170E+00 -0.132647E+01  0.330815E+00 -0.943696E+00
  13.85000  0.415846E+00 -0.135058E+01  0.283236E+00 -0.959050E+00
  13.90000  0.348318E+00 -0.137137E+01  0.234949E+00 -0.972008E+00
  13.95000  0.279749E+00 -0.138878E+01  0.186076E+00 -0.982535E+00
  14.00000  0.210310E+00 -0.140277E+01  0.136737E+00 -0.990607E+00
  14.05000  0.140172E+00 -0.141329E+01  0.870564E-01 -0.996203E+00
  14.10000  0.695072E-01 -0.142029E+01  0.371580E-01 -0.999309E+00
  14.15000 -0.150749E-02 -0.142377E+01 -0.128333E-01 -0.999918E+00
  14.20000 -0.726960E-01 -0.142369E+01 -0.627915E-01 -0.998027E+00
  14.25000 -0.143881E+00 -0.142006E+01 -0.112594E+00 -0.993641E+00
  14.30000 -0.214884E+00 -0.141287E+01 -0.162115E+00 -0.986772E+00
  14.35000 -0.285527E+00 -0.140212E+01 -0.211230E+00 -0.977436E+00
  14.40000 -0.355633E+00 -0.138785E+01 -0.259818E+00 -0.965658E+00
  14.45000 -0.425025E+00 -0.137006E+01 -0.307755E+00 -0.951466E+00
  14.50000 -0.493529E+00 -0.134881E+01 -0.354924E+00 -0.934895E+00
  14.55000 -0.560969E+00 -0.132414E+01 -0.401206E+00 -0.915988E+00
  14.60000 -0.627176E+00 -0.129609E+01 -0.446485E+00 -0.894791E+00
  14.65000 -0.691980E+00 -0.126473E+01 -0.490648E+00 -0.871358E+00
  14.70000 -0.755217E+00 -0.123013E+01 -0.533584E+00 -0.845747E+00
  14.75000 -0.816723E+00 -0.119237E+01 -0.575187E+00 -0.818022E+00
  14.80000 -0.876342E+00 -0.115153E+01 -0.615353E+00 -0.788252E+00
  14.85000 -0.933918E+00 -0.110772E+01 -0.653980E+00 -0.756512E+00
  14.90000 -0.989304E+00 -0.106102E+01 -0.690973E+00 -0.722881E+00
  14.95000 -0.104235E+01 -0.101155E+01 -0.726238E+00 -0.687444E+00
  15.00000 -0.109293E+01 -0.959436E+00 -0.759688E+00 -0.650288E+00
  15.05000 -0.114090E+01 -0.904790E+00 -0.791239E+00 -0.611506E+00
  15.10000 -0.118614E+01 -0.847745E+00 -0.820813E+00 -0.571197E+00
  15.15000 -0.122853E+01 -0.788437E+00 -0.848336E+00 -0.529459E+00
  15.20000 -0.126795E+01 -0.727011E+00 -0.873737E+00 -0.486399E+00
  15.25000 -0.130430E+01 -0.663613E+00 -0.896955E+00 -0.442122E+00
  15.30000 -0.133748E+01 -0.598398E+00 -0.917931E+00 -0.396740E+00
  15.35000 -0.136740E+01 -0.531524E+00 -0.936612E+00 -0.350367E+00
  15.40000 -0.139398E+01 -0.463154E+00 -0.952953E+00 -0.303118E+00
  15.45000 -0.141714E+01 -0.393455E+00 -0.966912E+00 -0.255112E+00
  15.50000 -0.143681E+01 -0.322598E+00 -0.978453E+00 -0.206467E+00
  15.55000 -0.145294E+01 -0.250757E+00 -0.987550E+00 -0.157307E+00
  15.60000 -0.146548E+01 -0.178110E+00 -0.994178E+00 -0.107753E+00
  15.65000 -0.147438E+01 -0.104836E+00 -0.998321E+00 -0.579302E-01
  15.70000 -0.147963E+01 -0.311170E-01 -0.999968E+00 -0.796337E-02
  15.75000 -0.148118E+01  0.428643E-01 -0.999117E+00  0.420244E-01
  15.80000 -0.147904E+01  0.116923E+00 -0.995768E+00  0.919070E-01
  15.85000 -0.147319E+01  0.190875E+00 -0.989930E+00  0.141560E+00
  15.90000 -0.146365E+01  0.264535E+00 -0.981617E+00  0.190859E+00
  15.95000 -0.145042E+01  0.337717E+00 -0.970852E+00  0.239680E+00
  16.00000 -0.143354E+01  0.410238E+00 -0.957659E+00  0.287903E+00
  16.05000 -0.141302E+01  0.481915E+00 -0.942073E+00  0.335408E+00
  16.10000 -0.138893E+01  0.552566E+00 -0.924133E+00  0.382072E+00
  16.15000 -0.136130E+01  0.622013E+00 -0.903882E+00  0.427781E+00
  16.20000 -0.133020E+01  0.690078E+00 -0.881372E+00  0.472423E+00
  16.25000 -0.129570E+01  0.756588E+00 -0.856660E+00  0.515882E+00
  16.30000 -0.125787E+01  0.821373E+00 -0.829805E+00  0.558053E+00
  16.35000 -0.121680E+01  0.884266E+00 -0.800878E+00  0.598828E+00
  16.40000 -0.117258E+01  0.945106E+00 -0.769948E+00  0.638106E+00
  16.45000 -0.112533E+01  0.100373E+01 -0.737093E+00  0.675791E+00
  16.50000 -0.107514E+01  0.106000E+01 -0.702397E+00  0.711785E+00
  16.55000 -0.102214E+01  0.111376E+01 -0.665944E+00  0.746002E+00
  16.60000 -0.966454E+00  0.116487E+01 -0.627828E+00  0.778352E+00
  16.65000 -0.908211E+00  0.121319E+01 -0.588142E+00  0.808757E+00
  16.70000 -0.847551E+00  0.125860E+01 -0.546985E+00  0.837142E+00
  16.75000 -0.784621E+00  0.130098E+01 -0.504463E+00  0.863433E+00
  16.80000 -0.719572E+00  0.134021E+01 -0.460678E+00  0.887568E+00
  16.85000 -0.652562E+00  0.137619E+01 -0.415743E+00  0.909482E+00
  16.90000 -0.583753E+00  0.140881E+01 -0.369769E+00  0.929124E+00
  16.95000 -0.513312E+00  0.143800E+01 -0.322869E+00  0.946444E+00
  17.00000 -0.441412E+00  0.146367E+01 -0.275163E+00  0.961397E+00
  17.05000 -0.368229E+00  0.148574E+01 -0.226768E+00  0.973949E+00
  17.10000 -0.293942E+00  0.150415E+01 -0.177809E+00  0.984065E+00
  17.15000 -0.218734E+00  0.151885E+01 -0.128404E+00  0.991722E+00
  17.20000 -0.142792E+00  0.152978E+01 -0.786774E-01  0.996900E+00
  17.25000 -0.663029E-01  0.153692E+01 -0.287556E-01  0.999586E+00
  17.30000  0.105433E-01  0.154024E+01  0.212400E-01  0.999774E+00
  17.35000  0.875552E-01  0.153971E+01  0.711805E-01  0.997463E+00
  17.40000  0.164541E+00  0.153533E+01  0.120943E+00  0.992659E+00
  17.45000  0.241307E+00  0.152711E+01  0.170405E+00  0.985374E+00
  17.50000  0.317663E+00  0.151504E+01  0.219440E+00  0.975626E+00
  17.55000  0.393415E+00  0.149916E+01  0.267928E+00  0.963439E+00
  17.60000  0.468373E+00  0.147949E+01  0.315744E+00  0.948844E+00
  17.65000  0.542347E+00  0.145607E+01  0.362771E+00  0.931878E+00
  17.70000  0.615150E+00  0.142895E+01  0.408893E+00  0.912582E+00
  17.75000  0.686598E+00  0.139819E+01  0.453992E+00  0.891006E+00
  17.80000  0.756507E+00  0.136386E+01  0.497957E+00  0.867202E+00
  17.85000  0.824701E+00  0.132604E+01  0.540676E+00  0.841231E+00
  17.90000  0.891002E+00  0.128480E+01  0.582044E+00  0.813157E+00
  17.95000  0.955243E+00  0.124025E+01  0.621958E+00  0.783050E+00
  18.00000  0.101726E+01  0.119249E+01  0.660317E+00  0.750987E+00
  18.05000  0.107688E+01  0.114163E+01  0.697026E+00  0.717046E+00
  18.10000  0.113396E+01  0.108778E+01  0.731992E+00  0.681314E+00
  18.15000  0.118835E+01  0.103109E+01  0.765128E+00  0.643878E+00
  18.20000  0.123990E+01  0.971668E+00  0.796353E+00  0.604832E+00
  18.25000  0.128849E+01  0.909673E+00  0.825586E+00  0.564276E+00
  18.30000  0.133397E+01  0.845249E+00  0.852757E+00  0.522308E+00
  18.35000  0.137623E+01  0.778550E+00  0.877796E+00  0.479035E+00
  18.40000  0.141516E+01  0.709738E+00  0.900640E+00  0.434566E+00
  18.45000  0.145065E+01  0.638980E+00  0.921234E+00  0.389009E+00
  18.50000  0.148260E+01  0.566448E+00  0.939525E+00  0.342481E+00
  18.55000  0.151092E+01  0.492318E+00  0.955468E+00  0.295095E+00
  18.60000  0.153554E+01  0.416772E+00  0.969022E+00  0.246973E+00
  18.65000  0.155637E+01  0.339995E+00  0.980155E+00  0.198234E+00
  18.70000  0.157337E+01  0.262176E+00  0.988837E+00  0.148998E+00
  18.75000  0.158648E+01  0.183508E+00  0.995048E+00  0.993915E-01
  18.80000  0.159566E+01  0.104184E+00  0.998772E+00  0.495345E-01
  18.85000  0.160087E+01  0.244006E-01  0.100000E+01 -0.444460E-03
  18.90000  0.160209E+01 -0.556428E-01  0.998728E+00 -0.504223E-01
  18.95000  0.159931E+01 -0.135747E+00  0.994960E+00 -0.100276E+00
  19.00000  0.159252E+01 -0.215712E+00  0.988705E+00 -0.149877E+00
  19.05000  0.158173E+01 -0.295338E+00  0.979978E+00 -0.199106E+00
  19.10000  0.156697E+01 -0.374425E+00  0.968802E+00 -0.247835E+00
  19.15000  0.154824E+01 -0.452773E+00  0.955205E+00 -0.295944E+00
  19.20000  0.152561E+01 -0.530186E+00  0.939220E+00 -0.343316E+00
  19.25000  0.149910E+01 -0.606466E+00  0.920888E+00 -0.389827E+00
  19.30000  0.146877E+01 -0.681421E+00  0.900253E+00 -0.435366E+00
  19.35000  0.143470E+01 -0.754859E+00  0.877369E+00 -0.479816E+00
  19.40000  0.139696E+01 -0.826594E+00  0.852293E+00 -0.523065E+00
  19.45000  0.135563E+01 -0.896442E+00  0.825084E+00 -0.565010E+00
  19.50000  0.131081E+01 -0.964224E+00  0.795815E+00 -0.605540E+00
  19.55000  0.126260E+01 -0.102976E+01  0.764555E+00 -0.644558E+00
  19.60000  0.121111E+01 -0.109289E+01  0.731386E+00 -0.681964E+00
  19.65000  0.115646E+01 -0.115345E+01  0.696388E+00 -0.717665E+00
  19.70000  0.109879E+01 -0.121127E+01  0.659649E+00 -0.751574E+00
  19.75000  0.103823E+01 -0.126621E+01  0.621262E+00 -0.783603E+00
  19.80000  0.974917E+00 -0.131812E+01  0.581321E+00 -0.813674E+00
  19.85000  0.909010E+00 -0.136687E+01  0.539928E+00 -0.841711E+00
  19.90000  0.840667E+00 -0.141232E+01  0.497186E+00 -0.867644E+00
  19.95000  0.770051E+00 -0.145435E+01  0.453200E+00 -0.891409E+00
  20.00000  0.697333E+00 -0.149286E+01  0.408082E+00 -0.912945E+00
  20.05000  0.622690E+00 -0.152772E+01  0.361943E+00 -0.932200E+00
  20.10000  0.546304E+00 -0.155886E+01  0.314901E+00 -0.949125E+00
  20.15000  0.468361E+00 -0.158617E+01  0.267071E+00 -0.963677E+00
  20.20000  0.389053E+00 -0.160959E+01  0.218573E+00 -0.975821E+00
  20.25000  0.308573E+00 -0.162904E+01  0.169530E+00 -0.985525E+00
  20.30000  0.227121E+00 -0.164447E+01  0.120061E+00 -0.992767E+00
  20.35000  0.144898E+00 -0.165583E+01  0.702939E-01 -0.997526E+00
  20.40000  0.621062E-01 -0.166307E+01  0.203512E-01 -0.999793E+00
  20.45000 -0.210474E-01 -0.166618E+01 -0.296442E-01 -0.999561E+00
  20.50000 -0.104356E+00 -0.166513E+01 -0.795636E-01 -0.996830E+00
  20.55000 -0.187613E+00 -0.165991E+01 -0.129286E+00 -0.991607E+00
  20.60000 -0.270608E+00 -0.165053E+01 -0.178683E+00 -0.983907E+00
  20.65000 -0.353134E+00 -0.163700E+01 -0.227634E+00 -0.973747E+00
  20.70000 -0.434984E+00 -0.161934E+01 -0.276018E+00 -0.961152E+00
  20.75000 -0.515951E+00 -0.159759E+01 -0.323710E+00 -0.946156E+00
  20.80000 -0.595831E+00 -0.157179E+01 -0.370594E+00 -0.928795E+00
  20.85000 -0.674420E+00 -0.154200E+01 -0.416551E+00 -0.909112E+00
  20.90000 -0.751520E+00 -0.150828E+01 -0.461466E+00 -0.887158E+00
  20.95000 -0.826935E+00 -0.147070E+01 -0.505230E+00 -0.862985E+00
  21.00000 -0.900470E+00 -0.142936E+01 -0.547729E+00 -0.836656E+00
  21.05000 -0.971938E+00 -0.138433E+01 -0.588861E+00 -0.808234E+00
  21.10000 -0.104115E+01 -0.133574E+01 -0.628519E+00 -0.777794E+00
  21.15000 -0.110794E+01 -0.128368E+01 -0.666607E+00 -0.745409E+00
  21.20000 -0.117213E+01 -0.122828E+01 -0.703030E+00 -0.711161E+00
  21.25000 -0.123354E+01 -0.116968E+01 -0.737694E+00 -0.675136E+00
  21.30000 -0.129202E+01 -0.110800E+01 -0.770515E+00 -0.637422E+00
  21.35000 -0.134742E+01 -0.104340E+01 -0.801410E+00 -0.598116E+00
  21.40000 -0.139959E+01 -0.976027E+00 -0.830301E+00 -0.557315E+00
  21.45000 -0.144839E+01 -0.906048E+00 -0.857118E+00 -0.515120E+00
  21.50000 -0.149370E+01 -0.833628E+00 -0.881792E+00 -0.471639E+00
  21.55000 -0.153538E+01 -0.758943E+00 -0.904262E+00 -0.426977E+00
  21.60000 -0.157333E+01 -0.682174E+00 -0.924472E+00 -0.381250E+00
  21.65000 -0.160743E+01 -0.603508E+00 -0.942371E+00 -0.334570E+00
  21.70000 -0.163761E+01 -0.523136E+00 -0.957915E+00 -0.287052E+00
  21.75000 -0.166377E+01 -0.441256E+00 -0.971064E+00 -0.238818E+00
  21.80000 -0.168583E+01 -0.358067E+00 -0.981787E+00 -0.189986E+00
  21.85000 -0.170373E+01 -0.273776E+00 -0.990055E+00 -0.140680E+00
  21.90000 -0.171742E+01 -0.188589E+00 -0.995849E+00 -0.910228E-01
  21.95000 -0.172685E+01 -0.102718E+00 -0.999154E+00 -0.411362E-01
  22.00000 -0.173199E+01 -0.163757E-01 -0.999961E+00  0.885131E-02
  22.05000 -0.173281E+01  0.702237E-01 -0.998269E+00  0.588186E-01
  22.10000 -0.172929E+01  0.156864E+00 -0.994081E+00  0.108637E+00
  22.15000 -0.172145E+01  0.243329E+00 -0.987410E+00  0.158184E+00
  22.20000 -0.170928E+01  0.329401E+00 -0.978270E+00  0.207337E+00
  22.25000 -0.169281E+01  0.414865E+00 -0.966685E+00  0.255970E+00
  22.30000 -0.167207E+01  0.499506E+00 -0.952683E+00  0.303966E+00
  22.35000 -0.164710E+01  0.583110E+00 -0.936301E+00  0.351199E+00
  22.40000 -0.161794E+01  0.665465E+00 -0.917578E+00  0.397555E+00
  22.45000 -0.158467E+01  0.746362E+00 -0.896562E+00  0.442919E+00
  22.50000 -0.154735E+01  0.825595E+00 -0.873305E+00  0.487175E+00
  22.55000 -0.150607E+01  0.902962E+00 -0.847864E+00  0.530214E+00
  22.60000 -0.146092E+01  0.978266E+00 -0.820305E+00  0.571926E+00
  22.65000 -0.141201E+01  0.105131E+01 -0.790696E+00  0.612209E+00
  22.70000 -0.135944E+01  0.112191E+01 -0.759110E+00  0.650963E+00
  22.75000 -0.130335E+01  0.118988E+01 -0.725627E+00  0.688088E+00
  22.80000 -0.124385E+01  0.125505E+01 -0.690329E+00  0.723496E+00
  22.85000 -0.118110E+01  0.131724E+01 -0.653307E+00  0.757093E+00
  22.90000 -0.111524E+01  0.137630E+01 -0.614652E+00  0.788798E+00
  22.95000 -0.104642E+01  0.143206E+01 -0.574460E+00  0.818533E+00
  23.00000 -0.974820E+00  0.148438E+01 -0.532833E+00  0.846220E+00
  23.05000 -0.900601E+00  0.153312E+01 -0.489873E+00  0.871794E+00
  23.10000 -0.823945E+00  0.157815E+01 -0.445690E+00  0.895188E+00
  23.15000 -0.745037E+00  0.161935E+01 -0.400393E+00  0.916344E+00
  23.20000 -0.664069E+00  0.165660E+01 -0.354093E+00  0.935210E+00
  23.25000 -0.581239E+00  0.168981E+01 -0.306910E+00  0.951738E+00
  23.30000 -0.496749E+00  0.171887E+01 -0.258958E+00  0.965888E+00
  23.35000 -0.410805E+00  0.174371E+01 -0.210361E+00  0.977624E+00
  23.40000 -0.323620E+00  0.176425E+01 -0.161238E+00  0.986915E+00
  23.45000 -0.235408E+00  0.178043E+01 -0.111710E+00  0.993741E+00
  23.50000 -0.146387E+00  0.179220E+01 -0.619053E-01  0.998082E+00
  23.55000 -0.567767E-01  0.179952E+01 -0.119435E-01  0.999929E+00
  23.60000  0.331991E-01  0.180236E+01  0.380463E-01  0.999276E+00
  23.65000  0.123317E+00  0.180070E+01  0.879410E-01  0.996126E+00
  23.70000  0.213352E+00  0.179453E+01  0.137618E+00  0.990485E+00
  23.75000  0.303078E+00  0.178386E+01  0.186949E+00  0.982370E+00
  23.80000  0.392271E+00  0.176871E+01  0.235814E+00  0.971798E+00
  23.85000  0.480707E+00  0.174909E+01  0.284088E+00  0.958798E+00
  23.90000  0.568161E+00  0.172506E+01  0.331653E+00  0.943402E+00
  23.95000  0.654414E+00  0.169665E+01  0.378390E+00  0.925646E+00
  24.00000  0.739247E+00  0.166393E+01  0.424179E+00  0.905578E+00
  24.05000  0.822443E+00  0.162697E+01  0.468910E+00  0.883246E+00
  24.10000  0.903792E+00  0.158585E+01  0.512467E+00  0.858707E+00
  24.15000  0.983084E+00  0.154066E+01  0.554744E+00  0.832021E+00
  24.20000  0.106012E+01  0.149150E+01  0.595635E+00  0.803255E+00
  24.25000  0.113469E+01  0.143850E+01  0.635036E+00  0.772483E+00
  24.30000  0.120662E+01  0.138176E+01  0.672851E+00  0.739778E+00
  24.35000  0.127570E+01  0.132143E+01  0.708983E+00  0.705225E+00
  24.40000  0.134178E+01  0.125765E+01  0.743343E+00  0.668910E+00
  24.45000  0.140466E+01  0.119056E+01  0.775847E+00  0.630922E+00
  24.50000  0.146419E+01  0.112032E+01  0.806409E+00  0.591358E+00
  24.55000  0.152020E+01  0.104711E+01  0.834958E+00  0.550314E+00
  24.60000  0.157256E+01  0.971104E+00  0.861418E+00  0.507896E+00
  24.65000  0.162111E+01  0.892476E+00  0.885726E+00  0.464209E+00
  24.70000  0.166574E+01  0.811421E+00  0.907820E+00  0.419360E+00
  24.75000  0.170631E+01  0.728134E+00  0.927644E+00  0.373465E+00
  24.80000  0.174272E+01  0.642818E+00  0.945151E+00  0.326634E+00
  24.85000  0.177486E+01  0.555683E+00  0.960294E+00  0.278989E+00
  24.90000  0.180264E+01  0.466940E+00  0.973038E+00  0.230646E+00
  24.95000  0.182599E+01  0.376808E+00  0.983349E+00  0.181725E+00
  25.00000  0.184483E+01  0.285508E+00  0.991203E+00  0.132352E+00
  25.05000  0.185910E+01  0.193267E+00  0.996579E+00  0.826457E-01
  25.10000  0.186877E+01  0.100312E+00  0.999464E+00  0.327350E-01
  25.15000  0.187378E+01  0.687360E-02  0.999851E+00 -0.172575E-01
  25.20000  0.187413E+01 -0.868155E-01  0.997739E+00 -0.672088E-01
  25.25000  0.186978E+01 -0.180522E+00  0.993133E+00 -0.116990E+00
  25.30000  0.186076E+01 -0.274011E+00  0.986045E+00 -0.166481E+00
  25.35000  0.184706E+01 -0.367049E+00  0.976492E+00 -0.215554E+00
  25.40000  0.182871E+01 -0.459402E+00  0.964499E+00 -0.264088E+00
  25.45000  0.180574E+01 -0.550837E+00  0.950094E+00 -0.311964E+00
  25.50000  0.177819E+01 -0.641124E+00  0.933315E+00 -0.359058E+00
  25.55000  0.174614E+01 -0.730034E+00  0.914203E+00 -0.405257E+00
  25.60000  0.170964E+01 -0.817341E+00  0.892806E+00 -0.450441E+00
  25.65000  0.166877E+01 -0.902822E+00  0.869178E+00 -0.494499E+00
  25.70000  0.162363E+01 -0.986261E+00  0.843377E+00 -0.537323E+00
  25.75000  0.157431E+01 -0.106744E+01  0.815468E+00 -0.578802E+00
  25.80000  0.152094E+01 -0.114616E+01  0.785520E+00 -0.618836E+00
  25.85000  0.146363E+01 -0.122221E+01  0.753610E+00 -0.657322E+00
  25.90000  0.140252E+01 -0.129539E+01  0.719817E+00 -0.694164E+00
  25.95000  0.133776E+01 -0.136551E+01  0.684222E+00 -0.729273E+00
  26.00000  0.126948E+01 -0.143240E+01  0.646919E+00 -0.762558E+00
  26.05000  0.119786E+01 -0.149587E+01  0.607998E+00 -0.793939E+00
  26.10000  0.112307E+01 -0.155577E+01  0.567558E+00 -0.823333E+00
  26.15000  0.104528E+01 -0.161192E+01  0.525700E+00 -0.850670E+00
  26.20000  0.964681E+00 -0.166418E+01  0.482526E+00 -0.875881E+00
  26.25000  0.881472E+00 -0.171242E+01  0.438148E+00 -0.898903E+00
  26.30000  0.795851E+00 -0.175649E+01  0.392673E+00 -0.919678E+00
  26.35000  0.708027E+00 -0.179629E+01  0.346218E+00 -0.938154E+00
  26.40000  0.618212E+00 -0.183169E+01  0.298898E+00 -0.954285E+00
  26.45000  0.526628E+00 -0.186260E+01  0.250829E+00 -0.968031E+00
  26.50000  0.433498E+00 -0.188893E+01  0.202135E+00 -0.979358E+00
  26.55000  0.339052E+00 -0.191060E+01  0.152934E+00 -0.988236E+00
  26.60000  0.243521E+00 -0.192756E+01  0.103352E+00 -0.994645E+00
  26.65000  0.147144E+00 -0.193973E+01  0.535124E-01 -0.998567E+00
  26.70000  0.501571E-01 -0.194709E+01  0.353679E-02 -0.999994E+00
  26.75000 -0.471974E-01 -0.194960E+01 -0.464457E-01 -0.998921E+00
  26.80000 -0.144677E+00 -0.194724E+01 -0.963141E-01 -0.995351E+00
  26.85000 -0.242039E+00 -0.194000E+01 -0.145940E+00 -0.989293E+00
  26.90000 -0.339039E+00 -0.192790E+01 -0.195201E+00 -0.980763E+00
  26.95000 -0.435434E+00 -0.191095E+01 -0.243976E+00 -0.969781E+00
  27.00000 -0.530982E+00 -0.188918E+01 -0.292139E+00 -0.956376E+00
  27.05000 -0.625441E+00 -0.186263E+01 -0.339574E+00 -0.940579E+00
  27.10000 -0.718572E+00 -0.183136E+01 -0.386158E+00 -0.922433E+00
  27.15000 -0.810140E+00 -0.179543E+01 -0.431777E+00 -0.901980E+00
  27.20000 -0.899911E+00 -0.175492E+01 -0.476319E+00 -0.879273E+00
  27.25000 -0.987657E+00 -0.170993E+01 -0.519668E+00 -0.854368E+00
  27.30000 -0.107315E+01 -0.166054E+01 -0.561720E+00 -0.827327E+00
  27.35000 -0.115618E+01 -0.160688E+01 -0.602367E+00 -0.798219E+00
  27.40000 -0.123653E+01 -0.154908E+01 -0.641508E+00 -0.767117E+00
  27.45000 -0.131398E+01 -0.148725E+01 -0.679047E+00 -0.734095E+00
  27.50000 -0.138834E+01 -0.142155E+01 -0.714887E+00 -0.699240E+00
  27.55000 -0.145942E+01 -0.135213E+01 -0.748942E+00 -0.662636E+00
  27.60000 -0.152703E+01 -0.127916E+01 -0.781123E+00 -0.624377E+00
  27.65000 -0.159098E+01 -0.120281E+01 -0.811352E+00 -0.584557E+00
  27.70000 -0.165112E+01 -0.112326E+01 -0.839555E+00 -0.543275E+00
  27.75000 -0.170729E+01 -0.104071E+01 -0.865658E+00 -0.500636E+00
  27.80000 -0.175932E+01 -0.955342E+00 -0.889598E+00 -0.456745E+00
  27.85000 -0.180709E+01 -0.867375E+00 -0.911313E+00 -0.411713E+00
  27.90000 -0.185046E+01 -0.777021E+00 -0.930751E+00 -0.365653E+00
  27.95000 -0.188931E+01 -0.684498E+00 -0.947863E+00 -0.318677E+00
  28.00000 -0.192353E+01 -0.590032E+00 -0.962606E+00 -0.270906E+00
  28.05000 -0.195304E+01 -0.493856E+00 -0.974943E+00 -0.222456E+00
  28.10000 -0.197773E+01 -0.396204E+00 -0.984842E+00 -0.173452E+00
  28.15000 -0.199754E+01 -0.297317E+00 -0.992280E+00 -0.124014E+00
  28.20000 -0.201241E+01 -0.197440E+00 -0.997239E+00 -0.742647E-01
  28.25000 -0.202228E+01 -0.968202E-01 -0.999704E+00 -0.243315E-01
  28.30000 -0.202712E+01  0.429364E-02 -0.999671E+00  0.256644E-01
  28.35000 -0.202690E+01  0.105650E+00 -0.997139E+00  0.755943E-01
  28.40000 -0.202162E+01  0.206995E+00 -0.992114E+00  0.125335E+00
  28.45000 -0.201127E+01  0.308076E+00 -0.984610E+00  0.174765E+00
  28.50000 -0.199587E+01  0.408639E+00 -0.974645E+00  0.223756E+00
  28.55000 -0.197544E+01  0.508433E+00 -0.962244E+00  0.272189E+00
  28.60000 -0.195001E+01  0.607205E+00 -0.947438E+00  0.319940E+00
  28.65000 -0.191965E+01  0.704705E+00 -0.930264E+00  0.366892E+00
  28.70000 -0.188442E+01  0.800688E+00 -0.910764E+00  0.412928E+00
  28.75000 -0.184438E+01  0.894909E+00 -0.888988E+00  0.457931E+00
  28.80000 -0.179964E+01  0.987128E+00 -0.864989E+00  0.501790E+00
  28.85000 -0.175028E+01  0.107711E+01 -0.838830E+00  0.544394E+00
  28.90000 -0.169643E+01  0.116462E+01 -0.810573E+00  0.585637E+00
  28.95000 -0.163820E+01  0.124945E+01 -0.780290E+00  0.625418E+00
  29.00000 -0.157572E+01  0.133136E+01 -0.748058E+00  0.663634E+00
  29.05000 -0.150916E+01  0.141014E+01 -0.713954E+00  0.700193E+00
  29.10000 -0.143865E+01  0.148560E+01 -0.678067E+00  0.735000E+00
  29.15000 -0.136437E+01  0.155753E+01 -0.640486E+00  0.767970E+00
  29.20000 -0.128649E+01  0.162575E+01 -0.601302E+00  0.799022E+00
  29.25000 -0.120520E+01  0.169007E+01 -0.560617E+00  0.828076E+00
  29.30000 -0.112070E+01  0.175033E+01 -0.518528E+00  0.855060E+00
  29.35000 -0.103318E+01  0.180637E+01 -0.475146E+00  0.879907E+00
  29.40000 -0.942865E+00  0.185803E+01 -0.430576E+00  0.902554E+00
  29.45000 -0.849964E+00  0.190517E+01 -0.384928E+00  0.922947E+00
  29.50000 -0.754705E+00  0.194767E+01 -0.338319E+00  0.941031E+00
  29.55000 -0.657322E+00  0.198541E+01 -0.290863E+00  0.956765E+00
  29.60000 -0.558051E+00  0.201827E+01 -0.242682E+00  0.970106E+00
  29.65000 -0.457138E+00  0.204617E+01 -0.193895E+00  0.981022E+00
  29.70000 -0.354829E+00  0.206903E+01 -0.144621E+00  0.989487E+00
  29.75000 -0.251377E+00  0.208677E+01 -0.949868E-01  0.995479E+00
  29.80000 -0.147039E+00  0.209934E+01 -0.451137E-01  0.998982E+00
  29.85000 -0.420717E-01  0.210669E+01  0.487015E-02  0.999988E+00
  29.90000  0.632630E-01  0.210880E+01  0.548419E-01  0.998495E+00
  29.95000  0.168703E+00  0.210563E+01  0.104678E+00  0.994506E+00
  30.00000  0.273985E+00  0.209720E+01  0.154251E+00  0.988032E+00
