netcdf \20200620_00_FH03_MESHIMA_SFC {
dimensions:
	time = 1 ;
	ncl1 = 1 ;
	ncl2 = 1 ;
	ncl3 = 1 ;
	ncl4 = 1 ;
	ncl5 = 1 ;
variables:
	double time(time) ;
		time:units = "hours since 2020-05-01 00:00:00" ;
		time:calendar = "standard" ;
	float p0(ncl1) ;
		p0:level_type = "Isobaric surface (hPa)" ;
		p0:valid_time = "2020-06-20_03" ;
		p0:forecast_time0 = 3 ;
		p0:pts = 0 ;
		p0:ycoord = 31.99806f ;
		p0:xcoord = 128.3508f ;
		p0:units = "hPa" ;
		p0:_FillValue = 1.e+20f ;
	float temp(ncl2) ;
		temp:valid_time = "2020-06-20_03" ;
		temp:pts = 0 ;
		temp:forecast_time0 = 3 ;
		temp:ycoord = 31.99806f ;
		temp:xcoord = 128.3508f ;
		temp:generating_process_type = "Forecast" ;
		temp:center = "Japanese Meteorological Agency - Tokyo (RSMC)" ;
		temp:production_status = "Operational products" ;
		temp:long_name = "Temperature" ;
		temp:units = "K" ;
		temp:grid_type = "Latitude/longitude" ;
		temp:parameter_discipline_and_category = "Meteorological products, Temperature" ;
		temp:parameter_template_discipline_category_number = 0, 0, 0, 0 ;
		temp:level_type = "Isobaric surface (hPa)" ;
		temp:level = 1.5f ;
		temp:initial_time = "06/20/2020 (00:00)" ;
		temp:_FillValue = 1.e+20f ;
	float rh(ncl3) ;
		rh:valid_time = "2020-06-20_03" ;
		rh:pts = 0 ;
		rh:forecast_time0 = 3 ;
		rh:ycoord = 31.99806f ;
		rh:xcoord = 128.3508f ;
		rh:generating_process_type = "Forecast" ;
		rh:center = "Japanese Meteorological Agency - Tokyo (RSMC)" ;
		rh:production_status = "Operational products" ;
		rh:long_name = "Relative humidity" ;
		rh:units = "%" ;
		rh:grid_type = "Latitude/longitude" ;
		rh:parameter_discipline_and_category = "Meteorological products, Moisture" ;
		rh:parameter_template_discipline_category_number = 0, 0, 1, 1 ;
		rh:level_type = "Isobaric surface (hPa)" ;
		rh:level = 1.5f ;
		rh:initial_time = "06/20/2020 (00:00)" ;
		rh:_FillValue = 1.e+20f ;
	float u(ncl4) ;
		u:valid_time = "2020-06-20_03" ;
		u:pts = 0 ;
		u:forecast_time0 = 3 ;
		u:ycoord = 31.99806f ;
		u:xcoord = 128.3508f ;
		u:generating_process_type = "Forecast" ;
		u:center = "Japanese Meteorological Agency - Tokyo (RSMC)" ;
		u:production_status = "Operational products" ;
		u:long_name = "U-component of wind" ;
		u:units = "m s-1" ;
		u:grid_type = "Latitude/longitude" ;
		u:parameter_discipline_and_category = "Meteorological products, Momentum" ;
		u:parameter_template_discipline_category_number = 0, 0, 2, 2 ;
		u:level_type = "Isobaric surface (hPa)" ;
		u:level = 10.f ;
		u:initial_time = "06/20/2020 (00:00)" ;
		u:_FillValue = 1.e+20f ;
	float v(ncl5) ;
		v:valid_time = "2020-06-20_03" ;
		v:pts = 0 ;
		v:forecast_time0 = 3 ;
		v:ycoord = 31.99806f ;
		v:xcoord = 128.3508f ;
		v:generating_process_type = "Forecast" ;
		v:center = "Japanese Meteorological Agency - Tokyo (RSMC)" ;
		v:production_status = "Operational products" ;
		v:long_name = "V-component of wind" ;
		v:units = "m s-1" ;
		v:grid_type = "Latitude/longitude" ;
		v:parameter_discipline_and_category = "Meteorological products, Momentum" ;
		v:parameter_template_discipline_category_number = 0, 0, 2, 3 ;
		v:level_type = "Isobaric surface (hPa)" ;
		v:level = 10.f ;
		v:initial_time = "06/20/2020 (00:00)" ;
		v:_FillValue = 1.e+20f ;
}
