
Fri, 21 Oct 2022 20:24:54 +0900
p5820.bio.mie-u.ac.jp
/work03/am/2022.NAKAMURO_FLUX/16.02.F_TEST_INTERPOLATION/20.12.TEST_MSN_PROFILE
am

Note:


'mod_input.f90' -> 'SRCBAK_20221021-2024/mod_input.f90'
'mod_interpolate.f90' -> 'SRCBAK_20221021-2024/mod_interpolate.f90'
'mod_msmp_var.f90' -> 'SRCBAK_20221021-2024/mod_msmp_var.f90'
'mod_msms_var.f90' -> 'SRCBAK_20221021-2024/mod_msms_var.f90'
'mod_output.f90' -> 'SRCBAK_20221021-2024/mod_output.f90'
'mod_parameter.f90' -> 'SRCBAK_20221021-2024/mod_parameter.f90'
'mod_thermodynamics.f90' -> 'SRCBAK_20221021-2024/mod_thermodynamics.f90'
'mod_timer.f90' -> 'SRCBAK_20221021-2024/mod_timer.f90'
'msm_profiles.f90' -> 'SRCBAK_20221021-2024/msm_profiles.f90'
'msm_profiles_run.sh' -> 'SRCBAK_20221021-2024/msm_profiles_run.sh'
