/work03/am/2022.06.ECS.OBS/26.16.LFM.NCL.pt3/15.12.ECAPE/20.12.MUECAPE_VPR_OUT/INPUT
Thu, 16 Feb 2023 18:59:18 +0900

INPUT DATA:
/work03/am/2022.06.ECS.OBS/26.16.LFM.NCL.pt3/15.12.ECAPE/20.10.MAKE.VPROF/OUT_NCL.LFM.VPR

/work03/am/2022.06.ECS.OBS/26.16.LFM.NCL.pt3/15.12.ECAPE/20.12.MUECAPE_VPR_OUT/INPUT
Thu, 16 Feb 2023 19:01:48 +0900
/work03/am/2022.06.ECS.OBS/26.16.LFM.NCL.pt3/15.12.ECAPE/20.12.MUECAPE_VPR_OUT/INPUT
Thu, 16 Feb 2023 19:02:26 +0900
/work03/am/2022.06.ECS.OBS/26.16.LFM.NCL.pt3/15.12.ECAPE/20.12.MUECAPE_VPR_OUT/INPUT
Thu, 16 Feb 2023 19:02:58 +0900
/work03/am/2022.06.ECS.OBS/26.16.LFM.NCL.pt3/15.12.ECAPE/20.12.MUECAPE_VPR_OUT/INPUT
Thu, 16 Feb 2023 19:03:56 +0900
/work03/am/2022.06.ECS.OBS/26.16.LFM.NCL.pt3/15.12.ECAPE/20.12.MUECAPE_VPR_OUT/INPUT
Thu, 16 Feb 2023 19:04:26 +0900
/work03/am/2022.06.ECS.OBS/26.16.LFM.NCL.pt3/15.12.ECAPE/20.12.MUECAPE_VPR_OUT/INPUT
Thu, 16 Feb 2023 19:04:39 +0900
/work03/am/2022.06.ECS.OBS/26.16.LFM.NCL.pt3/15.12.ECAPE/20.12.MUECAPE_VPR_OUT/INPUT
Thu, 16 Feb 2023 19:05:35 +0900
/work03/am/2022.06.ECS.OBS/26.16.LFM.NCL.pt3/15.12.ECAPE/20.12.MUECAPE_VPR_OUT/INPUT
Thu, 16 Feb 2023 19:31:46 +0900
/work03/am/2022.06.ECS.OBS/26.16.LFM.NCL.pt3/15.12.ECAPE/20.12.MUECAPE_VPR_OUT/INPUT
Thu, 16 Feb 2023 19:34:34 +0900
/work03/am/2022.06.ECS.OBS/26.16.LFM.NCL.pt3/15.12.ECAPE/20.12.MUECAPE_VPR_OUT/INPUT
Thu, 16 Feb 2023 19:35:10 +0900
/work03/am/2022.06.ECS.OBS/26.16.LFM.NCL.pt3/15.12.ECAPE/20.12.MUECAPE_VPR_OUT/INPUT
Thu, 16 Feb 2023 19:35:23 +0900
/work03/am/2022.06.ECS.OBS/26.16.LFM.NCL.pt3/15.12.ECAPE/20.12.MUECAPE_VPR_OUT/INPUT
Thu, 16 Feb 2023 19:37:33 +0900
/work03/am/2022.06.ECS.OBS/26.16.LFM.NCL.pt3/15.12.ECAPE/20.12.MUECAPE_VPR_OUT/INPUT
Thu, 16 Feb 2023 19:38:11 +0900
/work03/am/2022.06.ECS.OBS/26.16.LFM.NCL.pt3/15.12.ECAPE/20.12.MUECAPE_VPR_OUT/INPUT
Thu, 16 Feb 2023 19:38:28 +0900
/work03/am/2022.06.ECS.OBS/26.16.LFM.NCL.pt3/15.12.ECAPE/20.12.MUECAPE_VPR_OUT/INPUT
Thu, 16 Feb 2023 19:39:41 +0900
/work03/am/2022.06.ECS.OBS/26.16.LFM.NCL.pt3/15.12.ECAPE/20.12.MUECAPE_VPR_OUT/INPUT
Thu, 16 Feb 2023 19:40:26 +0900
/work03/am/2022.06.ECS.OBS/26.16.LFM.NCL.pt3/15.12.ECAPE/20.12.MUECAPE_VPR_OUT/INPUT
Thu, 16 Feb 2023 19:42:10 +0900
/work03/am/2022.06.ECS.OBS/26.16.LFM.NCL.pt3/15.12.ECAPE/20.12.MUECAPE_VPR_OUT/INPUT
Thu, 16 Feb 2023 19:42:24 +0900
/work03/am/2022.06.ECS.OBS/26.16.LFM.NCL.pt3/15.12.ECAPE/20.12.MUECAPE_VPR_OUT/INPUT
Thu, 16 Feb 2023 19:43:06 +0900
/work03/am/2022.06.ECS.OBS/26.16.LFM.NCL.pt3/15.12.ECAPE/20.12.MUECAPE_VPR_OUT/INPUT
Thu, 16 Feb 2023 19:43:12 +0900
/work03/am/2022.06.ECS.OBS/26.16.LFM.NCL.pt3/15.12.ECAPE/20.12.MUECAPE_VPR_OUT/INPUT
Thu, 16 Feb 2023 19:43:15 +0900
/work03/am/2022.06.ECS.OBS/26.16.LFM.NCL.pt3/15.12.ECAPE/20.12.MUECAPE_VPR_OUT/INPUT
Thu, 16 Feb 2023 19:44:06 +0900
/work03/am/2022.06.ECS.OBS/26.16.LFM.NCL.pt3/15.12.ECAPE/20.12.MUECAPE_VPR_OUT/INPUT
Thu, 16 Feb 2023 19:44:11 +0900
/work03/am/2022.06.ECS.OBS/26.16.LFM.NCL.pt3/15.12.ECAPE/20.12.MUECAPE_VPR_OUT/INPUT
Thu, 16 Feb 2023 19:46:04 +0900
/work03/am/2022.06.ECS.OBS/26.16.LFM.NCL.pt3/15.12.ECAPE/20.12.MUECAPE_VPR_OUT/INPUT
Thu, 16 Feb 2023 19:48:02 +0900
/work03/am/2022.06.ECS.OBS/26.16.LFM.NCL.pt3/15.12.ECAPE/20.12.MUECAPE_VPR_OUT/INPUT
Thu, 16 Feb 2023 19:48:41 +0900
/work03/am/2022.06.ECS.OBS/26.16.LFM.NCL.pt3/15.12.ECAPE/20.12.MUECAPE_VPR_OUT/INPUT
Thu, 16 Feb 2023 19:48:54 +0900
/work03/am/2022.06.ECS.OBS/26.16.LFM.NCL.pt3/15.12.ECAPE/20.12.MUECAPE_VPR_OUT/INPUT
Thu, 16 Feb 2023 19:49:42 +0900
/work03/am/2022.06.ECS.OBS/26.16.LFM.NCL.pt3/15.12.ECAPE/20.12.MUECAPE_VPR_OUT/INPUT
Thu, 16 Feb 2023 19:49:55 +0900
/work03/am/2022.06.ECS.OBS/26.16.LFM.NCL.pt3/15.12.ECAPE/20.12.MUECAPE_VPR_OUT/INPUT
Thu, 16 Feb 2023 19:50:11 +0900
/work03/am/2022.06.ECS.OBS/26.16.LFM.NCL.pt3/15.12.ECAPE/20.12.MUECAPE_VPR_OUT/INPUT
Thu, 16 Feb 2023 20:26:33 +0900
/work03/am/2022.06.ECS.OBS/26.16.LFM.NCL.pt3/15.12.ECAPE/20.12.MUECAPE_VPR_OUT/INPUT
Thu, 16 Feb 2023 20:26:56 +0900
/work03/am/2022.06.ECS.OBS/26.16.LFM.NCL.pt3/15.12.ECAPE/20.12.MUECAPE_VPR_OUT/INPUT
Thu, 16 Feb 2023 20:28:06 +0900
/work03/am/2022.06.ECS.OBS/26.16.LFM.NCL.pt3/15.12.ECAPE/20.12.MUECAPE_VPR_OUT/INPUT
Thu, 16 Feb 2023 20:29:29 +0900
/work03/am/2022.06.ECS.OBS/26.16.LFM.NCL.pt3/15.12.ECAPE/20.12.MUECAPE_VPR_OUT/INPUT
Thu, 16 Feb 2023 20:31:55 +0900
/work03/am/2022.06.ECS.OBS/26.16.LFM.NCL.pt3/15.12.ECAPE/20.12.MUECAPE_VPR_OUT/INPUT
Thu, 16 Feb 2023 20:32:38 +0900
/work03/am/2022.06.ECS.OBS/26.16.LFM.NCL.pt3/15.12.ECAPE/20.12.MUECAPE_VPR_OUT/INPUT
Thu, 16 Feb 2023 20:33:21 +0900
/work03/am/2022.06.ECS.OBS/26.16.LFM.NCL.pt3/15.12.ECAPE/20.12.MUECAPE_VPR_OUT/INPUT
Thu, 16 Feb 2023 20:33:41 +0900
/work03/am/2022.06.ECS.OBS/26.16.LFM.NCL.pt3/15.12.ECAPE/20.12.MUECAPE_VPR_OUT/INPUT
Thu, 16 Feb 2023 20:33:56 +0900
/work03/am/2022.06.ECS.OBS/26.16.LFM.NCL.pt3/15.12.ECAPE/20.12.MUECAPE_VPR_OUT/INPUT
Thu, 16 Feb 2023 20:34:01 +0900
/work03/am/2022.06.ECS.OBS/26.16.LFM.NCL.pt3/15.12.ECAPE/20.12.MUECAPE_VPR_OUT/INPUT
Thu, 16 Feb 2023 20:53:40 +0900
/work03/am/2022.06.ECS.OBS/26.16.LFM.NCL.pt3/15.12.ECAPE/20.12.MUECAPE_VPR_OUT/INPUT
Thu, 16 Feb 2023 20:54:04 +0900
/work03/am/2022.06.ECS.OBS/26.16.LFM.NCL.pt3/15.12.ECAPE/20.12.MUECAPE_VPR_OUT/INPUT
Thu, 16 Feb 2023 20:54:35 +0900
/work03/am/2022.06.ECS.OBS/26.16.LFM.NCL.pt3/15.12.ECAPE/20.12.MUECAPE_VPR_OUT/INPUT
Thu, 16 Feb 2023 20:55:17 +0900
/work03/am/2022.06.ECS.OBS/26.16.LFM.NCL.pt3/15.12.ECAPE/20.12.MUECAPE_VPR_OUT/INPUT
Thu, 16 Feb 2023 20:55:36 +0900
/work03/am/2022.06.ECS.OBS/26.16.LFM.NCL.pt3/15.12.ECAPE/20.12.MUECAPE_VPR_OUT/INPUT
Thu, 16 Feb 2023 20:56:51 +0900
/work03/am/2022.06.ECS.OBS/26.16.LFM.NCL.pt3/15.12.ECAPE/20.12.MUECAPE_VPR_OUT/INPUT
Thu, 16 Feb 2023 20:57:33 +0900
/work03/am/2022.06.ECS.OBS/26.16.LFM.NCL.pt3/15.12.ECAPE/20.12.MUECAPE_VPR_OUT/INPUT
Thu, 16 Feb 2023 20:58:01 +0900
/work03/am/2022.06.ECS.OBS/26.16.LFM.NCL.pt3/15.12.ECAPE/20.12.MUECAPE_VPR_OUT/INPUT
Thu, 16 Feb 2023 20:58:22 +0900
/work03/am/2022.06.ECS.OBS/26.16.LFM.NCL.pt3/15.12.ECAPE/20.12.MUECAPE_VPR_OUT/INPUT
Thu, 16 Feb 2023 20:58:40 +0900
/work03/am/2022.06.ECS.OBS/26.16.LFM.NCL.pt3/15.12.ECAPE/20.12.MUECAPE_VPR_OUT/INPUT
Thu, 16 Feb 2023 20:58:46 +0900
/work03/am/2022.06.ECS.OBS/26.16.LFM.NCL.pt3/15.12.ECAPE/20.12.MUECAPE_VPR_OUT/INPUT
Thu, 16 Feb 2023 20:59:12 +0900
/work03/am/2022.06.ECS.OBS/26.16.LFM.NCL.pt3/15.12.ECAPE/20.12.MUECAPE_VPR_OUT/INPUT
Thu, 16 Feb 2023 20:59:35 +0900
/work03/am/2022.06.ECS.OBS/26.16.LFM.NCL.pt3/15.12.ECAPE/20.12.MUECAPE_VPR_OUT/INPUT
Fri, 17 Feb 2023 12:48:40 +0900
/work03/am/2022.06.ECS.OBS/26.16.LFM.NCL.pt3/15.12.ECAPE/20.12.MUECAPE_VPR_OUT/INPUT
Fri, 17 Feb 2023 12:53:17 +0900
/work03/am/2022.06.ECS.OBS/26.16.LFM.NCL.pt3/15.12.ECAPE/20.12.MUECAPE_VPR_OUT/INPUT
Fri, 17 Feb 2023 12:53:28 +0900
/work03/am/2022.06.ECS.OBS/26.16.LFM.NCL.pt3/15.12.ECAPE/20.12.MUECAPE_VPR_OUT/INPUT
Fri, 17 Feb 2023 12:53:39 +0900
/work03/am/2022.06.ECS.OBS/26.16.LFM.NCL.pt3/15.12.ECAPE/20.12.MUECAPE_VPR_OUT/INPUT
Fri, 17 Feb 2023 12:54:32 +0900
/work03/am/2022.06.ECS.OBS/26.16.LFM.NCL.pt3/15.12.ECAPE/20.12.MUECAPE_VPR_OUT/INPUT
Sat, 18 Feb 2023 10:43:45 +0900
/work03/am/2022.06.ECS.OBS/26.16.LFM.NCL.pt3/15.12.ECAPE/20.12.MUECAPE_VPR_OUT/INPUT
Sat, 18 Feb 2023 10:44:17 +0900
/work03/am/2022.06.ECS.OBS/26.16.LFM.NCL.pt3/15.12.ECAPE/20.12.MUECAPE_VPR_OUT/INPUT
Sat, 18 Feb 2023 10:44:38 +0900
