%!PS-Adobe-3.0 EPSF-3.0
%%Creator: cairo 1.12.16 (http://cairographics.org)
%%CreationDate: Fri Sep 16 16:46:46 2022
%%Pages: 1
%%DocumentData: Clean7Bit
%%LanguageLevel: 2
%%BoundingBox: 0 0 612 792
%%EndComments
%%BeginProlog
save
50 dict begin
/q { gsave } bind def
/Q { grestore } bind def
/cm { 6 array astore concat } bind def
/w { setlinewidth } bind def
/J { setlinecap } bind def
/j { setlinejoin } bind def
/M { setmiterlimit } bind def
/d { setdash } bind def
/m { moveto } bind def
/l { lineto } bind def
/c { curveto } bind def
/h { closepath } bind def
/re { exch dup neg 3 1 roll 5 3 roll moveto 0 rlineto
      0 exch rlineto 0 rlineto closepath } bind def
/S { stroke } bind def
/f { fill } bind def
/f* { eofill } bind def
/n { newpath } bind def
/W { clip } bind def
/W* { eoclip } bind def
/BT { } bind def
/ET { } bind def
/pdfmark where { pop globaldict /?pdfmark /exec load put }
    { globaldict begin /?pdfmark /pop load def /pdfmark
    /cleartomark load def end } ifelse
/BDC { mark 3 1 roll /BDC pdfmark } bind def
/EMC { mark /EMC pdfmark } bind def
/cairo_store_point { /cairo_point_y exch def /cairo_point_x exch def } def
/Tj { show currentpoint cairo_store_point } bind def
/TJ {
  {
    dup
    type /stringtype eq
    { show } { -0.001 mul 0 cairo_font_matrix dtransform rmoveto } ifelse
  } forall
  currentpoint cairo_store_point
} bind def
/cairo_selectfont { cairo_font_matrix aload pop pop pop 0 0 6 array astore
    cairo_font exch selectfont cairo_point_x cairo_point_y moveto } bind def
/Tf { pop /cairo_font exch def /cairo_font_matrix where
      { pop cairo_selectfont } if } bind def
/Td { matrix translate cairo_font_matrix matrix concatmatrix dup
      /cairo_font_matrix exch def dup 4 get exch 5 get cairo_store_point
      /cairo_font where { pop cairo_selectfont } if } bind def
/Tm { 2 copy 8 2 roll 6 array astore /cairo_font_matrix exch def
      cairo_store_point /cairo_font where { pop cairo_selectfont } if } bind def
/g { setgray } bind def
/rg { setrgbcolor } bind def
/d1 { setcachedevice } bind def
%%EndProlog
%%Page: 1 1
%%BeginPageSetup
%%PageBoundingBox: 0 0 612 792
%%EndPageSetup
q 0 0 612 792 rectclip q
1 g
0 0 612 792 rectfill
0.666667 g
1 w
1 J
1 j
[] 0.0 d
10 M 521.574 710.797 m 524.324 706.344 l 525.035 705.191 l 527.242 700.738 l
 528.508 698.188 l 531.273 693.734 l 531.977 692.602 l 534.734 688.148 l
 535.449 686.996 l 536.914 682.543 l 537.75 680.008 l 541.43 675.555 l 542.379
 674.406 l 545.145 669.953 l 545.852 668.816 l 549.531 665.469 l 550.469
 664.613 l 546.793 663.871 l 543.539 663.215 l 539.859 661.73 l 536.594 
660.414 l 532.914 659.781 l 528.508 659.027 l 524.828 658.391 l 520.418 
657.625 l 516.738 655.848 l 514.633 654.824 l 510.953 651.477 l 510.016 
650.621 l 506.336 647.281 l 505.383 646.418 l 501.707 641.969 l 500.77 640.832
 l 498.012 636.379 l 497.297 635.23 l 494.531 630.777 l 493.824 629.641 
l 491.625 625.188 l 490.367 622.637 l 488.891 618.184 l 488.051 615.648 
l 488.051 605.859 l 489.52 601.406 l 490.367 598.855 l 490.367 589.062 l
 488.891 584.613 l 488.051 582.074 l 484.371 580.297 l 482.266 579.273 l
 479.516 574.82 l 478.805 573.672 l 475.129 571.891 l 473.02 570.867 l 469.34
 570.133 l 466.086 569.484 l 458 569.484 l 454.32 567.703 l 452.215 566.684
 l 449.457 562.23 l 448.742 561.078 l 445.062 560.336 l 441.812 559.68 l
 438.133 556.344 l 437.195 555.492 l 433.516 551.039 l 432.562 549.887 l
 431.949 545.434 l 431.406 541.5 l 427.73 538.148 l 426.789 537.297 l 423.113
 536.555 l 419.848 535.895 l 416.168 537.68 l 414.074 538.695 l 410.395 
542.035 l 409.445 542.898 l 406.688 547.352 l 405.984 548.488 l 409.664 
549.125 l 414.074 549.887 l 417.754 553.234 l 418.688 554.09 l 415.012 557.438
 l 414.074 558.293 l 414.688 562.746 l 415.23 566.684 l 414.617 571.133 
l 414.074 575.07 l 414.688 579.523 l 415.23 583.477 l 418.91 586.812 l 419.848
 587.664 l 418.387 592.117 l 417.547 594.668 l 413.867 597.992 l 412.918
 598.855 l 409.238 600.641 l 407.145 601.656 l 410.82 602.398 l 414.074 
603.055 l 417.754 604.84 l 419.848 605.859 l 423.527 607.641 l 425.633 608.66
 l 424.16 613.113 l 423.32 615.648 l 427 618.988 l 427.949 619.852 l 431.629
 621.625 l 433.723 622.637 l 437.398 627.09 l 438.352 628.238 l 442.031 
631.59 l 442.969 632.441 l 446.645 635.77 l 447.598 636.629 l 449.059 641.082
 l 449.898 643.633 l 446.219 646.969 l 445.281 647.82 l 443.078 652.273 
l 441.812 654.824 l 438.133 656.609 l 436.035 657.625 l 432.359 656.883 
l 429.094 656.227 l 425.414 652.879 l 424.477 652.023 l 420.797 653.508 
l 417.547 654.824 l 413.867 651.484 l 412.918 650.621 l 409.238 652.406 
l 407.145 653.426 l 406.527 648.973 l 405.984 645.035 l 406.598 640.582 
l 407.145 636.629 l 405.668 632.176 l 404.828 629.641 l 401.148 628.898 
l 397.883 628.238 l 394.207 626.453 l 392.109 625.438 l 394.875 620.988 
l 395.582 619.852 l 391.902 616.512 l 390.953 615.648 l 390.953 605.859 
l 391.566 601.406 l 392.109 597.453 l 395.789 595.684 l 397.895 594.668 
l 400.645 590.215 l 401.355 589.062 l 397.68 585.715 l 396.738 584.863 l
 393.062 580.422 l 392.109 579.273 l 389.363 574.82 l 388.652 573.672 l 
388.039 578.121 l 387.492 582.074 l 386.02 586.527 l 385.18 589.062 l 381.5
 592.402 l 380.551 593.266 l 377.793 597.719 l 377.094 598.855 l 368.992
 598.855 l 365.312 600.641 l 363.215 601.656 l 359.539 600.914 l 356.285
 600.254 l 348.184 600.254 l S
348.184 600.254 m 344.504 599.512 l 341.254 598.855 l 337.574 597.07 l 
335.48 596.051 l 331.801 593.391 l 329.695 591.867 l 326.934 587.414 l 326.223
 586.262 l 324.754 581.809 l 323.918 579.273 l 322.449 574.82 l 321.605 
572.27 l 318.836 567.816 l 318.133 566.684 l 319.605 562.23 l 320.445 559.68
 l 318.973 555.227 l 318.133 552.688 l 321.812 548.238 l 322.762 547.086
 l 325.52 542.633 l 326.223 541.5 l 324.758 537.047 l 323.918 534.496 l 
320.242 531.168 l 319.289 530.309 l 317.82 525.855 l 316.977 523.305 l 315.508
 518.852 l 314.672 516.316 l 310.996 514.535 l 308.887 513.512 l 306.129
 509.062 l 305.414 507.91 l 303.949 503.457 l 303.113 500.922 l 299.434 
497.582 l 298.484 496.719 l 294.805 494.051 l 292.711 492.531 l 289.031 
490.75 l 286.926 489.73 l 283.246 491.219 l 279.992 492.531 l 277.781 496.984
 l 276.52 499.52 l 273.762 503.973 l 273.047 505.125 l 275.812 509.574 l
 276.52 510.711 l 275.906 515.164 l 275.363 519.117 l 275.98 523.57 l 276.52
 527.504 l 277.137 531.957 l 277.676 535.895 l 276.453 540.348 l 275.363
 544.301 l 276.84 548.754 l 277.676 551.289 l 281.355 553.965 l 283.453 
555.492 l 287.129 554.855 l 291.555 554.09 l 290.938 558.543 l 290.395 562.48
 l 286.719 565.82 l 285.766 566.684 l 282.09 568.457 l 279.992 569.469 l
 276.312 571.25 l 274.207 572.27 l 266.117 572.27 l 262.438 570.488 l 260.332
 569.469 l 252.242 569.469 l 249.484 565.016 l 248.785 563.879 l 245.105
 560.543 l 244.156 559.68 l 241.387 555.227 l 240.684 554.09 l 244.359 550.75
 l 245.312 549.887 l 241.633 547.215 l 239.523 545.684 l 235.848 543.91 
l 233.75 542.898 l 230.074 541.117 l 227.965 540.098 l 224.285 538.312 l
 222.191 537.297 l 219.434 532.844 l 218.719 531.691 l 220.191 527.238 l
 221.035 524.703 l 218.277 520.25 l 217.562 519.102 l 214.797 514.648 l 
214.09 513.512 l 210.41 511.727 l 208.316 510.711 l 205.559 506.258 l 204.844
 505.109 l 202.078 500.656 l 201.371 499.52 l 201.988 495.066 l 202.531 
491.133 l 194.441 491.133 l 190.762 492.906 l 188.668 493.918 l 184.988 
494.66 l 181.723 495.316 l 178.043 497.102 l 175.949 498.121 l 167.863 498.121
 l 164.184 497.379 l 160.918 496.719 l 157.238 495.977 l 153.984 495.316
 l 150.309 496.062 l 147.055 496.719 l 143.375 497.461 l 140.113 498.121
 l 136.434 498.863 l 133.184 499.52 l 129.504 500.266 l 126.25 500.922 l
 118.16 500.922 l 114.484 500.18 l 111.219 499.52 l 107.539 498.777 l 104.289
 498.121 l 96.199 498.121 l 92.52 497.375 l 89.266 496.719 l 85.59 494.938
 l 83.48 493.918 l 79.805 492.438 l 76.551 491.133 l 72.871 489.648 l 69.605
 488.328 l 65.926 487.586 l 62.676 486.93 l 58.996 486.188 l 55.746 485.527
 l 52.066 486.27 l 48.812 486.93 l 51.562 491.383 l 52.273 492.531 l 55.949
 495.859 l 56.902 496.719 l 60.578 494.945 l 62.676 493.934 l 66.355 497.258
 l 67.305 498.121 l 70.984 499.906 l 73.078 500.922 l 76.758 502.703 l 78.863
 503.723 l 82.543 505.496 l 84.637 506.508 l 88.316 507.25 l 91.582 507.91
 l 88.824 512.363 l 88.109 513.512 l 85.898 517.965 l 84.637 520.5 l 76.551
 520.5 l 72.871 518.73 l 70.762 517.715 l 67.086 516.973 l 63.832 516.316
 l 60.152 515.57 l 56.902 514.914 l 53.223 515.551 l 48.812 516.316 l 46.047
 520.766 l 45.926 520.961 l S
344.727 460.359 m 344.109 455.906 l 343.566 451.969 l 340.809 447.52 l 
340.098 446.367 l 340.098 456.156 l 342.855 460.609 l 343.566 461.762 l 
344.727 458.961 l S
359.742 519.117 m 363.422 515.789 l 364.375 514.93 l 364.988 510.477 l 
365.531 506.523 l 362.766 502.074 l 362.059 500.938 l 358.383 502.711 l 
356.285 503.723 l 353.527 508.176 l 352.812 509.328 l 353.43 513.777 l 353.969
 517.715 l 360.902 517.715 l S
407.145 261.691 m 410.809 257.242 l 411.758 256.09 l 415.438 255.348 l 
418.703 254.688 l 417.227 250.234 l 416.391 247.699 l 412.711 246.957 l 
409.445 246.301 l 406.688 250.75 l 405.984 251.887 l 403.227 256.34 l 402.512
 257.488 l 406.191 260.828 l 407.145 261.691 l 408.301 260.293 l S
386.336 376.418 m 384.867 371.969 l 384.023 369.414 l 384.547 373.867 l
 385.18 379.207 l 387.492 376.418 l S
380.551 411.395 m 379.332 406.941 l 378.25 402.988 l 374.57 402.254 l 371.305
 401.602 l 369.836 406.055 l 369.004 408.594 l 372.68 411.941 l 373.621 
412.793 l 377.297 412.051 l 380.551 411.395 l 380.551 409.992 l S
496.371 710.797 m 496.453 710.547 l 497.297 707.992 l 500.062 703.543 l
 500.77 702.406 l 497.09 704.176 l 494.98 705.191 l 491.305 705.938 l 488.051
 706.594 l 484.371 707.336 l 481.121 707.992 l 479.383 710.797 l S
0 g
1.25 w
20.371 19.91 m 20.074 20.547 l 19.48 21.184 l 18.887 21.5 l 17.699 21.5
 l 17.102 21.184 l 16.508 20.547 l 16.211 19.91 l 15.914 18.957 l 15.914
 17.367 l 16.211 16.414 l 16.508 15.777 l 17.102 15.141 l 17.699 14.824 
l 18.887 14.824 l 19.48 15.141 l 20.074 15.777 l 20.371 16.414 l 20.371 
17.367 l S
18.887 17.367 m 20.371 17.367 l S
22.41 19.277 m 22.41 14.824 l S
22.41 17.367 m 22.707 18.32 l 23.301 18.957 l 23.895 19.277 l 24.785 19.277
 l S
28.137 21.5 m 25.758 14.824 l S
28.137 21.5 m 30.516 14.824 l S
26.652 17.051 m 29.625 17.051 l S
32.141 21.5 m 32.141 14.824 l S
32.141 21.5 m 34.223 21.5 l 35.113 21.184 l 35.711 20.547 l 36.008 19.91
 l 36.305 18.957 l 36.305 17.367 l 36.008 16.414 l 35.711 15.777 l 35.113
 15.141 l 34.223 14.824 l 32.141 14.824 l S
42.703 20.547 m 42.105 21.184 l 41.215 21.5 l 40.027 21.5 l 39.137 21.184
 l 38.539 20.547 l 38.539 19.91 l 38.836 19.277 l 39.137 18.957 l 39.73 
18.641 l 41.512 18.004 l 42.105 17.688 l 42.406 17.367 l 42.703 16.73 l 
42.703 15.777 l 42.105 15.141 l 41.215 14.824 l 40.027 14.824 l 39.137 15.141
 l 38.539 15.777 l S
49.852 22.773 m 44.5 12.598 l S
56.262 19.91 m 55.965 20.547 l 55.371 21.184 l 54.777 21.5 l 53.586 21.5
 l 52.992 21.184 l 52.398 20.547 l 52.102 19.91 l 51.805 18.957 l 51.805
 17.367 l 52.102 16.414 l 52.398 15.777 l 52.992 15.141 l 53.586 14.824 
l 54.777 14.824 l 55.371 15.141 l 55.965 15.777 l 56.262 16.414 l S
60 21.5 m 59.406 21.184 l 58.812 20.547 l 58.516 19.91 l 58.219 18.957 
l 58.219 17.367 l 58.516 16.414 l 58.812 15.777 l 59.406 15.141 l 60 14.824
 l 61.188 14.824 l 61.785 15.141 l 62.379 15.777 l 62.676 16.414 l 62.973
 17.367 l 62.973 18.957 l 62.676 19.91 l 62.379 20.547 l 61.785 21.184 l
 61.188 21.5 l 60 21.5 l S
64.898 21.5 m 64.898 14.824 l S
64.898 14.824 m 68.465 14.824 l S
72.141 21.5 m 69.766 14.824 l S
72.141 21.5 m 74.52 14.824 l S
70.656 17.051 m 73.629 17.051 l S
484.188 19.91 m 484.188 20.23 l 484.484 20.867 l 484.781 21.184 l 485.375
 21.5 l 486.566 21.5 l 487.16 21.184 l 487.457 20.867 l 487.754 20.23 l 
487.754 19.594 l 487.457 18.957 l 486.863 18.004 l 483.891 14.824 l 488.051
 14.824 l S
491.914 21.5 m 491.023 21.184 l 490.43 20.23 l 490.133 18.641 l 490.133
 17.688 l 490.43 16.098 l 491.023 15.141 l 491.914 14.824 l 492.512 14.824
 l 493.402 15.141 l 493.996 16.098 l 494.293 17.688 l 494.293 18.641 l 493.996
 20.23 l 493.402 21.184 l 492.512 21.5 l 491.914 21.5 l S
496.672 19.91 m 496.672 20.23 l 496.969 20.867 l 497.266 21.184 l 497.859
 21.5 l 499.051 21.5 l 499.645 21.184 l 499.941 20.867 l 500.238 20.23 l
 500.238 19.594 l 499.941 18.957 l 499.348 18.004 l 496.375 14.824 l 500.535
 14.824 l S
502.914 19.91 m 502.914 20.23 l 503.211 20.867 l 503.508 21.184 l 504.102
 21.5 l 505.289 21.5 l 505.887 21.184 l 506.184 20.867 l 506.48 20.23 l 
506.48 19.594 l 506.184 18.957 l 505.586 18.004 l 502.617 14.824 l 506.777
 14.824 l S
509.199 17.688 m 514.551 17.688 l S
518.754 21.5 m 517.863 21.184 l 517.27 20.23 l 516.973 18.641 l 516.973
 17.688 l 517.27 16.098 l 517.863 15.141 l 518.754 14.824 l 519.348 14.824
 l 520.242 15.141 l 520.836 16.098 l 521.133 17.688 l 521.133 18.641 l 520.836
 20.23 l 520.242 21.184 l 519.348 21.5 l 518.754 21.5 l S
527.078 19.277 m 526.781 18.32 l 526.188 17.688 l 525.293 17.367 l 524.996
 17.367 l 524.105 17.688 l 523.512 18.32 l 523.215 19.277 l 523.215 19.594
 l 523.512 20.547 l 524.105 21.184 l 524.996 21.5 l 525.293 21.5 l 526.188
 21.184 l 526.781 20.547 l 527.078 19.277 l 527.078 17.688 l 526.781 16.098
 l 526.188 15.141 l 525.293 14.824 l 524.699 14.824 l 523.809 15.141 l 523.512
 15.777 l S
529.797 17.688 m 535.148 17.688 l S
538.461 20.23 m 539.055 20.547 l 539.949 21.5 l 539.949 14.824 l S
547.676 20.547 m 547.379 21.184 l 546.484 21.5 l 545.891 21.5 l 545 21.184
 l 544.406 20.23 l 544.109 18.641 l 544.109 17.051 l 544.406 15.777 l 545
 15.141 l 545.891 14.824 l 546.188 14.824 l 547.082 15.141 l 547.676 15.777
 l 547.973 16.73 l 547.973 17.051 l 547.676 18.004 l 547.082 18.641 l 546.188
 18.957 l 545.891 18.957 l 545 18.641 l 544.406 18.004 l 544.109 17.051 
l S
550.395 17.688 m 555.746 17.688 l S
559.059 20.23 m 559.652 20.547 l 560.547 21.5 l 560.547 14.824 l S
568.273 20.547 m 567.977 21.184 l 567.086 21.5 l 566.488 21.5 l 565.598
 21.184 l 565.004 20.23 l 564.707 18.641 l 564.707 17.051 l 565.004 15.777
 l 565.598 15.141 l 566.488 14.824 l 566.785 14.824 l 567.68 15.141 l 568.273
 15.777 l 568.57 16.73 l 568.57 17.051 l 568.273 18.004 l 567.68 18.641 
l 566.785 18.957 l 566.488 18.957 l 565.598 18.641 l 565.004 18.004 l 564.707
 17.051 l S
571.172 19.277 m 570.875 18.957 l 571.172 18.641 l 571.469 18.957 l 571.172
 19.277 l S
571.172 15.461 m 570.875 15.141 l 571.172 14.824 l 571.469 15.141 l 571.172
 15.461 l S
576.742 21.5 m 573.773 17.051 l 578.23 17.051 l S
576.742 21.5 m 576.742 14.824 l S
583.879 20.547 m 583.582 21.184 l 582.688 21.5 l 582.094 21.5 l 581.203
 21.184 l 580.609 20.23 l 580.312 18.641 l 580.312 17.051 l 580.609 15.777
 l 581.203 15.141 l 582.094 14.824 l 582.391 14.824 l 583.281 15.141 l 583.879
 15.777 l 584.176 16.73 l 584.176 17.051 l 583.879 18.004 l 583.281 18.641
 l 582.391 18.957 l 582.094 18.957 l 581.203 18.641 l 580.609 18.004 l 580.312
 17.051 l S
45.926 81.203 m 45.926 77.285 l S
0.666667 g
45.926 81.203 m 45.926 81.902 l S
45.926 87.5 m 45.926 88.199 l S
45.926 93.797 m 45.926 94.496 l S
45.926 100.094 m 45.926 100.793 l S
45.926 106.387 m 45.926 107.086 l S
45.926 112.684 m 45.926 113.383 l S
45.926 118.98 m 45.926 119.68 l S
45.926 125.277 m 45.926 125.977 l S
45.926 131.57 m 45.926 132.27 l S
45.926 137.867 m 45.926 138.566 l S
45.926 144.164 m 45.926 144.863 l S
45.926 150.461 m 45.926 151.16 l S
45.926 156.754 m 45.926 157.453 l S
45.926 163.051 m 45.926 163.75 l S
45.926 169.348 m 45.926 170.047 l S
45.926 175.645 m 45.926 176.344 l S
45.926 181.938 m 45.926 182.637 l S
45.926 188.234 m 45.926 188.934 l S
45.926 194.531 m 45.926 195.23 l S
45.926 200.828 m 45.926 201.527 l S
45.926 207.121 m 45.926 207.824 l S
45.926 213.418 m 45.926 214.117 l S
45.926 219.715 m 45.926 220.414 l S
45.926 226.012 m 45.926 226.711 l S
45.926 232.305 m 45.926 233.008 l S
45.926 238.602 m 45.926 239.301 l S
45.926 244.898 m 45.926 245.598 l S
45.926 251.195 m 45.926 251.895 l S
45.926 257.488 m 45.926 258.191 l S
45.926 263.785 m 45.926 264.484 l S
45.926 270.082 m 45.926 270.781 l S
45.926 276.379 m 45.926 277.078 l S
45.926 282.672 m 45.926 283.375 l S
45.926 288.969 m 45.926 289.668 l S
45.926 295.266 m 45.926 295.965 l S
45.926 301.562 m 45.926 302.262 l S
45.926 307.855 m 45.926 308.559 l S
45.926 314.152 m 45.926 314.852 l S
45.926 320.449 m 45.926 321.148 l S
45.926 326.746 m 45.926 327.445 l S
45.926 333.039 m 45.926 333.742 l S
45.926 339.336 m 45.926 340.035 l S
45.926 345.633 m 45.926 346.332 l S
45.926 351.93 m 45.926 352.629 l S
45.926 358.223 m 45.926 358.926 l S
45.926 364.52 m 45.926 365.219 l S
45.926 370.816 m 45.926 371.516 l S
45.926 377.113 m 45.926 377.812 l S
45.926 383.406 m 45.926 384.109 l S
45.926 389.703 m 45.926 390.402 l S
45.926 396 m 45.926 396.699 l S
45.926 402.297 m 45.926 402.996 l S
45.926 408.594 m 45.926 409.293 l S
45.926 414.887 m 45.926 415.586 l S
45.926 421.184 m 45.926 421.883 l S
45.926 427.48 m 45.926 428.18 l S
45.926 433.777 m 45.926 434.477 l S
45.926 440.07 m 45.926 440.77 l S
45.926 446.367 m 45.926 447.066 l S
45.926 452.664 m 45.926 453.363 l S
45.926 458.961 m 45.926 459.66 l S
45.926 465.254 m 45.926 465.953 l S
45.926 471.551 m 45.926 472.25 l S
45.926 477.848 m 45.926 478.547 l S
45.926 484.145 m 45.926 484.844 l S
45.926 490.438 m 45.926 491.137 l S
45.926 496.734 m 45.926 497.434 l S
45.926 503.031 m 45.926 503.73 l S
45.926 509.328 m 45.926 510.027 l S
45.926 515.621 m 45.926 516.32 l S
45.926 521.918 m 45.926 522.617 l S
45.926 528.215 m 45.926 528.914 l S
45.926 534.512 m 45.926 535.211 l S
45.926 540.805 m 45.926 541.504 l S
45.926 547.102 m 45.926 547.801 l S
45.926 553.398 m 45.926 554.098 l S
45.926 559.695 m 45.926 560.395 l S
45.926 565.988 m 45.926 566.688 l S
45.926 572.285 m 45.926 572.984 l S
45.926 578.582 m 45.926 579.281 l S
45.926 584.879 m 45.926 585.578 l S
45.926 591.172 m 45.926 591.871 l S
45.926 597.469 m 45.926 598.168 l S
45.926 603.766 m 45.926 604.465 l S
45.926 610.062 m 45.926 610.762 l S
45.926 616.355 m 45.926 617.055 l S
45.926 622.652 m 45.926 623.352 l S
45.926 628.949 m 45.926 629.648 l S
45.926 635.246 m 45.926 635.945 l S
45.926 641.539 m 45.926 642.238 l S
45.926 647.836 m 45.926 648.535 l S
45.926 654.133 m 45.926 654.832 l S
45.926 660.43 m 45.926 661.129 l S
45.926 666.723 m 45.926 667.422 l S
45.926 673.02 m 45.926 673.719 l S
45.926 679.316 m 45.926 680.016 l S
45.926 685.613 m 45.926 686.312 l S
45.926 691.906 m 45.926 692.605 l S
45.926 698.203 m 45.926 698.902 l S
45.926 704.5 m 45.926 705.199 l S
45.926 710.797 m 45.926 710.797 l S
0 g
32.988 72.23 m 33.73 72.676 l 34.84 74.012 l 34.84 64.664 l S
40.387 74.012 m 44.457 74.012 l 42.238 70.449 l 43.348 70.449 l 44.086 
70.004 l 44.457 69.559 l 44.824 68.223 l 44.824 67.332 l 44.457 65.996 l
 43.715 65.105 l 42.605 64.664 l 41.496 64.664 l 40.387 65.105 l 40.02 65.551
 l 39.648 66.441 l S
52.594 74.012 m 48.895 64.664 l S
47.414 74.012 m 52.594 74.012 l S
55.359 74.012 m 55.359 64.664 l S
55.359 74.012 m 60.168 74.012 l S
55.359 69.559 m 58.316 69.559 l S
55.359 64.664 m 60.168 64.664 l S
110.945 81.203 m 110.945 77.285 l S
0.666667 g
110.945 81.203 m 110.945 81.902 l S
110.945 87.5 m 110.945 88.199 l S
110.945 93.797 m 110.945 94.496 l S
110.945 100.094 m 110.945 100.793 l S
110.945 106.387 m 110.945 107.086 l S
110.945 112.684 m 110.945 113.383 l S
110.945 118.98 m 110.945 119.68 l S
110.945 125.277 m 110.945 125.977 l S
110.945 131.57 m 110.945 132.27 l S
110.945 137.867 m 110.945 138.566 l S
110.945 144.164 m 110.945 144.863 l S
110.945 150.461 m 110.945 151.16 l S
110.945 156.754 m 110.945 157.453 l S
110.945 163.051 m 110.945 163.75 l S
110.945 169.348 m 110.945 170.047 l S
110.945 175.645 m 110.945 176.344 l S
110.945 181.938 m 110.945 182.637 l S
110.945 188.234 m 110.945 188.934 l S
110.945 194.531 m 110.945 195.23 l S
110.945 200.828 m 110.945 201.527 l S
110.945 207.121 m 110.945 207.824 l S
110.945 213.418 m 110.945 214.117 l S
110.945 219.715 m 110.945 220.414 l S
110.945 226.012 m 110.945 226.711 l S
110.945 232.305 m 110.945 233.008 l S
110.945 238.602 m 110.945 239.301 l S
110.945 244.898 m 110.945 245.598 l S
110.945 251.195 m 110.945 251.895 l S
110.945 257.488 m 110.945 258.191 l S
110.945 263.785 m 110.945 264.484 l S
110.945 270.082 m 110.945 270.781 l S
110.945 276.379 m 110.945 277.078 l S
110.945 282.672 m 110.945 283.375 l S
110.945 288.969 m 110.945 289.668 l S
110.945 295.266 m 110.945 295.965 l S
110.945 301.562 m 110.945 302.262 l S
110.945 307.855 m 110.945 308.559 l S
110.945 314.152 m 110.945 314.852 l S
110.945 320.449 m 110.945 321.148 l S
110.945 326.746 m 110.945 327.445 l S
110.945 333.039 m 110.945 333.742 l S
110.945 339.336 m 110.945 340.035 l S
110.945 345.633 m 110.945 346.332 l S
110.945 351.93 m 110.945 352.629 l S
110.945 358.223 m 110.945 358.926 l S
110.945 364.52 m 110.945 365.219 l S
110.945 370.816 m 110.945 371.516 l S
110.945 377.113 m 110.945 377.812 l S
110.945 383.406 m 110.945 384.109 l S
110.945 389.703 m 110.945 390.402 l S
110.945 396 m 110.945 396.699 l S
110.945 402.297 m 110.945 402.996 l S
110.945 408.594 m 110.945 409.293 l S
110.945 414.887 m 110.945 415.586 l S
110.945 421.184 m 110.945 421.883 l S
110.945 427.48 m 110.945 428.18 l S
110.945 433.777 m 110.945 434.477 l S
110.945 440.07 m 110.945 440.77 l S
110.945 446.367 m 110.945 447.066 l S
110.945 452.664 m 110.945 453.363 l S
110.945 458.961 m 110.945 459.66 l S
110.945 465.254 m 110.945 465.953 l S
110.945 471.551 m 110.945 472.25 l S
110.945 477.848 m 110.945 478.547 l S
110.945 484.145 m 110.945 484.844 l S
110.945 490.438 m 110.945 491.137 l S
110.945 496.734 m 110.945 497.434 l S
110.945 503.031 m 110.945 503.73 l S
110.945 509.328 m 110.945 510.027 l S
110.945 515.621 m 110.945 516.32 l S
110.945 521.918 m 110.945 522.617 l S
110.945 528.215 m 110.945 528.914 l S
110.945 534.512 m 110.945 535.211 l S
110.945 540.805 m 110.945 541.504 l S
110.945 547.102 m 110.945 547.801 l S
110.945 553.398 m 110.945 554.098 l S
110.945 559.695 m 110.945 560.395 l S
110.945 565.988 m 110.945 566.688 l S
110.945 572.285 m 110.945 572.984 l S
110.945 578.582 m 110.945 579.281 l S
110.945 584.879 m 110.945 585.578 l S
110.945 591.172 m 110.945 591.871 l S
110.945 597.469 m 110.945 598.168 l S
110.945 603.766 m 110.945 604.465 l S
110.945 610.062 m 110.945 610.762 l S
110.945 616.355 m 110.945 617.055 l S
110.945 622.652 m 110.945 623.352 l S
110.945 628.949 m 110.945 629.648 l S
110.945 635.246 m 110.945 635.945 l S
110.945 641.539 m 110.945 642.238 l S
110.945 647.836 m 110.945 648.535 l S
110.945 654.133 m 110.945 654.832 l S
110.945 660.43 m 110.945 661.129 l S
110.945 666.723 m 110.945 667.422 l S
110.945 673.02 m 110.945 673.719 l S
110.945 679.316 m 110.945 680.016 l S
110.945 685.613 m 110.945 686.312 l S
110.945 691.906 m 110.945 692.605 l S
110.945 698.203 m 110.945 698.902 l S
110.945 704.5 m 110.945 705.199 l S
110.945 710.797 m 110.945 710.797 l S
0 g
92.184 72.23 m 92.922 72.676 l 94.031 74.012 l 94.031 64.664 l S
99.582 74.012 m 103.648 74.012 l 101.43 70.449 l 102.539 70.449 l 103.277
 70.004 l 103.648 69.559 l 104.02 68.223 l 104.02 67.332 l 103.648 65.996
 l 102.91 65.105 l 101.801 64.664 l 100.691 64.664 l 99.582 65.105 l 99.211
 65.551 l 98.84 66.441 l S
111.785 74.012 m 108.086 64.664 l S
106.609 74.012 m 111.785 74.012 l S
115.023 65.551 m 114.652 65.105 l 115.023 64.664 l 115.395 65.105 l 115.023
 65.551 l S
122.699 74.012 m 119 74.012 l 118.629 70.004 l 119 70.449 l 120.109 70.895
 l 121.219 70.895 l 122.328 70.449 l 123.066 69.559 l 123.438 68.223 l 123.438
 67.332 l 123.066 65.996 l 122.328 65.105 l 121.219 64.664 l 120.109 64.664
 l 119 65.105 l 118.629 65.551 l 118.258 66.441 l S
126.203 74.012 m 126.203 64.664 l S
126.203 74.012 m 131.012 74.012 l S
126.203 69.559 m 129.16 69.559 l S
126.203 64.664 m 131.012 64.664 l S
175.965 81.203 m 175.965 77.285 l S
0.666667 g
175.965 81.203 m 175.965 81.902 l S
175.965 87.5 m 175.965 88.199 l S
175.965 93.797 m 175.965 94.496 l S
175.965 100.094 m 175.965 100.793 l S
175.965 106.387 m 175.965 107.086 l S
175.965 112.684 m 175.965 113.383 l S
175.965 118.98 m 175.965 119.68 l S
175.965 125.277 m 175.965 125.977 l S
175.965 131.57 m 175.965 132.27 l S
175.965 137.867 m 175.965 138.566 l S
175.965 144.164 m 175.965 144.863 l S
175.965 150.461 m 175.965 151.16 l S
175.965 156.754 m 175.965 157.453 l S
175.965 163.051 m 175.965 163.75 l S
175.965 169.348 m 175.965 170.047 l S
175.965 175.645 m 175.965 176.344 l S
175.965 181.938 m 175.965 182.637 l S
175.965 188.234 m 175.965 188.934 l S
175.965 194.531 m 175.965 195.23 l S
175.965 200.828 m 175.965 201.527 l S
175.965 207.121 m 175.965 207.824 l S
175.965 213.418 m 175.965 214.117 l S
175.965 219.715 m 175.965 220.414 l S
175.965 226.012 m 175.965 226.711 l S
175.965 232.305 m 175.965 233.008 l S
175.965 238.602 m 175.965 239.301 l S
175.965 244.898 m 175.965 245.598 l S
175.965 251.195 m 175.965 251.895 l S
175.965 257.488 m 175.965 258.191 l S
175.965 263.785 m 175.965 264.484 l S
175.965 270.082 m 175.965 270.781 l S
175.965 276.379 m 175.965 277.078 l S
175.965 282.672 m 175.965 283.375 l S
175.965 288.969 m 175.965 289.668 l S
175.965 295.266 m 175.965 295.965 l S
175.965 301.562 m 175.965 302.262 l S
175.965 307.855 m 175.965 308.559 l S
175.965 314.152 m 175.965 314.852 l S
175.965 320.449 m 175.965 321.148 l S
175.965 326.746 m 175.965 327.445 l S
175.965 333.039 m 175.965 333.742 l S
175.965 339.336 m 175.965 340.035 l S
175.965 345.633 m 175.965 346.332 l S
175.965 351.93 m 175.965 352.629 l S
175.965 358.223 m 175.965 358.926 l S
175.965 364.52 m 175.965 365.219 l S
175.965 370.816 m 175.965 371.516 l S
175.965 377.113 m 175.965 377.812 l S
175.965 383.406 m 175.965 384.109 l S
175.965 389.703 m 175.965 390.402 l S
175.965 396 m 175.965 396.699 l S
175.965 402.297 m 175.965 402.996 l S
175.965 408.594 m 175.965 409.293 l S
175.965 414.887 m 175.965 415.586 l S
175.965 421.184 m 175.965 421.883 l S
175.965 427.48 m 175.965 428.18 l S
175.965 433.777 m 175.965 434.477 l S
175.965 440.07 m 175.965 440.77 l S
175.965 446.367 m 175.965 447.066 l S
175.965 452.664 m 175.965 453.363 l S
175.965 458.961 m 175.965 459.66 l S
175.965 465.254 m 175.965 465.953 l S
175.965 471.551 m 175.965 472.25 l S
175.965 477.848 m 175.965 478.547 l S
175.965 484.145 m 175.965 484.844 l S
175.965 490.438 m 175.965 491.137 l S
175.965 496.734 m 175.965 497.434 l S
175.965 503.031 m 175.965 503.73 l S
175.965 509.328 m 175.965 510.027 l S
175.965 515.621 m 175.965 516.32 l S
175.965 521.918 m 175.965 522.617 l S
175.965 528.215 m 175.965 528.914 l S
175.965 534.512 m 175.965 535.211 l S
175.965 540.805 m 175.965 541.504 l S
175.965 547.102 m 175.965 547.801 l S
175.965 553.398 m 175.965 554.098 l S
175.965 559.695 m 175.965 560.395 l S
175.965 565.988 m 175.965 566.688 l S
175.965 572.285 m 175.965 572.984 l S
175.965 578.582 m 175.965 579.281 l S
175.965 584.879 m 175.965 585.578 l S
175.965 591.172 m 175.965 591.871 l S
175.965 597.469 m 175.965 598.168 l S
175.965 603.766 m 175.965 604.465 l S
175.965 610.062 m 175.965 610.762 l S
175.965 616.355 m 175.965 617.055 l S
175.965 622.652 m 175.965 623.352 l S
175.965 628.949 m 175.965 629.648 l S
175.965 635.246 m 175.965 635.945 l S
175.965 641.539 m 175.965 642.238 l S
175.965 647.836 m 175.965 648.535 l S
175.965 654.133 m 175.965 654.832 l S
175.965 660.43 m 175.965 661.129 l S
175.965 666.723 m 175.965 667.422 l S
175.965 673.02 m 175.965 673.719 l S
175.965 679.316 m 175.965 680.016 l S
175.965 685.613 m 175.965 686.312 l S
175.965 691.906 m 175.965 692.605 l S
175.965 698.203 m 175.965 698.902 l S
175.965 704.5 m 175.965 705.199 l S
175.965 710.797 m 175.965 710.797 l S
0 g
163.027 72.23 m 163.766 72.676 l 164.875 74.012 l 164.875 64.664 l S
170.426 74.012 m 174.492 74.012 l 172.273 70.449 l 173.383 70.449 l 174.125
 70.004 l 174.492 69.559 l 174.863 68.223 l 174.863 67.332 l 174.492 65.996
 l 173.754 65.105 l 172.645 64.664 l 171.535 64.664 l 170.426 65.105 l 170.055
 65.551 l 169.684 66.441 l S
179.301 74.012 m 178.191 73.566 l 177.82 72.676 l 177.82 71.785 l 178.191
 70.895 l 178.93 70.449 l 180.41 70.004 l 181.52 69.559 l 182.262 68.668
 l 182.629 67.777 l 182.629 66.441 l 182.262 65.551 l 181.891 65.105 l 180.781
 64.664 l 179.301 64.664 l 178.191 65.105 l 177.82 65.551 l 177.453 66.441
 l 177.453 67.777 l 177.82 68.668 l 178.562 69.559 l 179.672 70.004 l 181.152
 70.449 l 181.891 70.895 l 182.262 71.785 l 182.262 72.676 l 181.891 73.566
 l 180.781 74.012 l 179.301 74.012 l S
185.395 74.012 m 185.395 64.664 l S
185.395 74.012 m 190.203 74.012 l S
185.395 69.559 m 188.355 69.559 l S
185.395 64.664 m 190.203 64.664 l S
240.98 81.203 m 240.98 77.285 l S
0.666667 g
240.98 81.203 m 240.98 81.902 l S
240.98 87.5 m 240.98 88.199 l S
240.98 93.797 m 240.98 94.496 l S
240.98 100.094 m 240.98 100.793 l S
240.98 106.387 m 240.98 107.086 l S
240.98 112.684 m 240.98 113.383 l S
240.98 118.98 m 240.98 119.68 l S
240.98 125.277 m 240.98 125.977 l S
240.98 131.57 m 240.98 132.27 l S
240.98 137.867 m 240.98 138.566 l S
240.98 144.164 m 240.98 144.863 l S
240.98 150.461 m 240.98 151.16 l S
240.98 156.754 m 240.98 157.453 l S
240.98 163.051 m 240.98 163.75 l S
240.98 169.348 m 240.98 170.047 l S
240.98 175.645 m 240.98 176.344 l S
240.98 181.938 m 240.98 182.637 l S
240.98 188.234 m 240.98 188.934 l S
240.98 194.531 m 240.98 195.23 l S
240.98 200.828 m 240.98 201.527 l S
240.98 207.121 m 240.98 207.824 l S
240.98 213.418 m 240.98 214.117 l S
240.98 219.715 m 240.98 220.414 l S
240.98 226.012 m 240.98 226.711 l S
240.98 232.305 m 240.98 233.008 l S
240.98 238.602 m 240.98 239.301 l S
240.98 244.898 m 240.98 245.598 l S
240.98 251.195 m 240.98 251.895 l S
240.98 257.488 m 240.98 258.191 l S
240.98 263.785 m 240.98 264.484 l S
240.98 270.082 m 240.98 270.781 l S
240.98 276.379 m 240.98 277.078 l S
240.98 282.672 m 240.98 283.375 l S
240.98 288.969 m 240.98 289.668 l S
240.98 295.266 m 240.98 295.965 l S
240.98 301.562 m 240.98 302.262 l S
240.98 307.855 m 240.98 308.559 l S
240.98 314.152 m 240.98 314.852 l S
240.98 320.449 m 240.98 321.148 l S
240.98 326.746 m 240.98 327.445 l S
240.98 333.039 m 240.98 333.742 l S
240.98 339.336 m 240.98 340.035 l S
240.98 345.633 m 240.98 346.332 l S
240.98 351.93 m 240.98 352.629 l S
240.98 358.223 m 240.98 358.926 l S
240.98 364.52 m 240.98 365.219 l S
240.98 370.816 m 240.98 371.516 l S
240.98 377.113 m 240.98 377.812 l S
240.98 383.406 m 240.98 384.109 l S
240.98 389.703 m 240.98 390.402 l S
240.98 396 m 240.98 396.699 l S
240.98 402.297 m 240.98 402.996 l S
240.98 408.594 m 240.98 409.293 l S
240.98 414.887 m 240.98 415.586 l S
240.98 421.184 m 240.98 421.883 l S
240.98 427.48 m 240.98 428.18 l S
240.98 433.777 m 240.98 434.477 l S
240.98 440.07 m 240.98 440.77 l S
240.98 446.367 m 240.98 447.066 l S
240.98 452.664 m 240.98 453.363 l S
240.98 458.961 m 240.98 459.66 l S
240.98 465.254 m 240.98 465.953 l S
240.98 471.551 m 240.98 472.25 l S
240.98 477.848 m 240.98 478.547 l S
240.98 484.145 m 240.98 484.844 l S
240.98 490.438 m 240.98 491.137 l S
240.98 496.734 m 240.98 497.434 l S
240.98 503.031 m 240.98 503.73 l S
240.98 509.328 m 240.98 510.027 l S
240.98 515.621 m 240.98 516.32 l S
240.98 521.918 m 240.98 522.617 l S
240.98 528.215 m 240.98 528.914 l S
240.98 534.512 m 240.98 535.211 l S
240.98 540.805 m 240.98 541.504 l S
240.98 547.102 m 240.98 547.801 l S
240.98 553.398 m 240.98 554.098 l S
240.98 559.695 m 240.98 560.395 l S
240.98 565.988 m 240.98 566.688 l S
240.98 572.285 m 240.98 572.984 l S
240.98 578.582 m 240.98 579.281 l S
240.98 584.879 m 240.98 585.578 l S
240.98 591.172 m 240.98 591.871 l S
240.98 597.469 m 240.98 598.168 l S
240.98 603.766 m 240.98 604.465 l S
240.98 610.062 m 240.98 610.762 l S
240.98 616.355 m 240.98 617.055 l S
240.98 622.652 m 240.98 623.352 l S
240.98 628.949 m 240.98 629.648 l S
240.98 635.246 m 240.98 635.945 l S
240.98 641.539 m 240.98 642.238 l S
240.98 647.836 m 240.98 648.535 l S
240.98 654.133 m 240.98 654.832 l S
240.98 660.43 m 240.98 661.129 l S
240.98 666.723 m 240.98 667.422 l S
240.98 673.02 m 240.98 673.719 l S
240.98 679.316 m 240.98 680.016 l S
240.98 685.613 m 240.98 686.312 l S
240.98 691.906 m 240.98 692.605 l S
240.98 698.203 m 240.98 698.902 l S
240.98 704.5 m 240.98 705.199 l S
240.98 710.797 m 240.98 710.797 l S
0 g
222.219 72.23 m 222.961 72.676 l 224.07 74.012 l 224.07 64.664 l S
229.617 74.012 m 233.688 74.012 l 231.465 70.449 l 232.574 70.449 l 233.316
 70.004 l 233.688 69.559 l 234.055 68.223 l 234.055 67.332 l 233.688 65.996
 l 232.945 65.105 l 231.836 64.664 l 230.727 64.664 l 229.617 65.105 l 229.246
 65.551 l 228.879 66.441 l S
238.496 74.012 m 237.383 73.566 l 237.016 72.676 l 237.016 71.785 l 237.383
 70.895 l 238.125 70.449 l 239.605 70.004 l 240.715 69.559 l 241.453 68.668
 l 241.824 67.777 l 241.824 66.441 l 241.453 65.551 l 241.082 65.105 l 239.973
 64.664 l 238.496 64.664 l 237.383 65.105 l 237.016 65.551 l 236.645 66.441
 l 236.645 67.777 l 237.016 68.668 l 237.754 69.559 l 238.863 70.004 l 240.344
 70.449 l 241.082 70.895 l 241.453 71.785 l 241.453 72.676 l 241.082 73.566
 l 239.973 74.012 l 238.496 74.012 l S
245.059 65.551 m 244.691 65.105 l 245.059 64.664 l 245.43 65.105 l 245.059
 65.551 l S
252.734 74.012 m 249.035 74.012 l 248.664 70.004 l 249.035 70.449 l 250.145
 70.895 l 251.254 70.895 l 252.363 70.449 l 253.105 69.559 l 253.473 68.223
 l 253.473 67.332 l 253.105 65.996 l 252.363 65.105 l 251.254 64.664 l 250.145
 64.664 l 249.035 65.105 l 248.664 65.551 l 248.297 66.441 l S
256.238 74.012 m 256.238 64.664 l S
256.238 74.012 m 261.047 74.012 l S
256.238 69.559 m 259.199 69.559 l S
256.238 64.664 m 261.047 64.664 l S
306 81.203 m 306 77.285 l S
0.666667 g
306 81.203 m 306 81.902 l S
306 87.5 m 306 88.199 l S
306 93.797 m 306 94.496 l S
306 100.094 m 306 100.793 l S
306 106.387 m 306 107.086 l S
306 112.684 m 306 113.383 l S
306 118.98 m 306 119.68 l S
306 125.277 m 306 125.977 l S
306 131.57 m 306 132.27 l S
306 137.867 m 306 138.566 l S
306 144.164 m 306 144.863 l S
306 150.461 m 306 151.16 l S
306 156.754 m 306 157.453 l S
306 163.051 m 306 163.75 l S
306 169.348 m 306 170.047 l S
306 175.645 m 306 176.344 l S
306 181.938 m 306 182.637 l S
306 188.234 m 306 188.934 l S
306 194.531 m 306 195.23 l S
306 200.828 m 306 201.527 l S
306 207.121 m 306 207.824 l S
306 213.418 m 306 214.117 l S
306 219.715 m 306 220.414 l S
306 226.012 m 306 226.711 l S
306 232.305 m 306 233.008 l S
306 238.602 m 306 239.301 l S
306 244.898 m 306 245.598 l S
306 251.195 m 306 251.895 l S
306 257.488 m 306 258.191 l S
306 263.785 m 306 264.484 l S
306 270.082 m 306 270.781 l S
306 276.379 m 306 277.078 l S
306 282.672 m 306 283.375 l S
306 288.969 m 306 289.668 l S
306 295.266 m 306 295.965 l S
306 301.562 m 306 302.262 l S
306 307.855 m 306 308.559 l S
306 314.152 m 306 314.852 l S
306 320.449 m 306 321.148 l S
306 326.746 m 306 327.445 l S
306 333.039 m 306 333.742 l S
306 339.336 m 306 340.035 l S
306 345.633 m 306 346.332 l S
306 351.93 m 306 352.629 l S
306 358.223 m 306 358.926 l S
306 364.52 m 306 365.219 l S
306 370.816 m 306 371.516 l S
306 377.113 m 306 377.812 l S
306 383.406 m 306 384.109 l S
306 389.703 m 306 390.402 l S
306 396 m 306 396.699 l S
306 402.297 m 306 402.996 l S
306 408.594 m 306 409.293 l S
306 414.887 m 306 415.586 l S
306 421.184 m 306 421.883 l S
306 427.48 m 306 428.18 l S
306 433.777 m 306 434.477 l S
306 440.07 m 306 440.77 l S
306 446.367 m 306 447.066 l S
306 452.664 m 306 453.363 l S
306 458.961 m 306 459.66 l S
306 465.254 m 306 465.953 l S
306 471.551 m 306 472.25 l S
306 477.848 m 306 478.547 l S
306 484.145 m 306 484.844 l S
306 490.438 m 306 491.137 l S
306 496.734 m 306 497.434 l S
306 503.031 m 306 503.73 l S
306 509.328 m 306 510.027 l S
306 515.621 m 306 516.32 l S
306 521.918 m 306 522.617 l S
306 528.215 m 306 528.914 l S
306 534.512 m 306 535.211 l S
306 540.805 m 306 541.504 l S
306 547.102 m 306 547.801 l S
306 553.398 m 306 554.098 l S
306 559.695 m 306 560.395 l S
306 565.988 m 306 566.688 l S
306 572.285 m 306 572.984 l S
306 578.582 m 306 579.281 l S
306 584.879 m 306 585.578 l S
306 591.172 m 306 591.871 l S
306 597.469 m 306 598.168 l S
306 603.766 m 306 604.465 l S
306 610.062 m 306 610.762 l S
306 616.355 m 306 617.055 l S
306 622.652 m 306 623.352 l S
306 628.949 m 306 629.648 l S
306 635.246 m 306 635.945 l S
306 641.539 m 306 642.238 l S
306 647.836 m 306 648.535 l S
306 654.133 m 306 654.832 l S
306 660.43 m 306 661.129 l S
306 666.723 m 306 667.422 l S
306 673.02 m 306 673.719 l S
306 679.316 m 306 680.016 l S
306 685.613 m 306 686.312 l S
306 691.906 m 306 692.605 l S
306 698.203 m 306 698.902 l S
306 704.5 m 306 705.199 l S
306 710.797 m 306 710.797 l S
0 g
293.062 72.23 m 293.805 72.676 l 294.914 74.012 l 294.914 64.664 l S
300.461 74.012 m 304.531 74.012 l 302.309 70.449 l 303.422 70.449 l 304.16
 70.004 l 304.531 69.559 l 304.898 68.223 l 304.898 67.332 l 304.531 65.996
 l 303.789 65.105 l 302.68 64.664 l 301.57 64.664 l 300.461 65.105 l 300.09
 65.551 l 299.723 66.441 l S
312.297 70.895 m 311.926 69.559 l 311.188 68.668 l 310.078 68.223 l 309.707
 68.223 l 308.598 68.668 l 307.859 69.559 l 307.488 70.895 l 307.488 71.34
 l 307.859 72.676 l 308.598 73.566 l 309.707 74.012 l 310.078 74.012 l 311.188
 73.566 l 311.926 72.676 l 312.297 70.895 l 312.297 68.668 l 311.926 66.441
 l 311.188 65.105 l 310.078 64.664 l 309.34 64.664 l 308.23 65.105 l 307.859
 65.996 l S
315.434 74.012 m 315.434 64.664 l S
315.434 74.012 m 320.242 74.012 l S
315.434 69.559 m 318.391 69.559 l S
315.434 64.664 m 320.242 64.664 l S
371.02 81.203 m 371.02 77.285 l S
0.666667 g
371.02 81.203 m 371.02 81.902 l S
371.02 87.5 m 371.02 88.199 l S
371.02 93.797 m 371.02 94.496 l S
371.02 100.094 m 371.02 100.793 l S
371.02 106.387 m 371.02 107.086 l S
371.02 112.684 m 371.02 113.383 l S
371.02 118.98 m 371.02 119.68 l S
371.02 125.277 m 371.02 125.977 l S
371.02 131.57 m 371.02 132.27 l S
371.02 137.867 m 371.02 138.566 l S
371.02 144.164 m 371.02 144.863 l S
371.02 150.461 m 371.02 151.16 l S
371.02 156.754 m 371.02 157.453 l S
371.02 163.051 m 371.02 163.75 l S
371.02 169.348 m 371.02 170.047 l S
371.02 175.645 m 371.02 176.344 l S
371.02 181.938 m 371.02 182.637 l S
371.02 188.234 m 371.02 188.934 l S
371.02 194.531 m 371.02 195.23 l S
371.02 200.828 m 371.02 201.527 l S
371.02 207.121 m 371.02 207.824 l S
371.02 213.418 m 371.02 214.117 l S
371.02 219.715 m 371.02 220.414 l S
371.02 226.012 m 371.02 226.711 l S
371.02 232.305 m 371.02 233.008 l S
371.02 238.602 m 371.02 239.301 l S
371.02 244.898 m 371.02 245.598 l S
371.02 251.195 m 371.02 251.895 l S
371.02 257.488 m 371.02 258.191 l S
371.02 263.785 m 371.02 264.484 l S
371.02 270.082 m 371.02 270.781 l S
371.02 276.379 m 371.02 277.078 l S
371.02 282.672 m 371.02 283.375 l S
371.02 288.969 m 371.02 289.668 l S
371.02 295.266 m 371.02 295.965 l S
371.02 301.562 m 371.02 302.262 l S
371.02 307.855 m 371.02 308.559 l S
371.02 314.152 m 371.02 314.852 l S
371.02 320.449 m 371.02 321.148 l S
371.02 326.746 m 371.02 327.445 l S
371.02 333.039 m 371.02 333.742 l S
371.02 339.336 m 371.02 340.035 l S
371.02 345.633 m 371.02 346.332 l S
371.02 351.93 m 371.02 352.629 l S
371.02 358.223 m 371.02 358.926 l S
371.02 364.52 m 371.02 365.219 l S
371.02 370.816 m 371.02 371.516 l S
371.02 377.113 m 371.02 377.812 l S
371.02 383.406 m 371.02 384.109 l S
371.02 389.703 m 371.02 390.402 l S
371.02 396 m 371.02 396.699 l S
371.02 402.297 m 371.02 402.996 l S
371.02 408.594 m 371.02 409.293 l S
371.02 414.887 m 371.02 415.586 l S
371.02 421.184 m 371.02 421.883 l S
371.02 427.48 m 371.02 428.18 l S
371.02 433.777 m 371.02 434.477 l S
371.02 440.07 m 371.02 440.77 l S
371.02 446.367 m 371.02 447.066 l S
371.02 452.664 m 371.02 453.363 l S
371.02 458.961 m 371.02 459.66 l S
371.02 465.254 m 371.02 465.953 l S
371.02 471.551 m 371.02 472.25 l S
371.02 477.848 m 371.02 478.547 l S
371.02 484.145 m 371.02 484.844 l S
371.02 490.438 m 371.02 491.137 l S
371.02 496.734 m 371.02 497.434 l S
371.02 503.031 m 371.02 503.73 l S
371.02 509.328 m 371.02 510.027 l S
371.02 515.621 m 371.02 516.32 l S
371.02 521.918 m 371.02 522.617 l S
371.02 528.215 m 371.02 528.914 l S
371.02 534.512 m 371.02 535.211 l S
371.02 540.805 m 371.02 541.504 l S
371.02 547.102 m 371.02 547.801 l S
371.02 553.398 m 371.02 554.098 l S
371.02 559.695 m 371.02 560.395 l S
371.02 565.988 m 371.02 566.688 l S
371.02 572.285 m 371.02 572.984 l S
371.02 578.582 m 371.02 579.281 l S
371.02 584.879 m 371.02 585.578 l S
371.02 591.172 m 371.02 591.871 l S
371.02 597.469 m 371.02 598.168 l S
371.02 603.766 m 371.02 604.465 l S
371.02 610.062 m 371.02 610.762 l S
371.02 616.355 m 371.02 617.055 l S
371.02 622.652 m 371.02 623.352 l S
371.02 628.949 m 371.02 629.648 l S
371.02 635.246 m 371.02 635.945 l S
371.02 641.539 m 371.02 642.238 l S
371.02 647.836 m 371.02 648.535 l S
371.02 654.133 m 371.02 654.832 l S
371.02 660.43 m 371.02 661.129 l S
371.02 666.723 m 371.02 667.422 l S
371.02 673.02 m 371.02 673.719 l S
371.02 679.316 m 371.02 680.016 l S
371.02 685.613 m 371.02 686.312 l S
371.02 691.906 m 371.02 692.605 l S
371.02 698.203 m 371.02 698.902 l S
371.02 704.5 m 371.02 705.199 l S
371.02 710.797 m 371.02 710.797 l S
0 g
352.258 72.23 m 352.996 72.676 l 354.105 74.012 l 354.105 64.664 l S
359.652 74.012 m 363.723 74.012 l 361.504 70.449 l 362.613 70.449 l 363.352
 70.004 l 363.723 69.559 l 364.094 68.223 l 364.094 67.332 l 363.723 65.996
 l 362.984 65.105 l 361.875 64.664 l 360.762 64.664 l 359.652 65.105 l 359.285
 65.551 l 358.914 66.441 l S
371.488 70.895 m 371.121 69.559 l 370.379 68.668 l 369.27 68.223 l 368.902
 68.223 l 367.793 68.668 l 367.051 69.559 l 366.68 70.895 l 366.68 71.34
 l 367.051 72.676 l 367.793 73.566 l 368.902 74.012 l 369.27 74.012 l 370.379
 73.566 l 371.121 72.676 l 371.488 70.895 l 371.488 68.668 l 371.121 66.441
 l 370.379 65.105 l 369.27 64.664 l 368.531 64.664 l 367.422 65.105 l 367.051
 65.996 l S
375.098 65.551 m 374.727 65.105 l 375.098 64.664 l 375.465 65.105 l 375.098
 65.551 l S
382.77 74.012 m 379.074 74.012 l 378.703 70.004 l 379.074 70.449 l 380.184
 70.895 l 381.293 70.895 l 382.402 70.449 l 383.141 69.559 l 383.512 68.223
 l 383.512 67.332 l 383.141 65.996 l 382.402 65.105 l 381.293 64.664 l 380.184
 64.664 l 379.074 65.105 l 378.703 65.551 l 378.332 66.441 l S
386.277 74.012 m 386.277 64.664 l S
386.277 74.012 m 391.086 74.012 l S
386.277 69.559 m 389.234 69.559 l S
386.277 64.664 m 391.086 64.664 l S
436.035 81.203 m 436.035 77.285 l S
0.666667 g
436.035 81.203 m 436.035 81.902 l S
436.035 87.5 m 436.035 88.199 l S
436.035 93.797 m 436.035 94.496 l S
436.035 100.094 m 436.035 100.793 l S
436.035 106.387 m 436.035 107.086 l S
436.035 112.684 m 436.035 113.383 l S
436.035 118.98 m 436.035 119.68 l S
436.035 125.277 m 436.035 125.977 l S
436.035 131.57 m 436.035 132.27 l S
436.035 137.867 m 436.035 138.566 l S
436.035 144.164 m 436.035 144.863 l S
436.035 150.461 m 436.035 151.16 l S
436.035 156.754 m 436.035 157.453 l S
436.035 163.051 m 436.035 163.75 l S
436.035 169.348 m 436.035 170.047 l S
436.035 175.645 m 436.035 176.344 l S
436.035 181.938 m 436.035 182.637 l S
436.035 188.234 m 436.035 188.934 l S
436.035 194.531 m 436.035 195.23 l S
436.035 200.828 m 436.035 201.527 l S
436.035 207.121 m 436.035 207.824 l S
436.035 213.418 m 436.035 214.117 l S
436.035 219.715 m 436.035 220.414 l S
436.035 226.012 m 436.035 226.711 l S
436.035 232.305 m 436.035 233.008 l S
436.035 238.602 m 436.035 239.301 l S
436.035 244.898 m 436.035 245.598 l S
436.035 251.195 m 436.035 251.895 l S
436.035 257.488 m 436.035 258.191 l S
436.035 263.785 m 436.035 264.484 l S
436.035 270.082 m 436.035 270.781 l S
436.035 276.379 m 436.035 277.078 l S
436.035 282.672 m 436.035 283.375 l S
436.035 288.969 m 436.035 289.668 l S
436.035 295.266 m 436.035 295.965 l S
436.035 301.562 m 436.035 302.262 l S
436.035 307.855 m 436.035 308.559 l S
436.035 314.152 m 436.035 314.852 l S
436.035 320.449 m 436.035 321.148 l S
436.035 326.746 m 436.035 327.445 l S
436.035 333.039 m 436.035 333.742 l S
436.035 339.336 m 436.035 340.035 l S
436.035 345.633 m 436.035 346.332 l S
436.035 351.93 m 436.035 352.629 l S
436.035 358.223 m 436.035 358.926 l S
436.035 364.52 m 436.035 365.219 l S
436.035 370.816 m 436.035 371.516 l S
436.035 377.113 m 436.035 377.812 l S
436.035 383.406 m 436.035 384.109 l S
436.035 389.703 m 436.035 390.402 l S
436.035 396 m 436.035 396.699 l S
436.035 402.297 m 436.035 402.996 l S
436.035 408.594 m 436.035 409.293 l S
436.035 414.887 m 436.035 415.586 l S
436.035 421.184 m 436.035 421.883 l S
436.035 427.48 m 436.035 428.18 l S
436.035 433.777 m 436.035 434.477 l S
436.035 440.07 m 436.035 440.77 l S
436.035 446.367 m 436.035 447.066 l S
436.035 452.664 m 436.035 453.363 l S
436.035 458.961 m 436.035 459.66 l S
436.035 465.254 m 436.035 465.953 l S
436.035 471.551 m 436.035 472.25 l S
436.035 477.848 m 436.035 478.547 l S
436.035 484.145 m 436.035 484.844 l S
436.035 490.438 m 436.035 491.137 l S
436.035 496.734 m 436.035 497.434 l S
436.035 503.031 m 436.035 503.73 l S
436.035 509.328 m 436.035 510.027 l S
436.035 515.621 m 436.035 516.32 l S
436.035 521.918 m 436.035 522.617 l S
436.035 528.215 m 436.035 528.914 l S
436.035 534.512 m 436.035 535.211 l S
436.035 540.805 m 436.035 541.504 l S
436.035 547.102 m 436.035 547.801 l S
436.035 553.398 m 436.035 554.098 l S
436.035 559.695 m 436.035 560.395 l S
436.035 565.988 m 436.035 566.688 l S
436.035 572.285 m 436.035 572.984 l S
436.035 578.582 m 436.035 579.281 l S
436.035 584.879 m 436.035 585.578 l S
436.035 591.172 m 436.035 591.871 l S
436.035 597.469 m 436.035 598.168 l S
436.035 603.766 m 436.035 604.465 l S
436.035 610.062 m 436.035 610.762 l S
436.035 616.355 m 436.035 617.055 l S
436.035 622.652 m 436.035 623.352 l S
436.035 628.949 m 436.035 629.648 l S
436.035 635.246 m 436.035 635.945 l S
436.035 641.539 m 436.035 642.238 l S
436.035 647.836 m 436.035 648.535 l S
436.035 654.133 m 436.035 654.832 l S
436.035 660.43 m 436.035 661.129 l S
436.035 666.723 m 436.035 667.422 l S
436.035 673.02 m 436.035 673.719 l S
436.035 679.316 m 436.035 680.016 l S
436.035 685.613 m 436.035 686.312 l S
436.035 691.906 m 436.035 692.605 l S
436.035 698.203 m 436.035 698.902 l S
436.035 704.5 m 436.035 705.199 l S
436.035 710.797 m 436.035 710.797 l S
0 g
423.102 72.23 m 423.84 72.676 l 424.949 74.012 l 424.949 64.664 l S
433.457 74.012 m 429.758 67.777 l 435.305 67.777 l S
433.457 74.012 m 433.457 64.664 l S
439.746 74.012 m 438.637 73.566 l 437.895 72.23 l 437.527 70.004 l 437.527
 68.668 l 437.895 66.441 l 438.637 65.105 l 439.746 64.664 l 440.484 64.664
 l 441.594 65.105 l 442.336 66.441 l 442.703 68.668 l 442.703 70.004 l 442.336
 72.23 l 441.594 73.566 l 440.484 74.012 l 439.746 74.012 l S
445.469 74.012 m 445.469 64.664 l S
445.469 74.012 m 450.277 74.012 l S
445.469 69.559 m 448.43 69.559 l S
445.469 64.664 m 450.277 64.664 l S
501.055 81.203 m 501.055 77.285 l S
0.666667 g
501.055 81.203 m 501.055 81.902 l S
501.055 87.5 m 501.055 88.199 l S
501.055 93.797 m 501.055 94.496 l S
501.055 100.094 m 501.055 100.793 l S
501.055 106.387 m 501.055 107.086 l S
501.055 112.684 m 501.055 113.383 l S
501.055 118.98 m 501.055 119.68 l S
501.055 125.277 m 501.055 125.977 l S
501.055 131.57 m 501.055 132.27 l S
501.055 137.867 m 501.055 138.566 l S
501.055 144.164 m 501.055 144.863 l S
501.055 150.461 m 501.055 151.16 l S
501.055 156.754 m 501.055 157.453 l S
501.055 163.051 m 501.055 163.75 l S
501.055 169.348 m 501.055 170.047 l S
501.055 175.645 m 501.055 176.344 l S
501.055 181.938 m 501.055 182.637 l S
501.055 188.234 m 501.055 188.934 l S
501.055 194.531 m 501.055 195.23 l S
501.055 200.828 m 501.055 201.527 l S
501.055 207.121 m 501.055 207.824 l S
501.055 213.418 m 501.055 214.117 l S
501.055 219.715 m 501.055 220.414 l S
501.055 226.012 m 501.055 226.711 l S
501.055 232.305 m 501.055 233.008 l S
501.055 238.602 m 501.055 239.301 l S
501.055 244.898 m 501.055 245.598 l S
501.055 251.195 m 501.055 251.895 l S
501.055 257.488 m 501.055 258.191 l S
501.055 263.785 m 501.055 264.484 l S
501.055 270.082 m 501.055 270.781 l S
501.055 276.379 m 501.055 277.078 l S
501.055 282.672 m 501.055 283.375 l S
501.055 288.969 m 501.055 289.668 l S
501.055 295.266 m 501.055 295.965 l S
501.055 301.562 m 501.055 302.262 l S
501.055 307.855 m 501.055 308.559 l S
501.055 314.152 m 501.055 314.852 l S
501.055 320.449 m 501.055 321.148 l S
501.055 326.746 m 501.055 327.445 l S
501.055 333.039 m 501.055 333.742 l S
501.055 339.336 m 501.055 340.035 l S
501.055 345.633 m 501.055 346.332 l S
501.055 351.93 m 501.055 352.629 l S
501.055 358.223 m 501.055 358.926 l S
501.055 364.52 m 501.055 365.219 l S
501.055 370.816 m 501.055 371.516 l S
501.055 377.113 m 501.055 377.812 l S
501.055 383.406 m 501.055 384.109 l S
501.055 389.703 m 501.055 390.402 l S
501.055 396 m 501.055 396.699 l S
501.055 402.297 m 501.055 402.996 l S
501.055 408.594 m 501.055 409.293 l S
501.055 414.887 m 501.055 415.586 l S
501.055 421.184 m 501.055 421.883 l S
501.055 427.48 m 501.055 428.18 l S
501.055 433.777 m 501.055 434.477 l S
501.055 440.07 m 501.055 440.77 l S
501.055 446.367 m 501.055 447.066 l S
501.055 452.664 m 501.055 453.363 l S
501.055 458.961 m 501.055 459.66 l S
501.055 465.254 m 501.055 465.953 l S
501.055 471.551 m 501.055 472.25 l S
501.055 477.848 m 501.055 478.547 l S
501.055 484.145 m 501.055 484.844 l S
501.055 490.438 m 501.055 491.137 l S
501.055 496.734 m 501.055 497.434 l S
501.055 503.031 m 501.055 503.73 l S
501.055 509.328 m 501.055 510.027 l S
501.055 515.621 m 501.055 516.32 l S
501.055 521.918 m 501.055 522.617 l S
501.055 528.215 m 501.055 528.914 l S
501.055 534.512 m 501.055 535.211 l S
501.055 540.805 m 501.055 541.504 l S
501.055 547.102 m 501.055 547.801 l S
501.055 553.398 m 501.055 554.098 l S
501.055 559.695 m 501.055 560.395 l S
501.055 565.988 m 501.055 566.688 l S
501.055 572.285 m 501.055 572.984 l S
501.055 578.582 m 501.055 579.281 l S
501.055 584.879 m 501.055 585.578 l S
501.055 591.172 m 501.055 591.871 l S
501.055 597.469 m 501.055 598.168 l S
501.055 603.766 m 501.055 604.465 l S
501.055 610.062 m 501.055 610.762 l S
501.055 616.355 m 501.055 617.055 l S
501.055 622.652 m 501.055 623.352 l S
501.055 628.949 m 501.055 629.648 l S
501.055 635.246 m 501.055 635.945 l S
501.055 641.539 m 501.055 642.238 l S
501.055 647.836 m 501.055 648.535 l S
501.055 654.133 m 501.055 654.832 l S
501.055 660.43 m 501.055 661.129 l S
501.055 666.723 m 501.055 667.422 l S
501.055 673.02 m 501.055 673.719 l S
501.055 679.316 m 501.055 680.016 l S
501.055 685.613 m 501.055 686.312 l S
501.055 691.906 m 501.055 692.605 l S
501.055 698.203 m 501.055 698.902 l S
501.055 704.5 m 501.055 705.199 l S
501.055 710.797 m 501.055 710.797 l S
0 g
482.293 72.23 m 483.031 72.676 l 484.141 74.012 l 484.141 64.664 l S
492.648 74.012 m 488.949 67.777 l 494.5 67.777 l S
492.648 74.012 m 492.648 64.664 l S
498.938 74.012 m 497.828 73.566 l 497.09 72.23 l 496.719 70.004 l 496.719
 68.668 l 497.09 66.441 l 497.828 65.105 l 498.938 64.664 l 499.676 64.664
 l 500.785 65.105 l 501.527 66.441 l 501.898 68.668 l 501.898 70.004 l 501.527
 72.23 l 500.785 73.566 l 499.676 74.012 l 498.938 74.012 l S
505.133 65.551 m 504.762 65.105 l 505.133 64.664 l 505.504 65.105 l 505.133
 65.551 l S
512.809 74.012 m 509.109 74.012 l 508.738 70.004 l 509.109 70.449 l 510.219
 70.895 l 511.328 70.895 l 512.438 70.449 l 513.18 69.559 l 513.547 68.223
 l 513.547 67.332 l 513.18 65.996 l 512.438 65.105 l 511.328 64.664 l 510.219
 64.664 l 509.109 65.105 l 508.738 65.551 l 508.371 66.441 l S
516.312 74.012 m 516.312 64.664 l S
516.312 74.012 m 521.121 74.012 l S
516.312 69.559 m 519.273 69.559 l S
516.312 64.664 m 521.121 64.664 l S
566.074 81.203 m 566.074 77.285 l S
0.666667 g
566.074 81.203 m 566.074 81.902 l S
566.074 87.5 m 566.074 88.199 l S
566.074 93.797 m 566.074 94.496 l S
566.074 100.094 m 566.074 100.793 l S
566.074 106.387 m 566.074 107.086 l S
566.074 112.684 m 566.074 113.383 l S
566.074 118.98 m 566.074 119.68 l S
566.074 125.277 m 566.074 125.977 l S
566.074 131.57 m 566.074 132.27 l S
566.074 137.867 m 566.074 138.566 l S
566.074 144.164 m 566.074 144.863 l S
566.074 150.461 m 566.074 151.16 l S
566.074 156.754 m 566.074 157.453 l S
566.074 163.051 m 566.074 163.75 l S
566.074 169.348 m 566.074 170.047 l S
566.074 175.645 m 566.074 176.344 l S
566.074 181.938 m 566.074 182.637 l S
566.074 188.234 m 566.074 188.934 l S
566.074 194.531 m 566.074 195.23 l S
566.074 200.828 m 566.074 201.527 l S
566.074 207.121 m 566.074 207.824 l S
566.074 213.418 m 566.074 214.117 l S
566.074 219.715 m 566.074 220.414 l S
566.074 226.012 m 566.074 226.711 l S
566.074 232.305 m 566.074 233.008 l S
566.074 238.602 m 566.074 239.301 l S
566.074 244.898 m 566.074 245.598 l S
566.074 251.195 m 566.074 251.895 l S
566.074 257.488 m 566.074 258.191 l S
566.074 263.785 m 566.074 264.484 l S
566.074 270.082 m 566.074 270.781 l S
566.074 276.379 m 566.074 277.078 l S
566.074 282.672 m 566.074 283.375 l S
566.074 288.969 m 566.074 289.668 l S
566.074 295.266 m 566.074 295.965 l S
566.074 301.562 m 566.074 302.262 l S
566.074 307.855 m 566.074 308.559 l S
566.074 314.152 m 566.074 314.852 l S
566.074 320.449 m 566.074 321.148 l S
566.074 326.746 m 566.074 327.445 l S
566.074 333.039 m 566.074 333.742 l S
566.074 339.336 m 566.074 340.035 l S
566.074 345.633 m 566.074 346.332 l S
566.074 351.93 m 566.074 352.629 l S
566.074 358.223 m 566.074 358.926 l S
566.074 364.52 m 566.074 365.219 l S
566.074 370.816 m 566.074 371.516 l S
566.074 377.113 m 566.074 377.812 l S
566.074 383.406 m 566.074 384.109 l S
566.074 389.703 m 566.074 390.402 l S
566.074 396 m 566.074 396.699 l S
566.074 402.297 m 566.074 402.996 l S
566.074 408.594 m 566.074 409.293 l S
566.074 414.887 m 566.074 415.586 l S
566.074 421.184 m 566.074 421.883 l S
566.074 427.48 m 566.074 428.18 l S
566.074 433.777 m 566.074 434.477 l S
566.074 440.07 m 566.074 440.77 l S
566.074 446.367 m 566.074 447.066 l S
566.074 452.664 m 566.074 453.363 l S
566.074 458.961 m 566.074 459.66 l S
566.074 465.254 m 566.074 465.953 l S
566.074 471.551 m 566.074 472.25 l S
566.074 477.848 m 566.074 478.547 l S
566.074 484.145 m 566.074 484.844 l S
566.074 490.438 m 566.074 491.137 l S
566.074 496.734 m 566.074 497.434 l S
566.074 503.031 m 566.074 503.73 l S
566.074 509.328 m 566.074 510.027 l S
566.074 515.621 m 566.074 516.32 l S
566.074 521.918 m 566.074 522.617 l S
566.074 528.215 m 566.074 528.914 l S
566.074 534.512 m 566.074 535.211 l S
566.074 540.805 m 566.074 541.504 l S
566.074 547.102 m 566.074 547.801 l S
566.074 553.398 m 566.074 554.098 l S
566.074 559.695 m 566.074 560.395 l S
566.074 565.988 m 566.074 566.688 l S
566.074 572.285 m 566.074 572.984 l S
566.074 578.582 m 566.074 579.281 l S
566.074 584.879 m 566.074 585.578 l S
566.074 591.172 m 566.074 591.871 l S
566.074 597.469 m 566.074 598.168 l S
566.074 603.766 m 566.074 604.465 l S
566.074 610.062 m 566.074 610.762 l S
566.074 616.355 m 566.074 617.055 l S
566.074 622.652 m 566.074 623.352 l S
566.074 628.949 m 566.074 629.648 l S
566.074 635.246 m 566.074 635.945 l S
566.074 641.539 m 566.074 642.238 l S
566.074 647.836 m 566.074 648.535 l S
566.074 654.133 m 566.074 654.832 l S
566.074 660.43 m 566.074 661.129 l S
566.074 666.723 m 566.074 667.422 l S
566.074 673.02 m 566.074 673.719 l S
566.074 679.316 m 566.074 680.016 l S
566.074 685.613 m 566.074 686.312 l S
566.074 691.906 m 566.074 692.605 l S
566.074 698.203 m 566.074 698.902 l S
566.074 704.5 m 566.074 705.199 l S
566.074 710.797 m 566.074 710.797 l S
0 g
553.137 72.23 m 553.875 72.676 l 554.984 74.012 l 554.984 64.664 l S
563.492 74.012 m 559.793 67.777 l 565.344 67.777 l S
563.492 74.012 m 563.492 64.664 l S
568.672 72.23 m 569.41 72.676 l 570.52 74.012 l 570.52 64.664 l S
575.504 74.012 m 575.504 64.664 l S
575.504 74.012 m 580.312 74.012 l S
575.504 69.559 m 578.465 69.559 l S
575.504 64.664 m 580.312 64.664 l S
45.926 81.203 m 42.043 81.203 l S
0.666667 g
45.926 81.203 m 46.621 81.203 l S
52.168 81.203 m 52.863 81.203 l S
58.41 81.203 m 59.105 81.203 l S
64.652 81.203 m 65.344 81.203 l S
70.895 81.203 m 71.586 81.203 l S
77.137 81.203 m 77.828 81.203 l S
83.379 81.203 m 84.07 81.203 l S
89.617 81.203 m 90.312 81.203 l S
95.859 81.203 m 96.555 81.203 l S
102.102 81.203 m 102.797 81.203 l S
108.344 81.203 m 109.039 81.203 l S
114.586 81.203 m 115.281 81.203 l S
120.828 81.203 m 121.52 81.203 l S
127.07 81.203 m 127.762 81.203 l S
133.312 81.203 m 134.004 81.203 l S
139.555 81.203 m 140.246 81.203 l S
145.793 81.203 m 146.488 81.203 l S
152.035 81.203 m 152.73 81.203 l S
158.277 81.203 m 158.973 81.203 l S
164.52 81.203 m 165.215 81.203 l S
170.762 81.203 m 171.457 81.203 l S
177.004 81.203 m 177.695 81.203 l S
183.246 81.203 m 183.938 81.203 l S
189.488 81.203 m 190.18 81.203 l S
195.73 81.203 m 196.422 81.203 l S
201.969 81.203 m 202.664 81.203 l S
208.211 81.203 m 208.906 81.203 l S
214.453 81.203 m 215.148 81.203 l S
220.695 81.203 m 221.391 81.203 l S
226.938 81.203 m 227.633 81.203 l S
233.18 81.203 m 233.871 81.203 l S
239.422 81.203 m 240.113 81.203 l S
245.664 81.203 m 246.355 81.203 l S
251.906 81.203 m 252.598 81.203 l S
258.145 81.203 m 258.84 81.203 l S
264.387 81.203 m 265.082 81.203 l S
270.629 81.203 m 271.324 81.203 l S
276.871 81.203 m 277.566 81.203 l S
283.113 81.203 m 283.809 81.203 l S
289.355 81.203 m 290.047 81.203 l S
295.598 81.203 m 296.289 81.203 l S
301.84 81.203 m 302.531 81.203 l S
308.082 81.203 m 308.773 81.203 l S
314.324 81.203 m 315.016 81.203 l S
320.562 81.203 m 321.258 81.203 l S
326.805 81.203 m 327.5 81.203 l S
333.047 81.203 m 333.742 81.203 l S
339.289 81.203 m 339.984 81.203 l S
345.531 81.203 m 346.227 81.203 l S
351.773 81.203 m 352.465 81.203 l S
358.016 81.203 m 358.707 81.203 l S
364.258 81.203 m 364.949 81.203 l S
370.5 81.203 m 371.191 81.203 l S
376.738 81.203 m 377.434 81.203 l S
382.98 81.203 m 383.676 81.203 l S
389.223 81.203 m 389.918 81.203 l S
395.465 81.203 m 396.16 81.203 l S
401.707 81.203 m 402.402 81.203 l S
407.949 81.203 m 408.641 81.203 l S
414.191 81.203 m 414.883 81.203 l S
420.434 81.203 m 421.125 81.203 l S
426.676 81.203 m 427.367 81.203 l S
432.914 81.203 m 433.609 81.203 l S
439.156 81.203 m 439.852 81.203 l S
445.398 81.203 m 446.094 81.203 l S
451.641 81.203 m 452.336 81.203 l S
457.883 81.203 m 458.578 81.203 l S
464.125 81.203 m 464.816 81.203 l S
470.367 81.203 m 471.059 81.203 l S
476.609 81.203 m 477.301 81.203 l S
482.852 81.203 m 483.543 81.203 l S
489.09 81.203 m 489.785 81.203 l S
495.332 81.203 m 496.027 81.203 l S
501.574 81.203 m 502.27 81.203 l S
507.816 81.203 m 508.512 81.203 l S
514.059 81.203 m 514.754 81.203 l S
520.301 81.203 m 520.992 81.203 l S
526.543 81.203 m 527.234 81.203 l S
532.785 81.203 m 533.477 81.203 l S
539.027 81.203 m 539.719 81.203 l S
545.27 81.203 m 545.961 81.203 l S
551.508 81.203 m 552.203 81.203 l S
557.75 81.203 m 558.445 81.203 l S
563.992 81.203 m 564.688 81.203 l S
0 g
16.113 85.762 m 20.184 85.762 l 17.965 82.203 l 19.074 82.203 l 19.812 
81.758 l 20.184 81.312 l 20.551 79.977 l 20.551 79.086 l 20.184 77.75 l 
19.441 76.859 l 18.332 76.414 l 17.223 76.414 l 16.113 76.859 l 15.742 77.305
 l 15.375 78.195 l S
23.512 83.539 m 23.512 83.98 l 23.883 84.871 l 24.25 85.316 l 24.992 85.762
 l 26.469 85.762 l 27.211 85.316 l 27.582 84.871 l 27.949 83.98 l 27.949
 83.094 l 27.582 82.203 l 26.84 80.867 l 23.141 76.414 l 28.32 76.414 l S
31.297 85.762 m 31.297 76.414 l S
31.297 85.762 m 36.477 76.414 l S
36.477 85.762 m 36.477 76.414 l S
45.926 159.902 m 42.043 159.902 l S
0.666667 g
45.926 159.902 m 46.621 159.902 l S
52.168 159.902 m 52.863 159.902 l S
58.41 159.902 m 59.105 159.902 l S
64.652 159.902 m 65.344 159.902 l S
70.895 159.902 m 71.586 159.902 l S
77.137 159.902 m 77.828 159.902 l S
83.379 159.902 m 84.07 159.902 l S
89.617 159.902 m 90.312 159.902 l S
95.859 159.902 m 96.555 159.902 l S
102.102 159.902 m 102.797 159.902 l S
108.344 159.902 m 109.039 159.902 l S
114.586 159.902 m 115.281 159.902 l S
120.828 159.902 m 121.52 159.902 l S
127.07 159.902 m 127.762 159.902 l S
133.312 159.902 m 134.004 159.902 l S
139.555 159.902 m 140.246 159.902 l S
145.793 159.902 m 146.488 159.902 l S
152.035 159.902 m 152.73 159.902 l S
158.277 159.902 m 158.973 159.902 l S
164.52 159.902 m 165.215 159.902 l S
170.762 159.902 m 171.457 159.902 l S
177.004 159.902 m 177.695 159.902 l S
183.246 159.902 m 183.938 159.902 l S
189.488 159.902 m 190.18 159.902 l S
195.73 159.902 m 196.422 159.902 l S
201.969 159.902 m 202.664 159.902 l S
208.211 159.902 m 208.906 159.902 l S
214.453 159.902 m 215.148 159.902 l S
220.695 159.902 m 221.391 159.902 l S
226.938 159.902 m 227.633 159.902 l S
233.18 159.902 m 233.871 159.902 l S
239.422 159.902 m 240.113 159.902 l S
245.664 159.902 m 246.355 159.902 l S
251.906 159.902 m 252.598 159.902 l S
258.145 159.902 m 258.84 159.902 l S
264.387 159.902 m 265.082 159.902 l S
270.629 159.902 m 271.324 159.902 l S
276.871 159.902 m 277.566 159.902 l S
283.113 159.902 m 283.809 159.902 l S
289.355 159.902 m 290.047 159.902 l S
295.598 159.902 m 296.289 159.902 l S
301.84 159.902 m 302.531 159.902 l S
308.082 159.902 m 308.773 159.902 l S
314.324 159.902 m 315.016 159.902 l S
320.562 159.902 m 321.258 159.902 l S
326.805 159.902 m 327.5 159.902 l S
333.047 159.902 m 333.742 159.902 l S
339.289 159.902 m 339.984 159.902 l S
345.531 159.902 m 346.227 159.902 l S
351.773 159.902 m 352.465 159.902 l S
358.016 159.902 m 358.707 159.902 l S
364.258 159.902 m 364.949 159.902 l S
370.5 159.902 m 371.191 159.902 l S
376.738 159.902 m 377.434 159.902 l S
382.98 159.902 m 383.676 159.902 l S
389.223 159.902 m 389.918 159.902 l S
395.465 159.902 m 396.16 159.902 l S
401.707 159.902 m 402.402 159.902 l S
407.949 159.902 m 408.641 159.902 l S
414.191 159.902 m 414.883 159.902 l S
420.434 159.902 m 421.125 159.902 l S
426.676 159.902 m 427.367 159.902 l S
432.914 159.902 m 433.609 159.902 l S
439.156 159.902 m 439.852 159.902 l S
445.398 159.902 m 446.094 159.902 l S
451.641 159.902 m 452.336 159.902 l S
457.883 159.902 m 458.578 159.902 l S
464.125 159.902 m 464.816 159.902 l S
470.367 159.902 m 471.059 159.902 l S
476.609 159.902 m 477.301 159.902 l S
482.852 159.902 m 483.543 159.902 l S
489.09 159.902 m 489.785 159.902 l S
495.332 159.902 m 496.027 159.902 l S
501.574 159.902 m 502.27 159.902 l S
507.816 159.902 m 508.512 159.902 l S
514.059 159.902 m 514.754 159.902 l S
520.301 159.902 m 520.992 159.902 l S
526.543 159.902 m 527.234 159.902 l S
532.785 159.902 m 533.477 159.902 l S
539.027 159.902 m 539.719 159.902 l S
545.27 159.902 m 545.961 159.902 l S
551.508 159.902 m 552.203 159.902 l S
557.75 159.902 m 558.445 159.902 l S
563.992 159.902 m 564.688 159.902 l S
0 g
11.859 162.234 m 11.859 162.68 l 12.23 163.57 l 12.602 164.016 l 13.34 
164.461 l 14.82 164.461 l 15.559 164.016 l 15.93 163.57 l 16.301 162.68 
l 16.301 161.789 l 15.93 160.902 l 15.188 159.566 l 11.492 155.113 l 16.668
 155.113 l S
19.906 156.004 m 19.535 155.559 l 19.906 155.113 l 20.273 155.559 l 19.906
 156.004 l S
27.582 164.461 m 23.883 164.461 l 23.512 160.457 l 23.883 160.902 l 24.992
 161.348 l 26.102 161.348 l 27.211 160.902 l 27.949 160.012 l 28.32 158.676
 l 28.32 157.785 l 27.949 156.449 l 27.211 155.559 l 26.102 155.113 l 24.992
 155.113 l 23.883 155.559 l 23.512 156.004 l 23.141 156.895 l S
31.297 164.461 m 31.297 155.113 l S
31.297 164.461 m 36.477 155.113 l S
36.477 164.461 m 36.477 155.113 l S
45.926 238.602 m 42.043 238.602 l S
0.666667 g
45.926 238.602 m 46.621 238.602 l S
52.168 238.602 m 52.863 238.602 l S
58.41 238.602 m 59.105 238.602 l S
64.652 238.602 m 65.344 238.602 l S
70.895 238.602 m 71.586 238.602 l S
77.137 238.602 m 77.828 238.602 l S
83.379 238.602 m 84.07 238.602 l S
89.617 238.602 m 90.312 238.602 l S
95.859 238.602 m 96.555 238.602 l S
102.102 238.602 m 102.797 238.602 l S
108.344 238.602 m 109.039 238.602 l S
114.586 238.602 m 115.281 238.602 l S
120.828 238.602 m 121.52 238.602 l S
127.07 238.602 m 127.762 238.602 l S
133.312 238.602 m 134.004 238.602 l S
139.555 238.602 m 140.246 238.602 l S
145.793 238.602 m 146.488 238.602 l S
152.035 238.602 m 152.73 238.602 l S
158.277 238.602 m 158.973 238.602 l S
164.52 238.602 m 165.215 238.602 l S
170.762 238.602 m 171.457 238.602 l S
177.004 238.602 m 177.695 238.602 l S
183.246 238.602 m 183.938 238.602 l S
189.488 238.602 m 190.18 238.602 l S
195.73 238.602 m 196.422 238.602 l S
201.969 238.602 m 202.664 238.602 l S
208.211 238.602 m 208.906 238.602 l S
214.453 238.602 m 215.148 238.602 l S
220.695 238.602 m 221.391 238.602 l S
226.938 238.602 m 227.633 238.602 l S
233.18 238.602 m 233.871 238.602 l S
239.422 238.602 m 240.113 238.602 l S
245.664 238.602 m 246.355 238.602 l S
251.906 238.602 m 252.598 238.602 l S
258.145 238.602 m 258.84 238.602 l S
264.387 238.602 m 265.082 238.602 l S
270.629 238.602 m 271.324 238.602 l S
276.871 238.602 m 277.566 238.602 l S
283.113 238.602 m 283.809 238.602 l S
289.355 238.602 m 290.047 238.602 l S
295.598 238.602 m 296.289 238.602 l S
301.84 238.602 m 302.531 238.602 l S
308.082 238.602 m 308.773 238.602 l S
314.324 238.602 m 315.016 238.602 l S
320.562 238.602 m 321.258 238.602 l S
326.805 238.602 m 327.5 238.602 l S
333.047 238.602 m 333.742 238.602 l S
339.289 238.602 m 339.984 238.602 l S
345.531 238.602 m 346.227 238.602 l S
351.773 238.602 m 352.465 238.602 l S
358.016 238.602 m 358.707 238.602 l S
364.258 238.602 m 364.949 238.602 l S
370.5 238.602 m 371.191 238.602 l S
376.738 238.602 m 377.434 238.602 l S
382.98 238.602 m 383.676 238.602 l S
389.223 238.602 m 389.918 238.602 l S
395.465 238.602 m 396.16 238.602 l S
401.707 238.602 m 402.402 238.602 l S
407.949 238.602 m 408.641 238.602 l S
414.191 238.602 m 414.883 238.602 l S
420.434 238.602 m 421.125 238.602 l S
426.676 238.602 m 427.367 238.602 l S
432.914 238.602 m 433.609 238.602 l S
439.156 238.602 m 439.852 238.602 l S
445.398 238.602 m 446.094 238.602 l S
451.641 238.602 m 452.336 238.602 l S
457.883 238.602 m 458.578 238.602 l S
464.125 238.602 m 464.816 238.602 l S
470.367 238.602 m 471.059 238.602 l S
476.609 238.602 m 477.301 238.602 l S
482.852 238.602 m 483.543 238.602 l S
489.09 238.602 m 489.785 238.602 l S
495.332 238.602 m 496.027 238.602 l S
501.574 238.602 m 502.27 238.602 l S
507.816 238.602 m 508.512 238.602 l S
514.059 238.602 m 514.754 238.602 l S
520.301 238.602 m 520.992 238.602 l S
526.543 238.602 m 527.234 238.602 l S
532.785 238.602 m 533.477 238.602 l S
539.027 238.602 m 539.719 238.602 l S
545.27 238.602 m 545.961 238.602 l S
551.508 238.602 m 552.203 238.602 l S
557.75 238.602 m 558.445 238.602 l S
563.992 238.602 m 564.688 238.602 l S
0 g
16.113 243.16 m 20.184 243.16 l 17.965 239.598 l 19.074 239.598 l 19.812
 239.152 l 20.184 238.711 l 20.551 237.375 l 20.551 236.484 l 20.184 235.148
 l 19.441 234.258 l 18.332 233.812 l 17.223 233.812 l 16.113 234.258 l 15.742
 234.703 l 15.375 235.594 l S
23.883 243.16 m 27.949 243.16 l 25.73 239.598 l 26.84 239.598 l 27.582 
239.152 l 27.949 238.711 l 28.32 237.375 l 28.32 236.484 l 27.949 235.148
 l 27.211 234.258 l 26.102 233.812 l 24.992 233.812 l 23.883 234.258 l 23.512
 234.703 l 23.141 235.594 l S
31.297 243.16 m 31.297 233.812 l S
31.297 243.16 m 36.477 233.812 l S
36.477 243.16 m 36.477 233.812 l S
45.926 317.301 m 42.043 317.301 l S
0.666667 g
45.926 317.301 m 46.621 317.301 l S
52.168 317.301 m 52.863 317.301 l S
58.41 317.301 m 59.105 317.301 l S
64.652 317.301 m 65.344 317.301 l S
70.895 317.301 m 71.586 317.301 l S
77.137 317.301 m 77.828 317.301 l S
83.379 317.301 m 84.07 317.301 l S
89.617 317.301 m 90.312 317.301 l S
95.859 317.301 m 96.555 317.301 l S
102.102 317.301 m 102.797 317.301 l S
108.344 317.301 m 109.039 317.301 l S
114.586 317.301 m 115.281 317.301 l S
120.828 317.301 m 121.52 317.301 l S
127.07 317.301 m 127.762 317.301 l S
133.312 317.301 m 134.004 317.301 l S
139.555 317.301 m 140.246 317.301 l S
145.793 317.301 m 146.488 317.301 l S
152.035 317.301 m 152.73 317.301 l S
158.277 317.301 m 158.973 317.301 l S
164.52 317.301 m 165.215 317.301 l S
170.762 317.301 m 171.457 317.301 l S
177.004 317.301 m 177.695 317.301 l S
183.246 317.301 m 183.938 317.301 l S
189.488 317.301 m 190.18 317.301 l S
195.73 317.301 m 196.422 317.301 l S
201.969 317.301 m 202.664 317.301 l S
208.211 317.301 m 208.906 317.301 l S
214.453 317.301 m 215.148 317.301 l S
220.695 317.301 m 221.391 317.301 l S
226.938 317.301 m 227.633 317.301 l S
233.18 317.301 m 233.871 317.301 l S
239.422 317.301 m 240.113 317.301 l S
245.664 317.301 m 246.355 317.301 l S
251.906 317.301 m 252.598 317.301 l S
258.145 317.301 m 258.84 317.301 l S
264.387 317.301 m 265.082 317.301 l S
270.629 317.301 m 271.324 317.301 l S
276.871 317.301 m 277.566 317.301 l S
283.113 317.301 m 283.809 317.301 l S
289.355 317.301 m 290.047 317.301 l S
295.598 317.301 m 296.289 317.301 l S
301.84 317.301 m 302.531 317.301 l S
308.082 317.301 m 308.773 317.301 l S
314.324 317.301 m 315.016 317.301 l S
320.562 317.301 m 321.258 317.301 l S
326.805 317.301 m 327.5 317.301 l S
333.047 317.301 m 333.742 317.301 l S
339.289 317.301 m 339.984 317.301 l S
345.531 317.301 m 346.227 317.301 l S
351.773 317.301 m 352.465 317.301 l S
358.016 317.301 m 358.707 317.301 l S
364.258 317.301 m 364.949 317.301 l S
370.5 317.301 m 371.191 317.301 l S
376.738 317.301 m 377.434 317.301 l S
382.98 317.301 m 383.676 317.301 l S
389.223 317.301 m 389.918 317.301 l S
395.465 317.301 m 396.16 317.301 l S
401.707 317.301 m 402.402 317.301 l S
407.949 317.301 m 408.641 317.301 l S
414.191 317.301 m 414.883 317.301 l S
420.434 317.301 m 421.125 317.301 l S
426.676 317.301 m 427.367 317.301 l S
432.914 317.301 m 433.609 317.301 l S
439.156 317.301 m 439.852 317.301 l S
445.398 317.301 m 446.094 317.301 l S
451.641 317.301 m 452.336 317.301 l S
457.883 317.301 m 458.578 317.301 l S
464.125 317.301 m 464.816 317.301 l S
470.367 317.301 m 471.059 317.301 l S
476.609 317.301 m 477.301 317.301 l S
482.852 317.301 m 483.543 317.301 l S
489.09 317.301 m 489.785 317.301 l S
495.332 317.301 m 496.027 317.301 l S
501.574 317.301 m 502.27 317.301 l S
507.816 317.301 m 508.512 317.301 l S
514.059 317.301 m 514.754 317.301 l S
520.301 317.301 m 520.992 317.301 l S
526.543 317.301 m 527.234 317.301 l S
532.785 317.301 m 533.477 317.301 l S
539.027 317.301 m 539.719 317.301 l S
545.27 317.301 m 545.961 317.301 l S
551.508 317.301 m 552.203 317.301 l S
557.75 317.301 m 558.445 317.301 l S
563.992 317.301 m 564.688 317.301 l S
0 g
12.23 321.859 m 16.301 321.859 l 14.078 318.297 l 15.188 318.297 l 15.93
 317.852 l 16.301 317.406 l 16.668 316.074 l 16.668 315.184 l 16.301 313.848
 l 15.559 312.957 l 14.449 312.512 l 13.34 312.512 l 12.23 312.957 l 11.859
 313.402 l 11.492 314.293 l S
19.906 313.402 m 19.535 312.957 l 19.906 312.512 l 20.273 312.957 l 19.906
 313.402 l S
27.582 321.859 m 23.883 321.859 l 23.512 317.852 l 23.883 318.297 l 24.992
 318.742 l 26.102 318.742 l 27.211 318.297 l 27.949 317.406 l 28.32 316.074
 l 28.32 315.184 l 27.949 313.848 l 27.211 312.957 l 26.102 312.512 l 24.992
 312.512 l 23.883 312.957 l 23.512 313.402 l 23.141 314.293 l S
31.297 321.859 m 31.297 312.512 l S
31.297 321.859 m 36.477 312.512 l S
36.477 321.859 m 36.477 312.512 l S
45.926 396 m 42.043 396 l S
0.666667 g
45.926 396 m 46.621 396 l S
52.168 396 m 52.863 396 l S
58.41 396 m 59.105 396 l S
64.652 396 m 65.344 396 l S
70.895 396 m 71.586 396 l S
77.137 396 m 77.828 396 l S
83.379 396 m 84.07 396 l S
89.617 396 m 90.312 396 l S
95.859 396 m 96.555 396 l S
102.102 396 m 102.797 396 l S
108.344 396 m 109.039 396 l S
114.586 396 m 115.281 396 l S
120.828 396 m 121.52 396 l S
127.07 396 m 127.762 396 l S
133.312 396 m 134.004 396 l S
139.555 396 m 140.246 396 l S
145.793 396 m 146.488 396 l S
152.035 396 m 152.73 396 l S
158.277 396 m 158.973 396 l S
164.52 396 m 165.215 396 l S
170.762 396 m 171.457 396 l S
177.004 396 m 177.695 396 l S
183.246 396 m 183.938 396 l S
189.488 396 m 190.18 396 l S
195.73 396 m 196.422 396 l S
201.969 396 m 202.664 396 l S
208.211 396 m 208.906 396 l S
214.453 396 m 215.148 396 l S
220.695 396 m 221.391 396 l S
226.938 396 m 227.633 396 l S
233.18 396 m 233.871 396 l S
239.422 396 m 240.113 396 l S
245.664 396 m 246.355 396 l S
251.906 396 m 252.598 396 l S
258.145 396 m 258.84 396 l S
264.387 396 m 265.082 396 l S
270.629 396 m 271.324 396 l S
276.871 396 m 277.566 396 l S
283.113 396 m 283.809 396 l S
289.355 396 m 290.047 396 l S
295.598 396 m 296.289 396 l S
301.84 396 m 302.531 396 l S
308.082 396 m 308.773 396 l S
314.324 396 m 315.016 396 l S
320.562 396 m 321.258 396 l S
326.805 396 m 327.5 396 l S
333.047 396 m 333.742 396 l S
339.289 396 m 339.984 396 l S
345.531 396 m 346.227 396 l S
351.773 396 m 352.465 396 l S
358.016 396 m 358.707 396 l S
364.258 396 m 364.949 396 l S
370.5 396 m 371.191 396 l S
376.738 396 m 377.434 396 l S
382.98 396 m 383.676 396 l S
389.223 396 m 389.918 396 l S
395.465 396 m 396.16 396 l S
401.707 396 m 402.402 396 l S
407.949 396 m 408.641 396 l S
414.191 396 m 414.883 396 l S
420.434 396 m 421.125 396 l S
426.676 396 m 427.367 396 l S
432.914 396 m 433.609 396 l S
439.156 396 m 439.852 396 l S
445.398 396 m 446.094 396 l S
451.641 396 m 452.336 396 l S
457.883 396 m 458.578 396 l S
464.125 396 m 464.816 396 l S
470.367 396 m 471.059 396 l S
476.609 396 m 477.301 396 l S
482.852 396 m 483.543 396 l S
489.09 396 m 489.785 396 l S
495.332 396 m 496.027 396 l S
501.574 396 m 502.27 396 l S
507.816 396 m 508.512 396 l S
514.059 396 m 514.754 396 l S
520.301 396 m 520.992 396 l S
526.543 396 m 527.234 396 l S
532.785 396 m 533.477 396 l S
539.027 396 m 539.719 396 l S
545.27 396 m 545.961 396 l S
551.508 396 m 552.203 396 l S
557.75 396 m 558.445 396 l S
563.992 396 m 564.688 396 l S
0 g
16.113 400.559 m 20.184 400.559 l 17.965 396.996 l 19.074 396.996 l 19.812
 396.551 l 20.184 396.105 l 20.551 394.77 l 20.551 393.883 l 20.184 392.547
 l 19.441 391.656 l 18.332 391.211 l 17.223 391.211 l 16.113 391.656 l 15.742
 392.102 l 15.375 392.992 l S
26.84 400.559 m 23.141 394.328 l 28.691 394.328 l S
26.84 400.559 m 26.84 391.211 l S
31.297 400.559 m 31.297 391.211 l S
31.297 400.559 m 36.477 391.211 l S
36.477 400.559 m 36.477 391.211 l S
45.926 474.699 m 42.043 474.699 l S
0.666667 g
45.926 474.699 m 46.621 474.699 l S
52.168 474.699 m 52.863 474.699 l S
58.41 474.699 m 59.105 474.699 l S
64.652 474.699 m 65.344 474.699 l S
70.895 474.699 m 71.586 474.699 l S
77.137 474.699 m 77.828 474.699 l S
83.379 474.699 m 84.07 474.699 l S
89.617 474.699 m 90.312 474.699 l S
95.859 474.699 m 96.555 474.699 l S
102.102 474.699 m 102.797 474.699 l S
108.344 474.699 m 109.039 474.699 l S
114.586 474.699 m 115.281 474.699 l S
120.828 474.699 m 121.52 474.699 l S
127.07 474.699 m 127.762 474.699 l S
133.312 474.699 m 134.004 474.699 l S
139.555 474.699 m 140.246 474.699 l S
145.793 474.699 m 146.488 474.699 l S
152.035 474.699 m 152.73 474.699 l S
158.277 474.699 m 158.973 474.699 l S
164.52 474.699 m 165.215 474.699 l S
170.762 474.699 m 171.457 474.699 l S
177.004 474.699 m 177.695 474.699 l S
183.246 474.699 m 183.938 474.699 l S
189.488 474.699 m 190.18 474.699 l S
195.73 474.699 m 196.422 474.699 l S
201.969 474.699 m 202.664 474.699 l S
208.211 474.699 m 208.906 474.699 l S
214.453 474.699 m 215.148 474.699 l S
220.695 474.699 m 221.391 474.699 l S
226.938 474.699 m 227.633 474.699 l S
233.18 474.699 m 233.871 474.699 l S
239.422 474.699 m 240.113 474.699 l S
245.664 474.699 m 246.355 474.699 l S
251.906 474.699 m 252.598 474.699 l S
258.145 474.699 m 258.84 474.699 l S
264.387 474.699 m 265.082 474.699 l S
270.629 474.699 m 271.324 474.699 l S
276.871 474.699 m 277.566 474.699 l S
283.113 474.699 m 283.809 474.699 l S
289.355 474.699 m 290.047 474.699 l S
295.598 474.699 m 296.289 474.699 l S
301.84 474.699 m 302.531 474.699 l S
308.082 474.699 m 308.773 474.699 l S
314.324 474.699 m 315.016 474.699 l S
320.562 474.699 m 321.258 474.699 l S
326.805 474.699 m 327.5 474.699 l S
333.047 474.699 m 333.742 474.699 l S
339.289 474.699 m 339.984 474.699 l S
345.531 474.699 m 346.227 474.699 l S
351.773 474.699 m 352.465 474.699 l S
358.016 474.699 m 358.707 474.699 l S
364.258 474.699 m 364.949 474.699 l S
370.5 474.699 m 371.191 474.699 l S
376.738 474.699 m 377.434 474.699 l S
382.98 474.699 m 383.676 474.699 l S
389.223 474.699 m 389.918 474.699 l S
395.465 474.699 m 396.16 474.699 l S
401.707 474.699 m 402.402 474.699 l S
407.949 474.699 m 408.641 474.699 l S
414.191 474.699 m 414.883 474.699 l S
420.434 474.699 m 421.125 474.699 l S
426.676 474.699 m 427.367 474.699 l S
432.914 474.699 m 433.609 474.699 l S
439.156 474.699 m 439.852 474.699 l S
445.398 474.699 m 446.094 474.699 l S
451.641 474.699 m 452.336 474.699 l S
457.883 474.699 m 458.578 474.699 l S
464.125 474.699 m 464.816 474.699 l S
470.367 474.699 m 471.059 474.699 l S
476.609 474.699 m 477.301 474.699 l S
482.852 474.699 m 483.543 474.699 l S
489.09 474.699 m 489.785 474.699 l S
495.332 474.699 m 496.027 474.699 l S
501.574 474.699 m 502.27 474.699 l S
507.816 474.699 m 508.512 474.699 l S
514.059 474.699 m 514.754 474.699 l S
520.301 474.699 m 520.992 474.699 l S
526.543 474.699 m 527.234 474.699 l S
532.785 474.699 m 533.477 474.699 l S
539.027 474.699 m 539.719 474.699 l S
545.27 474.699 m 545.961 474.699 l S
551.508 474.699 m 552.203 474.699 l S
557.75 474.699 m 558.445 474.699 l S
563.992 474.699 m 564.688 474.699 l S
0 g
15.188 479.258 m 11.492 473.023 l 17.039 473.023 l S
15.188 479.258 m 15.188 469.91 l S
19.906 470.801 m 19.535 470.355 l 19.906 469.91 l 20.273 470.355 l 19.906
 470.801 l S
27.582 479.258 m 23.883 479.258 l 23.512 475.25 l 23.883 475.695 l 24.992
 476.141 l 26.102 476.141 l 27.211 475.695 l 27.949 474.805 l 28.32 473.469
 l 28.32 472.578 l 27.949 471.246 l 27.211 470.355 l 26.102 469.91 l 24.992
 469.91 l 23.883 470.355 l 23.512 470.801 l 23.141 471.691 l S
31.297 479.258 m 31.297 469.91 l S
31.297 479.258 m 36.477 469.91 l S
36.477 479.258 m 36.477 469.91 l S
45.926 553.398 m 42.043 553.398 l S
0.666667 g
45.926 553.398 m 46.621 553.398 l S
52.168 553.398 m 52.863 553.398 l S
58.41 553.398 m 59.105 553.398 l S
64.652 553.398 m 65.344 553.398 l S
70.895 553.398 m 71.586 553.398 l S
77.137 553.398 m 77.828 553.398 l S
83.379 553.398 m 84.07 553.398 l S
89.617 553.398 m 90.312 553.398 l S
95.859 553.398 m 96.555 553.398 l S
102.102 553.398 m 102.797 553.398 l S
108.344 553.398 m 109.039 553.398 l S
114.586 553.398 m 115.281 553.398 l S
120.828 553.398 m 121.52 553.398 l S
127.07 553.398 m 127.762 553.398 l S
133.312 553.398 m 134.004 553.398 l S
139.555 553.398 m 140.246 553.398 l S
145.793 553.398 m 146.488 553.398 l S
152.035 553.398 m 152.73 553.398 l S
158.277 553.398 m 158.973 553.398 l S
164.52 553.398 m 165.215 553.398 l S
170.762 553.398 m 171.457 553.398 l S
177.004 553.398 m 177.695 553.398 l S
183.246 553.398 m 183.938 553.398 l S
189.488 553.398 m 190.18 553.398 l S
195.73 553.398 m 196.422 553.398 l S
201.969 553.398 m 202.664 553.398 l S
208.211 553.398 m 208.906 553.398 l S
214.453 553.398 m 215.148 553.398 l S
220.695 553.398 m 221.391 553.398 l S
226.938 553.398 m 227.633 553.398 l S
233.18 553.398 m 233.871 553.398 l S
239.422 553.398 m 240.113 553.398 l S
245.664 553.398 m 246.355 553.398 l S
251.906 553.398 m 252.598 553.398 l S
258.145 553.398 m 258.84 553.398 l S
264.387 553.398 m 265.082 553.398 l S
270.629 553.398 m 271.324 553.398 l S
276.871 553.398 m 277.566 553.398 l S
283.113 553.398 m 283.809 553.398 l S
289.355 553.398 m 290.047 553.398 l S
295.598 553.398 m 296.289 553.398 l S
301.84 553.398 m 302.531 553.398 l S
308.082 553.398 m 308.773 553.398 l S
314.324 553.398 m 315.016 553.398 l S
320.562 553.398 m 321.258 553.398 l S
326.805 553.398 m 327.5 553.398 l S
333.047 553.398 m 333.742 553.398 l S
339.289 553.398 m 339.984 553.398 l S
345.531 553.398 m 346.227 553.398 l S
351.773 553.398 m 352.465 553.398 l S
358.016 553.398 m 358.707 553.398 l S
364.258 553.398 m 364.949 553.398 l S
370.5 553.398 m 371.191 553.398 l S
376.738 553.398 m 377.434 553.398 l S
382.98 553.398 m 383.676 553.398 l S
389.223 553.398 m 389.918 553.398 l S
395.465 553.398 m 396.16 553.398 l S
401.707 553.398 m 402.402 553.398 l S
407.949 553.398 m 408.641 553.398 l S
414.191 553.398 m 414.883 553.398 l S
420.434 553.398 m 421.125 553.398 l S
426.676 553.398 m 427.367 553.398 l S
432.914 553.398 m 433.609 553.398 l S
439.156 553.398 m 439.852 553.398 l S
445.398 553.398 m 446.094 553.398 l S
451.641 553.398 m 452.336 553.398 l S
457.883 553.398 m 458.578 553.398 l S
464.125 553.398 m 464.816 553.398 l S
470.367 553.398 m 471.059 553.398 l S
476.609 553.398 m 477.301 553.398 l S
482.852 553.398 m 483.543 553.398 l S
489.09 553.398 m 489.785 553.398 l S
495.332 553.398 m 496.027 553.398 l S
501.574 553.398 m 502.27 553.398 l S
507.816 553.398 m 508.512 553.398 l S
514.059 553.398 m 514.754 553.398 l S
520.301 553.398 m 520.992 553.398 l S
526.543 553.398 m 527.234 553.398 l S
532.785 553.398 m 533.477 553.398 l S
539.027 553.398 m 539.719 553.398 l S
545.27 553.398 m 545.961 553.398 l S
551.508 553.398 m 552.203 553.398 l S
557.75 553.398 m 558.445 553.398 l S
563.992 553.398 m 564.688 553.398 l S
0 g
16.113 557.957 m 20.184 557.957 l 17.965 554.395 l 19.074 554.395 l 19.812
 553.949 l 20.184 553.504 l 20.551 552.168 l 20.551 551.277 l 20.184 549.941
 l 19.441 549.055 l 18.332 548.609 l 17.223 548.609 l 16.113 549.055 l 15.742
 549.5 l 15.375 550.387 l S
27.582 557.957 m 23.883 557.957 l 23.512 553.949 l 23.883 554.395 l 24.992
 554.84 l 26.102 554.84 l 27.211 554.395 l 27.949 553.504 l 28.32 552.168
 l 28.32 551.277 l 27.949 549.941 l 27.211 549.055 l 26.102 548.609 l 24.992
 548.609 l 23.883 549.055 l 23.512 549.5 l 23.141 550.387 l S
31.297 557.957 m 31.297 548.609 l S
31.297 557.957 m 36.477 548.609 l S
36.477 557.957 m 36.477 548.609 l S
45.926 632.098 m 42.043 632.098 l S
0.666667 g
45.926 632.098 m 46.621 632.098 l S
52.168 632.098 m 52.863 632.098 l S
58.41 632.098 m 59.105 632.098 l S
64.652 632.098 m 65.344 632.098 l S
70.895 632.098 m 71.586 632.098 l S
77.137 632.098 m 77.828 632.098 l S
83.379 632.098 m 84.07 632.098 l S
89.617 632.098 m 90.312 632.098 l S
95.859 632.098 m 96.555 632.098 l S
102.102 632.098 m 102.797 632.098 l S
108.344 632.098 m 109.039 632.098 l S
114.586 632.098 m 115.281 632.098 l S
120.828 632.098 m 121.52 632.098 l S
127.07 632.098 m 127.762 632.098 l S
133.312 632.098 m 134.004 632.098 l S
139.555 632.098 m 140.246 632.098 l S
145.793 632.098 m 146.488 632.098 l S
152.035 632.098 m 152.73 632.098 l S
158.277 632.098 m 158.973 632.098 l S
164.52 632.098 m 165.215 632.098 l S
170.762 632.098 m 171.457 632.098 l S
177.004 632.098 m 177.695 632.098 l S
183.246 632.098 m 183.938 632.098 l S
189.488 632.098 m 190.18 632.098 l S
195.73 632.098 m 196.422 632.098 l S
201.969 632.098 m 202.664 632.098 l S
208.211 632.098 m 208.906 632.098 l S
214.453 632.098 m 215.148 632.098 l S
220.695 632.098 m 221.391 632.098 l S
226.938 632.098 m 227.633 632.098 l S
233.18 632.098 m 233.871 632.098 l S
239.422 632.098 m 240.113 632.098 l S
245.664 632.098 m 246.355 632.098 l S
251.906 632.098 m 252.598 632.098 l S
258.145 632.098 m 258.84 632.098 l S
264.387 632.098 m 265.082 632.098 l S
270.629 632.098 m 271.324 632.098 l S
276.871 632.098 m 277.566 632.098 l S
283.113 632.098 m 283.809 632.098 l S
289.355 632.098 m 290.047 632.098 l S
295.598 632.098 m 296.289 632.098 l S
301.84 632.098 m 302.531 632.098 l S
308.082 632.098 m 308.773 632.098 l S
314.324 632.098 m 315.016 632.098 l S
320.562 632.098 m 321.258 632.098 l S
326.805 632.098 m 327.5 632.098 l S
333.047 632.098 m 333.742 632.098 l S
339.289 632.098 m 339.984 632.098 l S
345.531 632.098 m 346.227 632.098 l S
351.773 632.098 m 352.465 632.098 l S
358.016 632.098 m 358.707 632.098 l S
364.258 632.098 m 364.949 632.098 l S
370.5 632.098 m 371.191 632.098 l S
376.738 632.098 m 377.434 632.098 l S
382.98 632.098 m 383.676 632.098 l S
389.223 632.098 m 389.918 632.098 l S
395.465 632.098 m 396.16 632.098 l S
401.707 632.098 m 402.402 632.098 l S
407.949 632.098 m 408.641 632.098 l S
414.191 632.098 m 414.883 632.098 l S
420.434 632.098 m 421.125 632.098 l S
426.676 632.098 m 427.367 632.098 l S
432.914 632.098 m 433.609 632.098 l S
439.156 632.098 m 439.852 632.098 l S
445.398 632.098 m 446.094 632.098 l S
451.641 632.098 m 452.336 632.098 l S
457.883 632.098 m 458.578 632.098 l S
464.125 632.098 m 464.816 632.098 l S
470.367 632.098 m 471.059 632.098 l S
476.609 632.098 m 477.301 632.098 l S
482.852 632.098 m 483.543 632.098 l S
489.09 632.098 m 489.785 632.098 l S
495.332 632.098 m 496.027 632.098 l S
501.574 632.098 m 502.27 632.098 l S
507.816 632.098 m 508.512 632.098 l S
514.059 632.098 m 514.754 632.098 l S
520.301 632.098 m 520.992 632.098 l S
526.543 632.098 m 527.234 632.098 l S
532.785 632.098 m 533.477 632.098 l S
539.027 632.098 m 539.719 632.098 l S
545.27 632.098 m 545.961 632.098 l S
551.508 632.098 m 552.203 632.098 l S
557.75 632.098 m 558.445 632.098 l S
563.992 632.098 m 564.688 632.098 l S
0 g
15.93 636.656 m 12.23 636.656 l 11.859 632.648 l 12.23 633.094 l 13.34 
633.539 l 14.449 633.539 l 15.559 633.094 l 16.301 632.203 l 16.668 630.867
 l 16.668 629.977 l 16.301 628.641 l 15.559 627.75 l 14.449 627.305 l 13.34
 627.305 l 12.23 627.75 l 11.859 628.195 l 11.492 629.086 l S
19.906 628.195 m 19.535 627.75 l 19.906 627.305 l 20.273 627.75 l 19.906
 628.195 l S
27.582 636.656 m 23.883 636.656 l 23.512 632.648 l 23.883 633.094 l 24.992
 633.539 l 26.102 633.539 l 27.211 633.094 l 27.949 632.203 l 28.32 630.867
 l 28.32 629.977 l 27.949 628.641 l 27.211 627.75 l 26.102 627.305 l 24.992
 627.305 l 23.883 627.75 l 23.512 628.195 l 23.141 629.086 l S
31.297 636.656 m 31.297 627.305 l S
31.297 636.656 m 36.477 627.305 l S
36.477 636.656 m 36.477 627.305 l S
45.926 710.797 m 42.043 710.797 l S
0.666667 g
45.926 710.797 m 46.621 710.797 l S
52.168 710.797 m 52.863 710.797 l S
58.41 710.797 m 59.105 710.797 l S
64.652 710.797 m 65.344 710.797 l S
70.895 710.797 m 71.586 710.797 l S
77.137 710.797 m 77.828 710.797 l S
83.379 710.797 m 84.07 710.797 l S
89.617 710.797 m 90.312 710.797 l S
95.859 710.797 m 96.555 710.797 l S
102.102 710.797 m 102.797 710.797 l S
108.344 710.797 m 109.039 710.797 l S
114.586 710.797 m 115.281 710.797 l S
120.828 710.797 m 121.52 710.797 l S
127.07 710.797 m 127.762 710.797 l S
133.312 710.797 m 134.004 710.797 l S
139.555 710.797 m 140.246 710.797 l S
145.793 710.797 m 146.488 710.797 l S
152.035 710.797 m 152.73 710.797 l S
158.277 710.797 m 158.973 710.797 l S
164.52 710.797 m 165.215 710.797 l S
170.762 710.797 m 171.457 710.797 l S
177.004 710.797 m 177.695 710.797 l S
183.246 710.797 m 183.938 710.797 l S
189.488 710.797 m 190.18 710.797 l S
195.73 710.797 m 196.422 710.797 l S
201.969 710.797 m 202.664 710.797 l S
208.211 710.797 m 208.906 710.797 l S
214.453 710.797 m 215.148 710.797 l S
220.695 710.797 m 221.391 710.797 l S
226.938 710.797 m 227.633 710.797 l S
233.18 710.797 m 233.871 710.797 l S
239.422 710.797 m 240.113 710.797 l S
245.664 710.797 m 246.355 710.797 l S
251.906 710.797 m 252.598 710.797 l S
258.145 710.797 m 258.84 710.797 l S
264.387 710.797 m 265.082 710.797 l S
270.629 710.797 m 271.324 710.797 l S
276.871 710.797 m 277.566 710.797 l S
283.113 710.797 m 283.809 710.797 l S
289.355 710.797 m 290.047 710.797 l S
295.598 710.797 m 296.289 710.797 l S
301.84 710.797 m 302.531 710.797 l S
308.082 710.797 m 308.773 710.797 l S
314.324 710.797 m 315.016 710.797 l S
320.562 710.797 m 321.258 710.797 l S
326.805 710.797 m 327.5 710.797 l S
333.047 710.797 m 333.742 710.797 l S
339.289 710.797 m 339.984 710.797 l S
345.531 710.797 m 346.227 710.797 l S
351.773 710.797 m 352.465 710.797 l S
358.016 710.797 m 358.707 710.797 l S
364.258 710.797 m 364.949 710.797 l S
370.5 710.797 m 371.191 710.797 l S
376.738 710.797 m 377.434 710.797 l S
382.98 710.797 m 383.676 710.797 l S
389.223 710.797 m 389.918 710.797 l S
395.465 710.797 m 396.16 710.797 l S
401.707 710.797 m 402.402 710.797 l S
407.949 710.797 m 408.641 710.797 l S
414.191 710.797 m 414.883 710.797 l S
420.434 710.797 m 421.125 710.797 l S
426.676 710.797 m 427.367 710.797 l S
432.914 710.797 m 433.609 710.797 l S
439.156 710.797 m 439.852 710.797 l S
445.398 710.797 m 446.094 710.797 l S
451.641 710.797 m 452.336 710.797 l S
457.883 710.797 m 458.578 710.797 l S
464.125 710.797 m 464.816 710.797 l S
470.367 710.797 m 471.059 710.797 l S
476.609 710.797 m 477.301 710.797 l S
482.852 710.797 m 483.543 710.797 l S
489.09 710.797 m 489.785 710.797 l S
495.332 710.797 m 496.027 710.797 l S
501.574 710.797 m 502.27 710.797 l S
507.816 710.797 m 508.512 710.797 l S
514.059 710.797 m 514.754 710.797 l S
520.301 710.797 m 520.992 710.797 l S
526.543 710.797 m 527.234 710.797 l S
532.785 710.797 m 533.477 710.797 l S
539.027 710.797 m 539.719 710.797 l S
545.27 710.797 m 545.961 710.797 l S
551.508 710.797 m 552.203 710.797 l S
557.75 710.797 m 558.445 710.797 l S
563.992 710.797 m 564.688 710.797 l S
0 g
16.113 715.355 m 20.184 715.355 l 17.965 711.793 l 19.074 711.793 l 19.812
 711.348 l 20.184 710.902 l 20.551 709.566 l 20.551 708.676 l 20.184 707.34
 l 19.441 706.449 l 18.332 706.004 l 17.223 706.004 l 16.113 706.449 l 15.742
 706.895 l 15.375 707.785 l S
27.949 714.02 m 27.582 714.91 l 26.469 715.355 l 25.73 715.355 l 24.621
 714.91 l 23.883 713.574 l 23.512 711.348 l 23.512 709.121 l 23.883 707.34
 l 24.621 706.449 l 25.73 706.004 l 26.102 706.004 l 27.211 706.449 l 27.949
 707.34 l 28.32 708.676 l 28.32 709.121 l 27.949 710.457 l 27.211 711.348
 l 26.102 711.793 l 25.73 711.793 l 24.621 711.348 l 23.883 710.457 l 23.512
 709.121 l S
31.297 715.355 m 31.297 706.004 l S
31.297 715.355 m 36.477 706.004 l S
36.477 715.355 m 36.477 706.004 l S
1.5 w
45.926 710.797 520.148 -629.594 re S
196.422 739.598 m 196.422 723.57 l S
191.797 739.598 m 201.047 739.598 l S
207.586 739.598 m 205.602 738.832 l 204.941 737.309 l 204.941 735.781 l
 205.602 734.254 l 206.926 733.492 l 209.566 732.727 l 211.547 731.965 l
 212.867 730.438 l 213.531 728.914 l 213.531 726.621 l 212.867 725.098 l
 212.207 724.332 l 210.227 723.57 l 207.586 723.57 l 205.602 724.332 l 204.941
 725.098 l 204.281 726.621 l 204.281 728.914 l 204.941 730.438 l 206.266
 731.965 l 208.246 732.727 l 210.887 733.492 l 212.207 734.254 l 212.867
 735.781 l 212.867 737.309 l 212.207 738.832 l 210.227 739.598 l 207.586
 739.598 l S
226.078 739.598 m 219.473 739.598 l 218.812 732.727 l 219.473 733.492 l
 221.457 734.254 l 223.438 734.254 l 225.418 733.492 l 226.738 731.965 l
 227.398 729.676 l 227.398 728.148 l 226.738 725.859 l 225.418 724.332 l
 223.438 723.57 l 221.457 723.57 l 219.473 724.332 l 218.812 725.098 l 218.152
 726.621 l S
235.988 739.598 m 234.004 738.832 l 232.684 736.543 l 232.023 732.727 l
 232.023 730.438 l 232.684 726.621 l 234.004 724.332 l 235.988 723.57 l 
237.309 723.57 l 239.289 724.332 l 240.609 726.621 l 241.27 730.438 l 241.27
 732.727 l 240.609 736.543 l 239.289 738.832 l 237.309 739.598 l 235.988
 739.598 l S
262.34 739.598 m 260.359 738.832 l 259.039 736.543 l 258.379 732.727 l 
258.379 730.438 l 259.039 726.621 l 260.359 724.332 l 262.34 723.57 l 263.66
 723.57 l 265.645 724.332 l 266.965 726.621 l 267.625 730.438 l 267.625 
732.727 l 266.965 736.543 l 265.645 738.832 l 263.66 739.598 l 262.34 739.598
 l S
276.211 739.598 m 274.23 738.832 l 272.91 736.543 l 272.25 732.727 l 272.25
 730.438 l 272.91 726.621 l 274.23 724.332 l 276.211 723.57 l 277.531 723.57
 l 279.516 724.332 l 280.836 726.621 l 281.496 730.438 l 281.496 732.727
 l 280.836 736.543 l 279.516 738.832 l 277.531 739.598 l 276.211 739.598
 l S
295.367 739.598 m 286.117 723.57 l S
286.117 739.598 m 295.367 739.598 l S
286.117 723.57 m 295.367 723.57 l S
301.973 736.543 m 303.293 737.309 l 305.273 739.598 l 305.273 723.57 l S
320.465 739.598 m 313.859 728.914 l 323.766 728.914 l S
320.465 739.598 m 320.465 723.57 l S
327.699 739.598 m 327.699 723.57 l S
327.699 739.598 m 336.285 739.598 l S
327.699 731.965 m 332.98 731.965 l S
340.527 739.598 m 340.527 723.57 l S
340.527 739.598 m 349.113 739.598 l S
340.527 731.965 m 345.812 731.965 l S
340.527 723.57 m 349.113 723.57 l S
353.738 739.598 m 353.738 723.57 l S
353.738 739.598 m 359.684 739.598 l 361.664 738.832 l 362.324 738.07 l 
362.984 736.543 l 362.984 735.016 l 362.324 733.492 l 361.664 732.727 l 
359.684 731.965 l S
353.738 731.965 m 359.684 731.965 l 361.664 731.203 l 362.324 730.438 l
 362.984 728.914 l 362.984 726.621 l 362.324 725.098 l 361.664 724.332 l
 359.684 723.57 l 353.738 723.57 l S
368.617 735.781 m 368.617 736.543 l 369.277 738.07 l 369.938 738.832 l 
371.258 739.598 l 373.898 739.598 l 375.223 738.832 l 375.883 738.07 l 376.543
 736.543 l 376.543 735.016 l 375.883 733.492 l 374.559 731.203 l 367.957
 723.57 l 377.203 723.57 l S
385.789 739.598 m 383.809 738.832 l 382.488 736.543 l 381.824 732.727 l
 381.824 730.438 l 382.488 726.621 l 383.809 724.332 l 385.789 723.57 l 
387.109 723.57 l 389.09 724.332 l 390.414 726.621 l 391.074 730.438 l 391.074
 732.727 l 390.414 736.543 l 389.09 738.832 l 387.109 739.598 l 385.789 
739.598 l S
397.68 736.543 m 399 737.309 l 400.98 739.598 l 400.98 723.57 l S
416.172 739.598 m 409.566 728.914 l 419.477 728.914 l S
416.172 739.598 m 416.172 723.57 l S
Q Q
showpage
%%Trailer
end restore
%%EOF
