%!PS-Adobe-3.0 EPSF-3.0
%%Creator: cairo 1.12.16 (http://cairographics.org)
%%CreationDate: Fri Sep 16 17:13:13 2022
%%Pages: 1
%%DocumentData: Clean7Bit
%%LanguageLevel: 2
%%BoundingBox: 0 0 612 792
%%EndComments
%%BeginProlog
save
50 dict begin
/q { gsave } bind def
/Q { grestore } bind def
/cm { 6 array astore concat } bind def
/w { setlinewidth } bind def
/J { setlinecap } bind def
/j { setlinejoin } bind def
/M { setmiterlimit } bind def
/d { setdash } bind def
/m { moveto } bind def
/l { lineto } bind def
/c { curveto } bind def
/h { closepath } bind def
/re { exch dup neg 3 1 roll 5 3 roll moveto 0 rlineto
      0 exch rlineto 0 rlineto closepath } bind def
/S { stroke } bind def
/f { fill } bind def
/f* { eofill } bind def
/n { newpath } bind def
/W { clip } bind def
/W* { eoclip } bind def
/BT { } bind def
/ET { } bind def
/pdfmark where { pop globaldict /?pdfmark /exec load put }
    { globaldict begin /?pdfmark /pop load def /pdfmark
    /cleartomark load def end } ifelse
/BDC { mark 3 1 roll /BDC pdfmark } bind def
/EMC { mark /EMC pdfmark } bind def
/cairo_store_point { /cairo_point_y exch def /cairo_point_x exch def } def
/Tj { show currentpoint cairo_store_point } bind def
/TJ {
  {
    dup
    type /stringtype eq
    { show } { -0.001 mul 0 cairo_font_matrix dtransform rmoveto } ifelse
  } forall
  currentpoint cairo_store_point
} bind def
/cairo_selectfont { cairo_font_matrix aload pop pop pop 0 0 6 array astore
    cairo_font exch selectfont cairo_point_x cairo_point_y moveto } bind def
/Tf { pop /cairo_font exch def /cairo_font_matrix where
      { pop cairo_selectfont } if } bind def
/Td { matrix translate cairo_font_matrix matrix concatmatrix dup
      /cairo_font_matrix exch def dup 4 get exch 5 get cairo_store_point
      /cairo_font where { pop cairo_selectfont } if } bind def
/Tm { 2 copy 8 2 roll 6 array astore /cairo_font_matrix exch def
      cairo_store_point /cairo_font where { pop cairo_selectfont } if } bind def
/g { setgray } bind def
/rg { setrgbcolor } bind def
/d1 { setcachedevice } bind def
%%EndProlog
%%Page: 1 1
%%BeginPageSetup
%%PageBoundingBox: 0 0 612 792
%%EndPageSetup
q 0 0 612 792 rectclip q
1 g
0 0 612 792 rectfill
0 g
1.5 w
1 J
1 j
[] 0.0 d
10 M 149.957 728.285 416.117 -664.57 re S
1.25 w
149.957 238.559 m 175.965 212.156 l 201.969 158.66 l 227.977 176.379 l 
253.984 148.762 l 279.992 300.043 l 306 288.926 l 332.008 358.746 l 358.016
 385.492 l 384.023 396.09 l 410.031 437.078 l 436.035 440.551 l 462.043 
505.508 l 488.051 568.559 l 514.059 596.172 l 540.066 351.625 l 566.074 
535.559 l S
1 g
151.344 240.98 m 149.957 241.355 l 149.262 241.168 l 149.262 235.945 l 
149.957 235.758 l 151.344 236.133 l 152.359 237.156 l 152.73 238.559 l 152.359
 239.957 l 151.344 240.98 l f
0 g
151.344 240.98 m 149.957 241.355 l 149.262 241.168 l S
149.262 235.945 m 149.957 235.758 l 151.344 236.133 l 152.359 237.156 l
 152.73 238.559 l 152.359 239.957 l 151.344 240.98 l S
1 g
177.352 214.578 m 175.965 214.953 l 174.578 214.578 l 173.562 213.555 l
 173.188 212.156 l 173.562 210.758 l 174.578 209.734 l 175.965 209.359 l
 177.352 209.734 l 178.367 210.758 l 178.738 212.156 l 178.367 213.555 l
 177.352 214.578 l f
0 g
177.352 214.578 m 175.965 214.953 l 174.578 214.578 l 173.562 213.555 l
 173.188 212.156 l 173.562 210.758 l 174.578 209.734 l 175.965 209.359 l
 177.352 209.734 l 178.367 210.758 l 178.738 212.156 l 178.367 213.555 l
 177.352 214.578 l S
1 g
203.359 161.086 m 201.969 161.461 l 200.582 161.086 l 199.566 160.062 l
 199.195 158.66 l 199.566 157.262 l 200.582 156.238 l 201.969 155.863 l 
203.359 156.238 l 204.371 157.262 l 204.746 158.66 l 204.371 160.062 l 203.359
 161.086 l f
0 g
203.359 161.086 m 201.969 161.461 l 200.582 161.086 l 199.566 160.062 l
 199.195 158.66 l 199.566 157.262 l 200.582 156.238 l 201.969 155.863 l 
203.359 156.238 l 204.371 157.262 l 204.746 158.66 l 204.371 160.062 l 203.359
 161.086 l S
1 g
229.363 178.801 m 227.977 179.176 l 226.59 178.801 l 225.574 177.777 l 
225.203 176.379 l 225.574 174.98 l 226.59 173.953 l 227.977 173.578 l 229.363
 173.953 l 230.379 174.98 l 230.754 176.379 l 230.379 177.777 l 229.363 
178.801 l f
0 g
229.363 178.801 m 227.977 179.176 l 226.59 178.801 l 225.574 177.777 l 
225.203 176.379 l 225.574 174.98 l 226.59 173.953 l 227.977 173.578 l 229.363
 173.953 l 230.379 174.98 l 230.754 176.379 l 230.379 177.777 l 229.363 
178.801 l S
1 g
255.371 151.184 m 253.984 151.559 l 252.598 151.184 l 251.582 150.16 l 
251.211 148.762 l 251.582 147.363 l 252.598 146.34 l 253.984 145.965 l 255.371
 146.34 l 256.387 147.363 l 256.758 148.762 l 256.387 150.16 l 255.371 151.184
 l f
0 g
255.371 151.184 m 253.984 151.559 l 252.598 151.184 l 251.582 150.16 l 
251.211 148.762 l 251.582 147.363 l 252.598 146.34 l 253.984 145.965 l 255.371
 146.34 l 256.387 147.363 l 256.758 148.762 l 256.387 150.16 l 255.371 151.184
 l S
1 g
281.379 302.465 m 279.992 302.84 l 278.605 302.465 l 277.59 301.441 l 277.219
 300.043 l 277.59 298.641 l 278.605 297.617 l 279.992 297.242 l 281.379 
297.617 l 282.395 298.641 l 282.766 300.043 l 282.395 301.441 l 281.379 
302.465 l f
0 g
281.379 302.465 m 279.992 302.84 l 278.605 302.465 l 277.59 301.441 l 277.219
 300.043 l 277.59 298.641 l 278.605 297.617 l 279.992 297.242 l 281.379 
297.617 l 282.395 298.641 l 282.766 300.043 l 282.395 301.441 l 281.379 
302.465 l S
1 g
307.387 291.348 m 306 291.723 l 304.613 291.348 l 303.598 290.324 l 303.227
 288.926 l 303.598 287.527 l 304.613 286.5 l 306 286.129 l 307.387 286.5
 l 308.402 287.527 l 308.773 288.926 l 308.402 290.324 l 307.387 291.348
 l f
0 g
307.387 291.348 m 306 291.723 l 304.613 291.348 l 303.598 290.324 l 303.227
 288.926 l 303.598 287.527 l 304.613 286.5 l 306 286.129 l 307.387 286.5
 l 308.402 287.527 l 308.773 288.926 l 308.402 290.324 l 307.387 291.348
 l S
1 g
333.395 361.168 m 332.008 361.543 l 330.621 361.168 l 329.605 360.145 l
 329.234 358.746 l 329.605 357.348 l 330.621 356.324 l 332.008 355.949 l
 333.395 356.324 l 334.41 357.348 l 334.781 358.746 l 334.41 360.145 l 333.395
 361.168 l f
0 g
333.395 361.168 m 332.008 361.543 l 330.621 361.168 l 329.605 360.145 l
 329.234 358.746 l 329.605 357.348 l 330.621 356.324 l 332.008 355.949 l
 333.395 356.324 l 334.41 357.348 l 334.781 358.746 l 334.41 360.145 l 333.395
 361.168 l S
1 g
359.402 387.918 m 358.016 388.293 l 356.629 387.918 l 355.613 386.895 l
 355.242 385.492 l 355.613 384.094 l 356.629 383.07 l 358.016 382.695 l 
359.402 383.07 l 360.418 384.094 l 360.789 385.492 l 360.418 386.895 l 359.402
 387.918 l f
0 g
359.402 387.918 m 358.016 388.293 l 356.629 387.918 l 355.613 386.895 l
 355.242 385.492 l 355.613 384.094 l 356.629 383.07 l 358.016 382.695 l 
359.402 383.07 l 360.418 384.094 l 360.789 385.492 l 360.418 386.895 l 359.402
 387.918 l S
1 g
385.41 398.512 m 384.023 398.887 l 382.637 398.512 l 381.621 397.488 l 
381.246 396.09 l 381.621 394.688 l 382.637 393.664 l 384.023 393.289 l 385.41
 393.664 l 386.426 394.688 l 386.797 396.09 l 386.426 397.488 l 385.41 398.512
 l f
0 g
385.41 398.512 m 384.023 398.887 l 382.637 398.512 l 381.621 397.488 l 
381.246 396.09 l 381.621 394.688 l 382.637 393.664 l 384.023 393.289 l 385.41
 393.664 l 386.426 394.688 l 386.797 396.09 l 386.426 397.488 l 385.41 398.512
 l S
1 g
411.418 439.5 m 410.031 439.875 l 408.641 439.5 l 407.629 438.477 l 407.254
 437.078 l 407.629 435.68 l 408.641 434.656 l 410.031 434.281 l 411.418 
434.656 l 412.434 435.68 l 412.805 437.078 l 412.434 438.477 l 411.418 439.5
 l f
0 g
411.418 439.5 m 410.031 439.875 l 408.641 439.5 l 407.629 438.477 l 407.254
 437.078 l 407.629 435.68 l 408.641 434.656 l 410.031 434.281 l 411.418 
434.656 l 412.434 435.68 l 412.805 437.078 l 412.434 438.477 l 411.418 439.5
 l S
1 g
437.422 442.977 m 436.035 443.352 l 434.648 442.977 l 433.633 441.949 l
 433.262 440.551 l 433.633 439.152 l 434.648 438.129 l 436.035 437.754 l
 437.422 438.129 l 438.438 439.152 l 438.812 440.551 l 438.438 441.949 l
 437.422 442.977 l f
0 g
437.422 442.977 m 436.035 443.352 l 434.648 442.977 l 433.633 441.949 l
 433.262 440.551 l 433.633 439.152 l 434.648 438.129 l 436.035 437.754 l
 437.422 438.129 l 438.438 439.152 l 438.812 440.551 l 438.438 441.949 l
 437.422 442.977 l S
1 g
463.43 507.934 m 462.043 508.309 l 460.656 507.934 l 459.641 506.91 l 459.27
 505.508 l 459.641 504.109 l 460.656 503.086 l 462.043 502.711 l 463.43 
503.086 l 464.445 504.109 l 464.816 505.508 l 464.445 506.91 l 463.43 507.934
 l f
0 g
463.43 507.934 m 462.043 508.309 l 460.656 507.934 l 459.641 506.91 l 459.27
 505.508 l 459.641 504.109 l 460.656 503.086 l 462.043 502.711 l 463.43 
503.086 l 464.445 504.109 l 464.816 505.508 l 464.445 506.91 l 463.43 507.934
 l S
1 g
489.438 570.98 m 488.051 571.355 l 486.664 570.98 l 485.648 569.957 l 485.277
 568.559 l 485.648 567.156 l 486.664 566.133 l 488.051 565.758 l 489.438
 566.133 l 490.453 567.156 l 490.824 568.559 l 490.453 569.957 l 489.438
 570.98 l f
0 g
489.438 570.98 m 488.051 571.355 l 486.664 570.98 l 485.648 569.957 l 485.277
 568.559 l 485.648 567.156 l 486.664 566.133 l 488.051 565.758 l 489.438
 566.133 l 490.453 567.156 l 490.824 568.559 l 490.453 569.957 l 489.438
 570.98 l S
1 g
515.445 598.598 m 514.059 598.973 l 512.672 598.598 l 511.656 597.57 l 
511.285 596.172 l 511.656 594.773 l 512.672 593.75 l 514.059 593.375 l 515.445
 593.75 l 516.461 594.773 l 516.832 596.172 l 516.461 597.57 l 515.445 598.598
 l f
0 g
515.445 598.598 m 514.059 598.973 l 512.672 598.598 l 511.656 597.57 l 
511.285 596.172 l 511.656 594.773 l 512.672 593.75 l 514.059 593.375 l 515.445
 593.75 l 516.461 594.773 l 516.832 596.172 l 516.461 597.57 l 515.445 598.598
 l S
1 g
541.453 354.047 m 540.066 354.422 l 538.68 354.047 l 537.664 353.023 l 
537.293 351.625 l 537.664 350.227 l 538.68 349.203 l 540.066 348.828 l 541.453
 349.203 l 542.469 350.227 l 542.84 351.625 l 542.469 353.023 l 541.453 
354.047 l f
0 g
541.453 354.047 m 540.066 354.422 l 538.68 354.047 l 537.664 353.023 l 
537.293 351.625 l 537.664 350.227 l 538.68 349.203 l 540.066 348.828 l 541.453
 349.203 l 542.469 350.227 l 542.84 351.625 l 542.469 353.023 l 541.453 
354.047 l S
1 g
566.766 537.98 m 566.766 538.168 l 566.074 538.355 l 564.688 537.98 l 563.672
 536.957 l 563.301 535.559 l 563.672 534.156 l 564.688 533.133 l 566.074
 532.758 l 566.766 532.945 l 566.766 537.98 l f
0 g
566.766 538.168 m 566.074 538.355 l 564.688 537.98 l 563.672 536.957 l 
563.301 535.559 l 563.672 534.156 l 564.688 533.133 l 566.074 532.758 l 
566.766 532.945 l S
149.957 63.715 m 149.957 59.797 l S
0.666667 g
149.957 63.715 m 149.957 64.414 l S
149.957 70.012 m 149.957 70.711 l S
149.957 76.309 m 149.957 77.008 l S
149.957 82.605 m 149.957 83.305 l S
149.957 88.898 m 149.957 89.598 l S
149.957 95.195 m 149.957 95.895 l S
149.957 101.492 m 149.957 102.191 l S
149.957 107.789 m 149.957 108.488 l S
149.957 114.082 m 149.957 114.781 l S
149.957 120.379 m 149.957 121.078 l S
149.957 126.676 m 149.957 127.375 l S
149.957 132.973 m 149.957 133.672 l S
149.957 139.266 m 149.957 139.965 l S
149.957 145.562 m 149.957 146.262 l S
149.957 151.859 m 149.957 152.559 l S
149.957 158.156 m 149.957 158.855 l S
149.957 164.449 m 149.957 165.148 l S
149.957 170.746 m 149.957 171.445 l S
149.957 177.043 m 149.957 177.742 l S
149.957 183.34 m 149.957 184.039 l S
149.957 189.633 m 149.957 190.332 l S
149.957 195.93 m 149.957 196.629 l S
149.957 202.227 m 149.957 202.926 l S
149.957 208.523 m 149.957 209.223 l S
149.957 214.816 m 149.957 215.516 l S
149.957 221.113 m 149.957 221.812 l S
149.957 227.41 m 149.957 228.109 l S
149.957 233.707 m 149.957 234.406 l S
149.957 240 m 149.957 240.699 l S
149.957 246.297 m 149.957 246.996 l S
149.957 252.594 m 149.957 253.293 l S
149.957 258.891 m 149.957 259.59 l S
149.957 265.184 m 149.957 265.883 l S
149.957 271.48 m 149.957 272.18 l S
149.957 277.777 m 149.957 278.477 l S
149.957 284.074 m 149.957 284.773 l S
149.957 290.367 m 149.957 291.066 l S
149.957 296.664 m 149.957 297.363 l S
149.957 302.961 m 149.957 303.66 l S
149.957 309.258 m 149.957 309.957 l S
149.957 315.551 m 149.957 316.25 l S
149.957 321.848 m 149.957 322.547 l S
149.957 328.145 m 149.957 328.844 l S
149.957 334.441 m 149.957 335.141 l S
149.957 340.734 m 149.957 341.434 l S
149.957 347.031 m 149.957 347.73 l S
149.957 353.328 m 149.957 354.027 l S
149.957 359.625 m 149.957 360.324 l S
149.957 365.918 m 149.957 366.617 l S
149.957 372.215 m 149.957 372.914 l S
149.957 378.512 m 149.957 379.211 l S
149.957 384.809 m 149.957 385.508 l S
149.957 391.102 m 149.957 391.801 l S
149.957 397.398 m 149.957 398.098 l S
149.957 403.695 m 149.957 404.395 l S
149.957 409.992 m 149.957 410.691 l S
149.957 416.285 m 149.957 416.988 l S
149.957 422.582 m 149.957 423.281 l S
149.957 428.879 m 149.957 429.578 l S
149.957 435.176 m 149.957 435.875 l S
149.957 441.469 m 149.957 442.172 l S
149.957 447.766 m 149.957 448.465 l S
149.957 454.062 m 149.957 454.762 l S
149.957 460.359 m 149.957 461.059 l S
149.957 466.652 m 149.957 467.355 l S
149.957 472.949 m 149.957 473.648 l S
149.957 479.246 m 149.957 479.945 l S
149.957 485.543 m 149.957 486.242 l S
149.957 491.836 m 149.957 492.539 l S
149.957 498.133 m 149.957 498.832 l S
149.957 504.43 m 149.957 505.129 l S
149.957 510.727 m 149.957 511.426 l S
149.957 517.02 m 149.957 517.723 l S
149.957 523.316 m 149.957 524.016 l S
149.957 529.613 m 149.957 530.312 l S
149.957 535.91 m 149.957 536.609 l S
149.957 542.203 m 149.957 542.906 l S
149.957 548.5 m 149.957 549.199 l S
149.957 554.797 m 149.957 555.496 l S
149.957 561.094 m 149.957 561.793 l S
149.957 567.387 m 149.957 568.09 l S
149.957 573.684 m 149.957 574.383 l S
149.957 579.98 m 149.957 580.68 l S
149.957 586.277 m 149.957 586.977 l S
149.957 592.574 m 149.957 593.273 l S
149.957 598.867 m 149.957 599.566 l S
149.957 605.164 m 149.957 605.863 l S
149.957 611.461 m 149.957 612.16 l S
149.957 617.758 m 149.957 618.457 l S
149.957 624.051 m 149.957 624.75 l S
149.957 630.348 m 149.957 631.047 l S
149.957 636.645 m 149.957 637.344 l S
149.957 642.941 m 149.957 643.641 l S
149.957 649.234 m 149.957 649.934 l S
149.957 655.531 m 149.957 656.23 l S
149.957 661.828 m 149.957 662.527 l S
149.957 668.125 m 149.957 668.824 l S
149.957 674.418 m 149.957 675.117 l S
149.957 680.715 m 149.957 681.414 l S
149.957 687.012 m 149.957 687.711 l S
149.957 693.309 m 149.957 694.008 l S
149.957 699.602 m 149.957 700.301 l S
149.957 705.898 m 149.957 706.598 l S
149.957 712.195 m 149.957 712.895 l S
149.957 718.492 m 149.957 719.191 l S
149.957 724.785 m 149.957 725.484 l S
0 g
141.82 56.523 m 140.707 56.078 l 139.969 54.742 l 139.598 52.516 l 139.598
 51.18 l 139.969 48.953 l 140.707 47.617 l 141.82 47.172 l 142.559 47.172
 l 143.668 47.617 l 144.406 48.953 l 144.777 51.18 l 144.777 52.516 l 144.406
 54.742 l 143.668 56.078 l 142.559 56.523 l 141.82 56.523 l S
149.586 56.523 m 148.477 56.078 l 147.738 54.742 l 147.367 52.516 l 147.367
 51.18 l 147.738 48.953 l 148.477 47.617 l 149.586 47.172 l 150.324 47.172
 l 151.434 47.617 l 152.176 48.953 l 152.547 51.18 l 152.547 52.516 l 152.176
 54.742 l 151.434 56.078 l 150.324 56.523 l 149.586 56.523 l S
160.312 56.523 m 155.133 47.172 l S
155.133 56.523 m 160.312 56.523 l S
155.133 47.172 m 160.312 47.172 l S
133.328 41.031 m 134.07 41.477 l 135.18 42.812 l 135.18 33.461 l S
140.727 42.812 m 144.797 42.812 l 142.578 39.25 l 143.688 39.25 l 144.426
 38.805 l 144.797 38.359 l 145.164 37.023 l 145.164 36.133 l 144.797 34.797
 l 144.055 33.906 l 142.945 33.461 l 141.836 33.461 l 140.727 33.906 l 140.359
 34.352 l 139.988 35.242 l S
147.738 42.812 m 147.738 33.461 l S
147.738 42.812 m 152.547 42.812 l S
147.738 38.359 m 150.695 38.359 l S
154.922 42.812 m 154.922 33.461 l S
154.922 42.812 m 159.73 42.812 l S
154.922 38.359 m 157.879 38.359 l S
154.922 33.461 m 159.73 33.461 l S
162.32 42.812 m 162.32 33.461 l S
162.32 42.812 m 165.648 42.812 l 166.758 42.367 l 167.129 41.922 l 167.496
 41.031 l 167.496 40.141 l 167.129 39.25 l 166.758 38.805 l 165.648 38.359
 l S
162.32 38.359 m 165.648 38.359 l 166.758 37.914 l 167.129 37.469 l 167.496
 36.578 l 167.496 35.242 l 167.129 34.352 l 166.758 33.906 l 165.648 33.461
 l 162.32 33.461 l S
136.086 26.875 m 136.086 27.32 l 136.457 28.211 l 136.824 28.656 l 137.566
 29.102 l 139.043 29.102 l 139.785 28.656 l 140.152 28.211 l 140.523 27.32
 l 140.523 26.43 l 140.152 25.539 l 139.414 24.203 l 135.715 19.75 l 140.895
 19.75 l S
145.703 29.102 m 144.594 28.656 l 143.852 27.32 l 143.484 25.094 l 143.484
 23.758 l 143.852 21.531 l 144.594 20.195 l 145.703 19.75 l 146.441 19.75
 l 147.551 20.195 l 148.293 21.531 l 148.66 23.758 l 148.66 25.094 l 148.293
 27.32 l 147.551 28.656 l 146.441 29.102 l 145.703 29.102 l S
152.359 27.32 m 153.102 27.766 l 154.211 29.102 l 154.211 19.75 l S
162.719 29.102 m 159.02 22.867 l 164.566 22.867 l S
162.719 29.102 m 162.719 19.75 l S
201.969 63.715 m 201.969 59.797 l S
0.666667 g
201.969 63.715 m 201.969 64.414 l S
201.969 70.012 m 201.969 70.711 l S
201.969 76.309 m 201.969 77.008 l S
201.969 82.605 m 201.969 83.305 l S
201.969 88.898 m 201.969 89.598 l S
201.969 95.195 m 201.969 95.895 l S
201.969 101.492 m 201.969 102.191 l S
201.969 107.789 m 201.969 108.488 l S
201.969 114.082 m 201.969 114.781 l S
201.969 120.379 m 201.969 121.078 l S
201.969 126.676 m 201.969 127.375 l S
201.969 132.973 m 201.969 133.672 l S
201.969 139.266 m 201.969 139.965 l S
201.969 145.562 m 201.969 146.262 l S
201.969 151.859 m 201.969 152.559 l S
201.969 158.156 m 201.969 158.855 l S
201.969 164.449 m 201.969 165.148 l S
201.969 170.746 m 201.969 171.445 l S
201.969 177.043 m 201.969 177.742 l S
201.969 183.34 m 201.969 184.039 l S
201.969 189.633 m 201.969 190.332 l S
201.969 195.93 m 201.969 196.629 l S
201.969 202.227 m 201.969 202.926 l S
201.969 208.523 m 201.969 209.223 l S
201.969 214.816 m 201.969 215.516 l S
201.969 221.113 m 201.969 221.812 l S
201.969 227.41 m 201.969 228.109 l S
201.969 233.707 m 201.969 234.406 l S
201.969 240 m 201.969 240.699 l S
201.969 246.297 m 201.969 246.996 l S
201.969 252.594 m 201.969 253.293 l S
201.969 258.891 m 201.969 259.59 l S
201.969 265.184 m 201.969 265.883 l S
201.969 271.48 m 201.969 272.18 l S
201.969 277.777 m 201.969 278.477 l S
201.969 284.074 m 201.969 284.773 l S
201.969 290.367 m 201.969 291.066 l S
201.969 296.664 m 201.969 297.363 l S
201.969 302.961 m 201.969 303.66 l S
201.969 309.258 m 201.969 309.957 l S
201.969 315.551 m 201.969 316.25 l S
201.969 321.848 m 201.969 322.547 l S
201.969 328.145 m 201.969 328.844 l S
201.969 334.441 m 201.969 335.141 l S
201.969 340.734 m 201.969 341.434 l S
201.969 347.031 m 201.969 347.73 l S
201.969 353.328 m 201.969 354.027 l S
201.969 359.625 m 201.969 360.324 l S
201.969 365.918 m 201.969 366.617 l S
201.969 372.215 m 201.969 372.914 l S
201.969 378.512 m 201.969 379.211 l S
201.969 384.809 m 201.969 385.508 l S
201.969 391.102 m 201.969 391.801 l S
201.969 397.398 m 201.969 398.098 l S
201.969 403.695 m 201.969 404.395 l S
201.969 409.992 m 201.969 410.691 l S
201.969 416.285 m 201.969 416.988 l S
201.969 422.582 m 201.969 423.281 l S
201.969 428.879 m 201.969 429.578 l S
201.969 435.176 m 201.969 435.875 l S
201.969 441.469 m 201.969 442.172 l S
201.969 447.766 m 201.969 448.465 l S
201.969 454.062 m 201.969 454.762 l S
201.969 460.359 m 201.969 461.059 l S
201.969 466.652 m 201.969 467.355 l S
201.969 472.949 m 201.969 473.648 l S
201.969 479.246 m 201.969 479.945 l S
201.969 485.543 m 201.969 486.242 l S
201.969 491.836 m 201.969 492.539 l S
201.969 498.133 m 201.969 498.832 l S
201.969 504.43 m 201.969 505.129 l S
201.969 510.727 m 201.969 511.426 l S
201.969 517.02 m 201.969 517.723 l S
201.969 523.316 m 201.969 524.016 l S
201.969 529.613 m 201.969 530.312 l S
201.969 535.91 m 201.969 536.609 l S
201.969 542.203 m 201.969 542.906 l S
201.969 548.5 m 201.969 549.199 l S
201.969 554.797 m 201.969 555.496 l S
201.969 561.094 m 201.969 561.793 l S
201.969 567.387 m 201.969 568.09 l S
201.969 573.684 m 201.969 574.383 l S
201.969 579.98 m 201.969 580.68 l S
201.969 586.277 m 201.969 586.977 l S
201.969 592.574 m 201.969 593.273 l S
201.969 598.867 m 201.969 599.566 l S
201.969 605.164 m 201.969 605.863 l S
201.969 611.461 m 201.969 612.16 l S
201.969 617.758 m 201.969 618.457 l S
201.969 624.051 m 201.969 624.75 l S
201.969 630.348 m 201.969 631.047 l S
201.969 636.645 m 201.969 637.344 l S
201.969 642.941 m 201.969 643.641 l S
201.969 649.234 m 201.969 649.934 l S
201.969 655.531 m 201.969 656.23 l S
201.969 661.828 m 201.969 662.527 l S
201.969 668.125 m 201.969 668.824 l S
201.969 674.418 m 201.969 675.117 l S
201.969 680.715 m 201.969 681.414 l S
201.969 687.012 m 201.969 687.711 l S
201.969 693.309 m 201.969 694.008 l S
201.969 699.602 m 201.969 700.301 l S
201.969 705.898 m 201.969 706.598 l S
201.969 712.195 m 201.969 712.895 l S
201.969 718.492 m 201.969 719.191 l S
201.969 724.785 m 201.969 725.484 l S
0 g
193.832 56.523 m 192.723 56.078 l 191.984 54.742 l 191.613 52.516 l 191.613
 51.18 l 191.984 48.953 l 192.723 47.617 l 193.832 47.172 l 194.574 47.172
 l 195.684 47.617 l 196.422 48.953 l 196.793 51.18 l 196.793 52.516 l 196.422
 54.742 l 195.684 56.078 l 194.574 56.523 l 193.832 56.523 l S
204.191 55.188 m 203.82 56.078 l 202.711 56.523 l 201.969 56.523 l 200.859
 56.078 l 200.121 54.742 l 199.75 52.516 l 199.75 50.289 l 200.121 48.508
 l 200.859 47.617 l 201.969 47.172 l 202.34 47.172 l 203.449 47.617 l 204.191
 48.508 l 204.559 49.844 l 204.559 50.289 l 204.191 51.625 l 203.449 52.516
 l 202.34 52.961 l 201.969 52.961 l 200.859 52.516 l 200.121 51.625 l 199.75
 50.289 l S
212.328 56.523 m 207.148 47.172 l S
207.148 56.523 m 212.328 56.523 l S
207.148 47.172 m 212.328 47.172 l S
253.984 63.715 m 253.984 59.797 l S
0.666667 g
253.984 63.715 m 253.984 64.414 l S
253.984 70.012 m 253.984 70.711 l S
253.984 76.309 m 253.984 77.008 l S
253.984 82.605 m 253.984 83.305 l S
253.984 88.898 m 253.984 89.598 l S
253.984 95.195 m 253.984 95.895 l S
253.984 101.492 m 253.984 102.191 l S
253.984 107.789 m 253.984 108.488 l S
253.984 114.082 m 253.984 114.781 l S
253.984 120.379 m 253.984 121.078 l S
253.984 126.676 m 253.984 127.375 l S
253.984 132.973 m 253.984 133.672 l S
253.984 139.266 m 253.984 139.965 l S
253.984 145.562 m 253.984 146.262 l S
253.984 151.859 m 253.984 152.559 l S
253.984 158.156 m 253.984 158.855 l S
253.984 164.449 m 253.984 165.148 l S
253.984 170.746 m 253.984 171.445 l S
253.984 177.043 m 253.984 177.742 l S
253.984 183.34 m 253.984 184.039 l S
253.984 189.633 m 253.984 190.332 l S
253.984 195.93 m 253.984 196.629 l S
253.984 202.227 m 253.984 202.926 l S
253.984 208.523 m 253.984 209.223 l S
253.984 214.816 m 253.984 215.516 l S
253.984 221.113 m 253.984 221.812 l S
253.984 227.41 m 253.984 228.109 l S
253.984 233.707 m 253.984 234.406 l S
253.984 240 m 253.984 240.699 l S
253.984 246.297 m 253.984 246.996 l S
253.984 252.594 m 253.984 253.293 l S
253.984 258.891 m 253.984 259.59 l S
253.984 265.184 m 253.984 265.883 l S
253.984 271.48 m 253.984 272.18 l S
253.984 277.777 m 253.984 278.477 l S
253.984 284.074 m 253.984 284.773 l S
253.984 290.367 m 253.984 291.066 l S
253.984 296.664 m 253.984 297.363 l S
253.984 302.961 m 253.984 303.66 l S
253.984 309.258 m 253.984 309.957 l S
253.984 315.551 m 253.984 316.25 l S
253.984 321.848 m 253.984 322.547 l S
253.984 328.145 m 253.984 328.844 l S
253.984 334.441 m 253.984 335.141 l S
253.984 340.734 m 253.984 341.434 l S
253.984 347.031 m 253.984 347.73 l S
253.984 353.328 m 253.984 354.027 l S
253.984 359.625 m 253.984 360.324 l S
253.984 365.918 m 253.984 366.617 l S
253.984 372.215 m 253.984 372.914 l S
253.984 378.512 m 253.984 379.211 l S
253.984 384.809 m 253.984 385.508 l S
253.984 391.102 m 253.984 391.801 l S
253.984 397.398 m 253.984 398.098 l S
253.984 403.695 m 253.984 404.395 l S
253.984 409.992 m 253.984 410.691 l S
253.984 416.285 m 253.984 416.988 l S
253.984 422.582 m 253.984 423.281 l S
253.984 428.879 m 253.984 429.578 l S
253.984 435.176 m 253.984 435.875 l S
253.984 441.469 m 253.984 442.172 l S
253.984 447.766 m 253.984 448.465 l S
253.984 454.062 m 253.984 454.762 l S
253.984 460.359 m 253.984 461.059 l S
253.984 466.652 m 253.984 467.355 l S
253.984 472.949 m 253.984 473.648 l S
253.984 479.246 m 253.984 479.945 l S
253.984 485.543 m 253.984 486.242 l S
253.984 491.836 m 253.984 492.539 l S
253.984 498.133 m 253.984 498.832 l S
253.984 504.43 m 253.984 505.129 l S
253.984 510.727 m 253.984 511.426 l S
253.984 517.02 m 253.984 517.723 l S
253.984 523.316 m 253.984 524.016 l S
253.984 529.613 m 253.984 530.312 l S
253.984 535.91 m 253.984 536.609 l S
253.984 542.203 m 253.984 542.906 l S
253.984 548.5 m 253.984 549.199 l S
253.984 554.797 m 253.984 555.496 l S
253.984 561.094 m 253.984 561.793 l S
253.984 567.387 m 253.984 568.09 l S
253.984 573.684 m 253.984 574.383 l S
253.984 579.98 m 253.984 580.68 l S
253.984 586.277 m 253.984 586.977 l S
253.984 592.574 m 253.984 593.273 l S
253.984 598.867 m 253.984 599.566 l S
253.984 605.164 m 253.984 605.863 l S
253.984 611.461 m 253.984 612.16 l S
253.984 617.758 m 253.984 618.457 l S
253.984 624.051 m 253.984 624.75 l S
253.984 630.348 m 253.984 631.047 l S
253.984 636.645 m 253.984 637.344 l S
253.984 642.941 m 253.984 643.641 l S
253.984 649.234 m 253.984 649.934 l S
253.984 655.531 m 253.984 656.23 l S
253.984 661.828 m 253.984 662.527 l S
253.984 668.125 m 253.984 668.824 l S
253.984 674.418 m 253.984 675.117 l S
253.984 680.715 m 253.984 681.414 l S
253.984 687.012 m 253.984 687.711 l S
253.984 693.309 m 253.984 694.008 l S
253.984 699.602 m 253.984 700.301 l S
253.984 705.898 m 253.984 706.598 l S
253.984 712.195 m 253.984 712.895 l S
253.984 718.492 m 253.984 719.191 l S
253.984 724.785 m 253.984 725.484 l S
0 g
244.738 54.742 m 245.477 55.188 l 246.586 56.523 l 246.586 47.172 l S
251.766 54.297 m 251.766 54.742 l 252.137 55.633 l 252.504 56.078 l 253.246
 56.523 l 254.727 56.523 l 255.465 56.078 l 255.836 55.633 l 256.203 54.742
 l 256.203 53.852 l 255.836 52.961 l 255.094 51.625 l 251.395 47.172 l 256.574
 47.172 l S
264.344 56.523 m 259.164 47.172 l S
259.164 56.523 m 264.344 56.523 l S
259.164 47.172 m 264.344 47.172 l S
306 63.715 m 306 59.797 l S
0.666667 g
306 63.715 m 306 64.414 l S
306 70.012 m 306 70.711 l S
306 76.309 m 306 77.008 l S
306 82.605 m 306 83.305 l S
306 88.898 m 306 89.598 l S
306 95.195 m 306 95.895 l S
306 101.492 m 306 102.191 l S
306 107.789 m 306 108.488 l S
306 114.082 m 306 114.781 l S
306 120.379 m 306 121.078 l S
306 126.676 m 306 127.375 l S
306 132.973 m 306 133.672 l S
306 139.266 m 306 139.965 l S
306 145.562 m 306 146.262 l S
306 151.859 m 306 152.559 l S
306 158.156 m 306 158.855 l S
306 164.449 m 306 165.148 l S
306 170.746 m 306 171.445 l S
306 177.043 m 306 177.742 l S
306 183.34 m 306 184.039 l S
306 189.633 m 306 190.332 l S
306 195.93 m 306 196.629 l S
306 202.227 m 306 202.926 l S
306 208.523 m 306 209.223 l S
306 214.816 m 306 215.516 l S
306 221.113 m 306 221.812 l S
306 227.41 m 306 228.109 l S
306 233.707 m 306 234.406 l S
306 240 m 306 240.699 l S
306 246.297 m 306 246.996 l S
306 252.594 m 306 253.293 l S
306 258.891 m 306 259.59 l S
306 265.184 m 306 265.883 l S
306 271.48 m 306 272.18 l S
306 277.777 m 306 278.477 l S
306 284.074 m 306 284.773 l S
306 290.367 m 306 291.066 l S
306 296.664 m 306 297.363 l S
306 302.961 m 306 303.66 l S
306 309.258 m 306 309.957 l S
306 315.551 m 306 316.25 l S
306 321.848 m 306 322.547 l S
306 328.145 m 306 328.844 l S
306 334.441 m 306 335.141 l S
306 340.734 m 306 341.434 l S
306 347.031 m 306 347.73 l S
306 353.328 m 306 354.027 l S
306 359.625 m 306 360.324 l S
306 365.918 m 306 366.617 l S
306 372.215 m 306 372.914 l S
306 378.512 m 306 379.211 l S
306 384.809 m 306 385.508 l S
306 391.102 m 306 391.801 l S
306 397.398 m 306 398.098 l S
306 403.695 m 306 404.395 l S
306 409.992 m 306 410.691 l S
306 416.285 m 306 416.988 l S
306 422.582 m 306 423.281 l S
306 428.879 m 306 429.578 l S
306 435.176 m 306 435.875 l S
306 441.469 m 306 442.172 l S
306 447.766 m 306 448.465 l S
306 454.062 m 306 454.762 l S
306 460.359 m 306 461.059 l S
306 466.652 m 306 467.355 l S
306 472.949 m 306 473.648 l S
306 479.246 m 306 479.945 l S
306 485.543 m 306 486.242 l S
306 491.836 m 306 492.539 l S
306 498.133 m 306 498.832 l S
306 504.43 m 306 505.129 l S
306 510.727 m 306 511.426 l S
306 517.02 m 306 517.723 l S
306 523.316 m 306 524.016 l S
306 529.613 m 306 530.312 l S
306 535.91 m 306 536.609 l S
306 542.203 m 306 542.906 l S
306 548.5 m 306 549.199 l S
306 554.797 m 306 555.496 l S
306 561.094 m 306 561.793 l S
306 567.387 m 306 568.09 l S
306 573.684 m 306 574.383 l S
306 579.98 m 306 580.68 l S
306 586.277 m 306 586.977 l S
306 592.574 m 306 593.273 l S
306 598.867 m 306 599.566 l S
306 605.164 m 306 605.863 l S
306 611.461 m 306 612.16 l S
306 617.758 m 306 618.457 l S
306 624.051 m 306 624.75 l S
306 630.348 m 306 631.047 l S
306 636.645 m 306 637.344 l S
306 642.941 m 306 643.641 l S
306 649.234 m 306 649.934 l S
306 655.531 m 306 656.23 l S
306 661.828 m 306 662.527 l S
306 668.125 m 306 668.824 l S
306 674.418 m 306 675.117 l S
306 680.715 m 306 681.414 l S
306 687.012 m 306 687.711 l S
306 693.309 m 306 694.008 l S
306 699.602 m 306 700.301 l S
306 705.898 m 306 706.598 l S
306 712.195 m 306 712.895 l S
306 718.492 m 306 719.191 l S
306 724.785 m 306 725.484 l S
0 g
296.754 54.742 m 297.492 55.188 l 298.602 56.523 l 298.602 47.172 l S
305.262 56.523 m 304.152 56.078 l 303.781 55.188 l 303.781 54.297 l 304.152
 53.406 l 304.891 52.961 l 306.371 52.516 l 307.48 52.07 l 308.219 51.18
 l 308.59 50.289 l 308.59 48.953 l 308.219 48.062 l 307.848 47.617 l 306.738
 47.172 l 305.262 47.172 l 304.152 47.617 l 303.781 48.062 l 303.41 48.953
 l 303.41 50.289 l 303.781 51.18 l 304.52 52.07 l 305.629 52.516 l 307.109
 52.961 l 307.848 53.406 l 308.219 54.297 l 308.219 55.188 l 307.848 56.078
 l 306.738 56.523 l 305.262 56.523 l S
316.355 56.523 m 311.18 47.172 l S
311.18 56.523 m 316.355 56.523 l S
311.18 47.172 m 316.355 47.172 l S
358.016 63.715 m 358.016 59.797 l S
0.666667 g
358.016 63.715 m 358.016 64.414 l S
358.016 70.012 m 358.016 70.711 l S
358.016 76.309 m 358.016 77.008 l S
358.016 82.605 m 358.016 83.305 l S
358.016 88.898 m 358.016 89.598 l S
358.016 95.195 m 358.016 95.895 l S
358.016 101.492 m 358.016 102.191 l S
358.016 107.789 m 358.016 108.488 l S
358.016 114.082 m 358.016 114.781 l S
358.016 120.379 m 358.016 121.078 l S
358.016 126.676 m 358.016 127.375 l S
358.016 132.973 m 358.016 133.672 l S
358.016 139.266 m 358.016 139.965 l S
358.016 145.562 m 358.016 146.262 l S
358.016 151.859 m 358.016 152.559 l S
358.016 158.156 m 358.016 158.855 l S
358.016 164.449 m 358.016 165.148 l S
358.016 170.746 m 358.016 171.445 l S
358.016 177.043 m 358.016 177.742 l S
358.016 183.34 m 358.016 184.039 l S
358.016 189.633 m 358.016 190.332 l S
358.016 195.93 m 358.016 196.629 l S
358.016 202.227 m 358.016 202.926 l S
358.016 208.523 m 358.016 209.223 l S
358.016 214.816 m 358.016 215.516 l S
358.016 221.113 m 358.016 221.812 l S
358.016 227.41 m 358.016 228.109 l S
358.016 233.707 m 358.016 234.406 l S
358.016 240 m 358.016 240.699 l S
358.016 246.297 m 358.016 246.996 l S
358.016 252.594 m 358.016 253.293 l S
358.016 258.891 m 358.016 259.59 l S
358.016 265.184 m 358.016 265.883 l S
358.016 271.48 m 358.016 272.18 l S
358.016 277.777 m 358.016 278.477 l S
358.016 284.074 m 358.016 284.773 l S
358.016 290.367 m 358.016 291.066 l S
358.016 296.664 m 358.016 297.363 l S
358.016 302.961 m 358.016 303.66 l S
358.016 309.258 m 358.016 309.957 l S
358.016 315.551 m 358.016 316.25 l S
358.016 321.848 m 358.016 322.547 l S
358.016 328.145 m 358.016 328.844 l S
358.016 334.441 m 358.016 335.141 l S
358.016 340.734 m 358.016 341.434 l S
358.016 347.031 m 358.016 347.73 l S
358.016 353.328 m 358.016 354.027 l S
358.016 359.625 m 358.016 360.324 l S
358.016 365.918 m 358.016 366.617 l S
358.016 372.215 m 358.016 372.914 l S
358.016 378.512 m 358.016 379.211 l S
358.016 384.809 m 358.016 385.508 l S
358.016 391.102 m 358.016 391.801 l S
358.016 397.398 m 358.016 398.098 l S
358.016 403.695 m 358.016 404.395 l S
358.016 409.992 m 358.016 410.691 l S
358.016 416.285 m 358.016 416.988 l S
358.016 422.582 m 358.016 423.281 l S
358.016 428.879 m 358.016 429.578 l S
358.016 435.176 m 358.016 435.875 l S
358.016 441.469 m 358.016 442.172 l S
358.016 447.766 m 358.016 448.465 l S
358.016 454.062 m 358.016 454.762 l S
358.016 460.359 m 358.016 461.059 l S
358.016 466.652 m 358.016 467.355 l S
358.016 472.949 m 358.016 473.648 l S
358.016 479.246 m 358.016 479.945 l S
358.016 485.543 m 358.016 486.242 l S
358.016 491.836 m 358.016 492.539 l S
358.016 498.133 m 358.016 498.832 l S
358.016 504.43 m 358.016 505.129 l S
358.016 510.727 m 358.016 511.426 l S
358.016 517.02 m 358.016 517.723 l S
358.016 523.316 m 358.016 524.016 l S
358.016 529.613 m 358.016 530.312 l S
358.016 535.91 m 358.016 536.609 l S
358.016 542.203 m 358.016 542.906 l S
358.016 548.5 m 358.016 549.199 l S
358.016 554.797 m 358.016 555.496 l S
358.016 561.094 m 358.016 561.793 l S
358.016 567.387 m 358.016 568.09 l S
358.016 573.684 m 358.016 574.383 l S
358.016 579.98 m 358.016 580.68 l S
358.016 586.277 m 358.016 586.977 l S
358.016 592.574 m 358.016 593.273 l S
358.016 598.867 m 358.016 599.566 l S
358.016 605.164 m 358.016 605.863 l S
358.016 611.461 m 358.016 612.16 l S
358.016 617.758 m 358.016 618.457 l S
358.016 624.051 m 358.016 624.75 l S
358.016 630.348 m 358.016 631.047 l S
358.016 636.645 m 358.016 637.344 l S
358.016 642.941 m 358.016 643.641 l S
358.016 649.234 m 358.016 649.934 l S
358.016 655.531 m 358.016 656.23 l S
358.016 661.828 m 358.016 662.527 l S
358.016 668.125 m 358.016 668.824 l S
358.016 674.418 m 358.016 675.117 l S
358.016 680.715 m 358.016 681.414 l S
358.016 687.012 m 358.016 687.711 l S
358.016 693.309 m 358.016 694.008 l S
358.016 699.602 m 358.016 700.301 l S
358.016 705.898 m 358.016 706.598 l S
358.016 712.195 m 358.016 712.895 l S
358.016 718.492 m 358.016 719.191 l S
358.016 724.785 m 358.016 725.484 l S
0 g
349.879 56.523 m 348.77 56.078 l 348.027 54.742 l 347.656 52.516 l 347.656
 51.18 l 348.027 48.953 l 348.77 47.617 l 349.879 47.172 l 350.617 47.172
 l 351.727 47.617 l 352.465 48.953 l 352.836 51.18 l 352.836 52.516 l 352.465
 54.742 l 351.727 56.078 l 350.617 56.523 l 349.879 56.523 l S
357.645 56.523 m 356.535 56.078 l 355.797 54.742 l 355.426 52.516 l 355.426
 51.18 l 355.797 48.953 l 356.535 47.617 l 357.645 47.172 l 358.383 47.172
 l 359.496 47.617 l 360.234 48.953 l 360.605 51.18 l 360.605 52.516 l 360.234
 54.742 l 359.496 56.078 l 358.383 56.523 l 357.645 56.523 l S
368.371 56.523 m 363.191 47.172 l S
363.191 56.523 m 368.371 56.523 l S
363.191 47.172 m 368.371 47.172 l S
341.387 41.031 m 342.129 41.477 l 343.238 42.812 l 343.238 33.461 l S
351.746 42.812 m 348.047 36.578 l 353.594 36.578 l S
351.746 42.812 m 351.746 33.461 l S
355.797 42.812 m 355.797 33.461 l S
355.797 42.812 m 360.605 42.812 l S
355.797 38.359 m 358.754 38.359 l S
362.98 42.812 m 362.98 33.461 l S
362.98 42.812 m 367.789 42.812 l S
362.98 38.359 m 365.938 38.359 l S
362.98 33.461 m 367.789 33.461 l S
370.379 42.812 m 370.379 33.461 l S
370.379 42.812 m 373.707 42.812 l 374.816 42.367 l 375.188 41.922 l 375.555
 41.031 l 375.555 40.141 l 375.188 39.25 l 374.816 38.805 l 373.707 38.359
 l S
370.379 38.359 m 373.707 38.359 l 374.816 37.914 l 375.188 37.469 l 375.555
 36.578 l 375.555 35.242 l 375.188 34.352 l 374.816 33.906 l 373.707 33.461
 l 370.379 33.461 l S
410.031 63.715 m 410.031 59.797 l S
0.666667 g
410.031 63.715 m 410.031 64.414 l S
410.031 70.012 m 410.031 70.711 l S
410.031 76.309 m 410.031 77.008 l S
410.031 82.605 m 410.031 83.305 l S
410.031 88.898 m 410.031 89.598 l S
410.031 95.195 m 410.031 95.895 l S
410.031 101.492 m 410.031 102.191 l S
410.031 107.789 m 410.031 108.488 l S
410.031 114.082 m 410.031 114.781 l S
410.031 120.379 m 410.031 121.078 l S
410.031 126.676 m 410.031 127.375 l S
410.031 132.973 m 410.031 133.672 l S
410.031 139.266 m 410.031 139.965 l S
410.031 145.562 m 410.031 146.262 l S
410.031 151.859 m 410.031 152.559 l S
410.031 158.156 m 410.031 158.855 l S
410.031 164.449 m 410.031 165.148 l S
410.031 170.746 m 410.031 171.445 l S
410.031 177.043 m 410.031 177.742 l S
410.031 183.34 m 410.031 184.039 l S
410.031 189.633 m 410.031 190.332 l S
410.031 195.93 m 410.031 196.629 l S
410.031 202.227 m 410.031 202.926 l S
410.031 208.523 m 410.031 209.223 l S
410.031 214.816 m 410.031 215.516 l S
410.031 221.113 m 410.031 221.812 l S
410.031 227.41 m 410.031 228.109 l S
410.031 233.707 m 410.031 234.406 l S
410.031 240 m 410.031 240.699 l S
410.031 246.297 m 410.031 246.996 l S
410.031 252.594 m 410.031 253.293 l S
410.031 258.891 m 410.031 259.59 l S
410.031 265.184 m 410.031 265.883 l S
410.031 271.48 m 410.031 272.18 l S
410.031 277.777 m 410.031 278.477 l S
410.031 284.074 m 410.031 284.773 l S
410.031 290.367 m 410.031 291.066 l S
410.031 296.664 m 410.031 297.363 l S
410.031 302.961 m 410.031 303.66 l S
410.031 309.258 m 410.031 309.957 l S
410.031 315.551 m 410.031 316.25 l S
410.031 321.848 m 410.031 322.547 l S
410.031 328.145 m 410.031 328.844 l S
410.031 334.441 m 410.031 335.141 l S
410.031 340.734 m 410.031 341.434 l S
410.031 347.031 m 410.031 347.73 l S
410.031 353.328 m 410.031 354.027 l S
410.031 359.625 m 410.031 360.324 l S
410.031 365.918 m 410.031 366.617 l S
410.031 372.215 m 410.031 372.914 l S
410.031 378.512 m 410.031 379.211 l S
410.031 384.809 m 410.031 385.508 l S
410.031 391.102 m 410.031 391.801 l S
410.031 397.398 m 410.031 398.098 l S
410.031 403.695 m 410.031 404.395 l S
410.031 409.992 m 410.031 410.691 l S
410.031 416.285 m 410.031 416.988 l S
410.031 422.582 m 410.031 423.281 l S
410.031 428.879 m 410.031 429.578 l S
410.031 435.176 m 410.031 435.875 l S
410.031 441.469 m 410.031 442.172 l S
410.031 447.766 m 410.031 448.465 l S
410.031 454.062 m 410.031 454.762 l S
410.031 460.359 m 410.031 461.059 l S
410.031 466.652 m 410.031 467.355 l S
410.031 472.949 m 410.031 473.648 l S
410.031 479.246 m 410.031 479.945 l S
410.031 485.543 m 410.031 486.242 l S
410.031 491.836 m 410.031 492.539 l S
410.031 498.133 m 410.031 498.832 l S
410.031 504.43 m 410.031 505.129 l S
410.031 510.727 m 410.031 511.426 l S
410.031 517.02 m 410.031 517.723 l S
410.031 523.316 m 410.031 524.016 l S
410.031 529.613 m 410.031 530.312 l S
410.031 535.91 m 410.031 536.609 l S
410.031 542.203 m 410.031 542.906 l S
410.031 548.5 m 410.031 549.199 l S
410.031 554.797 m 410.031 555.496 l S
410.031 561.094 m 410.031 561.793 l S
410.031 567.387 m 410.031 568.09 l S
410.031 573.684 m 410.031 574.383 l S
410.031 579.98 m 410.031 580.68 l S
410.031 586.277 m 410.031 586.977 l S
410.031 592.574 m 410.031 593.273 l S
410.031 598.867 m 410.031 599.566 l S
410.031 605.164 m 410.031 605.863 l S
410.031 611.461 m 410.031 612.16 l S
410.031 617.758 m 410.031 618.457 l S
410.031 624.051 m 410.031 624.75 l S
410.031 630.348 m 410.031 631.047 l S
410.031 636.645 m 410.031 637.344 l S
410.031 642.941 m 410.031 643.641 l S
410.031 649.234 m 410.031 649.934 l S
410.031 655.531 m 410.031 656.23 l S
410.031 661.828 m 410.031 662.527 l S
410.031 668.125 m 410.031 668.824 l S
410.031 674.418 m 410.031 675.117 l S
410.031 680.715 m 410.031 681.414 l S
410.031 687.012 m 410.031 687.711 l S
410.031 693.309 m 410.031 694.008 l S
410.031 699.602 m 410.031 700.301 l S
410.031 705.898 m 410.031 706.598 l S
410.031 712.195 m 410.031 712.895 l S
410.031 718.492 m 410.031 719.191 l S
410.031 724.785 m 410.031 725.484 l S
0 g
401.891 56.523 m 400.781 56.078 l 400.043 54.742 l 399.672 52.516 l 399.672
 51.18 l 400.043 48.953 l 400.781 47.617 l 401.891 47.172 l 402.633 47.172
 l 403.742 47.617 l 404.48 48.953 l 404.852 51.18 l 404.852 52.516 l 404.48
 54.742 l 403.742 56.078 l 402.633 56.523 l 401.891 56.523 l S
412.25 55.188 m 411.879 56.078 l 410.77 56.523 l 410.031 56.523 l 408.918
 56.078 l 408.18 54.742 l 407.809 52.516 l 407.809 50.289 l 408.18 48.508
 l 408.918 47.617 l 410.031 47.172 l 410.398 47.172 l 411.508 47.617 l 412.25
 48.508 l 412.617 49.844 l 412.617 50.289 l 412.25 51.625 l 411.508 52.516
 l 410.398 52.961 l 410.031 52.961 l 408.918 52.516 l 408.18 51.625 l 407.809
 50.289 l S
420.387 56.523 m 415.207 47.172 l S
415.207 56.523 m 420.387 56.523 l S
415.207 47.172 m 420.387 47.172 l S
462.043 63.715 m 462.043 59.797 l S
0.666667 g
462.043 63.715 m 462.043 64.414 l S
462.043 70.012 m 462.043 70.711 l S
462.043 76.309 m 462.043 77.008 l S
462.043 82.605 m 462.043 83.305 l S
462.043 88.898 m 462.043 89.598 l S
462.043 95.195 m 462.043 95.895 l S
462.043 101.492 m 462.043 102.191 l S
462.043 107.789 m 462.043 108.488 l S
462.043 114.082 m 462.043 114.781 l S
462.043 120.379 m 462.043 121.078 l S
462.043 126.676 m 462.043 127.375 l S
462.043 132.973 m 462.043 133.672 l S
462.043 139.266 m 462.043 139.965 l S
462.043 145.562 m 462.043 146.262 l S
462.043 151.859 m 462.043 152.559 l S
462.043 158.156 m 462.043 158.855 l S
462.043 164.449 m 462.043 165.148 l S
462.043 170.746 m 462.043 171.445 l S
462.043 177.043 m 462.043 177.742 l S
462.043 183.34 m 462.043 184.039 l S
462.043 189.633 m 462.043 190.332 l S
462.043 195.93 m 462.043 196.629 l S
462.043 202.227 m 462.043 202.926 l S
462.043 208.523 m 462.043 209.223 l S
462.043 214.816 m 462.043 215.516 l S
462.043 221.113 m 462.043 221.812 l S
462.043 227.41 m 462.043 228.109 l S
462.043 233.707 m 462.043 234.406 l S
462.043 240 m 462.043 240.699 l S
462.043 246.297 m 462.043 246.996 l S
462.043 252.594 m 462.043 253.293 l S
462.043 258.891 m 462.043 259.59 l S
462.043 265.184 m 462.043 265.883 l S
462.043 271.48 m 462.043 272.18 l S
462.043 277.777 m 462.043 278.477 l S
462.043 284.074 m 462.043 284.773 l S
462.043 290.367 m 462.043 291.066 l S
462.043 296.664 m 462.043 297.363 l S
462.043 302.961 m 462.043 303.66 l S
462.043 309.258 m 462.043 309.957 l S
462.043 315.551 m 462.043 316.25 l S
462.043 321.848 m 462.043 322.547 l S
462.043 328.145 m 462.043 328.844 l S
462.043 334.441 m 462.043 335.141 l S
462.043 340.734 m 462.043 341.434 l S
462.043 347.031 m 462.043 347.73 l S
462.043 353.328 m 462.043 354.027 l S
462.043 359.625 m 462.043 360.324 l S
462.043 365.918 m 462.043 366.617 l S
462.043 372.215 m 462.043 372.914 l S
462.043 378.512 m 462.043 379.211 l S
462.043 384.809 m 462.043 385.508 l S
462.043 391.102 m 462.043 391.801 l S
462.043 397.398 m 462.043 398.098 l S
462.043 403.695 m 462.043 404.395 l S
462.043 409.992 m 462.043 410.691 l S
462.043 416.285 m 462.043 416.988 l S
462.043 422.582 m 462.043 423.281 l S
462.043 428.879 m 462.043 429.578 l S
462.043 435.176 m 462.043 435.875 l S
462.043 441.469 m 462.043 442.172 l S
462.043 447.766 m 462.043 448.465 l S
462.043 454.062 m 462.043 454.762 l S
462.043 460.359 m 462.043 461.059 l S
462.043 466.652 m 462.043 467.355 l S
462.043 472.949 m 462.043 473.648 l S
462.043 479.246 m 462.043 479.945 l S
462.043 485.543 m 462.043 486.242 l S
462.043 491.836 m 462.043 492.539 l S
462.043 498.133 m 462.043 498.832 l S
462.043 504.43 m 462.043 505.129 l S
462.043 510.727 m 462.043 511.426 l S
462.043 517.02 m 462.043 517.723 l S
462.043 523.316 m 462.043 524.016 l S
462.043 529.613 m 462.043 530.312 l S
462.043 535.91 m 462.043 536.609 l S
462.043 542.203 m 462.043 542.906 l S
462.043 548.5 m 462.043 549.199 l S
462.043 554.797 m 462.043 555.496 l S
462.043 561.094 m 462.043 561.793 l S
462.043 567.387 m 462.043 568.09 l S
462.043 573.684 m 462.043 574.383 l S
462.043 579.98 m 462.043 580.68 l S
462.043 586.277 m 462.043 586.977 l S
462.043 592.574 m 462.043 593.273 l S
462.043 598.867 m 462.043 599.566 l S
462.043 605.164 m 462.043 605.863 l S
462.043 611.461 m 462.043 612.16 l S
462.043 617.758 m 462.043 618.457 l S
462.043 624.051 m 462.043 624.75 l S
462.043 630.348 m 462.043 631.047 l S
462.043 636.645 m 462.043 637.344 l S
462.043 642.941 m 462.043 643.641 l S
462.043 649.234 m 462.043 649.934 l S
462.043 655.531 m 462.043 656.23 l S
462.043 661.828 m 462.043 662.527 l S
462.043 668.125 m 462.043 668.824 l S
462.043 674.418 m 462.043 675.117 l S
462.043 680.715 m 462.043 681.414 l S
462.043 687.012 m 462.043 687.711 l S
462.043 693.309 m 462.043 694.008 l S
462.043 699.602 m 462.043 700.301 l S
462.043 705.898 m 462.043 706.598 l S
462.043 712.195 m 462.043 712.895 l S
462.043 718.492 m 462.043 719.191 l S
462.043 724.785 m 462.043 725.484 l S
0 g
452.797 54.742 m 453.535 55.188 l 454.645 56.523 l 454.645 47.172 l S
459.824 54.297 m 459.824 54.742 l 460.195 55.633 l 460.566 56.078 l 461.305
 56.523 l 462.785 56.523 l 463.523 56.078 l 463.895 55.633 l 464.262 54.742
 l 464.262 53.852 l 463.895 52.961 l 463.152 51.625 l 459.453 47.172 l 464.633
 47.172 l S
472.402 56.523 m 467.223 47.172 l S
467.223 56.523 m 472.402 56.523 l S
467.223 47.172 m 472.402 47.172 l S
514.059 63.715 m 514.059 59.797 l S
0.666667 g
514.059 63.715 m 514.059 64.414 l S
514.059 70.012 m 514.059 70.711 l S
514.059 76.309 m 514.059 77.008 l S
514.059 82.605 m 514.059 83.305 l S
514.059 88.898 m 514.059 89.598 l S
514.059 95.195 m 514.059 95.895 l S
514.059 101.492 m 514.059 102.191 l S
514.059 107.789 m 514.059 108.488 l S
514.059 114.082 m 514.059 114.781 l S
514.059 120.379 m 514.059 121.078 l S
514.059 126.676 m 514.059 127.375 l S
514.059 132.973 m 514.059 133.672 l S
514.059 139.266 m 514.059 139.965 l S
514.059 145.562 m 514.059 146.262 l S
514.059 151.859 m 514.059 152.559 l S
514.059 158.156 m 514.059 158.855 l S
514.059 164.449 m 514.059 165.148 l S
514.059 170.746 m 514.059 171.445 l S
514.059 177.043 m 514.059 177.742 l S
514.059 183.34 m 514.059 184.039 l S
514.059 189.633 m 514.059 190.332 l S
514.059 195.93 m 514.059 196.629 l S
514.059 202.227 m 514.059 202.926 l S
514.059 208.523 m 514.059 209.223 l S
514.059 214.816 m 514.059 215.516 l S
514.059 221.113 m 514.059 221.812 l S
514.059 227.41 m 514.059 228.109 l S
514.059 233.707 m 514.059 234.406 l S
514.059 240 m 514.059 240.699 l S
514.059 246.297 m 514.059 246.996 l S
514.059 252.594 m 514.059 253.293 l S
514.059 258.891 m 514.059 259.59 l S
514.059 265.184 m 514.059 265.883 l S
514.059 271.48 m 514.059 272.18 l S
514.059 277.777 m 514.059 278.477 l S
514.059 284.074 m 514.059 284.773 l S
514.059 290.367 m 514.059 291.066 l S
514.059 296.664 m 514.059 297.363 l S
514.059 302.961 m 514.059 303.66 l S
514.059 309.258 m 514.059 309.957 l S
514.059 315.551 m 514.059 316.25 l S
514.059 321.848 m 514.059 322.547 l S
514.059 328.145 m 514.059 328.844 l S
514.059 334.441 m 514.059 335.141 l S
514.059 340.734 m 514.059 341.434 l S
514.059 347.031 m 514.059 347.73 l S
514.059 353.328 m 514.059 354.027 l S
514.059 359.625 m 514.059 360.324 l S
514.059 365.918 m 514.059 366.617 l S
514.059 372.215 m 514.059 372.914 l S
514.059 378.512 m 514.059 379.211 l S
514.059 384.809 m 514.059 385.508 l S
514.059 391.102 m 514.059 391.801 l S
514.059 397.398 m 514.059 398.098 l S
514.059 403.695 m 514.059 404.395 l S
514.059 409.992 m 514.059 410.691 l S
514.059 416.285 m 514.059 416.988 l S
514.059 422.582 m 514.059 423.281 l S
514.059 428.879 m 514.059 429.578 l S
514.059 435.176 m 514.059 435.875 l S
514.059 441.469 m 514.059 442.172 l S
514.059 447.766 m 514.059 448.465 l S
514.059 454.062 m 514.059 454.762 l S
514.059 460.359 m 514.059 461.059 l S
514.059 466.652 m 514.059 467.355 l S
514.059 472.949 m 514.059 473.648 l S
514.059 479.246 m 514.059 479.945 l S
514.059 485.543 m 514.059 486.242 l S
514.059 491.836 m 514.059 492.539 l S
514.059 498.133 m 514.059 498.832 l S
514.059 504.43 m 514.059 505.129 l S
514.059 510.727 m 514.059 511.426 l S
514.059 517.02 m 514.059 517.723 l S
514.059 523.316 m 514.059 524.016 l S
514.059 529.613 m 514.059 530.312 l S
514.059 535.91 m 514.059 536.609 l S
514.059 542.203 m 514.059 542.906 l S
514.059 548.5 m 514.059 549.199 l S
514.059 554.797 m 514.059 555.496 l S
514.059 561.094 m 514.059 561.793 l S
514.059 567.387 m 514.059 568.09 l S
514.059 573.684 m 514.059 574.383 l S
514.059 579.98 m 514.059 580.68 l S
514.059 586.277 m 514.059 586.977 l S
514.059 592.574 m 514.059 593.273 l S
514.059 598.867 m 514.059 599.566 l S
514.059 605.164 m 514.059 605.863 l S
514.059 611.461 m 514.059 612.16 l S
514.059 617.758 m 514.059 618.457 l S
514.059 624.051 m 514.059 624.75 l S
514.059 630.348 m 514.059 631.047 l S
514.059 636.645 m 514.059 637.344 l S
514.059 642.941 m 514.059 643.641 l S
514.059 649.234 m 514.059 649.934 l S
514.059 655.531 m 514.059 656.23 l S
514.059 661.828 m 514.059 662.527 l S
514.059 668.125 m 514.059 668.824 l S
514.059 674.418 m 514.059 675.117 l S
514.059 680.715 m 514.059 681.414 l S
514.059 687.012 m 514.059 687.711 l S
514.059 693.309 m 514.059 694.008 l S
514.059 699.602 m 514.059 700.301 l S
514.059 705.898 m 514.059 706.598 l S
514.059 712.195 m 514.059 712.895 l S
514.059 718.492 m 514.059 719.191 l S
514.059 724.785 m 514.059 725.484 l S
0 g
504.812 54.742 m 505.551 55.188 l 506.66 56.523 l 506.66 47.172 l S
513.32 56.523 m 512.211 56.078 l 511.84 55.188 l 511.84 54.297 l 512.211
 53.406 l 512.949 52.961 l 514.43 52.516 l 515.539 52.07 l 516.277 51.18
 l 516.648 50.289 l 516.648 48.953 l 516.277 48.062 l 515.91 47.617 l 514.797
 47.172 l 513.32 47.172 l 512.211 47.617 l 511.84 48.062 l 511.469 48.953
 l 511.469 50.289 l 511.84 51.18 l 512.578 52.07 l 513.688 52.516 l 515.168
 52.961 l 515.91 53.406 l 516.277 54.297 l 516.277 55.188 l 515.91 56.078
 l 514.797 56.523 l 513.32 56.523 l S
524.414 56.523 m 519.238 47.172 l S
519.238 56.523 m 524.414 56.523 l S
519.238 47.172 m 524.414 47.172 l S
566.074 63.715 m 566.074 59.797 l S
0.666667 g
566.074 63.715 m 566.074 64.414 l S
566.074 70.012 m 566.074 70.711 l S
566.074 76.309 m 566.074 77.008 l S
566.074 82.605 m 566.074 83.305 l S
566.074 88.898 m 566.074 89.598 l S
566.074 95.195 m 566.074 95.895 l S
566.074 101.492 m 566.074 102.191 l S
566.074 107.789 m 566.074 108.488 l S
566.074 114.082 m 566.074 114.781 l S
566.074 120.379 m 566.074 121.078 l S
566.074 126.676 m 566.074 127.375 l S
566.074 132.973 m 566.074 133.672 l S
566.074 139.266 m 566.074 139.965 l S
566.074 145.562 m 566.074 146.262 l S
566.074 151.859 m 566.074 152.559 l S
566.074 158.156 m 566.074 158.855 l S
566.074 164.449 m 566.074 165.148 l S
566.074 170.746 m 566.074 171.445 l S
566.074 177.043 m 566.074 177.742 l S
566.074 183.34 m 566.074 184.039 l S
566.074 189.633 m 566.074 190.332 l S
566.074 195.93 m 566.074 196.629 l S
566.074 202.227 m 566.074 202.926 l S
566.074 208.523 m 566.074 209.223 l S
566.074 214.816 m 566.074 215.516 l S
566.074 221.113 m 566.074 221.812 l S
566.074 227.41 m 566.074 228.109 l S
566.074 233.707 m 566.074 234.406 l S
566.074 240 m 566.074 240.699 l S
566.074 246.297 m 566.074 246.996 l S
566.074 252.594 m 566.074 253.293 l S
566.074 258.891 m 566.074 259.59 l S
566.074 265.184 m 566.074 265.883 l S
566.074 271.48 m 566.074 272.18 l S
566.074 277.777 m 566.074 278.477 l S
566.074 284.074 m 566.074 284.773 l S
566.074 290.367 m 566.074 291.066 l S
566.074 296.664 m 566.074 297.363 l S
566.074 302.961 m 566.074 303.66 l S
566.074 309.258 m 566.074 309.957 l S
566.074 315.551 m 566.074 316.25 l S
566.074 321.848 m 566.074 322.547 l S
566.074 328.145 m 566.074 328.844 l S
566.074 334.441 m 566.074 335.141 l S
566.074 340.734 m 566.074 341.434 l S
566.074 347.031 m 566.074 347.73 l S
566.074 353.328 m 566.074 354.027 l S
566.074 359.625 m 566.074 360.324 l S
566.074 365.918 m 566.074 366.617 l S
566.074 372.215 m 566.074 372.914 l S
566.074 378.512 m 566.074 379.211 l S
566.074 384.809 m 566.074 385.508 l S
566.074 391.102 m 566.074 391.801 l S
566.074 397.398 m 566.074 398.098 l S
566.074 403.695 m 566.074 404.395 l S
566.074 409.992 m 566.074 410.691 l S
566.074 416.285 m 566.074 416.988 l S
566.074 422.582 m 566.074 423.281 l S
566.074 428.879 m 566.074 429.578 l S
566.074 435.176 m 566.074 435.875 l S
566.074 441.469 m 566.074 442.172 l S
566.074 447.766 m 566.074 448.465 l S
566.074 454.062 m 566.074 454.762 l S
566.074 460.359 m 566.074 461.059 l S
566.074 466.652 m 566.074 467.355 l S
566.074 472.949 m 566.074 473.648 l S
566.074 479.246 m 566.074 479.945 l S
566.074 485.543 m 566.074 486.242 l S
566.074 491.836 m 566.074 492.539 l S
566.074 498.133 m 566.074 498.832 l S
566.074 504.43 m 566.074 505.129 l S
566.074 510.727 m 566.074 511.426 l S
566.074 517.02 m 566.074 517.723 l S
566.074 523.316 m 566.074 524.016 l S
566.074 529.613 m 566.074 530.312 l S
566.074 535.91 m 566.074 536.609 l S
566.074 542.203 m 566.074 542.906 l S
566.074 548.5 m 566.074 549.199 l S
566.074 554.797 m 566.074 555.496 l S
566.074 561.094 m 566.074 561.793 l S
566.074 567.387 m 566.074 568.09 l S
566.074 573.684 m 566.074 574.383 l S
566.074 579.98 m 566.074 580.68 l S
566.074 586.277 m 566.074 586.977 l S
566.074 592.574 m 566.074 593.273 l S
566.074 598.867 m 566.074 599.566 l S
566.074 605.164 m 566.074 605.863 l S
566.074 611.461 m 566.074 612.16 l S
566.074 617.758 m 566.074 618.457 l S
566.074 624.051 m 566.074 624.75 l S
566.074 630.348 m 566.074 631.047 l S
566.074 636.645 m 566.074 637.344 l S
566.074 642.941 m 566.074 643.641 l S
566.074 649.234 m 566.074 649.934 l S
566.074 655.531 m 566.074 656.23 l S
566.074 661.828 m 566.074 662.527 l S
566.074 668.125 m 566.074 668.824 l S
566.074 674.418 m 566.074 675.117 l S
566.074 680.715 m 566.074 681.414 l S
566.074 687.012 m 566.074 687.711 l S
566.074 693.309 m 566.074 694.008 l S
566.074 699.602 m 566.074 700.301 l S
566.074 705.898 m 566.074 706.598 l S
566.074 712.195 m 566.074 712.895 l S
566.074 718.492 m 566.074 719.191 l S
566.074 724.785 m 566.074 725.484 l S
0 g
557.938 56.523 m 556.828 56.078 l 556.086 54.742 l 555.719 52.516 l 555.719
 51.18 l 556.086 48.953 l 556.828 47.617 l 557.938 47.172 l 558.676 47.172
 l 559.785 47.617 l 560.523 48.953 l 560.895 51.18 l 560.895 52.516 l 560.523
 54.742 l 559.785 56.078 l 558.676 56.523 l 557.938 56.523 l S
565.703 56.523 m 564.594 56.078 l 563.855 54.742 l 563.484 52.516 l 563.484
 51.18 l 563.855 48.953 l 564.594 47.617 l 565.703 47.172 l 566.445 47.172
 l 567.555 47.617 l 568.293 48.953 l 568.664 51.18 l 568.664 52.516 l 568.293
 54.742 l 567.555 56.078 l 566.445 56.523 l 565.703 56.523 l S
576.43 56.523 m 571.25 47.172 l S
571.25 56.523 m 576.43 56.523 l S
571.25 47.172 m 576.43 47.172 l S
549.449 41.031 m 550.188 41.477 l 551.297 42.812 l 551.297 33.461 l S
560.543 42.812 m 556.844 42.812 l 556.477 38.805 l 556.844 39.25 l 557.953
 39.695 l 559.062 39.695 l 560.176 39.25 l 560.914 38.359 l 561.285 37.023
 l 561.285 36.133 l 560.914 34.797 l 560.176 33.906 l 559.062 33.461 l 557.953
 33.461 l 556.844 33.906 l 556.477 34.352 l 556.105 35.242 l S
563.855 42.812 m 563.855 33.461 l S
563.855 42.812 m 568.664 42.812 l S
563.855 38.359 m 566.812 38.359 l S
571.039 42.812 m 571.039 33.461 l S
571.039 42.812 m 575.848 42.812 l S
571.039 38.359 m 574 38.359 l S
571.039 33.461 m 575.848 33.461 l S
578.438 42.812 m 578.438 33.461 l S
578.438 42.812 m 581.766 42.812 l 582.875 42.367 l 583.246 41.922 l 583.613
 41.031 l 583.613 40.141 l 583.246 39.25 l 582.875 38.805 l 581.766 38.359
 l S
578.438 38.359 m 581.766 38.359 l 582.875 37.914 l 583.246 37.469 l 583.613
 36.578 l 583.613 35.242 l 583.246 34.352 l 582.875 33.906 l 581.766 33.461
 l 578.438 33.461 l S
149.957 63.715 m 146.07 63.715 l S
0.666667 g
149.957 63.715 m 150.648 63.715 l S
156.199 63.715 m 156.891 63.715 l S
162.438 63.715 m 163.133 63.715 l S
168.68 63.715 m 169.375 63.715 l S
174.922 63.715 m 175.617 63.715 l S
181.164 63.715 m 181.859 63.715 l S
187.406 63.715 m 188.102 63.715 l S
193.648 63.715 m 194.34 63.715 l S
199.891 63.715 m 200.582 63.715 l S
206.133 63.715 m 206.824 63.715 l S
212.375 63.715 m 213.066 63.715 l S
218.617 63.715 m 219.309 63.715 l S
224.855 63.715 m 225.551 63.715 l S
231.098 63.715 m 231.793 63.715 l S
237.34 63.715 m 238.035 63.715 l S
243.582 63.715 m 244.277 63.715 l S
249.824 63.715 m 250.52 63.715 l S
256.066 63.715 m 256.758 63.715 l S
262.309 63.715 m 263 63.715 l S
268.551 63.715 m 269.242 63.715 l S
274.793 63.715 m 275.484 63.715 l S
281.031 63.715 m 281.727 63.715 l S
287.273 63.715 m 287.969 63.715 l S
293.516 63.715 m 294.211 63.715 l S
299.758 63.715 m 300.453 63.715 l S
306 63.715 m 306.695 63.715 l S
312.242 63.715 m 312.934 63.715 l S
318.484 63.715 m 319.176 63.715 l S
324.727 63.715 m 325.418 63.715 l S
330.969 63.715 m 331.66 63.715 l S
337.207 63.715 m 337.902 63.715 l S
343.449 63.715 m 344.145 63.715 l S
349.691 63.715 m 350.387 63.715 l S
355.934 63.715 m 356.629 63.715 l S
362.176 63.715 m 362.871 63.715 l S
368.418 63.715 m 369.109 63.715 l S
374.66 63.715 m 375.352 63.715 l S
380.902 63.715 m 381.594 63.715 l S
387.145 63.715 m 387.836 63.715 l S
393.383 63.715 m 394.078 63.715 l S
399.625 63.715 m 400.32 63.715 l S
405.867 63.715 m 406.562 63.715 l S
412.109 63.715 m 412.805 63.715 l S
418.352 63.715 m 419.047 63.715 l S
424.594 63.715 m 425.285 63.715 l S
430.836 63.715 m 431.527 63.715 l S
437.078 63.715 m 437.77 63.715 l S
443.32 63.715 m 444.012 63.715 l S
449.562 63.715 m 450.254 63.715 l S
455.801 63.715 m 456.496 63.715 l S
462.043 63.715 m 462.738 63.715 l S
468.285 63.715 m 468.98 63.715 l S
474.527 63.715 m 475.223 63.715 l S
480.77 63.715 m 481.465 63.715 l S
487.012 63.715 m 487.703 63.715 l S
493.254 63.715 m 493.945 63.715 l S
499.496 63.715 m 500.188 63.715 l S
505.738 63.715 m 506.43 63.715 l S
511.977 63.715 m 512.672 63.715 l S
518.219 63.715 m 518.914 63.715 l S
524.461 63.715 m 525.156 63.715 l S
530.703 63.715 m 531.398 63.715 l S
536.945 63.715 m 537.641 63.715 l S
543.188 63.715 m 543.879 63.715 l S
549.43 63.715 m 550.121 63.715 l S
555.672 63.715 m 556.363 63.715 l S
561.914 63.715 m 562.605 63.715 l S
0 g
126.043 62.934 m 132.699 62.934 l S
140.152 68.273 m 136.457 68.273 l 136.086 64.27 l 136.457 64.715 l 137.566
 65.16 l 138.676 65.16 l 139.785 64.715 l 140.523 63.824 l 140.895 62.488
 l 140.895 61.598 l 140.523 60.262 l 139.785 59.371 l 138.676 58.926 l 137.566
 58.926 l 136.457 59.371 l 136.086 59.816 l 135.715 60.707 l S
149.957 130.172 m 146.07 130.172 l S
0.666667 g
149.957 130.172 m 150.648 130.172 l S
156.199 130.172 m 156.891 130.172 l S
162.438 130.172 m 163.133 130.172 l S
168.68 130.172 m 169.375 130.172 l S
174.922 130.172 m 175.617 130.172 l S
181.164 130.172 m 181.859 130.172 l S
187.406 130.172 m 188.102 130.172 l S
193.648 130.172 m 194.34 130.172 l S
199.891 130.172 m 200.582 130.172 l S
206.133 130.172 m 206.824 130.172 l S
212.375 130.172 m 213.066 130.172 l S
218.617 130.172 m 219.309 130.172 l S
224.855 130.172 m 225.551 130.172 l S
231.098 130.172 m 231.793 130.172 l S
237.34 130.172 m 238.035 130.172 l S
243.582 130.172 m 244.277 130.172 l S
249.824 130.172 m 250.52 130.172 l S
256.066 130.172 m 256.758 130.172 l S
262.309 130.172 m 263 130.172 l S
268.551 130.172 m 269.242 130.172 l S
274.793 130.172 m 275.484 130.172 l S
281.031 130.172 m 281.727 130.172 l S
287.273 130.172 m 287.969 130.172 l S
293.516 130.172 m 294.211 130.172 l S
299.758 130.172 m 300.453 130.172 l S
306 130.172 m 306.695 130.172 l S
312.242 130.172 m 312.934 130.172 l S
318.484 130.172 m 319.176 130.172 l S
324.727 130.172 m 325.418 130.172 l S
330.969 130.172 m 331.66 130.172 l S
337.207 130.172 m 337.902 130.172 l S
343.449 130.172 m 344.145 130.172 l S
349.691 130.172 m 350.387 130.172 l S
355.934 130.172 m 356.629 130.172 l S
362.176 130.172 m 362.871 130.172 l S
368.418 130.172 m 369.109 130.172 l S
374.66 130.172 m 375.352 130.172 l S
380.902 130.172 m 381.594 130.172 l S
387.145 130.172 m 387.836 130.172 l S
393.383 130.172 m 394.078 130.172 l S
399.625 130.172 m 400.32 130.172 l S
405.867 130.172 m 406.562 130.172 l S
412.109 130.172 m 412.805 130.172 l S
418.352 130.172 m 419.047 130.172 l S
424.594 130.172 m 425.285 130.172 l S
430.836 130.172 m 431.527 130.172 l S
437.078 130.172 m 437.77 130.172 l S
443.32 130.172 m 444.012 130.172 l S
449.562 130.172 m 450.254 130.172 l S
455.801 130.172 m 456.496 130.172 l S
462.043 130.172 m 462.738 130.172 l S
468.285 130.172 m 468.98 130.172 l S
474.527 130.172 m 475.223 130.172 l S
480.77 130.172 m 481.465 130.172 l S
487.012 130.172 m 487.703 130.172 l S
493.254 130.172 m 493.945 130.172 l S
499.496 130.172 m 500.188 130.172 l S
505.738 130.172 m 506.43 130.172 l S
511.977 130.172 m 512.672 130.172 l S
518.219 130.172 m 518.914 130.172 l S
524.461 130.172 m 525.156 130.172 l S
530.703 130.172 m 531.398 130.172 l S
536.945 130.172 m 537.641 130.172 l S
543.188 130.172 m 543.879 130.172 l S
549.43 130.172 m 550.121 130.172 l S
555.672 130.172 m 556.363 130.172 l S
561.914 130.172 m 562.605 130.172 l S
0 g
126.043 129.391 m 132.699 129.391 l S
139.414 134.73 m 135.715 128.5 l 141.262 128.5 l S
139.414 134.73 m 139.414 125.383 l S
149.957 196.629 m 146.07 196.629 l S
0.666667 g
149.957 196.629 m 150.648 196.629 l S
156.199 196.629 m 156.891 196.629 l S
162.438 196.629 m 163.133 196.629 l S
168.68 196.629 m 169.375 196.629 l S
174.922 196.629 m 175.617 196.629 l S
181.164 196.629 m 181.859 196.629 l S
187.406 196.629 m 188.102 196.629 l S
193.648 196.629 m 194.34 196.629 l S
199.891 196.629 m 200.582 196.629 l S
206.133 196.629 m 206.824 196.629 l S
212.375 196.629 m 213.066 196.629 l S
218.617 196.629 m 219.309 196.629 l S
224.855 196.629 m 225.551 196.629 l S
231.098 196.629 m 231.793 196.629 l S
237.34 196.629 m 238.035 196.629 l S
243.582 196.629 m 244.277 196.629 l S
249.824 196.629 m 250.52 196.629 l S
256.066 196.629 m 256.758 196.629 l S
262.309 196.629 m 263 196.629 l S
268.551 196.629 m 269.242 196.629 l S
274.793 196.629 m 275.484 196.629 l S
281.031 196.629 m 281.727 196.629 l S
287.273 196.629 m 287.969 196.629 l S
293.516 196.629 m 294.211 196.629 l S
299.758 196.629 m 300.453 196.629 l S
306 196.629 m 306.695 196.629 l S
312.242 196.629 m 312.934 196.629 l S
318.484 196.629 m 319.176 196.629 l S
324.727 196.629 m 325.418 196.629 l S
330.969 196.629 m 331.66 196.629 l S
337.207 196.629 m 337.902 196.629 l S
343.449 196.629 m 344.145 196.629 l S
349.691 196.629 m 350.387 196.629 l S
355.934 196.629 m 356.629 196.629 l S
362.176 196.629 m 362.871 196.629 l S
368.418 196.629 m 369.109 196.629 l S
374.66 196.629 m 375.352 196.629 l S
380.902 196.629 m 381.594 196.629 l S
387.145 196.629 m 387.836 196.629 l S
393.383 196.629 m 394.078 196.629 l S
399.625 196.629 m 400.32 196.629 l S
405.867 196.629 m 406.562 196.629 l S
412.109 196.629 m 412.805 196.629 l S
418.352 196.629 m 419.047 196.629 l S
424.594 196.629 m 425.285 196.629 l S
430.836 196.629 m 431.527 196.629 l S
437.078 196.629 m 437.77 196.629 l S
443.32 196.629 m 444.012 196.629 l S
449.562 196.629 m 450.254 196.629 l S
455.801 196.629 m 456.496 196.629 l S
462.043 196.629 m 462.738 196.629 l S
468.285 196.629 m 468.98 196.629 l S
474.527 196.629 m 475.223 196.629 l S
480.77 196.629 m 481.465 196.629 l S
487.012 196.629 m 487.703 196.629 l S
493.254 196.629 m 493.945 196.629 l S
499.496 196.629 m 500.188 196.629 l S
505.738 196.629 m 506.43 196.629 l S
511.977 196.629 m 512.672 196.629 l S
518.219 196.629 m 518.914 196.629 l S
524.461 196.629 m 525.156 196.629 l S
530.703 196.629 m 531.398 196.629 l S
536.945 196.629 m 537.641 196.629 l S
543.188 196.629 m 543.879 196.629 l S
549.43 196.629 m 550.121 196.629 l S
555.672 196.629 m 556.363 196.629 l S
561.914 196.629 m 562.605 196.629 l S
0 g
126.043 195.848 m 132.699 195.848 l S
136.457 201.188 m 140.523 201.188 l 138.305 197.625 l 139.414 197.625 l
 140.152 197.18 l 140.523 196.738 l 140.895 195.402 l 140.895 194.512 l 
140.523 193.176 l 139.785 192.285 l 138.676 191.84 l 137.566 191.84 l 136.457
 192.285 l 136.086 192.73 l 135.715 193.621 l S
149.957 263.086 m 146.07 263.086 l S
0.666667 g
149.957 263.086 m 150.648 263.086 l S
156.199 263.086 m 156.891 263.086 l S
162.438 263.086 m 163.133 263.086 l S
168.68 263.086 m 169.375 263.086 l S
174.922 263.086 m 175.617 263.086 l S
181.164 263.086 m 181.859 263.086 l S
187.406 263.086 m 188.102 263.086 l S
193.648 263.086 m 194.34 263.086 l S
199.891 263.086 m 200.582 263.086 l S
206.133 263.086 m 206.824 263.086 l S
212.375 263.086 m 213.066 263.086 l S
218.617 263.086 m 219.309 263.086 l S
224.855 263.086 m 225.551 263.086 l S
231.098 263.086 m 231.793 263.086 l S
237.34 263.086 m 238.035 263.086 l S
243.582 263.086 m 244.277 263.086 l S
249.824 263.086 m 250.52 263.086 l S
256.066 263.086 m 256.758 263.086 l S
262.309 263.086 m 263 263.086 l S
268.551 263.086 m 269.242 263.086 l S
274.793 263.086 m 275.484 263.086 l S
281.031 263.086 m 281.727 263.086 l S
287.273 263.086 m 287.969 263.086 l S
293.516 263.086 m 294.211 263.086 l S
299.758 263.086 m 300.453 263.086 l S
306 263.086 m 306.695 263.086 l S
312.242 263.086 m 312.934 263.086 l S
318.484 263.086 m 319.176 263.086 l S
324.727 263.086 m 325.418 263.086 l S
330.969 263.086 m 331.66 263.086 l S
337.207 263.086 m 337.902 263.086 l S
343.449 263.086 m 344.145 263.086 l S
349.691 263.086 m 350.387 263.086 l S
355.934 263.086 m 356.629 263.086 l S
362.176 263.086 m 362.871 263.086 l S
368.418 263.086 m 369.109 263.086 l S
374.66 263.086 m 375.352 263.086 l S
380.902 263.086 m 381.594 263.086 l S
387.145 263.086 m 387.836 263.086 l S
393.383 263.086 m 394.078 263.086 l S
399.625 263.086 m 400.32 263.086 l S
405.867 263.086 m 406.562 263.086 l S
412.109 263.086 m 412.805 263.086 l S
418.352 263.086 m 419.047 263.086 l S
424.594 263.086 m 425.285 263.086 l S
430.836 263.086 m 431.527 263.086 l S
437.078 263.086 m 437.77 263.086 l S
443.32 263.086 m 444.012 263.086 l S
449.562 263.086 m 450.254 263.086 l S
455.801 263.086 m 456.496 263.086 l S
462.043 263.086 m 462.738 263.086 l S
468.285 263.086 m 468.98 263.086 l S
474.527 263.086 m 475.223 263.086 l S
480.77 263.086 m 481.465 263.086 l S
487.012 263.086 m 487.703 263.086 l S
493.254 263.086 m 493.945 263.086 l S
499.496 263.086 m 500.188 263.086 l S
505.738 263.086 m 506.43 263.086 l S
511.977 263.086 m 512.672 263.086 l S
518.219 263.086 m 518.914 263.086 l S
524.461 263.086 m 525.156 263.086 l S
530.703 263.086 m 531.398 263.086 l S
536.945 263.086 m 537.641 263.086 l S
543.188 263.086 m 543.879 263.086 l S
549.43 263.086 m 550.121 263.086 l S
555.672 263.086 m 556.363 263.086 l S
561.914 263.086 m 562.605 263.086 l S
0 g
126.043 262.305 m 132.699 262.305 l S
136.086 265.418 m 136.086 265.863 l 136.457 266.754 l 136.824 267.199 l
 137.566 267.645 l 139.043 267.645 l 139.785 267.199 l 140.152 266.754 l
 140.523 265.863 l 140.523 264.973 l 140.152 264.082 l 139.414 262.746 l
 135.715 258.297 l 140.895 258.297 l S
149.957 329.543 m 146.07 329.543 l S
0.666667 g
149.957 329.543 m 150.648 329.543 l S
156.199 329.543 m 156.891 329.543 l S
162.438 329.543 m 163.133 329.543 l S
168.68 329.543 m 169.375 329.543 l S
174.922 329.543 m 175.617 329.543 l S
181.164 329.543 m 181.859 329.543 l S
187.406 329.543 m 188.102 329.543 l S
193.648 329.543 m 194.34 329.543 l S
199.891 329.543 m 200.582 329.543 l S
206.133 329.543 m 206.824 329.543 l S
212.375 329.543 m 213.066 329.543 l S
218.617 329.543 m 219.309 329.543 l S
224.855 329.543 m 225.551 329.543 l S
231.098 329.543 m 231.793 329.543 l S
237.34 329.543 m 238.035 329.543 l S
243.582 329.543 m 244.277 329.543 l S
249.824 329.543 m 250.52 329.543 l S
256.066 329.543 m 256.758 329.543 l S
262.309 329.543 m 263 329.543 l S
268.551 329.543 m 269.242 329.543 l S
274.793 329.543 m 275.484 329.543 l S
281.031 329.543 m 281.727 329.543 l S
287.273 329.543 m 287.969 329.543 l S
293.516 329.543 m 294.211 329.543 l S
299.758 329.543 m 300.453 329.543 l S
306 329.543 m 306.695 329.543 l S
312.242 329.543 m 312.934 329.543 l S
318.484 329.543 m 319.176 329.543 l S
324.727 329.543 m 325.418 329.543 l S
330.969 329.543 m 331.66 329.543 l S
337.207 329.543 m 337.902 329.543 l S
343.449 329.543 m 344.145 329.543 l S
349.691 329.543 m 350.387 329.543 l S
355.934 329.543 m 356.629 329.543 l S
362.176 329.543 m 362.871 329.543 l S
368.418 329.543 m 369.109 329.543 l S
374.66 329.543 m 375.352 329.543 l S
380.902 329.543 m 381.594 329.543 l S
387.145 329.543 m 387.836 329.543 l S
393.383 329.543 m 394.078 329.543 l S
399.625 329.543 m 400.32 329.543 l S
405.867 329.543 m 406.562 329.543 l S
412.109 329.543 m 412.805 329.543 l S
418.352 329.543 m 419.047 329.543 l S
424.594 329.543 m 425.285 329.543 l S
430.836 329.543 m 431.527 329.543 l S
437.078 329.543 m 437.77 329.543 l S
443.32 329.543 m 444.012 329.543 l S
449.562 329.543 m 450.254 329.543 l S
455.801 329.543 m 456.496 329.543 l S
462.043 329.543 m 462.738 329.543 l S
468.285 329.543 m 468.98 329.543 l S
474.527 329.543 m 475.223 329.543 l S
480.77 329.543 m 481.465 329.543 l S
487.012 329.543 m 487.703 329.543 l S
493.254 329.543 m 493.945 329.543 l S
499.496 329.543 m 500.188 329.543 l S
505.738 329.543 m 506.43 329.543 l S
511.977 329.543 m 512.672 329.543 l S
518.219 329.543 m 518.914 329.543 l S
524.461 329.543 m 525.156 329.543 l S
530.703 329.543 m 531.398 329.543 l S
536.945 329.543 m 537.641 329.543 l S
543.188 329.543 m 543.879 329.543 l S
549.43 329.543 m 550.121 329.543 l S
555.672 329.543 m 556.363 329.543 l S
561.914 329.543 m 562.605 329.543 l S
0 g
126.043 328.758 m 132.699 328.758 l S
136.824 332.32 m 137.566 332.766 l 138.676 334.102 l 138.676 324.754 l S
149.957 396 m 146.07 396 l S
0.666667 g
149.957 396 m 150.648 396 l S
156.199 396 m 156.891 396 l S
162.438 396 m 163.133 396 l S
168.68 396 m 169.375 396 l S
174.922 396 m 175.617 396 l S
181.164 396 m 181.859 396 l S
187.406 396 m 188.102 396 l S
193.648 396 m 194.34 396 l S
199.891 396 m 200.582 396 l S
206.133 396 m 206.824 396 l S
212.375 396 m 213.066 396 l S
218.617 396 m 219.309 396 l S
224.855 396 m 225.551 396 l S
231.098 396 m 231.793 396 l S
237.34 396 m 238.035 396 l S
243.582 396 m 244.277 396 l S
249.824 396 m 250.52 396 l S
256.066 396 m 256.758 396 l S
262.309 396 m 263 396 l S
268.551 396 m 269.242 396 l S
274.793 396 m 275.484 396 l S
281.031 396 m 281.727 396 l S
287.273 396 m 287.969 396 l S
293.516 396 m 294.211 396 l S
299.758 396 m 300.453 396 l S
306 396 m 306.695 396 l S
312.242 396 m 312.934 396 l S
318.484 396 m 319.176 396 l S
324.727 396 m 325.418 396 l S
330.969 396 m 331.66 396 l S
337.207 396 m 337.902 396 l S
343.449 396 m 344.145 396 l S
349.691 396 m 350.387 396 l S
355.934 396 m 356.629 396 l S
362.176 396 m 362.871 396 l S
368.418 396 m 369.109 396 l S
374.66 396 m 375.352 396 l S
380.902 396 m 381.594 396 l S
387.145 396 m 387.836 396 l S
393.383 396 m 394.078 396 l S
399.625 396 m 400.32 396 l S
405.867 396 m 406.562 396 l S
412.109 396 m 412.805 396 l S
418.352 396 m 419.047 396 l S
424.594 396 m 425.285 396 l S
430.836 396 m 431.527 396 l S
437.078 396 m 437.77 396 l S
443.32 396 m 444.012 396 l S
449.562 396 m 450.254 396 l S
455.801 396 m 456.496 396 l S
462.043 396 m 462.738 396 l S
468.285 396 m 468.98 396 l S
474.527 396 m 475.223 396 l S
480.77 396 m 481.465 396 l S
487.012 396 m 487.703 396 l S
493.254 396 m 493.945 396 l S
499.496 396 m 500.188 396 l S
505.738 396 m 506.43 396 l S
511.977 396 m 512.672 396 l S
518.219 396 m 518.914 396 l S
524.461 396 m 525.156 396 l S
530.703 396 m 531.398 396 l S
536.945 396 m 537.641 396 l S
543.188 396 m 543.879 396 l S
549.43 396 m 550.121 396 l S
555.672 396 m 556.363 396 l S
561.914 396 m 562.605 396 l S
0 g
137.934 400.559 m 136.824 400.113 l 136.086 398.777 l 135.715 396.551 l
 135.715 395.215 l 136.086 392.992 l 136.824 391.656 l 137.934 391.211 l
 138.676 391.211 l 139.785 391.656 l 140.523 392.992 l 140.895 395.215 l
 140.895 396.551 l 140.523 398.777 l 139.785 400.113 l 138.676 400.559 l
 137.934 400.559 l S
149.957 462.457 m 146.07 462.457 l S
0.666667 g
149.957 462.457 m 150.648 462.457 l S
156.199 462.457 m 156.891 462.457 l S
162.438 462.457 m 163.133 462.457 l S
168.68 462.457 m 169.375 462.457 l S
174.922 462.457 m 175.617 462.457 l S
181.164 462.457 m 181.859 462.457 l S
187.406 462.457 m 188.102 462.457 l S
193.648 462.457 m 194.34 462.457 l S
199.891 462.457 m 200.582 462.457 l S
206.133 462.457 m 206.824 462.457 l S
212.375 462.457 m 213.066 462.457 l S
218.617 462.457 m 219.309 462.457 l S
224.855 462.457 m 225.551 462.457 l S
231.098 462.457 m 231.793 462.457 l S
237.34 462.457 m 238.035 462.457 l S
243.582 462.457 m 244.277 462.457 l S
249.824 462.457 m 250.52 462.457 l S
256.066 462.457 m 256.758 462.457 l S
262.309 462.457 m 263 462.457 l S
268.551 462.457 m 269.242 462.457 l S
274.793 462.457 m 275.484 462.457 l S
281.031 462.457 m 281.727 462.457 l S
287.273 462.457 m 287.969 462.457 l S
293.516 462.457 m 294.211 462.457 l S
299.758 462.457 m 300.453 462.457 l S
306 462.457 m 306.695 462.457 l S
312.242 462.457 m 312.934 462.457 l S
318.484 462.457 m 319.176 462.457 l S
324.727 462.457 m 325.418 462.457 l S
330.969 462.457 m 331.66 462.457 l S
337.207 462.457 m 337.902 462.457 l S
343.449 462.457 m 344.145 462.457 l S
349.691 462.457 m 350.387 462.457 l S
355.934 462.457 m 356.629 462.457 l S
362.176 462.457 m 362.871 462.457 l S
368.418 462.457 m 369.109 462.457 l S
374.66 462.457 m 375.352 462.457 l S
380.902 462.457 m 381.594 462.457 l S
387.145 462.457 m 387.836 462.457 l S
393.383 462.457 m 394.078 462.457 l S
399.625 462.457 m 400.32 462.457 l S
405.867 462.457 m 406.562 462.457 l S
412.109 462.457 m 412.805 462.457 l S
418.352 462.457 m 419.047 462.457 l S
424.594 462.457 m 425.285 462.457 l S
430.836 462.457 m 431.527 462.457 l S
437.078 462.457 m 437.77 462.457 l S
443.32 462.457 m 444.012 462.457 l S
449.562 462.457 m 450.254 462.457 l S
455.801 462.457 m 456.496 462.457 l S
462.043 462.457 m 462.738 462.457 l S
468.285 462.457 m 468.98 462.457 l S
474.527 462.457 m 475.223 462.457 l S
480.77 462.457 m 481.465 462.457 l S
487.012 462.457 m 487.703 462.457 l S
493.254 462.457 m 493.945 462.457 l S
499.496 462.457 m 500.188 462.457 l S
505.738 462.457 m 506.43 462.457 l S
511.977 462.457 m 512.672 462.457 l S
518.219 462.457 m 518.914 462.457 l S
524.461 462.457 m 525.156 462.457 l S
530.703 462.457 m 531.398 462.457 l S
536.945 462.457 m 537.641 462.457 l S
543.188 462.457 m 543.879 462.457 l S
549.43 462.457 m 550.121 462.457 l S
555.672 462.457 m 556.363 462.457 l S
561.914 462.457 m 562.605 462.457 l S
0 g
136.824 465.234 m 137.566 465.68 l 138.676 467.016 l 138.676 457.668 l S
149.957 528.914 m 146.07 528.914 l S
0.666667 g
149.957 528.914 m 150.648 528.914 l S
156.199 528.914 m 156.891 528.914 l S
162.438 528.914 m 163.133 528.914 l S
168.68 528.914 m 169.375 528.914 l S
174.922 528.914 m 175.617 528.914 l S
181.164 528.914 m 181.859 528.914 l S
187.406 528.914 m 188.102 528.914 l S
193.648 528.914 m 194.34 528.914 l S
199.891 528.914 m 200.582 528.914 l S
206.133 528.914 m 206.824 528.914 l S
212.375 528.914 m 213.066 528.914 l S
218.617 528.914 m 219.309 528.914 l S
224.855 528.914 m 225.551 528.914 l S
231.098 528.914 m 231.793 528.914 l S
237.34 528.914 m 238.035 528.914 l S
243.582 528.914 m 244.277 528.914 l S
249.824 528.914 m 250.52 528.914 l S
256.066 528.914 m 256.758 528.914 l S
262.309 528.914 m 263 528.914 l S
268.551 528.914 m 269.242 528.914 l S
274.793 528.914 m 275.484 528.914 l S
281.031 528.914 m 281.727 528.914 l S
287.273 528.914 m 287.969 528.914 l S
293.516 528.914 m 294.211 528.914 l S
299.758 528.914 m 300.453 528.914 l S
306 528.914 m 306.695 528.914 l S
312.242 528.914 m 312.934 528.914 l S
318.484 528.914 m 319.176 528.914 l S
324.727 528.914 m 325.418 528.914 l S
330.969 528.914 m 331.66 528.914 l S
337.207 528.914 m 337.902 528.914 l S
343.449 528.914 m 344.145 528.914 l S
349.691 528.914 m 350.387 528.914 l S
355.934 528.914 m 356.629 528.914 l S
362.176 528.914 m 362.871 528.914 l S
368.418 528.914 m 369.109 528.914 l S
374.66 528.914 m 375.352 528.914 l S
380.902 528.914 m 381.594 528.914 l S
387.145 528.914 m 387.836 528.914 l S
393.383 528.914 m 394.078 528.914 l S
399.625 528.914 m 400.32 528.914 l S
405.867 528.914 m 406.562 528.914 l S
412.109 528.914 m 412.805 528.914 l S
418.352 528.914 m 419.047 528.914 l S
424.594 528.914 m 425.285 528.914 l S
430.836 528.914 m 431.527 528.914 l S
437.078 528.914 m 437.77 528.914 l S
443.32 528.914 m 444.012 528.914 l S
449.562 528.914 m 450.254 528.914 l S
455.801 528.914 m 456.496 528.914 l S
462.043 528.914 m 462.738 528.914 l S
468.285 528.914 m 468.98 528.914 l S
474.527 528.914 m 475.223 528.914 l S
480.77 528.914 m 481.465 528.914 l S
487.012 528.914 m 487.703 528.914 l S
493.254 528.914 m 493.945 528.914 l S
499.496 528.914 m 500.188 528.914 l S
505.738 528.914 m 506.43 528.914 l S
511.977 528.914 m 512.672 528.914 l S
518.219 528.914 m 518.914 528.914 l S
524.461 528.914 m 525.156 528.914 l S
530.703 528.914 m 531.398 528.914 l S
536.945 528.914 m 537.641 528.914 l S
543.188 528.914 m 543.879 528.914 l S
549.43 528.914 m 550.121 528.914 l S
555.672 528.914 m 556.363 528.914 l S
561.914 528.914 m 562.605 528.914 l S
0 g
136.086 531.246 m 136.086 531.691 l 136.457 532.582 l 136.824 533.027 l
 137.566 533.473 l 139.043 533.473 l 139.785 533.027 l 140.152 532.582 l
 140.523 531.691 l 140.523 530.801 l 140.152 529.91 l 139.414 528.574 l 
135.715 524.125 l 140.895 524.125 l S
149.957 595.371 m 146.07 595.371 l S
0.666667 g
149.957 595.371 m 150.648 595.371 l S
156.199 595.371 m 156.891 595.371 l S
162.438 595.371 m 163.133 595.371 l S
168.68 595.371 m 169.375 595.371 l S
174.922 595.371 m 175.617 595.371 l S
181.164 595.371 m 181.859 595.371 l S
187.406 595.371 m 188.102 595.371 l S
193.648 595.371 m 194.34 595.371 l S
199.891 595.371 m 200.582 595.371 l S
206.133 595.371 m 206.824 595.371 l S
212.375 595.371 m 213.066 595.371 l S
218.617 595.371 m 219.309 595.371 l S
224.855 595.371 m 225.551 595.371 l S
231.098 595.371 m 231.793 595.371 l S
237.34 595.371 m 238.035 595.371 l S
243.582 595.371 m 244.277 595.371 l S
249.824 595.371 m 250.52 595.371 l S
256.066 595.371 m 256.758 595.371 l S
262.309 595.371 m 263 595.371 l S
268.551 595.371 m 269.242 595.371 l S
274.793 595.371 m 275.484 595.371 l S
281.031 595.371 m 281.727 595.371 l S
287.273 595.371 m 287.969 595.371 l S
293.516 595.371 m 294.211 595.371 l S
299.758 595.371 m 300.453 595.371 l S
306 595.371 m 306.695 595.371 l S
312.242 595.371 m 312.934 595.371 l S
318.484 595.371 m 319.176 595.371 l S
324.727 595.371 m 325.418 595.371 l S
330.969 595.371 m 331.66 595.371 l S
337.207 595.371 m 337.902 595.371 l S
343.449 595.371 m 344.145 595.371 l S
349.691 595.371 m 350.387 595.371 l S
355.934 595.371 m 356.629 595.371 l S
362.176 595.371 m 362.871 595.371 l S
368.418 595.371 m 369.109 595.371 l S
374.66 595.371 m 375.352 595.371 l S
380.902 595.371 m 381.594 595.371 l S
387.145 595.371 m 387.836 595.371 l S
393.383 595.371 m 394.078 595.371 l S
399.625 595.371 m 400.32 595.371 l S
405.867 595.371 m 406.562 595.371 l S
412.109 595.371 m 412.805 595.371 l S
418.352 595.371 m 419.047 595.371 l S
424.594 595.371 m 425.285 595.371 l S
430.836 595.371 m 431.527 595.371 l S
437.078 595.371 m 437.77 595.371 l S
443.32 595.371 m 444.012 595.371 l S
449.562 595.371 m 450.254 595.371 l S
455.801 595.371 m 456.496 595.371 l S
462.043 595.371 m 462.738 595.371 l S
468.285 595.371 m 468.98 595.371 l S
474.527 595.371 m 475.223 595.371 l S
480.77 595.371 m 481.465 595.371 l S
487.012 595.371 m 487.703 595.371 l S
493.254 595.371 m 493.945 595.371 l S
499.496 595.371 m 500.188 595.371 l S
505.738 595.371 m 506.43 595.371 l S
511.977 595.371 m 512.672 595.371 l S
518.219 595.371 m 518.914 595.371 l S
524.461 595.371 m 525.156 595.371 l S
530.703 595.371 m 531.398 595.371 l S
536.945 595.371 m 537.641 595.371 l S
543.188 595.371 m 543.879 595.371 l S
549.43 595.371 m 550.121 595.371 l S
555.672 595.371 m 556.363 595.371 l S
561.914 595.371 m 562.605 595.371 l S
0 g
136.457 599.93 m 140.523 599.93 l 138.305 596.367 l 139.414 596.367 l 140.152
 595.922 l 140.523 595.477 l 140.895 594.141 l 140.895 593.25 l 140.523 
591.914 l 139.785 591.027 l 138.676 590.582 l 137.566 590.582 l 136.457 
591.027 l 136.086 591.473 l 135.715 592.359 l S
149.957 661.828 m 146.07 661.828 l S
0.666667 g
149.957 661.828 m 150.648 661.828 l S
156.199 661.828 m 156.891 661.828 l S
162.438 661.828 m 163.133 661.828 l S
168.68 661.828 m 169.375 661.828 l S
174.922 661.828 m 175.617 661.828 l S
181.164 661.828 m 181.859 661.828 l S
187.406 661.828 m 188.102 661.828 l S
193.648 661.828 m 194.34 661.828 l S
199.891 661.828 m 200.582 661.828 l S
206.133 661.828 m 206.824 661.828 l S
212.375 661.828 m 213.066 661.828 l S
218.617 661.828 m 219.309 661.828 l S
224.855 661.828 m 225.551 661.828 l S
231.098 661.828 m 231.793 661.828 l S
237.34 661.828 m 238.035 661.828 l S
243.582 661.828 m 244.277 661.828 l S
249.824 661.828 m 250.52 661.828 l S
256.066 661.828 m 256.758 661.828 l S
262.309 661.828 m 263 661.828 l S
268.551 661.828 m 269.242 661.828 l S
274.793 661.828 m 275.484 661.828 l S
281.031 661.828 m 281.727 661.828 l S
287.273 661.828 m 287.969 661.828 l S
293.516 661.828 m 294.211 661.828 l S
299.758 661.828 m 300.453 661.828 l S
306 661.828 m 306.695 661.828 l S
312.242 661.828 m 312.934 661.828 l S
318.484 661.828 m 319.176 661.828 l S
324.727 661.828 m 325.418 661.828 l S
330.969 661.828 m 331.66 661.828 l S
337.207 661.828 m 337.902 661.828 l S
343.449 661.828 m 344.145 661.828 l S
349.691 661.828 m 350.387 661.828 l S
355.934 661.828 m 356.629 661.828 l S
362.176 661.828 m 362.871 661.828 l S
368.418 661.828 m 369.109 661.828 l S
374.66 661.828 m 375.352 661.828 l S
380.902 661.828 m 381.594 661.828 l S
387.145 661.828 m 387.836 661.828 l S
393.383 661.828 m 394.078 661.828 l S
399.625 661.828 m 400.32 661.828 l S
405.867 661.828 m 406.562 661.828 l S
412.109 661.828 m 412.805 661.828 l S
418.352 661.828 m 419.047 661.828 l S
424.594 661.828 m 425.285 661.828 l S
430.836 661.828 m 431.527 661.828 l S
437.078 661.828 m 437.77 661.828 l S
443.32 661.828 m 444.012 661.828 l S
449.562 661.828 m 450.254 661.828 l S
455.801 661.828 m 456.496 661.828 l S
462.043 661.828 m 462.738 661.828 l S
468.285 661.828 m 468.98 661.828 l S
474.527 661.828 m 475.223 661.828 l S
480.77 661.828 m 481.465 661.828 l S
487.012 661.828 m 487.703 661.828 l S
493.254 661.828 m 493.945 661.828 l S
499.496 661.828 m 500.188 661.828 l S
505.738 661.828 m 506.43 661.828 l S
511.977 661.828 m 512.672 661.828 l S
518.219 661.828 m 518.914 661.828 l S
524.461 661.828 m 525.156 661.828 l S
530.703 661.828 m 531.398 661.828 l S
536.945 661.828 m 537.641 661.828 l S
543.188 661.828 m 543.879 661.828 l S
549.43 661.828 m 550.121 661.828 l S
555.672 661.828 m 556.363 661.828 l S
561.914 661.828 m 562.605 661.828 l S
0 g
139.414 666.387 m 135.715 660.152 l 141.262 660.152 l S
139.414 666.387 m 139.414 657.039 l S
149.957 728.285 m 146.07 728.285 l S
0.666667 g
149.957 728.285 m 150.648 728.285 l S
156.199 728.285 m 156.891 728.285 l S
162.438 728.285 m 163.133 728.285 l S
168.68 728.285 m 169.375 728.285 l S
174.922 728.285 m 175.617 728.285 l S
181.164 728.285 m 181.859 728.285 l S
187.406 728.285 m 188.102 728.285 l S
193.648 728.285 m 194.34 728.285 l S
199.891 728.285 m 200.582 728.285 l S
206.133 728.285 m 206.824 728.285 l S
212.375 728.285 m 213.066 728.285 l S
218.617 728.285 m 219.309 728.285 l S
224.855 728.285 m 225.551 728.285 l S
231.098 728.285 m 231.793 728.285 l S
237.34 728.285 m 238.035 728.285 l S
243.582 728.285 m 244.277 728.285 l S
249.824 728.285 m 250.52 728.285 l S
256.066 728.285 m 256.758 728.285 l S
262.309 728.285 m 263 728.285 l S
268.551 728.285 m 269.242 728.285 l S
274.793 728.285 m 275.484 728.285 l S
281.031 728.285 m 281.727 728.285 l S
287.273 728.285 m 287.969 728.285 l S
293.516 728.285 m 294.211 728.285 l S
299.758 728.285 m 300.453 728.285 l S
306 728.285 m 306.695 728.285 l S
312.242 728.285 m 312.934 728.285 l S
318.484 728.285 m 319.176 728.285 l S
324.727 728.285 m 325.418 728.285 l S
330.969 728.285 m 331.66 728.285 l S
337.207 728.285 m 337.902 728.285 l S
343.449 728.285 m 344.145 728.285 l S
349.691 728.285 m 350.387 728.285 l S
355.934 728.285 m 356.629 728.285 l S
362.176 728.285 m 362.871 728.285 l S
368.418 728.285 m 369.109 728.285 l S
374.66 728.285 m 375.352 728.285 l S
380.902 728.285 m 381.594 728.285 l S
387.145 728.285 m 387.836 728.285 l S
393.383 728.285 m 394.078 728.285 l S
399.625 728.285 m 400.32 728.285 l S
405.867 728.285 m 406.562 728.285 l S
412.109 728.285 m 412.805 728.285 l S
418.352 728.285 m 419.047 728.285 l S
424.594 728.285 m 425.285 728.285 l S
430.836 728.285 m 431.527 728.285 l S
437.078 728.285 m 437.77 728.285 l S
443.32 728.285 m 444.012 728.285 l S
449.562 728.285 m 450.254 728.285 l S
455.801 728.285 m 456.496 728.285 l S
462.043 728.285 m 462.738 728.285 l S
468.285 728.285 m 468.98 728.285 l S
474.527 728.285 m 475.223 728.285 l S
480.77 728.285 m 481.465 728.285 l S
487.012 728.285 m 487.703 728.285 l S
493.254 728.285 m 493.945 728.285 l S
499.496 728.285 m 500.188 728.285 l S
505.738 728.285 m 506.43 728.285 l S
511.977 728.285 m 512.672 728.285 l S
518.219 728.285 m 518.914 728.285 l S
524.461 728.285 m 525.156 728.285 l S
530.703 728.285 m 531.398 728.285 l S
536.945 728.285 m 537.641 728.285 l S
543.188 728.285 m 543.879 728.285 l S
549.43 728.285 m 550.121 728.285 l S
555.672 728.285 m 556.363 728.285 l S
561.914 728.285 m 562.605 728.285 l S
0 g
140.152 732.844 m 136.457 732.844 l 136.086 728.836 l 136.457 729.281 l
 137.566 729.727 l 138.676 729.727 l 139.785 729.281 l 140.523 728.391 l
 140.895 727.055 l 140.895 726.164 l 140.523 724.828 l 139.785 723.938 l
 138.676 723.492 l 137.566 723.492 l 136.457 723.938 l 136.086 724.383 l
 135.715 725.273 l S
20.371 19.91 m 20.074 20.547 l 19.48 21.184 l 18.887 21.5 l 17.699 21.5
 l 17.102 21.184 l 16.508 20.547 l 16.211 19.91 l 15.914 18.957 l 15.914
 17.367 l 16.211 16.414 l 16.508 15.777 l 17.102 15.141 l 17.699 14.824 
l 18.887 14.824 l 19.48 15.141 l 20.074 15.777 l 20.371 16.414 l 20.371 
17.367 l S
18.887 17.367 m 20.371 17.367 l S
22.41 19.277 m 22.41 14.824 l S
22.41 17.367 m 22.707 18.32 l 23.301 18.957 l 23.895 19.277 l 24.785 19.277
 l S
28.137 21.5 m 25.758 14.824 l S
28.137 21.5 m 30.516 14.824 l S
26.652 17.051 m 29.625 17.051 l S
32.141 21.5 m 32.141 14.824 l S
32.141 21.5 m 34.223 21.5 l 35.113 21.184 l 35.711 20.547 l 36.008 19.91
 l 36.305 18.957 l 36.305 17.367 l 36.008 16.414 l 35.711 15.777 l 35.113
 15.141 l 34.223 14.824 l 32.141 14.824 l S
42.703 20.547 m 42.105 21.184 l 41.215 21.5 l 40.027 21.5 l 39.137 21.184
 l 38.539 20.547 l 38.539 19.91 l 38.836 19.277 l 39.137 18.957 l 39.73 
18.641 l 41.512 18.004 l 42.105 17.688 l 42.406 17.367 l 42.703 16.73 l 
42.703 15.777 l 42.105 15.141 l 41.215 14.824 l 40.027 14.824 l 39.137 15.141
 l 38.539 15.777 l S
49.852 22.773 m 44.5 12.598 l S
56.262 19.91 m 55.965 20.547 l 55.371 21.184 l 54.777 21.5 l 53.586 21.5
 l 52.992 21.184 l 52.398 20.547 l 52.102 19.91 l 51.805 18.957 l 51.805
 17.367 l 52.102 16.414 l 52.398 15.777 l 52.992 15.141 l 53.586 14.824 
l 54.777 14.824 l 55.371 15.141 l 55.965 15.777 l 56.262 16.414 l S
60 21.5 m 59.406 21.184 l 58.812 20.547 l 58.516 19.91 l 58.219 18.957 
l 58.219 17.367 l 58.516 16.414 l 58.812 15.777 l 59.406 15.141 l 60 14.824
 l 61.188 14.824 l 61.785 15.141 l 62.379 15.777 l 62.676 16.414 l 62.973
 17.367 l 62.973 18.957 l 62.676 19.91 l 62.379 20.547 l 61.785 21.184 l
 61.188 21.5 l 60 21.5 l S
64.898 21.5 m 64.898 14.824 l S
64.898 14.824 m 68.465 14.824 l S
72.141 21.5 m 69.766 14.824 l S
72.141 21.5 m 74.52 14.824 l S
70.656 17.051 m 73.629 17.051 l S
484.188 19.91 m 484.188 20.23 l 484.484 20.867 l 484.781 21.184 l 485.375
 21.5 l 486.566 21.5 l 487.16 21.184 l 487.457 20.867 l 487.754 20.23 l 
487.754 19.594 l 487.457 18.957 l 486.863 18.004 l 483.891 14.824 l 488.051
 14.824 l S
491.914 21.5 m 491.023 21.184 l 490.43 20.23 l 490.133 18.641 l 490.133
 17.688 l 490.43 16.098 l 491.023 15.141 l 491.914 14.824 l 492.512 14.824
 l 493.402 15.141 l 493.996 16.098 l 494.293 17.688 l 494.293 18.641 l 493.996
 20.23 l 493.402 21.184 l 492.512 21.5 l 491.914 21.5 l S
496.672 19.91 m 496.672 20.23 l 496.969 20.867 l 497.266 21.184 l 497.859
 21.5 l 499.051 21.5 l 499.645 21.184 l 499.941 20.867 l 500.238 20.23 l
 500.238 19.594 l 499.941 18.957 l 499.348 18.004 l 496.375 14.824 l 500.535
 14.824 l S
502.914 19.91 m 502.914 20.23 l 503.211 20.867 l 503.508 21.184 l 504.102
 21.5 l 505.289 21.5 l 505.887 21.184 l 506.184 20.867 l 506.48 20.23 l 
506.48 19.594 l 506.184 18.957 l 505.586 18.004 l 502.617 14.824 l 506.777
 14.824 l S
509.199 17.688 m 514.551 17.688 l S
518.754 21.5 m 517.863 21.184 l 517.27 20.23 l 516.973 18.641 l 516.973
 17.688 l 517.27 16.098 l 517.863 15.141 l 518.754 14.824 l 519.348 14.824
 l 520.242 15.141 l 520.836 16.098 l 521.133 17.688 l 521.133 18.641 l 520.836
 20.23 l 520.242 21.184 l 519.348 21.5 l 518.754 21.5 l S
527.078 19.277 m 526.781 18.32 l 526.188 17.688 l 525.293 17.367 l 524.996
 17.367 l 524.105 17.688 l 523.512 18.32 l 523.215 19.277 l 523.215 19.594
 l 523.512 20.547 l 524.105 21.184 l 524.996 21.5 l 525.293 21.5 l 526.188
 21.184 l 526.781 20.547 l 527.078 19.277 l 527.078 17.688 l 526.781 16.098
 l 526.188 15.141 l 525.293 14.824 l 524.699 14.824 l 523.809 15.141 l 523.512
 15.777 l S
529.797 17.688 m 535.148 17.688 l S
538.461 20.23 m 539.055 20.547 l 539.949 21.5 l 539.949 14.824 l S
547.676 20.547 m 547.379 21.184 l 546.484 21.5 l 545.891 21.5 l 545 21.184
 l 544.406 20.23 l 544.109 18.641 l 544.109 17.051 l 544.406 15.777 l 545
 15.141 l 545.891 14.824 l 546.188 14.824 l 547.082 15.141 l 547.676 15.777
 l 547.973 16.73 l 547.973 17.051 l 547.676 18.004 l 547.082 18.641 l 546.188
 18.957 l 545.891 18.957 l 545 18.641 l 544.406 18.004 l 544.109 17.051 
l S
550.395 17.688 m 555.746 17.688 l S
559.059 20.23 m 559.652 20.547 l 560.547 21.5 l 560.547 14.824 l S
568.57 21.5 m 565.598 14.824 l S
564.41 21.5 m 568.57 21.5 l S
571.172 19.277 m 570.875 18.957 l 571.172 18.641 l 571.469 18.957 l 571.172
 19.277 l S
571.172 15.461 m 570.875 15.141 l 571.172 14.824 l 571.469 15.141 l 571.172
 15.461 l S
574.664 20.23 m 575.258 20.547 l 576.148 21.5 l 576.148 14.824 l S
580.609 21.5 m 583.879 21.5 l 582.094 18.957 l 582.984 18.957 l 583.582
 18.641 l 583.879 18.32 l 584.176 17.367 l 584.176 16.73 l 583.879 15.777
 l 583.281 15.141 l 582.391 14.824 l 581.5 14.824 l 580.609 15.141 l 580.312
 15.461 l 580.012 16.098 l S
1.5 w
255.027 757.086 m 255.027 741.059 l S
250.402 757.086 m 259.648 757.086 l S
266.188 757.086 m 264.207 756.32 l 263.547 754.797 l 263.547 753.27 l 264.207
 751.742 l 265.527 750.98 l 268.168 750.215 l 270.152 749.453 l 271.473 
747.926 l 272.133 746.402 l 272.133 744.113 l 271.473 742.586 l 270.812 
741.82 l 268.832 741.059 l 266.188 741.059 l 264.207 741.82 l 263.547 742.586
 l 262.887 744.113 l 262.887 746.402 l 263.547 747.926 l 264.867 749.453
 l 266.848 750.215 l 269.492 750.98 l 270.812 751.742 l 271.473 753.27 l
 271.473 754.797 l 270.812 756.32 l 268.832 757.086 l 266.188 757.086 l S
284.684 757.086 m 278.078 757.086 l 277.418 750.215 l 278.078 750.98 l 
280.059 751.742 l 282.039 751.742 l 284.023 750.98 l 285.344 749.453 l 286.004
 747.164 l 286.004 745.637 l 285.344 743.348 l 284.023 741.82 l 282.039 
741.059 l 280.059 741.059 l 278.078 741.82 l 277.418 742.586 l 276.758 744.113
 l S
294.59 757.086 m 292.609 756.32 l 291.289 754.031 l 290.625 750.215 l 290.625
 747.926 l 291.289 744.113 l 292.609 741.82 l 294.59 741.059 l 295.91 741.059
 l 297.891 741.82 l 299.215 744.113 l 299.875 747.926 l 299.875 750.215 
l 299.215 754.031 l 297.891 756.32 l 295.91 757.086 l 294.59 757.086 l S
318.301 757.086 m 325.566 757.086 l 321.605 750.98 l 323.586 750.98 l 324.906
 750.215 l 325.566 749.453 l 326.227 747.164 l 326.227 745.637 l 325.566
 743.348 l 324.246 741.82 l 322.266 741.059 l 320.285 741.059 l 318.301 
741.82 l 317.641 742.586 l 316.98 744.113 l S
338.777 757.086 m 332.172 757.086 l 331.512 750.215 l 332.172 750.98 l 
334.152 751.742 l 336.137 751.742 l 338.117 750.98 l 339.438 749.453 l 340.098
 747.164 l 340.098 745.637 l 339.438 743.348 l 338.117 741.82 l 336.137 
741.059 l 334.152 741.059 l 332.172 741.82 l 331.512 742.586 l 330.852 744.113
 l S
345.879 742.586 m 345.219 741.82 l 345.879 741.059 l 346.539 741.82 l 345.879
 742.586 l S
359.582 757.086 m 352.977 757.086 l 352.316 750.215 l 352.977 750.98 l 
354.961 751.742 l 356.941 751.742 l 358.922 750.98 l 360.242 749.453 l 360.906
 747.164 l 360.906 745.637 l 360.242 743.348 l 358.922 741.82 l 356.941 
741.059 l 354.961 741.059 l 352.977 741.82 l 352.316 742.586 l 351.656 744.113
 l S
366.223 757.086 m 366.223 741.059 l S
366.223 757.086 m 375.469 741.059 l S
375.469 757.086 m 375.469 741.059 l S
395.25 754.031 m 396.57 754.797 l 398.555 757.086 l 398.555 741.059 l S
408.461 757.086 m 415.727 757.086 l 411.762 750.98 l 413.746 750.98 l 415.066
 750.215 l 415.727 749.453 l 416.387 747.164 l 416.387 745.637 l 415.727
 743.348 l 414.406 741.82 l 412.422 741.059 l 410.441 741.059 l 408.461 
741.82 l 407.801 742.586 l 407.141 744.113 l S
424.312 757.086 m 422.332 756.32 l 421.672 754.797 l 421.672 753.27 l 422.332
 751.742 l 423.652 750.98 l 426.293 750.215 l 428.277 749.453 l 429.598 
747.926 l 430.258 746.402 l 430.258 744.113 l 429.598 742.586 l 428.938 
741.82 l 426.953 741.059 l 424.312 741.059 l 422.332 741.82 l 421.672 742.586
 l 421.012 744.113 l 421.012 746.402 l 421.672 747.926 l 422.992 749.453
 l 424.973 750.215 l 427.617 750.98 l 428.938 751.742 l 429.598 753.27 l
 429.598 754.797 l 428.938 756.32 l 426.953 757.086 l 424.312 757.086 l S
436.035 742.586 m 435.375 741.82 l 436.035 741.059 l 436.699 741.82 l 436.035
 742.586 l S
449.742 757.086 m 443.137 757.086 l 442.477 750.215 l 443.137 750.98 l 
445.117 751.742 l 447.102 751.742 l 449.082 750.98 l 450.402 749.453 l 451.062
 747.164 l 451.062 745.637 l 450.402 743.348 l 449.082 741.82 l 447.102 
741.059 l 445.117 741.059 l 443.137 741.82 l 442.477 742.586 l 441.816 744.113
 l S
456 757.086 m 456 741.059 l S
456 757.086 m 464.586 757.086 l S
456 749.453 m 461.285 749.453 l S
456 741.059 m 464.586 741.059 l S
Q Q
showpage
%%Trailer
end restore
%%EOF
