2021  8 12  0  0  129.9259   32.6832   500.00  353.109    53.2   22.95  19.94     9.13   300.23  299.17     5.4    398.5    -59.3 -0.6721E+01  0.4464E-01
2021  8 11 23 50  129.8756   32.6505   513.50  354.444    41.0   22.03  19.91     3.79   299.41  298.66     4.9    416.0    -68.1 -0.6105E+01 -0.7608E-01
2021  8 11 23 40  129.8264   32.6177   487.30  355.059    27.3   21.00  20.30   -13.92   298.76  299.08     3.5    464.2    488.9  0.9495E+00  0.1098E+00
2021  8 11 23 30  129.7743   32.5812   480.28  354.939    65.4   21.93  20.47    -0.51   299.50  299.39     5.6    411.4   -217.0 -0.1896E+01  0.2211E-01
2021  8 11 23 20  129.7207   32.5428   440.97  355.057    67.3   23.40  20.26     9.04   300.61  299.75     6.7    403.9   -102.4 -0.3945E+01  0.4656E-02
2021  8 11 23 10  129.6690   32.5049   377.93  355.278    68.0   23.52  20.20     9.87   300.69  299.69     6.3    378.2    -80.5 -0.4697E+01  0.1637E+00
2021  8 11 23  0  129.6203   32.4646   406.18  355.135    78.1   23.64  20.10    11.43   300.77  299.69     6.7    357.5    -87.5 -0.4085E+01 -0.7357E-01
2021  8 11 22 50  129.5743   32.4208   396.87  356.361    84.9   23.74  20.11    13.24   300.85  299.66     7.1    379.8    -94.5 -0.4021E+01 -0.1942E+00
2021  8 11 22 40  129.5321   32.3728   331.01  356.763    94.1   23.83  20.12    15.05   300.91  299.66     7.7    389.7   -110.3 -0.3532E+01  0.2000E+00
2021  8 11 22 30  129.4997   32.3150   293.51  357.233    93.3   23.92  20.16    15.07   300.97  299.68     7.6    362.4   -105.7 -0.3430E+01  0.2504E-02
2021  8 11 22 20  129.4650   32.2587   327.12  357.014    85.6   23.95  20.24    12.91   300.99  299.80     7.1    362.9    -92.9 -0.3907E+01 -0.8214E-01
2021  8 11 22 10  129.4275   32.2071   345.13  356.642    84.8   23.93  20.25    10.42   300.98  300.02     7.1    377.1   -102.8 -0.3668E+01 -0.2121E-01
2021  8 11 22  0  129.3888   32.1590   310.93  356.488    94.7   23.91  20.04     7.05   300.96  300.33     7.5    392.5   -134.5 -0.2919E+01  0.1249E+00
2021  8 11 21 50  129.3460   32.1105   262.67  356.448   114.3   23.89  19.81     4.26   300.95  300.62     8.5    382.5   -203.8 -0.1877E+01  0.8768E-01
2021  8 11 21 40  129.2958   32.0594   242.92  356.755   137.0   23.88  19.68     4.48   300.94  300.65     9.8    369.8   -289.8 -0.1276E+01 -0.9067E-01
2021  8 11 21 30  129.2468   32.0073   296.17  356.922   131.2   23.91  19.77     5.51   300.97  300.60     9.6    376.0   -265.1 -0.1419E+01 -0.2392E-02
2021  8 11 21 20  129.1940   31.9507   292.06  357.161   145.5   24.00  19.96     8.26   301.02  300.53    11.0    377.0   -361.9 -0.1042E+01 -0.4174E-01
2021  8 11 21 10  129.1427   31.8954   314.51  357.341   124.0   24.11  20.39    10.05   301.10  300.46    10.3    387.8   -301.7 -0.1285E+01 -0.2311E-01
2021  8 11 21  0  129.0954   31.8434   324.49  357.212    96.4   24.23  20.95     9.70   301.18  300.50     9.3    401.8   -245.7 -0.1635E+01  0.8013E-01
2021  8 11 20 50  129.0512   31.7891   330.45  356.746    85.0   24.37  21.33    10.16   301.27  300.54     9.0    423.9   -231.8 -0.1828E+01 -0.8119E-01
2021  8 11 20 40  129.0069   31.7307   359.39  357.553    88.2   24.51  21.53    11.38   301.36  300.60     9.6    487.0   -269.2 -0.1809E+01 -0.2000E+00
2021  8 11 20 30  128.9595   31.6712   401.58  357.482    92.7   24.66  21.53    11.81   301.47  300.67     9.6    548.9   -255.8 -0.2146E+01 -0.1028E+00
2021  8 11 20 20  128.9118   31.6131   416.68  357.082    93.3   24.80  21.51    11.39   301.57  300.75     9.1    607.0   -216.0 -0.2810E+01 -0.7335E-01
2021  8 11 20 10  128.8649   31.5540   421.70  357.274    93.6   24.94  21.62    12.19   301.67  300.79     9.0    613.4   -205.3 -0.2988E+01 -0.7905E-01
2021  8 11 20  0  128.8230   31.4950   395.72  358.025    86.9   25.06  21.70    10.63   301.75  300.91     8.3    643.5   -167.8 -0.3836E+01  0.1126E+00
2021  8 11 19 50  128.7897   31.4380   331.61  358.134    82.5   25.16  21.69     9.15   301.81  301.02     7.6    575.6   -136.1 -0.4229E+01  0.1349E+00
2021  8 11 19 40  128.7628   31.3824   307.39  358.143    87.6   25.23  21.63     8.00   301.85  301.17     7.7    601.6   -144.6 -0.4160E+01 -0.5303E-01
2021  8 11 19 30  128.7359   31.3269   315.17  358.948    96.1   25.29  21.52     6.62   301.89  301.35     8.0    707.3   -169.1 -0.4182E+01 -0.4301E-01
2021  8 11 19 20  128.7098   31.2696   305.87  359.536   103.1   25.34  21.40     4.78   301.92  301.54     8.2    749.7   -186.7 -0.4015E+01  0.5889E-01
2021  8 11 19 10  128.6853   31.2112   286.01  359.741   111.9   25.39  21.25     3.48   301.96  301.69     8.4    729.2   -203.8 -0.3578E+01  0.5370E-02
2021  8 11 19  0  128.6592   31.1516   272.10  360.136   124.7   25.45  21.15     2.92   301.99  301.78     9.0    705.8   -239.7 -0.2945E+01  0.3350E-01
2021  8 11 18 50  128.6338   31.0898   268.07  360.122   134.1   25.52  21.05     2.95   302.03  301.82     9.3    691.5   -252.1 -0.2743E+01 -0.1686E-01
2021  8 11 18 40  128.6098   31.0265   267.65  359.925   143.7   25.57  20.97     2.68   302.07  301.88     9.6    708.5   -271.1 -0.2613E+01  0.1367E-01
2021  8 11 18 30  128.5854   30.9600   266.59  359.748   158.3   25.61  20.92     2.86   302.09  301.91    10.4    682.8   -324.2 -0.2106E+01 -0.4056E-01
2021  8 11 18 20  128.5616   30.8949   290.61  359.532   143.8   25.63  20.91     2.53   302.11  301.93     9.3    719.3   -247.6 -0.2905E+01  0.6881E-02
2021  8 11 18 10  128.5412   30.8309   284.72  359.440   147.9   25.64  20.87     2.79   302.12  301.93     9.5    687.6   -251.2 -0.2737E+01  0.1215E-01
2021  8 11 18  0  128.5218   30.7655   268.91  359.358   157.1   25.67  20.80     3.20   302.14  301.93     9.8    626.2   -269.0 -0.2328E+01  0.4020E-01
2021  8 11 17 50  128.5013   30.6979   255.10  359.316   166.9   25.72  20.75     3.95   302.17  301.92    10.2    592.5   -284.3 -0.2084E+01  0.7020E-02
2021  8 11 17 40  128.4776   30.6297   253.74  359.201   179.2   25.79  20.70     5.03   302.21  301.90    10.6    588.0   -305.7 -0.1924E+01 -0.1138E-01
2021  8 11 17 30  128.4541   30.5599   269.27  359.030   183.2   25.85  20.69     5.81   302.25  301.90    10.7    607.6   -301.0 -0.2019E+01 -0.3882E-01
2021  8 11 17 20  128.4333   30.4907   286.87  358.987   179.8   25.90  20.66     6.10   302.28  301.90    10.4    636.9   -268.5 -0.2372E+01 -0.2606E-01
2021  8 11 17 10  128.4146   30.4222   290.50  358.891   181.9   25.93  20.67     6.66   302.31  301.89    10.4    628.2   -266.3 -0.2359E+01 -0.3674E-02
2021  8 11 17  0  128.3968   30.3534   297.51  358.783   182.6   25.97  20.66     7.10   302.34  301.89    10.3    622.1   -254.6 -0.2443E+01  0.7333E-02
2021  8 11 16 50  128.3809   30.2821   291.11  358.714   198.5   26.03  20.66     8.70   302.37  301.86    11.1    609.2   -297.1 -0.2051E+01  0.2065E-01
2021  8 11 16 40  128.3658   30.2104   293.31  358.656   195.1   26.10  20.62     9.31   302.42  301.85    10.7    604.2   -257.4 -0.2348E+01  0.3443E-01
2021  8 11 16 30  128.3521   30.1378   286.78  358.506   208.6   26.21  20.61    11.46   302.48  301.81    11.1    577.6   -272.0 -0.2123E+01  0.2981E-02
2021  8 11 16 20  128.3410   30.0637   293.53  358.351   215.2   26.30  20.59    13.04   302.54  301.78    11.2    574.7   -268.5 -0.2140E+01 -0.3555E-01
2021  8 11 16 10  128.3313   29.9909   313.26  358.187   211.4   26.34  20.60    13.74   302.57  301.75    11.0    585.6   -245.5 -0.2385E+01 -0.3085E-01
2021  8 11 16  0  128.3227   29.9195   326.43  358.074   206.8   26.34  20.62    14.09   302.57  301.72    10.7    585.4   -229.5 -0.2550E+01 -0.1751E-01
2021  8 11 15 50  128.3166   29.8473   335.15  357.989   210.6   26.31  20.63    14.92   302.56  301.68    11.0    586.4   -246.0 -0.2384E+01 -0.3591E-01
2021  8 11 15 40  128.3126   29.7745   357.61  357.775   206.5   26.26  20.64    15.17   302.53  301.63    10.9    588.7   -240.5 -0.2448E+01 -0.3649E-01
2021  8 11 15 30  128.3090   29.7015   373.37  357.918   203.4   26.20  20.67    15.69   302.50  301.56    11.0    591.4   -241.4 -0.2450E+01 -0.3760E-01
2021  8 11 15 20  128.3060   29.6289   389.62  358.131   194.8   26.13  20.69    15.36   302.45  301.52    10.7    592.7   -227.9 -0.2601E+01 -0.2843E-01
2021  8 11 15 10  128.3035   29.5573   397.32  357.885   185.7   26.04  20.68    14.92   302.40  301.46    10.4    572.4   -211.2 -0.2710E+01  0.3293E-01
2021  8 11 15  0  128.3011   29.4839   381.61  357.398   188.5   25.94  20.65    15.57   302.33  301.38    10.7    525.0   -231.2 -0.2271E+01  0.5056E-01
2021  8 11 14 50  128.2982   29.4089   374.17  356.783   180.7   25.77  20.60    15.11   302.22  301.28    10.5    494.4   -223.5 -0.2212E+01  0.1329E-01
2021  8 11 14 40  128.2927   29.3341   379.37  356.677   170.3   25.59  20.59    14.53   302.11  301.18    10.2    485.7   -214.5 -0.2264E+01 -0.5281E-01
2021  8 11 14 30  128.2845   29.2588   397.26  356.666   167.2   25.45  20.58    14.94   302.02  301.08    10.3    483.0   -222.5 -0.2171E+01 -0.6012E-01
2021  8 11 14 20  128.2761   29.1822   408.54  356.609   166.0   25.38  20.57    16.25   301.97  300.95    10.4    482.7   -222.8 -0.2166E+01 -0.6995E-02
2021  8 11 14 10  128.2692   29.1040   414.36  356.547   163.4   25.33  20.58    18.34   301.94  300.79    10.4    468.3   -211.4 -0.2215E+01 -0.2171E-02
2021  8 11 14  0  128.2637   29.0253   428.05  356.632   152.8   25.30  20.62    20.03   301.92  300.60     9.8    460.0   -174.9 -0.2630E+01 -0.4426E-01
2021  8 11 13 50  128.2577   28.9469   438.00  356.546   141.0   25.27  20.69    21.47   301.90  300.41     9.3    447.4   -145.2 -0.3080E+01  0.3650E-01
2021  8 11 13 40  128.2523   28.8680   452.28  356.758   135.6   25.24  20.74    23.12   301.89  300.25     9.1    437.9   -132.6 -0.3303E+01 -0.5814E-01
2021  8 11 13 30  128.2473   28.7881   489.11  357.101   133.1   25.22  20.81    24.38   301.88  300.15     9.2    443.0   -133.2 -0.3327E+01  0.4855E-02
2021  8 11 13 20  128.2455   28.7079   540.90  356.898   131.6   25.20  20.98    26.31   301.87  300.08     9.6    419.8   -149.9 -0.2800E+01  0.3972E-01
2021  8 11 13 10  128.2469   28.6282   590.86  356.537   121.8   25.17  21.27    26.65   301.85  300.07     9.8    418.3   -162.0 -0.2581E+01  0.1197E+00
2021  8 11 13  0  128.2507   28.5512   662.12  355.977   110.5   25.15  21.45    22.42   301.84  300.30     9.5    463.0   -165.9 -0.2790E+01  0.1901E+00
2021  8 11 12 50  128.2577   28.4800   524.14  356.040   122.0   25.14  20.99    11.27   301.84  301.03     9.0    626.7   -185.4 -0.3380E+01  0.4413E+00
2021  8 11 12 40  128.2750   28.4056   314.09  356.985   163.4   25.17  20.78     9.74   301.85  301.29    11.4    594.0   -365.9 -0.1623E+01  0.5289E-03
2021  8 11 12 30  128.2958   28.3288   312.38  356.607   178.7   25.19  20.70    12.04   301.87  301.22    12.0    536.7   -405.1 -0.1325E+01 -0.5869E-01
2021  8 11 12 20  128.3108   28.2533   352.90  356.473   161.6   25.22  20.82    13.66   301.89  301.09    11.2    533.1   -311.2 -0.1713E+01 -0.1314E+00
2021  8 11 12 10  128.3233   28.1774   393.40  355.798   149.3   25.24  20.92    14.41   301.90  301.01    10.6    527.1   -259.5 -0.2031E+01 -0.2428E+00
2021  8 11 12  0  128.3324   28.0996   464.32  356.096   138.6   25.26  20.94    11.43   301.91  301.15     9.8    614.3   -226.0 -0.2718E+01 -0.7761E-01
2021  8 11 11 50  128.3407   28.0202   469.69  356.118   139.3   25.25  20.96    10.46   301.90  301.21    10.0    615.8   -245.2 -0.2511E+01 -0.1245E-02
2021  8 11 11 40  128.3497   27.9402   474.42  355.810   133.2   25.16  20.94     8.41   301.84  301.28     9.7    591.0   -246.7 -0.2395E+01 -0.5687E-03
2021  8 11 11 30  128.3560   27.8625   492.39  355.643   119.5   25.03  20.98     6.96   301.76  301.26     9.1    566.6   -223.5 -0.2535E+01 -0.5211E-01
2021  8 11 11 20  128.3574   27.7853   516.26  355.607   110.3   24.89  21.03     6.15   301.67  301.22     8.9    575.5   -224.4 -0.2564E+01 -0.6045E-01
2021  8 11 11 10  128.3562   27.7088   543.05  355.629    98.6   24.75  21.08     5.00   301.57  301.19     8.4    604.8   -211.4 -0.2861E+01 -0.5623E-01
2021  8 11 11  0  128.3555   27.6326   559.92  355.514    92.5   24.59  21.11     3.59   301.46  301.19     8.4    633.4   -236.3 -0.2681E+01 -0.2328E-02
2021  8 11 10 50  128.3553   27.5542   563.14  355.506    91.9   24.43  21.10     1.93   301.35  301.21     8.9    666.4   -303.4 -0.2196E+01 -0.5306E-01
2021  8 11 10 40  128.3548   27.4728   583.07  355.549    87.6   24.28  21.09     0.32   301.26  301.23     8.9    693.3   -350.7 -0.1977E+01 -0.5525E-01
2021  8 11 10 30  128.3542   27.3910   604.21  355.720    75.9   24.16  21.14    -0.71   301.17  301.23     8.2    716.3   -332.6 -0.2154E+01 -0.2122E-01
2021  8 11 10 20  128.3533   27.3093   603.61  355.746    69.5   24.06  21.14    -1.39   301.11  301.22     7.9    707.7   -328.5 -0.2155E+01  0.2063E-01
2021  8 11 10 10  128.3533   27.2270   576.81  355.753    73.8   23.98  21.08    -2.34   301.05  301.23     8.4    692.1   -419.2 -0.1651E+01  0.3736E-01
2021  8 11 10  0  128.3554   27.1428   562.87  355.780    77.4   23.92  21.03    -3.36   301.00  301.25     8.9    714.2   -526.1 -0.1358E+01  0.2149E-01
2021  8 11  9 50  128.3576   27.0571   558.11  355.808    75.8   23.87  21.04    -3.99   300.97  301.27     8.9    766.3   -581.3 -0.1318E+01 -0.2301E-02
2021  8 11  9 40  128.3589   26.9732   557.34  355.716    68.5   23.85  21.05    -4.29   300.95  301.30     8.2    803.9   -524.1 -0.1534E+01  0.4580E-01
2021  8 11  9 30  128.3609   26.8905   524.26  355.591    75.8   23.86  20.94    -5.11   300.96  301.35     8.6    751.6   -596.6 -0.1260E+01  0.2996E-01
2021  8 11  9 20  128.3630   26.8070   544.58  355.569    79.0   23.88  20.88    -5.15   300.98  301.37     8.6    793.0   -575.0 -0.1379E+01 -0.6081E-01
2021  8 11  9 10  128.3616   26.7246   535.02  355.505    75.9   23.91  20.86    -5.23   300.99  301.41     8.2    754.0   -517.9 -0.1456E+01  0.6618E-01
2021  8 11  9  0  128.3615   26.6439   512.50  355.495    75.7   23.93  20.80    -5.39   301.01  301.46     7.9    726.0   -473.6 -0.1533E+01  0.2284E-01
2021  8 11  8 50  128.3632   26.5627   511.89  355.462    84.2   23.96  20.73    -5.96   301.03  301.50     8.4    723.2   -539.1 -0.1342E+01 -0.4187E-01
2021  8 11  8 40  128.3645   26.4792   523.84  355.251    89.5   23.99  20.67    -6.10   301.05  301.52     8.7    709.6   -550.2 -0.1290E+01 -0.1703E-01
2021  8 11  8 30  128.3626   26.3936   530.58  355.299    91.3   24.03  20.68    -5.80   301.07  301.51     8.7    713.8   -528.1 -0.1352E+01 -0.1390E-01
2021  8 11  8 20  128.3583   26.3065   544.24  355.359    90.1   24.05  20.72    -5.28   301.09  301.49     8.7    721.0   -496.5 -0.1452E+01 -0.2757E-01
2021  8 11  8 10  128.3544   26.2175   570.82  355.456    86.3   24.01  20.77    -5.18   301.06  301.46     8.6    746.0   -512.6 -0.1455E+01 -0.5350E-01
2021  8 11  8  0  128.3521   26.1281   578.11  355.405    83.0   23.90  20.77    -5.78   300.98  301.43     8.6    727.5   -579.3 -0.1256E+01  0.1599E-01
2021  8 11  7 50  128.3495   26.0382   582.69  355.322    80.3   23.77  20.74    -6.63   300.89  301.40     8.7    696.7   -700.8 -0.9943E+00 -0.1529E-01
2021  8 11  7 40  128.3488   25.9488   595.49  355.166    76.7   23.68  20.75    -7.07   300.83  301.38     8.6    680.5   -796.3 -0.8546E+00 -0.4747E-02
2021  8 11  7 30  128.3490   25.8586   627.61  355.235    74.9   23.61  20.75    -7.46   300.78  301.35     8.7    707.5   -913.4 -0.7746E+00 -0.1005E+00
2021  8 11  7 20  128.3511   25.7694   649.49  355.509    75.2   23.55  20.71    -8.23   300.74  301.37     8.8    741.6  -1096.2 -0.6765E+00 -0.2320E-01
2021  8 11  7 10  128.3535   25.6802   646.74  355.766    76.1   23.54  20.71    -8.50   300.73  301.36     9.0    758.3  -1207.2 -0.6282E+00  0.2555E-01
2021  8 11  7  0  128.3520   25.5897   632.19  355.575    81.2   23.56  20.68    -8.73   300.73  301.35     9.4    721.7  -1232.3 -0.5856E+00  0.2077E-01
2021  8 11  6 50  128.3477   25.5000   634.78  355.530    75.9   23.57  20.70    -8.34   300.74  301.37     8.8    720.5  -1103.7 -0.6529E+00  0.1407E-01
2021  8 11  6 40  128.3453   25.4113   625.17  355.682    80.4   23.60  20.73    -8.80   300.76  301.40     9.3    724.8  -1247.6 -0.5809E+00 -0.3854E-02
2021  8 11  6 30  128.3455   25.3214   620.63  355.551    81.6   23.65  20.75    -8.69   300.80  301.42     9.3    711.5  -1192.0 -0.5969E+00  0.3584E-01
2021  8 11  6 20  128.3465   25.2325   606.30  355.542    81.6   23.68  20.76    -8.59   300.82  301.44     9.2    701.9  -1137.3 -0.6171E+00  0.3629E-01
2021  8 11  6 10  128.3463   25.1442   615.61  355.279    79.4   23.69  20.76    -8.56   300.83  301.46     9.0    703.7  -1105.3 -0.6367E+00 -0.4815E-01
2021  8 11  6  0  128.3454   25.0562   638.80  355.442    79.6   23.69  20.78    -8.98   300.83  301.49     9.1    750.9  -1224.2 -0.6134E+00 -0.3789E-01
2021  8 11  5 50  128.3451   24.9677   644.14  355.601    80.4   23.73  20.77    -8.98   300.86  301.52     9.0    774.7  -1174.6 -0.6595E+00 -0.6140E-02
2021  8 11  5 40  128.3447   24.8803   642.80  355.544    82.5   23.78  20.73    -8.90   300.89  301.56     8.9    769.4  -1038.8 -0.7407E+00 -0.2417E-01
2021  8 11  5 30  128.3461   24.7928   612.91  356.140    93.4   23.86  20.67    -9.59   300.95  301.62     9.6    783.3  -1114.8 -0.7026E+00  0.1041E+00
2021  8 11  5 20  128.3502   24.7058   605.98  356.276   100.2   23.98  20.62    -9.38   301.03  301.68     9.6    782.5   -946.3 -0.8269E+00 -0.1946E-01
2021  8 11  5 10  128.3544   24.6186   599.08  356.614   117.4   24.15  20.56    -9.48   301.14  301.75    10.4    802.6   -930.9 -0.8621E+00 -0.1617E-01
2021  8 11  5  0  128.3585   24.5317   588.99  356.591   126.4   24.33  20.51    -8.58   301.27  301.81    10.4    767.6   -768.2 -0.9992E+00  0.8358E-01
2021  8 11  4 50  128.3626   24.4455   549.11  356.717   140.2   24.50  20.48    -7.60   301.38  301.84    10.8    716.4   -709.6 -0.1010E+01  0.7352E-01
2021  8 11  4 40  128.3676   24.3589   523.95  356.788   150.2   24.68  20.48    -6.51   301.50  301.88    11.1    710.7   -659.0 -0.1078E+01  0.1931E-01
2021  8 11  4 30  128.3731   24.2720   527.08  356.663   158.9   24.83  20.49    -5.41   301.60  301.92    11.2    719.0   -614.8 -0.1170E+01 -0.3054E-01
2021  8 11  4 20  128.3805   24.1871   539.83  356.812   160.6   24.94  20.49    -4.92   301.68  301.97    11.0    756.0   -558.2 -0.1354E+01 -0.1946E-01
2021  8 11  4 10  128.3902   24.1028   533.42  356.707   166.9   25.03  20.46    -4.30   301.74  301.99    11.1    741.8   -539.2 -0.1376E+01  0.4198E-01
2021  8 11  4  0  128.3989   24.0192   519.44  356.556   167.8   25.12  20.45    -3.60   301.80  302.01    10.9    726.9   -485.5 -0.1497E+01  0.3083E-01
2021  8 11  3 50  128.4055   23.9363   518.29  356.530   169.9   25.22  20.44    -3.03   301.87  302.05    10.8    737.8   -449.6 -0.1641E+01 -0.2007E-01
2021  8 11  3 40  128.4105   23.8539   512.28  356.661   177.5   25.33  20.44    -2.09   301.94  302.07    11.0    743.0   -437.5 -0.1698E+01  0.2277E-01
2021  8 11  3 30  128.4143   23.7711   496.34  356.608   179.5   25.42  20.44    -1.39   302.00  302.09    10.9    729.8   -408.5 -0.1786E+01  0.4007E-01
2021  8 11  3 20  128.4177   23.6888   494.67  356.542   177.9   25.46  20.44    -0.90   302.03  302.09    10.7    725.7   -380.4 -0.1908E+01 -0.7519E-02
2021  8 11  3 10  128.4213   23.6056   480.97  356.393   186.3   25.47  20.42    -0.74   302.04  302.08    11.1    714.1   -417.6 -0.1710E+01  0.1820E-01
2021  8 11  3  0  128.4266   23.5210   493.86  356.513   183.3   25.47  20.42    -0.69   302.03  302.07    10.9    729.2   -399.8 -0.1824E+01 -0.2731E-01
2021  8 11  2 50  128.4315   23.4350   488.88  356.423   192.5   25.46  20.40    -0.56   302.03  302.06    11.4    725.9   -448.8 -0.1617E+01  0.9359E-03
2021  8 11  2 40  128.4374   23.3470   487.08  356.255   196.1   25.44  20.38    -0.62   302.01  302.05    11.6    719.2   -472.3 -0.1523E+01  0.2023E-01
2021  8 11  2 30  128.4442   23.2583   487.80  356.315   197.2   25.42  20.37    -0.82   302.00  302.05    11.7    729.2   -481.2 -0.1515E+01  0.8098E-02
2021  8 11  2 20  128.4521   23.1688   482.82  356.643   200.9   25.44  20.37    -0.70   302.01  302.05    11.9    746.1   -499.5 -0.1494E+01  0.1733E-02
2021  8 11  2 10  128.4601   23.0797   474.07  356.539   201.5   25.46  20.35    -0.47   302.03  302.06    11.8    746.7   -484.7 -0.1540E+01  0.1938E-01
2021  8 11  2  0  128.4663   22.9927   468.22  356.330   191.7   25.47  20.33    -0.52   302.04  302.07    11.2    749.0   -413.8 -0.1810E+01  0.2642E-01
2021  8 11  1 50  128.4722   22.9061   451.64  356.212   199.2   25.48  20.29    -0.42   302.04  302.07    11.5    739.5   -442.5 -0.1671E+01  0.1173E-01
2021  8 11  1 40  128.4780   22.8183   441.28  356.171   203.1   25.47  20.27    -0.38   302.04  302.06    11.7    736.5   -457.0 -0.1611E+01  0.1389E-01
2021  8 11  1 30  128.4840   22.7306   439.55  356.193   198.2   25.46  20.25    -0.57   302.04  302.07    11.4    745.2   -430.9 -0.1729E+01 -0.2381E-02
2021  8 11  1 20  128.4913   22.6419   424.11  356.171   209.6   25.45  20.23    -0.47   302.02  302.05    12.0    725.9   -492.4 -0.1474E+01  0.3211E-01
2021  8 11  1 10  128.5003   22.5513   410.89  356.094   208.5   25.43  20.21    -0.58   302.01  302.04    11.9    723.8   -487.2 -0.1486E+01  0.2885E-01
2021  8 11  1  0  128.5109   22.4597   388.56  355.924   217.6   25.43  20.18    -0.33   302.01  302.03    12.3    696.3   -526.6 -0.1322E+01  0.2304E-01
2021  8 11  0 50  128.5242   22.3656   371.29  355.847   233.9   25.47  20.16     0.38   302.03  302.02    13.0    678.9   -599.3 -0.1133E+01  0.3384E-01
2021  8 11  0 40  128.5397   22.2684   366.89  355.926   247.2   25.53  20.13     1.28   302.07  302.01    13.5    673.0   -636.3 -0.1058E+01 -0.2863E-01
2021  8 11  0 30  128.5545   22.1733   386.59  356.014   240.3   25.59  20.13     1.56   302.12  302.04    12.9    707.9   -555.4 -0.1275E+01 -0.4203E-02
2021  8 11  0 20  128.5676   22.0808   397.25  355.916   235.9   25.68  20.13     2.08   302.18  302.07    12.5    744.4   -491.2 -0.1515E+01 -0.2391E-01
2021  8 11  0 10  128.5793   21.9920   403.32  355.778   230.8   25.76  20.11     2.89   302.24  302.08    12.1    767.6   -423.1 -0.1814E+01  0.1289E-01
2021  8 11  0  0  128.5905   21.9044   394.14  355.815   231.6   25.84  20.11     3.71   302.28  302.08    11.9    776.8   -398.6 -0.1949E+01  0.1124E-01
