2021  8 12  0  0  129.9459   32.6243   500.00  355.568    63.6   22.87  19.91    12.54   300.24  299.04     6.7    423.8    -89.8 -0.4721E+01  0.6743E+00
2021  8 11 23 50  129.9016   32.5721   290.19  356.129    68.2   23.01  19.93    11.23   300.34  299.29     6.9    395.6   -101.1 -0.3911E+01  0.2154E+00
2021  8 11 23 40  129.8517   32.5151   233.77  357.080    74.0   23.19  20.21    10.46   300.47  299.61     7.9    394.4   -156.2 -0.2525E+01  0.1020E+00
2021  8 11 23 30  129.7981   32.4537   193.38  358.314    84.5   23.40  20.35    11.54   300.62  299.77     8.8    375.8   -204.5 -0.1837E+01  0.9888E-01
2021  8 11 23 20  129.7450   32.3905   153.65  358.830    85.4   23.61  20.46    12.78   300.76  299.79     8.6    389.7   -177.6 -0.2194E+01  0.2621E-01
2021  8 11 23 10  129.6939   32.3329   117.98  359.594    80.7   23.77  20.58    12.68   300.87  299.84     8.0    397.7   -145.0 -0.2742E+01  0.3547E-01
2021  8 11 23  0  129.6439   32.2839    91.53  359.913    70.4   23.88  20.74    10.49   300.94  299.98     7.2    412.5   -115.5 -0.3573E+01  0.3644E-01
2021  8 11 22 50  129.5952   32.2414    76.63  360.514    70.6   23.93  20.94     8.12   300.98  300.26     7.6    445.6   -156.4 -0.2849E+01 -0.3172E-02
2021  8 11 22 40  129.5462   32.1955    87.49  361.342    71.8   23.95  21.09     7.32   300.99  300.42     8.2    503.6   -207.9 -0.2422E+01 -0.7715E-01
2021  8 11 22 30  129.4952   32.1421   141.66  361.838    62.3   23.93  21.04     7.93   300.98  300.24     6.9    534.8   -125.1 -0.4274E+01 -0.9329E-01
2021  8 11 22 20  129.4399   32.0838   193.74  361.775    51.4   23.89  21.30     4.47   300.95  300.45     6.8    585.6   -149.8 -0.3909E+01  0.8299E-02
2021  8 11 22 10  129.3809   32.0225   184.86  361.794    73.5   23.86  21.43    -1.48   300.93  300.98    10.5    640.8   -760.4 -0.8426E+00  0.1488E-01
2021  8 11 22  0  129.3218   31.9608   188.90  361.443    83.8   23.86  21.28    -4.81   300.93  301.22    11.0    661.4  -1145.9 -0.5771E+00  0.2722E-01
2021  8 11 21 50  129.2617   31.8912   153.92  361.441   104.9   23.90  21.15    -4.39   300.95  301.17    12.6    590.0  -1385.4 -0.4259E+00 -0.2411E-01
2021  8 11 21 40  129.2079   31.8223   169.10  361.364    92.3   23.96  21.17    -3.51   301.00  301.21    11.0    622.3   -912.5 -0.6820E+00 -0.1924E-01
2021  8 11 21 30  129.1567   31.7581   172.38  361.266    95.3   24.09  21.16    -3.05   301.09  301.28    10.7    625.6   -787.9 -0.7940E+00  0.4995E-02
2021  8 11 21 20  129.1066   31.6947   172.99  360.993   106.5   24.26  21.10    -1.47   301.21  301.30    10.9    604.9   -678.9 -0.8910E+00 -0.4837E-02
2021  8 11 21 10  129.0603   31.6308   180.41  360.860   111.8   24.45  21.12     0.31   301.33  301.31    10.8    599.4   -558.7 -0.1073E+01 -0.4089E-01
2021  8 11 21  0  129.0190   31.5696   193.24  360.703   105.4   24.62  21.09     1.04   301.45  301.37     9.5    628.7   -364.2 -0.1726E+01 -0.2094E-02
2021  8 11 20 50  128.9811   31.5107   182.84  360.433   116.2   24.77  21.03     2.76   301.54  301.35     9.8    558.4   -341.1 -0.1637E+01  0.2059E-01
2021  8 11 20 40  128.9457   31.4467   178.75  360.123   132.8   24.91  21.02     4.85   301.63  301.33    10.7    521.4   -386.8 -0.1348E+01 -0.1600E-01
2021  8 11 20 30  128.9107   31.3793   198.76  359.884   133.5   25.02  21.06     5.06   301.71  301.39    10.5    554.5   -364.1 -0.1523E+01 -0.5990E-01
2021  8 11 20 20  128.8730   31.3152   230.68  359.575   131.9   25.11  21.06     4.31   301.78  301.50    10.2    597.0   -329.7 -0.1811E+01 -0.5126E-01
2021  8 11 20 10  128.8360   31.2526   244.38  359.293   129.4   25.18  21.06     3.99   301.83  301.56     9.8    599.2   -297.1 -0.2016E+01 -0.1245E-01
2021  8 11 20  0  128.8034   31.1886   252.10  359.060   134.0   25.25  21.05     5.00   301.88  301.54     9.9    577.4   -291.3 -0.1982E+01 -0.4704E-01
2021  8 11 19 50  128.7738   31.1216   272.15  358.864   143.0   25.32  21.02     6.80   301.92  301.48    10.3    567.1   -296.1 -0.1915E+01 -0.4204E-01
2021  8 11 19 40  128.7448   31.0522   281.76  358.923   148.9   25.39  20.99     7.78   301.96  301.47    10.4    563.8   -296.9 -0.1899E+01 -0.3264E-01
2021  8 11 19 30  128.7161   30.9824   281.13  358.652   156.8   25.45  20.91     8.19   302.00  301.49    10.6    530.5   -297.7 -0.1782E+01  0.1616E-01
2021  8 11 19 20  128.6874   30.9113   288.20  358.182   163.7   25.49  20.85     8.41   302.02  301.51    10.8    516.2   -307.9 -0.1676E+01 -0.2388E-01
2021  8 11 19 10  128.6577   30.8397   302.75  357.707   167.4   25.52  20.84     9.61   302.04  301.46    10.9    503.0   -304.3 -0.1653E+01 -0.2896E-01
2021  8 11 19  0  128.6263   30.7672   309.60  357.263   171.8   25.56  20.86    11.95   302.07  301.37    11.1    479.5   -303.2 -0.1581E+01 -0.2425E-02
2021  8 11 18 50  128.5962   30.6926   310.17  357.007   173.1   25.65  20.97    15.34   302.12  301.23    11.2    455.4   -292.8 -0.1555E+01 -0.9744E-02
2021  8 11 18 40  128.5688   30.6147   320.42  356.809   178.5   25.74  21.07    19.46   302.18  301.09    11.6    434.4   -294.5 -0.1475E+01 -0.7055E-01
2021  8 11 18 30  128.5429   30.5362   406.49  357.050   168.8   25.82  21.11    18.23   302.23  301.15    10.9    478.6   -246.8 -0.1939E+01 -0.2395E+00
2021  8 11 18 20  128.5145   30.4598   490.30  357.380   167.3   25.87  21.06    13.69   302.27  301.42    10.5    583.4   -244.3 -0.2388E+01 -0.1150E+00
2021  8 11 18 10  128.4841   30.3831   498.13  357.788   169.3   25.91  20.99    10.66   302.30  301.63    10.4    652.9   -250.2 -0.2610E+01 -0.1639E-01
2021  8 11 18  0  128.4529   30.3072   479.49  358.184   175.1   25.97  20.88     8.34   302.34  301.81    10.4    725.8   -259.2 -0.2800E+01  0.7590E-01
2021  8 11 17 50  128.4220   30.2317   438.74  358.279   193.3   26.06  20.82     9.60   302.39  301.83    11.1    697.7   -298.8 -0.2335E+01  0.9492E-01
2021  8 11 17 40  128.3921   30.1531   404.97  358.086   206.9   26.18  20.80    11.92   302.47  301.79    11.5    641.7   -310.5 -0.2067E+01  0.3577E-01
2021  8 11 17 30  128.3638   30.0726   394.36  357.615   215.7   26.30  20.81    13.96   302.54  301.76    11.7    607.9   -309.6 -0.1964E+01 -0.3038E-01
2021  8 11 17 20  128.3366   29.9921   409.15  357.373   208.5   26.34  20.83    14.27   302.57  301.75    11.3    626.5   -273.9 -0.2287E+01 -0.2605E-01
2021  8 11 17 10  128.3108   29.9113   413.68  357.103   210.4   26.34  20.86    14.88   302.57  301.72    11.4    627.2   -283.2 -0.2215E+01 -0.2852E-02
2021  8 11 17  0  128.2854   29.8301   420.57  356.754   201.0   26.30  20.85    14.08   302.55  301.72    11.0    635.1   -258.2 -0.2460E+01 -0.8856E-03
2021  8 11 16 50  128.2593   29.7503   416.14  356.312   201.7   26.27  20.82    13.90   302.53  301.71    11.1    628.8   -261.0 -0.2409E+01  0.8816E-02
2021  8 11 16 40  128.2342   29.6697   411.69  355.942   204.3   26.24  20.78    13.89   302.50  301.70    11.2    621.8   -269.2 -0.2310E+01  0.1613E-01
2021  8 11 16 30  128.2105   29.5886   411.36  355.407   200.1   26.19  20.73    13.11   302.48  301.70    11.0    626.3   -257.6 -0.2432E+01  0.3614E-04
2021  8 11 16 20  128.1873   29.5076   412.16  354.852   197.8   26.11  20.68    12.73   302.43  301.67    10.9    611.4   -255.1 -0.2397E+01  0.5053E-02
2021  8 11 16 10  128.1640   29.4265   419.75  354.362   194.8   26.01  20.64    12.74   302.36  301.60    10.8    599.1   -254.6 -0.2353E+01 -0.5667E-01
2021  8 11 16  0  128.1405   29.3451   439.41  354.004   188.4   25.92  20.64    12.43   302.31  301.55    10.7    602.2   -248.5 -0.2423E+01 -0.9752E-02
2021  8 11 15 50  128.1171   29.2622   416.72  353.443   193.6   25.87  20.66    13.43   302.28  301.49    11.1    537.4   -276.8 -0.1942E+01  0.4887E-01
2021  8 11 15 40  128.0942   29.1771   419.68  353.292   193.9   25.85  20.65    13.94   302.27  301.46    11.2    500.1   -276.4 -0.1810E+01 -0.5803E-01
2021  8 11 15 30  128.0705   29.0920   457.23  353.200   197.0   25.83  20.64    15.03   302.26  301.40    11.3    498.7   -284.0 -0.1756E+01 -0.6423E-01
2021  8 11 15 20  128.0479   29.0048   491.03  352.844   202.3   25.81  20.62    16.72   302.24  301.31    11.6    497.6   -295.9 -0.1682E+01 -0.2564E-01
2021  8 11 15 10  128.0280   28.9156   499.13  352.582   207.0   25.79  20.62    18.67   302.23  301.22    11.9    488.6   -311.0 -0.1571E+01  0.3881E-02
2021  8 11 15  0  128.0109   28.8251   517.42  352.430   200.3   25.76  20.65    19.24   302.21  301.15    11.7    476.7   -291.5 -0.1635E+01 -0.5412E-01
2021  8 11 14 50  127.9931   28.7364   536.69  352.201   191.5   25.74  20.69    19.54   302.20  301.09    11.3    482.9   -262.9 -0.1836E+01 -0.1072E-01
2021  8 11 14 40  127.9756   28.6489   556.28  352.077   182.8   25.72  20.72    19.66   302.19  301.03    11.0    491.8   -237.0 -0.2075E+01 -0.5689E-01
2021  8 11 14 30  127.9596   28.5635   590.14  352.094   178.2   25.70  20.68    19.23   302.18  301.01    10.6    497.7   -217.8 -0.2285E+01 -0.4203E-01
2021  8 11 14 20  127.9466   28.4785   610.47  352.042   179.6   25.69  20.65    19.82   302.17  300.97    10.7    498.5   -218.1 -0.2285E+01 -0.3961E-01
2021  8 11 14 10  127.9349   28.3941   619.50  352.018   179.4   25.69  20.57    19.50   302.17  300.96    10.5    500.1   -204.9 -0.2440E+01  0.2097E-01
2021  8 11 14  0  127.9223   28.3095   621.36  351.954   186.1   25.69  20.48    20.34   302.17  300.93    10.6    493.3   -208.2 -0.2369E+01 -0.4218E-01
2021  8 11 13 50  127.9095   28.2251   636.12  351.878   193.9   25.71  20.35    20.73   302.19  300.94    10.7    489.0   -209.6 -0.2333E+01 -0.2243E-01
2021  8 11 13 40  127.8986   28.1412   620.18  351.872   196.1   25.77  20.36    21.73   302.23  300.92    10.7    467.7   -204.7 -0.2285E+01  0.3702E-01
2021  8 11 13 30  127.8891   28.0583   599.14  351.772   197.6   25.83  20.34    22.57   302.27  300.90    10.7    439.1   -195.5 -0.2246E+01  0.4203E-01
2021  8 11 13 20  127.8786   27.9771   585.42  351.686   190.3   25.78  20.31    22.10   302.24  300.85    10.3    423.3   -176.9 -0.2394E+01  0.3816E-01
2021  8 11 13 10  127.8653   27.8971   587.00  351.581   177.3   25.62  20.37    21.78   302.14  300.73    10.0    418.4   -167.5 -0.2497E+01 -0.4382E-02
2021  8 11 13  0  127.8513   27.8178   617.43  351.539   162.2   25.40  20.45    20.29   301.99  300.65     9.8    429.5   -167.0 -0.2571E+01 -0.8825E-01
2021  8 11 12 50  127.8368   27.7412   651.40  351.639   146.4   25.18  20.52    17.15   301.85  300.68     9.5    451.3   -167.5 -0.2694E+01 -0.5398E-01
2021  8 11 12 40  127.8204   27.6661   660.07  351.617   139.8   25.00  20.54    15.26   301.73  300.69     9.5    441.8   -181.6 -0.2433E+01  0.7747E-02
2021  8 11 12 30  127.8032   27.5901   583.03  351.594   145.2   24.84  20.52    16.14   301.63  300.60    10.2    389.5   -224.6 -0.1734E+01  0.2416E+00
2021  8 11 12 20  127.7834   27.5125   530.52  351.489   151.5   24.71  20.30    17.34   301.54  300.45    10.3    349.0   -223.6 -0.1561E+01  0.9366E-02
2021  8 11 12 10  127.7634   27.4370   590.70  351.716   138.8   24.60  20.30    19.61   301.46  300.16     9.7    348.5   -177.9 -0.1959E+01 -0.3083E+00
2021  8 11 12  0  127.7447   27.3622   704.29  352.104   127.3   24.49  20.38    19.53   301.40  300.05     9.4    395.9   -165.0 -0.2399E+01 -0.1388E+00
2021  8 11 11 50  127.7260   27.2858   682.97  352.249   134.7   24.40  20.40    18.61   301.33  300.16    10.3    402.7   -224.6 -0.1793E+01  0.5961E-01
2021  8 11 11 40  127.7073   27.2073   717.30  351.710   128.6   24.33  20.34    17.19   301.28  300.15     9.9    382.9   -207.7 -0.1844E+01  0.1534E-02
2021  8 11 11 30  127.6892   27.1296   768.97  351.664   112.9   24.27  20.42    14.39   301.24  300.21     9.0    414.0   -171.4 -0.2416E+01 -0.1162E+00
2021  8 11 11 20  127.6706   27.0491   827.96  351.831   103.3   24.22  20.60    10.95   301.21  300.42     8.9    488.1   -191.8 -0.2545E+01 -0.1574E+00
2021  8 11 11 10  127.6524   26.9644   846.02  351.888    92.2   24.18  20.66     6.89   301.18  300.64     8.2    572.8   -185.3 -0.3091E+01  0.7664E-01
2021  8 11 11  0  127.6348   26.8767   832.39  351.942   103.0   24.15  20.42     5.32   301.16  300.76     8.6    573.1   -213.6 -0.2684E+01 -0.1360E-02
2021  8 11 10 50  127.6194   26.7863   854.88  351.955   116.6   24.12  20.24     6.45   301.14  300.70     9.3    557.6   -247.7 -0.2251E+01 -0.1789E+00
2021  8 11 10 40  127.6060   26.6942   898.18  351.907   112.6   24.07  20.26    10.39   301.11  300.37     9.1    487.8   -203.5 -0.2398E+01  0.5426E-01
2021  8 11 10 30  127.5940   26.6015   894.96  352.421   103.2   24.01  20.33    10.24   301.06  300.31     8.7    487.2   -183.2 -0.2659E+01 -0.1167E+00
2021  8 11 10 20  127.5833   26.5074   906.20  352.220    97.4   23.95  20.34     6.27   301.02  300.53     8.4    516.8   -198.1 -0.2608E+01  0.1216E+00
2021  8 11 10 10  127.5744   26.4142   820.75  352.467   119.0   23.89  20.02     5.88   300.97  300.56     9.5    441.8   -265.4 -0.1665E+01 -0.5051E-01
2021  8 11 10  0  127.5692   26.3238   849.19  352.599   121.3   23.81  19.80     7.04   300.92  300.42     9.2    383.4   -229.3 -0.1672E+01 -0.2496E-01
2021  8 11  9 50  127.5656   26.2353   832.85  352.230   102.9   23.73  19.97     7.94   300.86  300.24     8.3    372.0   -176.7 -0.2105E+01  0.1366E+00
2021  8 11  9 40  127.5620   26.1462   804.69  351.635    77.0   23.65  20.38     7.16   300.80  300.17     7.4    368.7   -142.5 -0.2587E+01  0.3470E-01
2021  8 11  9 30  127.5584   26.0598   822.55  350.153    65.5   23.57  20.57     5.65   300.75  300.22     7.0    358.7   -141.1 -0.2542E+01  0.2713E-01
2021  8 11  9 20  127.5544   25.9755   922.39  349.320    62.7   23.52  20.62     3.00   300.71  300.44     6.9    397.8   -167.1 -0.2381E+01 -0.1216E+00
2021  8 11  9 10  127.5497   25.8882   982.05  350.646    56.0   23.51  20.78     1.32   300.70  300.58     6.7    473.0   -186.5 -0.2536E+01 -0.1969E+00
2021  8 11  9  0  127.5455   25.7969  1015.32  351.150    48.3   23.51  20.97    -0.45   300.70  300.75     6.4    564.1   -212.0 -0.2660E+01  0.5721E-02
2021  8 11  8 50  127.5421   25.7019   990.35  350.519    51.5   23.54  21.09    -3.10   300.72  301.00     7.2    636.7   -426.4 -0.1493E+01  0.6757E-01
2021  8 11  8 40  127.5378   25.6037  1008.78  349.704    55.1   23.58  21.15    -3.54   300.74  301.04     7.8    644.5   -540.8 -0.1192E+01 -0.7834E-01
2021  8 11  8 30  127.5343   25.5046  1034.78  349.160    57.2   23.62  21.17    -3.78   300.78  301.08     8.1    648.3   -576.7 -0.1124E+01  0.8971E-02
2021  8 11  8 20  127.5313   25.4036  1026.17  348.975    63.8   23.67  21.17    -4.69   300.81  301.16     8.8    648.9   -757.0 -0.8572E+00 -0.4191E-01
2021  8 11  8 10  127.5279   25.3016  1048.99  349.616    66.4   23.72  21.13    -5.45   300.85  301.26     8.7    669.1   -799.3 -0.8370E+00 -0.1099E+00
2021  8 11  8  0  127.5247   25.1993  1055.99  349.334    70.3   23.80  21.09    -5.65   300.90  301.33     8.8    687.9   -757.8 -0.9077E+00  0.5105E-01
2021  8 11  7 50  127.5194   25.0969  1082.30  348.931    73.1   23.88  20.99    -5.55   300.96  301.39     8.4    705.0   -616.6 -0.1144E+01  0.1296E-01
2021  8 11  7 40  127.5141   24.9943  1017.28  348.172   103.6   24.00  20.78    -7.26   301.03  301.49    10.4    646.3   -914.9 -0.7064E+00  0.1352E-01
2021  8 11  7 30  127.5098   24.8905   993.64  348.448   113.7   24.15  20.78    -6.88   301.13  301.55    10.8    653.7   -882.8 -0.7405E+00  0.4778E-01
2021  8 11  7 20  127.5052   24.7859  1021.10  348.773   119.4   24.32  20.82    -6.29   301.25  301.63    10.9    690.9   -813.7 -0.8490E+00 -0.6995E-01
2021  8 11  7 10  127.5004   24.6820  1015.65  348.668   131.9   24.50  20.79    -5.16   301.37  301.67    11.2    679.1   -738.1 -0.9201E+00  0.1117E+00
2021  8 11  7  0  127.4948   24.5776   997.96  348.513   140.2   24.71  20.83    -2.96   301.50  301.67    11.3    655.9   -638.5 -0.1027E+01 -0.6775E-02
2021  8 11  6 50  127.4898   24.4729   990.85  348.515   149.2   24.87  20.88    -0.87   301.61  301.66    11.6    639.5   -600.9 -0.1064E+01  0.2965E-02
2021  8 11  6 40  127.4845   24.3663   983.77  348.895   148.9   24.99  20.99     1.27   301.69  301.62    11.6    642.5   -546.9 -0.1175E+01 -0.7731E-02
2021  8 11  6 30  127.4783   24.2608   988.33  348.639   134.9   25.06  21.18     2.10   301.73  301.61    10.9    659.6   -460.1 -0.1434E+01  0.7334E-02
2021  8 11  6 20  127.4722   24.1571  1003.92  348.586   130.4   25.06  21.18    -0.15   301.74  301.75    10.6    712.0   -467.0 -0.1525E+01 -0.6850E-02
2021  8 11  6 10  127.4668   24.0542  1043.07  348.391   142.1   25.03  20.98    -3.00   301.72  301.90    11.0    767.1   -564.9 -0.1358E+01 -0.1112E+00
2021  8 11  6  0  127.4624   23.9513  1079.41  348.534   160.1   25.00  20.81    -4.67   301.70  301.96    11.8    820.0   -711.3 -0.1153E+01 -0.5928E-01
2021  8 11  5 50  127.4586   23.8472  1112.79  348.568   167.7   24.97  20.74    -5.33   301.68  301.97    12.2    849.6   -785.2 -0.1082E+01 -0.8487E-01
2021  8 11  5 40  127.4546   23.7424  1148.11  348.330   162.4   24.96  20.79    -5.21   301.68  301.96    12.0    872.2   -756.0 -0.1154E+01 -0.1622E-01
2021  8 11  5 30  127.4502   23.6370  1150.37  348.171   159.4   24.99  20.83    -4.66   301.70  301.96    11.8    871.9   -713.2 -0.1223E+01  0.9504E-01
2021  8 11  5 20  127.4457   23.5324  1142.72  348.244   168.1   25.04  20.72    -4.70   301.73  301.99    11.9    869.6   -701.8 -0.1239E+01 -0.5578E-01
2021  8 11  5 10  127.4404   23.4305  1127.43  348.116   183.6   25.10  20.57    -4.56   301.77  302.01    12.3    843.4   -714.2 -0.1181E+01  0.1299E-01
2021  8 11  5  0  127.4359   23.3300  1130.63  347.949   193.5   25.16  20.44    -4.34   301.81  302.04    12.4    820.8   -688.0 -0.1193E+01 -0.2630E-01
2021  8 11  4 50  127.4337   23.2304  1118.80  347.867   208.6   25.22  20.34    -3.63   301.84  302.03    12.8    789.6   -704.1 -0.1121E+01  0.2847E-01
2021  8 11  4 40  127.4340   23.1308  1118.21  347.647   214.4   25.27  20.26    -3.17   301.88  302.04    12.8    763.3   -674.7 -0.1131E+01 -0.5724E-01
2021  8 11  4 30  127.4347   23.0333  1115.39  347.850   218.8   25.31  20.23    -2.83   301.91  302.05    12.8    768.0   -659.8 -0.1164E+01  0.3021E-01
2021  8 11  4 20  127.4359   22.9362  1124.65  347.938   214.7   25.35  20.24    -2.20   301.93  302.05    12.5    778.0   -601.2 -0.1294E+01  0.1625E-02
2021  8 11  4 10  127.4366   22.8408  1117.27  347.723   207.2   25.38  20.25    -1.75   301.95  302.05    12.1    760.3   -535.9 -0.1419E+01  0.2546E-01
2021  8 11  4  0  127.4373   22.7457  1107.33  347.781   211.1   25.41  20.26    -1.61   301.97  302.06    12.3    761.8   -551.5 -0.1381E+01 -0.8505E-02
2021  8 11  3 50  127.4372   22.6500  1136.02  347.584   212.3   25.44  20.28    -1.33   302.00  302.07    12.3    775.8   -547.6 -0.1417E+01 -0.3402E-01
2021  8 11  3 40  127.4373   22.5546  1141.61  347.503   214.4   25.48  20.29    -1.09   302.02  302.08    12.3    778.6   -548.5 -0.1419E+01 -0.4026E-01
2021  8 11  3 30  127.4361   22.4606  1135.66  347.553   207.5   25.52  20.32    -0.68   302.05  302.09    11.9    776.6   -491.2 -0.1581E+01  0.8760E-01
2021  8 11  3 20  127.4351   22.3668  1086.00  347.444   216.8   25.58  20.33     0.18   302.09  302.08    12.3    740.2   -518.4 -0.1428E+01  0.9204E-01
2021  8 11  3 10  127.4363   22.2730  1070.36  347.494   211.7   25.63  20.37     0.70   302.12  302.09    12.0    735.5   -477.2 -0.1541E+01  0.3982E-02
2021  8 11  3  0  127.4372   22.1811  1063.87  347.323   215.0   25.69  20.40     1.56   302.16  302.08    12.1    723.1   -474.0 -0.1526E+01  0.2820E-01
2021  8 11  2 50  127.4369   22.0891  1056.75  347.432   221.6   25.75  20.41     2.38   302.20  302.07    12.3    730.1   -483.7 -0.1509E+01 -0.4260E-01
2021  8 11  2 40  127.4362   21.9977  1104.53  347.381   217.7   25.80  20.43     3.01   302.24  302.07    12.1    749.8   -445.0 -0.1685E+01 -0.9128E-01
2021  8 11  2 30  127.4353   21.9069  1113.91  347.325   218.8   25.86  20.44     3.75   302.27  302.07    12.0    767.2   -426.3 -0.1800E+01  0.4770E-01
2021  8 11  2 20  127.4359   21.8143  1062.39  347.103   230.0   25.91  20.44     4.98   302.30  302.04    12.5    734.1   -456.5 -0.1608E+01  0.8998E-01
2021  8 11  2 10  127.4383   21.7205  1042.34  346.932   235.1   25.94  20.44     5.84   302.32  302.02    12.7    711.4   -466.3 -0.1526E+01 -0.2518E-01
2021  8 11  2  0  127.4404   21.6282  1071.26  346.851   231.1   25.93  20.43     5.97   302.32  302.01    12.5    716.1   -442.5 -0.1618E+01 -0.2689E-01
2021  8 11  1 50  127.4417   21.5360  1087.46  346.924   242.7   25.93  20.41     6.77   302.31  301.98    13.0    720.3   -489.8 -0.1471E+01 -0.6182E-01
2021  8 11  1 40  127.4434   21.4453  1104.06  346.880   240.4   25.96  20.39     7.23   302.34  301.97    12.7    729.1   -455.4 -0.1601E+01 -0.1778E-01
2021  8 11  1 30  127.4451   21.3586  1129.11  346.886   229.9   26.03  20.38     7.61   302.38  301.97    12.0    755.3   -377.3 -0.2002E+01  0.8403E-02
2021  8 11  1 20  127.4477   21.2741  1103.53  346.735   236.8   26.11  20.37     9.08   302.44  301.96    12.2    734.6   -372.2 -0.1974E+01  0.3614E-01
2021  8 11  1 10  127.4506   21.1908  1100.27  346.618   242.7   26.22  20.35    10.45   302.51  301.95    12.2    726.3   -356.1 -0.2039E+01 -0.2943E-01
2021  8 11  1  0  127.4509   21.1097  1125.06  346.503   245.8   26.34  20.33    11.79   302.59  301.95    12.0    730.2   -327.8 -0.2227E+01 -0.4204E-01
2021  8 11  0 50  127.4489   21.0298  1138.56  346.378   254.8   26.45  20.31    13.69   302.66  301.93    12.2    718.4   -321.5 -0.2234E+01 -0.1227E-02
2021  8 11  0 40  127.4465   20.9503  1149.77  346.299   261.6   26.53  20.27    15.19   302.71  301.91    12.2    712.0   -313.4 -0.2272E+01 -0.3434E-01
2021  8 11  0 30  127.4449   20.8715  1165.96  346.210   265.8   26.59  20.25    16.49   302.75  301.88    12.2    709.9   -305.7 -0.2322E+01 -0.1031E-01
2021  8 11  0 20  127.4439   20.7937  1172.76  346.145   265.3   26.62  20.24    17.38   302.77  301.84    12.1    690.5   -292.3 -0.2363E+01 -0.1725E-01
2021  8 11  0 10  127.4434   20.7173  1169.19  346.125   264.9   26.64  20.24    18.27   302.78  301.80    12.1    667.1   -283.6 -0.2352E+01  0.2267E-01
2021  8 11  0  0  127.4435   20.6412  1151.69  346.110   271.1   26.64  20.22    19.63   302.78  301.75    12.3    642.5   -291.8 -0.2202E+01  0.2423E-01
