2021  8 12  0  0  129.9559   32.6326   500.00  355.400    60.5   22.85  19.87    11.91   300.22  299.01     6.2    421.7    -77.3 -0.5458E+01  0.8073E+00
2021  8 11 23 50  129.9157   32.5812   277.42  356.066    69.4   22.97  19.74    12.18   300.31  299.13     6.6    388.9    -84.3 -0.4615E+01  0.2740E+00
2021  8 11 23 40  129.8693   32.5256   205.87  357.337    78.2   23.14  19.95    12.21   300.43  299.40     7.6    361.6   -128.1 -0.2824E+01  0.6367E-01
2021  8 11 23 30  129.8161   32.4641   179.10  358.151    92.1   23.35  20.08    13.65   300.58  299.58     8.8    354.8   -181.3 -0.1957E+01  0.3359E-01
2021  8 11 23 20  129.7621   32.4013   157.49  358.861    94.0   23.57  20.14    14.97   300.73  299.59     8.5    358.1   -153.6 -0.2331E+01  0.1755E-01
2021  8 11 23 10  129.7100   32.3441   134.59  359.128    86.7   23.74  20.25    14.64   300.85  299.61     7.7    361.8   -113.7 -0.3182E+01  0.3418E-01
2021  8 11 23  0  129.6587   32.2933   116.08  359.475    71.7   23.86  20.41    12.44   300.93  299.67     6.4    378.6    -74.4 -0.5091E+01  0.2359E-01
2021  8 11 22 50  129.6064   32.2476   101.75  360.514    69.0   23.93  20.80    10.92   300.97  299.96     7.0    424.5   -106.2 -0.3998E+01  0.8792E-02
2021  8 11 22 40  129.5535   32.1983   104.13  361.230    74.6   23.95  21.02     9.08   300.99  300.28     8.3    487.0   -193.2 -0.2520E+01 -0.6571E-01
2021  8 11 22 30  129.4999   32.1432   171.97  361.703    64.0   23.93  21.01     8.34   300.98  300.22     7.0    538.7   -127.0 -0.4240E+01 -0.1278E+00
2021  8 11 22 20  129.4408   32.0830   242.34  361.379    51.8   23.89  21.31     4.38   300.95  300.47     6.9    592.2   -156.6 -0.3782E+01 -0.1223E-01
2021  8 11 22 10  129.3773   32.0204   243.03  361.413    75.1   23.86  21.43    -2.05   300.93  301.03    10.7    648.0   -862.6 -0.7513E+00 -0.3206E-01
2021  8 11 22  0  129.3152   31.9581   249.97  361.091    84.0   23.87  21.27    -4.64   300.93  301.21    11.0    673.0  -1119.2 -0.6013E+00  0.7099E-01
2021  8 11 21 50  129.2529   31.8883   209.38  361.112   105.1   23.91  21.12    -4.33   300.95  301.18    12.4    596.9  -1324.3 -0.4507E+00 -0.3169E-01
2021  8 11 21 40  129.1976   31.8194   227.43  360.966    97.2   23.98  21.10    -3.81   301.01  301.24    11.1    623.5   -927.4 -0.6723E+00 -0.1392E-01
2021  8 11 21 30  129.1450   31.7543   231.84  360.858   101.7   24.12  21.10    -2.85   301.11  301.28    11.0    611.7   -794.3 -0.7701E+00 -0.2563E-02
2021  8 11 21 20  129.0935   31.6894   239.97  360.566   110.0   24.30  21.08    -1.01   301.24  301.30    11.0    600.9   -658.9 -0.9121E+00 -0.1286E-01
2021  8 11 21 10  129.0461   31.6240   253.65  360.420   114.8   24.49  21.08     0.66   301.36  301.32    10.8    587.4   -530.5 -0.1107E+01 -0.3990E-01
2021  8 11 21  0  129.0033   31.5612   263.15  360.256   109.0   24.66  21.05     1.55   301.47  301.37     9.6    612.6   -354.3 -0.1729E+01  0.3065E-02
2021  8 11 20 50  128.9634   31.4996   242.31  359.876   118.6   24.82  21.04     3.69   301.57  301.33     9.9    547.0   -330.6 -0.1655E+01  0.4315E-01
2021  8 11 20 40  128.9273   31.4328   234.70  359.599   134.9   24.96  21.02     6.04   301.66  301.29    10.7    510.8   -369.3 -0.1383E+01 -0.2338E-01
2021  8 11 20 30  128.8925   31.3634   266.52  359.415   136.5   25.06  20.98     6.09   301.74  301.35    10.4    530.4   -328.1 -0.1616E+01 -0.8033E-01
2021  8 11 20 20  128.8552   31.2971   308.06  359.325   133.7   25.14  20.99     5.33   301.80  301.45    10.0    565.1   -295.8 -0.1910E+01 -0.5011E-01
2021  8 11 20 10  128.8183   31.2315   322.44  359.056   133.5   25.22  20.95     5.18   301.85  301.50     9.7    550.3   -267.8 -0.2055E+01  0.8885E-02
2021  8 11 20  0  128.7860   31.1638   333.56  358.971   137.7   25.28  20.95     6.08   301.90  301.49     9.8    541.9   -265.1 -0.2044E+01 -0.5513E-01
2021  8 11 19 50  128.7558   31.0921   350.81  358.881   145.2   25.36  20.97     8.14   301.94  301.42    10.2    534.7   -272.8 -0.1960E+01  0.9312E-03
2021  8 11 19 40  128.7257   31.0176   352.68  358.844   148.2   25.43  21.00     9.12   301.98  301.40    10.3    534.4   -272.8 -0.1959E+01  0.3978E-02
2021  8 11 19 30  128.6965   30.9422   341.80  358.785   154.1   25.48  21.01     9.57   302.01  301.42    10.6    513.6   -289.4 -0.1775E+01 -0.5700E-02
2021  8 11 19 20  128.6678   30.8663   352.79  358.698   149.9   25.51  21.06     9.66   302.03  301.42    10.3    508.7   -270.6 -0.1879E+01 -0.1315E-01
2021  8 11 19 10  128.6384   30.7902   358.26  358.620   147.3   25.55  21.15    10.75   302.06  301.38    10.3    500.5   -263.3 -0.1901E+01 -0.1613E-01
2021  8 11 19  0  128.6077   30.7134   353.69  358.544   146.8   25.62  21.23    11.60   302.10  301.37    10.3    495.0   -257.2 -0.1924E+01  0.2806E-01
2021  8 11 18 50  128.5794   30.6354   348.95  358.468   157.2   25.71  21.21    12.64   302.16  301.39    10.7    502.5   -276.5 -0.1818E+01 -0.2425E-01
2021  8 11 18 40  128.5554   30.5571   408.33  358.518   154.5   25.80  21.15    11.33   302.22  301.49    10.2    577.7   -239.4 -0.2413E+01 -0.1534E+00
2021  8 11 18 30  128.5305   30.4815   470.49  358.251   159.1   25.86  21.00     8.07   302.26  301.72    10.0    709.0   -239.2 -0.2964E+01 -0.1731E-02
2021  8 11 18 20  128.5046   30.4058   445.67  358.296   175.7   25.90  20.87     6.63   302.29  301.88    10.6    762.4   -290.3 -0.2627E+01  0.7493E-01
2021  8 11 18 10  128.4783   30.3300   419.86  358.141   186.7   25.94  20.78     7.07   302.32  301.90    10.9    753.1   -308.0 -0.2445E+01  0.3098E-01
2021  8 11 18  0  128.4513   30.2545   393.26  358.375   193.6   26.01  20.78     8.65   302.36  301.86    11.1    724.0   -306.6 -0.2362E+01  0.6951E-01
2021  8 11 17 50  128.4245   30.1767   350.76  358.573   209.6   26.14  20.77    10.58   302.44  301.85    11.7    664.3   -334.4 -0.1987E+01  0.3449E-01
2021  8 11 17 40  128.3979   30.0984   333.87  358.577   215.4   26.27  20.75    12.02   302.52  301.85    11.6    649.3   -314.8 -0.2063E+01  0.3739E-01
2021  8 11 17 30  128.3730   30.0203   328.82  358.496   214.8   26.35  20.74    12.94   302.57  301.83    11.4    663.7   -288.9 -0.2297E+01  0.1830E-01
2021  8 11 17 20  128.3496   29.9433   326.12  358.416   211.4   26.35  20.73    13.03   302.58  301.82    11.2    674.3   -270.4 -0.2494E+01  0.2604E-01
2021  8 11 17 10  128.3271   29.8652   316.74  358.276   219.4   26.33  20.70    13.48   302.56  301.81    11.6    678.7   -296.9 -0.2286E+01  0.1224E-01
2021  8 11 17  0  128.3053   29.7878   315.73  358.135   210.2   26.28  20.66    12.59   302.54  301.80    11.1    693.0   -268.0 -0.2586E+01  0.2857E-01
2021  8 11 16 50  128.2834   29.7112   301.35  358.048   210.2   26.24  20.61    12.54   302.51  301.77    11.1    671.1   -267.4 -0.2510E+01  0.2789E-01
2021  8 11 16 40  128.2629   29.6344   284.29  357.901   212.7   26.20  20.56    12.83   302.48  301.74    11.2    640.3   -272.9 -0.2346E+01  0.1956E-01
2021  8 11 16 30  128.2433   29.5583   274.87  357.683   209.4   26.14  20.51    12.55   302.45  301.71    11.1    613.3   -262.8 -0.2333E+01  0.1269E-01
2021  8 11 16 20  128.2238   29.4835   271.96  357.506   204.7   26.06  20.47    12.24   302.40  301.66    10.9    604.0   -255.1 -0.2368E+01 -0.4796E-02
2021  8 11 16 10  128.2036   29.4100   270.43  357.422   197.1   25.94  20.44    11.74   302.32  301.60    10.7    609.8   -244.7 -0.2492E+01  0.8732E-03
2021  8 11 16  0  128.1846   29.3370   254.39  357.435   190.3   25.82  20.45    11.31   302.25  301.55    10.6    577.0   -244.0 -0.2364E+01  0.3460E-01
2021  8 11 15 50  128.1674   29.2629   234.37  357.236   192.3   25.74  20.46    11.73   302.20  301.50    10.9    543.1   -266.4 -0.2039E+01  0.1058E-02
2021  8 11 15 40  128.1486   29.1878   238.93  357.208   186.0   25.71  20.49    11.80   302.18  301.46    10.7    537.8   -251.7 -0.2137E+01 -0.1100E-01
2021  8 11 15 30  128.1274   29.1119   236.87  356.837   192.0   25.71  20.50    13.07   302.18  301.41    11.0    493.2   -272.3 -0.1811E+01  0.1203E-01
2021  8 11 15 20  128.1052   29.0313   231.68  356.236   205.2   25.70  20.48    15.39   302.17  301.32    11.7    451.7   -309.9 -0.1458E+01  0.3147E-02
2021  8 11 15 10  128.0855   28.9467   239.54  355.459   218.3   25.69  20.43    18.07   302.16  301.21    12.3    418.7   -342.2 -0.1223E+01 -0.3376E-01
2021  8 11 15  0  128.0697   28.8601   275.28  355.090   212.9   25.66  20.42    19.10   302.15  301.13    12.1    426.5   -316.2 -0.1349E+01 -0.8378E-01
2021  8 11 14 50  128.0543   28.7750   314.30  354.589   207.1   25.64  20.42    20.25   302.14  301.03    11.8    437.9   -287.2 -0.1525E+01 -0.4924E-01
2021  8 11 14 40  128.0390   28.6908   340.17  354.412   199.1   25.63  20.42    20.89   302.13  300.94    11.4    457.5   -253.3 -0.1806E+01 -0.4657E-01
2021  8 11 14 30  128.0229   28.6086   369.66  354.151   192.6   25.62  20.39    21.13   302.13  300.88    10.9    465.0   -224.2 -0.2074E+01 -0.5302E-01
2021  8 11 14 20  128.0085   28.5266   408.13  354.100   190.4   25.62  20.40    22.02   302.13  300.82    10.8    473.8   -214.0 -0.2214E+01 -0.7212E-01
2021  8 11 14 10  127.9980   28.4456   433.38  353.929   183.1   25.62  20.41    21.73   302.13  300.78    10.4    475.2   -191.5 -0.2482E+01  0.9147E-02
2021  8 11 14  0  127.9887   28.3653   413.42  353.911   190.7   25.63  20.39    23.38   302.14  300.74    10.8    452.4   -206.7 -0.2189E+01  0.3467E-01
2021  8 11 13 50  127.9773   28.2846   404.72  353.951   199.8   25.65  20.33    25.44   302.15  300.67    11.1    435.7   -215.6 -0.2021E+01 -0.6766E-03
2021  8 11 13 40  127.9671   28.2041   416.77  354.018   197.1   25.67  20.32    26.46   302.17  300.60    10.9    427.0   -197.8 -0.2159E+01 -0.7646E-02
2021  8 11 13 30  127.9589   28.1255   428.93  354.026   191.1   25.74  20.34    27.13   302.21  300.53    10.5    418.2   -172.3 -0.2428E+01  0.1947E-01
2021  8 11 13 20  127.9496   28.0492   433.90  353.915   188.6   25.78  20.23    26.16   302.24  300.55    10.0    413.4   -150.1 -0.2754E+01 -0.6082E-02
2021  8 11 13 10  127.9374   27.9759   430.43  354.102   193.8   25.74  20.09    26.10   302.22  300.54    10.1    407.1   -150.9 -0.2697E+01  0.6734E-02
2021  8 11 13  0  127.9239   27.9025   417.62  354.346   206.2   25.62  19.99    27.81   302.14  300.46    10.7    392.9   -180.6 -0.2176E+01 -0.3194E-01
2021  8 11 12 50  127.9115   27.8299   471.26  354.486   190.9   25.43  20.01    26.67   302.02  300.36    10.3    395.4   -166.5 -0.2375E+01 -0.1334E+00
2021  8 11 12 40  127.8991   27.7594   500.91  354.791   177.7   25.24  20.16    26.73   301.89  300.23    10.3    392.5   -172.0 -0.2282E+01  0.7708E-02
2021  8 11 12 30  127.8835   27.6874   513.26  354.525   169.4   25.05  20.19    26.41   301.77  300.12    10.4    385.5   -177.2 -0.2175E+01 -0.4328E-02
2021  8 11 12 20  127.8651   27.6144   492.15  354.516   159.8   24.86  20.25    23.59   301.64  300.17    10.4    385.7   -192.8 -0.2000E+01  0.1691E+00
2021  8 11 12 10  127.8422   27.5383   415.33  354.353   172.4   24.70  20.24    24.73   301.53  300.16    11.6    353.4   -273.0 -0.1294E+01 -0.2169E-01
2021  8 11 12  0  127.8193   27.4615   494.89  354.056   166.3   24.57  20.24    25.71   301.45  300.01    11.5    349.2   -268.5 -0.1300E+01 -0.2858E+00
2021  8 11 11 50  127.7987   27.3887   619.90  354.364   159.6   24.47  20.24    24.82   301.38  299.98    11.4    357.0   -266.3 -0.1341E+01 -0.1220E+00
2021  8 11 11 40  127.7780   27.3173   675.71  354.758   157.0   24.39  20.28    26.96   301.33  299.82    11.5    375.1   -268.6 -0.1396E+01 -0.2097E+00
2021  8 11 11 30  127.7567   27.2440   696.75  355.923   129.2   24.31  20.56    21.31   301.28  299.98    10.6    450.7   -238.9 -0.1886E+01 -0.7325E-01
2021  8 11 11 20  127.7409   27.1699   692.35  356.023   116.5   24.25  20.72    13.85   301.23  300.37    10.3    515.8   -278.9 -0.1849E+01  0.1169E+00
2021  8 11 11 10  127.7287   27.0965   659.83  355.470   112.2   24.20  20.61     9.92   301.20  300.55     9.8    531.9   -268.1 -0.1984E+01  0.4839E-01
2021  8 11 11  0  127.7181   27.0266   656.30  355.706   101.0   24.16  20.54     6.90   301.17  300.65     8.7    562.1   -214.8 -0.2617E+01  0.1256E+00
2021  8 11 10 50  127.7082   26.9599   621.24  355.555    92.0   24.12  20.50     5.87   301.14  300.66     7.9    545.5   -172.9 -0.3156E+01  0.1169E+00
2021  8 11 10 40  127.6978   26.8919   574.55  355.739    89.5   24.09  20.55     5.50   301.12  300.67     7.9    525.4   -178.2 -0.2948E+01  0.8376E-01
2021  8 11 10 30  127.6880   26.8219   509.24  355.403    83.3   24.07  20.61     4.68   301.10  300.70     7.5    477.3   -166.0 -0.2875E+01  0.1629E+00
2021  8 11 10 20  127.6789   26.7505   465.87  355.634    84.4   24.04  20.56     4.28   301.08  300.71     7.6    467.0   -173.1 -0.2698E+01 -0.4104E-01
2021  8 11 10 10  127.6686   26.6800   465.47  355.788    76.3   24.00  20.52     3.68   301.05  300.70     6.8    479.5   -134.0 -0.3579E+01  0.9768E-02
2021  8 11 10  0  127.6557   26.6089   481.79  355.605    74.8   23.96  20.46     2.92   301.02  300.73     6.6    489.0   -130.6 -0.3746E+01 -0.1745E-01
2021  8 11  9 50  127.6428   26.5374   500.83  355.660    71.8   23.91  20.39     1.54   300.99  300.83     6.3    531.8   -127.6 -0.4169E+01 -0.3262E-01
2021  8 11  9 40  127.6310   26.4658   489.59  355.527    79.2   23.88  20.24     0.64   300.97  300.90     6.7    529.9   -154.3 -0.3434E+01  0.8422E-01
2021  8 11  9 30  127.6186   26.3927   448.67  355.283    88.8   23.85  20.03     0.31   300.95  300.92     7.2    475.9   -174.3 -0.2731E+01  0.7127E-01
2021  8 11  9 20  127.6069   26.3174   418.68  355.239    95.4   23.81  19.88     0.32   300.92  300.89     7.4    439.6   -183.9 -0.2390E+01  0.5713E-02
2021  8 11  9 10  127.5971   26.2397   409.14  355.362   104.0   23.75  19.62     0.24   300.87  300.85     7.6    429.1   -188.9 -0.2271E+01  0.1386E-01
2021  8 11  9  0  127.5901   26.1603   402.88  355.321   111.8   23.68  19.40     0.21   300.82  300.80     7.9    411.4   -196.0 -0.2099E+01 -0.2928E-01
2021  8 11  8 50  127.5840   26.0796   440.51  355.283   106.9   23.60  19.33     0.19   300.76  300.75     7.5    417.7   -178.3 -0.2342E+01 -0.3062E-01
2021  8 11  8 40  127.5797   25.9983   435.63  355.232   105.8   23.54  19.44     0.75   300.72  300.66     7.8    405.1   -195.5 -0.2072E+01  0.5178E-01
2021  8 11  8 30  127.5776   25.9156   405.80  355.113   101.5   23.51  19.65     1.11   300.70  300.61     8.0    384.0   -216.0 -0.1778E+01  0.3470E-01
2021  8 11  8 20  127.5773   25.8315   385.58  355.102    99.3   23.50  19.87     1.41   300.70  300.59     8.5    372.8   -255.6 -0.1458E+01  0.2869E-01
2021  8 11  8 10  127.5798   25.7466   375.63  355.020    95.9   23.51  20.02     1.42   300.70  300.59     8.6    371.9   -277.1 -0.1342E+01 -0.5526E-02
2021  8 11  8  0  127.5812   25.6635   388.68  354.795    85.7   23.53  20.20     1.30   300.71  300.61     8.1    376.7   -251.5 -0.1498E+01  0.1530E-01
2021  8 11  7 50  127.5815   25.5808   397.63  354.865    82.2   23.57  20.35     1.04   300.74  300.65     8.1    390.0   -263.8 -0.1478E+01 -0.3570E-01
2021  8 11  7 40  127.5831   25.4974   406.57  355.061    83.0   23.60  20.46     1.20   300.76  300.67     8.4    409.0   -291.1 -0.1405E+01 -0.5591E-01
2021  8 11  7 30  127.5855   25.4114   409.77  354.693    81.8   23.65  20.61     1.83   300.79  300.65     8.6    418.7   -309.7 -0.1352E+01  0.7495E-02
2021  8 11  7 20  127.5887   25.3243   438.60  354.484    71.2   23.68  20.76     0.90   300.82  300.74     7.9    462.4   -276.5 -0.1672E+01 -0.1233E+00
2021  8 11  7 10  127.5923   25.2373   454.11  354.545    78.8   23.75  20.76    -0.42   300.85  300.88     8.6    496.3   -364.0 -0.1364E+01 -0.2190E-01
2021  8 11  7  0  127.5951   25.1494   466.72  354.734    82.9   23.81  20.65    -1.00   300.90  300.98     8.4    518.4   -339.0 -0.1529E+01  0.6813E-02
2021  8 11  6 50  127.5969   25.0619   436.28  354.893   105.0   23.90  20.41    -1.62   300.96  301.07     9.5    525.8   -424.2 -0.1239E+01  0.3870E-01
2021  8 11  6 40  127.5997   24.9731   417.18  355.571   124.6   24.01  20.19    -1.24   301.03  301.11    10.2    497.2   -449.5 -0.1106E+01 -0.1402E-01
2021  8 11  6 30  127.6025   24.8822   438.55  354.651   125.0   24.14  20.22    -0.47   301.12  301.15     9.9    487.1   -392.6 -0.1241E+01  0.2708E-01
2021  8 11  6 20  127.6036   24.7892   434.51  354.640   133.7   24.27  20.36     1.11   301.22  301.15    10.6    474.3   -439.2 -0.1080E+01  0.2299E-01
2021  8 11  6 10  127.6054   24.6928   434.39  355.761   154.2   24.42  20.50     6.23   301.32  300.99    12.2    448.7   -545.9 -0.8219E+00 -0.9739E-01
2021  8 11  6  0  127.6064   24.5938   485.45  356.771   161.0   24.56  20.64     9.95   301.41  300.91    12.7    436.1   -551.7 -0.7904E+00 -0.1307E+00
2021  8 11  5 50  127.6079   24.4984   576.10  356.785   143.2   24.68  20.64     8.09   301.49  301.01    11.0    433.8   -364.9 -0.1189E+01  0.1629E+00
2021  8 11  5 40  127.6142   24.4062   510.10  357.034   135.9   24.75  20.63     6.65   301.54  301.11    10.1    410.9   -296.7 -0.1385E+01  0.1113E+00
2021  8 11  5 30  127.6239   24.3160   439.28  357.753   126.0   24.80  20.64     7.30   301.57  301.06     9.3    416.0   -226.5 -0.1837E+01 -0.2794E-01
2021  8 11  5 20  127.6350   24.2262   445.22  358.124   109.0   24.82  20.79     8.03   301.58  300.96     8.3    426.6   -164.7 -0.2590E+01 -0.1080E+00
2021  8 11  5 10  127.6466   24.1351   463.06  358.272   101.6   24.82  21.15     5.08   301.58  301.18     8.8    539.4   -231.4 -0.2331E+01  0.4873E-02
2021  8 11  5  0  127.6555   24.0450   464.49  358.016   101.3   24.81  21.28     0.89   301.58  301.49     9.2    672.5   -325.3 -0.2067E+01  0.1189E+00
2021  8 11  4 50  127.6645   23.9562   411.15  358.345   114.9   24.83  21.22    -2.28   301.59  301.73    10.1    701.9   -500.5 -0.1402E+01  0.8910E-01
2021  8 11  4 40  127.6750   23.8649   401.88  358.514   126.4   24.85  21.13    -3.77   301.61  301.84    10.7    754.5   -613.4 -0.1230E+01 -0.3121E-01
2021  8 11  4 30  127.6856   23.7714   418.78  358.249   142.8   24.89  21.00    -4.85   301.63  301.91    11.5    798.2   -731.0 -0.1092E+01  0.5685E-03
2021  8 11  4 20  127.6957   23.6772   420.70  357.941   155.9   24.92  20.86    -5.61   301.65  301.96    11.9    776.7   -784.7 -0.9898E+00  0.1863E-01
2021  8 11  4 10  127.7050   23.5837   411.37  357.595   166.0   24.94  20.75    -5.73   301.67  301.98    12.2    720.3   -802.9 -0.8971E+00  0.1336E-02
2021  8 11  4  0  127.7146   23.4910   424.01  357.329   164.2   24.96  20.71    -5.66   301.68  301.99    11.9    728.3   -742.2 -0.9812E+00 -0.3818E-01
2021  8 11  3 50  127.7242   23.3989   452.43  357.202   169.6   24.98  20.68    -5.49   301.70  301.99    12.1    766.8   -757.7 -0.1012E+01 -0.6355E-01
2021  8 11  3 40  127.7343   23.3059   495.15  357.127   170.3   25.00  20.67    -5.25   301.71  301.99    12.1    826.3   -734.9 -0.1124E+01 -0.6074E-01
2021  8 11  3 30  127.7427   23.2134   530.97  356.893   167.6   25.01  20.64    -5.25   301.72  302.01    11.8    839.2   -684.9 -0.1225E+01 -0.2683E-01
2021  8 11  3 20  127.7499   23.1198   546.61  356.673   177.0   25.03  20.60    -5.16   301.73  302.01    12.2    831.8   -730.8 -0.1138E+01 -0.1298E-01
2021  8 11  3 10  127.7560   23.0245   594.85  356.385   172.8   25.04  20.59    -4.89   301.74  302.01    11.9    856.9   -670.0 -0.1279E+01 -0.7649E-01
2021  8 11  3  0  127.7604   22.9292   624.73  356.043   180.3   25.07  20.55    -4.49   301.76  302.00    12.2    832.2   -691.3 -0.1204E+01 -0.4362E-01
2021  8 11  2 50  127.7646   22.8329   654.19  356.000   182.1   25.09  20.55    -4.29   301.78  302.01    12.2    837.5   -682.5 -0.1227E+01 -0.7641E-01
2021  8 11  2 40  127.7692   22.7368   666.57  355.999   182.7   25.13  20.55    -3.84   301.80  302.01    12.1    833.2   -658.5 -0.1265E+01  0.2080E-01
2021  8 11  2 30  127.7746   22.6407   649.72  355.892   183.1   25.19  20.57    -3.31   301.84  302.02    12.0    791.0   -625.0 -0.1266E+01  0.3329E-01
2021  8 11  2 20  127.7806   22.5437   644.31  355.766   196.0   25.26  20.55    -2.63   301.89  302.02    12.6    774.5   -674.3 -0.1149E+01 -0.4007E-01
2021  8 11  2 10  127.7871   22.4466   663.34  355.682   193.5   25.32  20.57    -1.99   301.92  302.03    12.3    792.5   -614.2 -0.1290E+01  0.1924E-01
2021  8 11  2  0  127.7941   22.3507   658.44  355.389   191.9   25.37  20.57    -1.36   301.96  302.03    12.1    773.1   -568.8 -0.1359E+01  0.6818E-02
2021  8 11  1 50  127.8006   22.2553   648.01  355.136   197.9   25.42  20.58    -0.75   301.99  302.03    12.3    756.0   -577.9 -0.1308E+01  0.1555E-01
2021  8 11  1 40  127.8057   22.1587   644.51  354.988   203.5   25.48  20.58    -0.16   302.03  302.04    12.5    757.2   -586.1 -0.1292E+01  0.9102E-02
2021  8 11  1 30  127.8101   22.0620   648.63  354.994   197.4   25.54  20.61     0.41   302.07  302.05    12.0    785.8   -515.6 -0.1524E+01  0.4211E-01
2021  8 11  1 20  127.8133   21.9654   631.51  354.761   209.5   25.61  20.60     1.17   302.12  302.06    12.5    763.7   -554.1 -0.1378E+01 -0.5300E-02
2021  8 11  1 10  127.8157   21.8668   627.87  354.524   220.8   25.71  20.59     2.27   302.18  302.06    12.9    747.3   -572.5 -0.1305E+01 -0.1258E-01
2021  8 11  1  0  127.8171   21.7687   630.52  354.268   223.7   25.78  20.58     3.29   302.23  302.06    12.8    742.1   -541.3 -0.1371E+01 -0.3400E-01
2021  8 11  0 50  127.8190   21.6735   635.56  354.161   218.8   25.79  20.56     3.43   302.24  302.06    12.5    746.5   -493.9 -0.1511E+01 -0.1989E-01
2021  8 11  0 40  127.8215   21.5807   646.03  354.132   215.2   25.78  20.53     3.49   302.24  302.05    12.2    762.2   -464.2 -0.1642E+01 -0.1237E-01
2021  8 11  0 30  127.8242   21.4894   656.27  354.185   213.3   25.80  20.50     3.83   302.25  302.05    12.0    776.9   -432.2 -0.1797E+01 -0.6502E-02
2021  8 11  0 20  127.8274   21.3987   644.18  354.224   224.2   25.91  20.48     5.27   302.32  302.04    12.3    759.2   -435.6 -0.1743E+01  0.3421E-01
2021  8 11  0 10  127.8329   21.3075   627.08  354.197   234.5   26.04  20.46     7.16   302.40  302.03    12.4    740.2   -425.0 -0.1741E+01  0.2090E-01
2021  8 11  0  0  127.8403   21.2168   615.31  354.050   241.8   26.16  20.43     9.01   302.47  302.01    12.5    725.1   -403.2 -0.1798E+01  0.1545E-01
