2021  8 12  0  0  129.9559   32.6622   500.00  354.375    51.6   22.81  19.86     8.52   300.20  299.20     5.3    416.8    -59.3 -0.7031E+01  0.2808E+00
2021  8 11 23 50  129.9115   32.6261   397.88  355.055    58.2   22.94  19.71     7.90   300.28  299.37     5.4    421.6    -61.5 -0.6856E+01  0.2593E+00
2021  8 11 23 40  129.8758   32.5872   233.44  354.464    78.8   23.04  19.54     9.12   300.36  299.51     6.8    372.1   -101.7 -0.3659E+01  0.1514E+00
2021  8 11 23 30  129.8391   32.5407   179.52  354.292   101.4   23.18  19.51    12.22   300.46  299.52     8.4    335.1   -155.2 -0.2159E+01  0.2752E-01
2021  8 11 23 20  129.7960   32.4898   187.29  353.976   115.6   23.35  19.50    16.36   300.57  299.41     9.1    332.6   -168.0 -0.1980E+01 -0.5663E-01
2021  8 11 23 10  129.7551   32.4373   217.47  353.673   117.8   23.51  19.49    18.41   300.68  299.33     8.8    336.4   -141.7 -0.2374E+01 -0.7028E-01
2021  8 11 23  0  129.7144   32.3840   266.54  353.455   123.0   23.66  19.64    20.84   300.79  299.33     9.2    344.7   -150.9 -0.2284E+01 -0.1178E+00
2021  8 11 22 50  129.6676   32.3295   311.85  353.040   122.6   23.80  19.83    22.02   300.89  299.36     9.3    351.2   -153.8 -0.2283E+01 -0.6757E-01
2021  8 11 22 40  129.6172   32.2716   375.44  352.633   116.0   23.89  20.01    23.81   300.96  299.26     9.0    346.1   -135.0 -0.2564E+01 -0.2042E+00
2021  8 11 22 30  129.5619   32.2094   465.28  351.893   130.0   23.94  19.95    27.99   300.99  299.15     9.7    341.8   -155.2 -0.2201E+01 -0.3054E+00
2021  8 11 22 20  129.4974   32.1376   804.64  351.494   102.4   23.92  20.44    21.10   300.98  299.48     9.0    360.5   -151.6 -0.2379E+01 -0.1002E+01
2021  8 11 22 10  129.4272   32.0577  1264.51  348.290    36.1   23.87  21.32     6.26   300.94  300.07     4.6    487.1    -52.2 -0.9329E+01 -0.2055E+00
2021  8 11 22  0  129.3554   31.9826  1602.73  344.200    66.2   23.86  21.47     0.48   300.92  300.89     9.7    679.5   -565.4 -0.1202E+01 -0.6240E+00
2021  8 11 21 50  129.2858   31.9127  1415.09  345.197   100.7   23.88  21.30    -2.60   300.93  301.06    13.0    567.8  -1469.5 -0.3864E+00  0.1447E+00
2021  8 11 21 40  129.2232   31.8454  1449.94  345.030    91.1   23.93  21.29    -2.95   300.98  301.15    11.6    588.4  -1072.3 -0.5487E+00 -0.2749E-01
2021  8 11 21 30  129.1644   31.7828  1506.97  345.357    89.2   24.06  21.28    -3.27   301.07  301.27    10.8    659.4   -858.0 -0.7685E+00  0.2676E-01
2021  8 11 21 20  129.1078   31.7210  1535.70  345.591   100.0   24.24  21.23    -1.94   301.19  301.31    10.9    669.5   -731.5 -0.9152E+00 -0.1077E-01
2021  8 11 21 10  129.0542   31.6612  1492.25  345.522   107.4   24.44  21.24     0.36   301.32  301.30    10.9    650.7   -599.7 -0.1085E+01  0.7572E-01
2021  8 11 21  0  129.0020   31.6033  1461.40  345.603   103.4   24.63  21.25     1.36   301.45  301.36     9.9    657.8   -405.9 -0.1621E+01  0.3795E-01
2021  8 11 20 50  128.9515   31.5479  1378.99  345.704   107.3   24.80  21.27     2.97   301.56  301.36     9.7    604.9   -348.7 -0.1734E+01  0.2700E+00
2021  8 11 20 40  128.9055   31.4900  1333.38  345.148   112.0   24.95  21.33     4.94   301.65  301.32     9.8    551.7   -322.4 -0.1711E+01 -0.4966E-01
2021  8 11 20 30  128.8638   31.4296  1410.31  345.523   119.9   25.06  21.32     5.45   301.73  301.38    10.2    550.3   -336.4 -0.1636E+01 -0.2540E+00
2021  8 11 20 20  128.8233   31.3709  1578.44  345.191   125.1   25.15  21.29     5.15   301.80  301.47    10.2    555.1   -336.4 -0.1650E+01 -0.2688E+00
2021  8 11 20 10  128.7841   31.3136  1718.55  345.601   119.9   25.22  21.34     4.57   301.85  301.55     9.7    593.7   -300.6 -0.1975E+01 -0.2078E+00
2021  8 11 20  0  128.7477   31.2576  1794.37  345.412   109.3   25.29  21.39     4.20   301.90  301.59     8.8    619.7   -235.2 -0.2635E+01  0.6828E-03
2021  8 11 19 50  128.7148   31.2018  1726.05  345.088   114.0   25.36  21.43     5.34   301.94  301.56     9.1    603.2   -243.4 -0.2478E+01  0.1882E+00
2021  8 11 19 40  128.6841   31.1448  1658.52  345.064   120.8   25.43  21.45     6.78   301.98  301.51     9.6    595.7   -257.8 -0.2311E+01  0.3506E-01
2021  8 11 19 30  128.6538   31.0881  1664.10  344.754   117.2   25.49  21.44     7.15   302.02  301.50     9.1    585.4   -217.6 -0.2691E+01  0.9917E-02
2021  8 11 19 20  128.6230   31.0331  1670.85  344.823   116.5   25.55  21.40     6.98   302.06  301.54     8.8    588.2   -195.8 -0.3004E+01 -0.1475E-01
2021  8 11 19 10  128.5929   30.9779  1682.80  344.817   128.3   25.60  21.34     7.24   302.09  301.58     9.3    579.2   -227.0 -0.2552E+01 -0.1500E+00
2021  8 11 19  0  128.5626   30.9221  1799.61  344.970   134.5   25.63  21.25     6.44   302.11  301.67     9.5    616.0   -238.8 -0.2580E+01 -0.1806E+00
2021  8 11 18 50  128.5308   30.8679  1866.37  344.703   137.8   25.67  21.14     5.48   302.13  301.75     9.4    624.4   -233.0 -0.2680E+01 -0.4224E-01
2021  8 11 18 40  128.4985   30.8163  1894.88  344.803   144.5   25.70  21.06     5.35   302.15  301.78     9.5    633.3   -240.7 -0.2631E+01 -0.5335E-01
2021  8 11 18 30  128.4664   30.7657  1890.76  344.761   156.8   25.73  20.95     5.55   302.18  301.81    10.0    617.4   -263.8 -0.2340E+01  0.4540E-01
2021  8 11 18 20  128.4338   30.7146  1866.84  344.807   173.3   25.78  20.84     5.76   302.21  301.85    10.6    594.7   -305.7 -0.1945E+01 -0.9084E-02
2021  8 11 18 10  128.3995   30.6632  1875.49  344.775   172.6   25.83  20.75     5.77   302.24  301.87    10.3    567.0   -271.0 -0.2092E+01  0.5082E-01
2021  8 11 18  0  128.3644   30.6121  1849.13  344.853   172.3   25.88  20.71     6.18   302.27  301.87    10.1    549.9   -248.5 -0.2213E+01  0.2793E-01
2021  8 11 17 50  128.3295   30.5607  1818.54  344.814   175.1   25.92  20.71     7.10   302.30  301.84    10.1    546.1   -245.7 -0.2223E+01  0.6911E-01
2021  8 11 17 40  128.2964   30.5076  1813.79  344.825   178.8   25.96  20.73     8.02   302.32  301.81    10.3    563.5   -250.2 -0.2252E+01 -0.4589E-01
2021  8 11 17 30  128.2659   30.4528  1842.44  344.814   179.3   26.00  20.75     8.50   302.34  301.81    10.3    586.7   -246.4 -0.2381E+01 -0.1047E-01
2021  8 11 17 20  128.2362   30.3985  1829.24  344.801   183.3   26.04  20.77     9.24   302.37  301.79    10.5    593.8   -252.4 -0.2353E+01 -0.1894E-01
2021  8 11 17 10  128.2056   30.3462  1856.18  344.789   176.9   26.07  20.80     9.17   302.40  301.80    10.1    616.1   -228.2 -0.2700E+01  0.3549E-02
2021  8 11 17  0  128.1746   30.2942  1843.45  344.743   186.1   26.10  20.86    10.06   302.42  301.80    10.7    624.7   -263.7 -0.2369E+01 -0.8043E-01
2021  8 11 16 50  128.1447   30.2400  1868.56  344.805   185.2   26.13  20.91    10.29   302.43  301.81    10.7    631.8   -263.7 -0.2395E+01  0.4189E-01
2021  8 11 16 40  128.1162   30.1848  1845.94  344.994   181.3   26.16  20.95    10.32   302.46  301.81    10.5    617.1   -249.5 -0.2473E+01  0.4648E-01
2021  8 11 16 30  128.0882   30.1283  1824.67  344.815   186.5   26.21  20.99    11.21   302.48  301.80    10.8    605.2   -262.8 -0.2303E+01  0.8055E-02
2021  8 11 16 20  128.0611   30.0697  1803.97  345.025   191.4   26.26  20.99    12.10   302.51  301.79    10.9    606.2   -267.4 -0.2267E+01  0.1504E+00
2021  8 11 16 10  128.0350   30.0106  1779.49  345.271   193.8   26.29  20.95    12.51   302.53  301.79    10.9    614.0   -260.9 -0.2353E+01 -0.8259E-01
2021  8 11 16  0  128.0094   29.9533  1783.95  345.222   193.6   26.31  20.87    12.35   302.55  301.79    10.7    614.5   -241.5 -0.2545E+01  0.1152E+00
2021  8 11 15 50  127.9849   29.8963  1742.53  345.160   197.6   26.33  20.86    12.96   302.56  301.78    10.8    600.6   -248.3 -0.2419E+01 -0.7370E-02
2021  8 11 15 40  127.9621   29.8398  1752.35  345.238   193.3   26.34  20.87    12.64   302.57  301.79    10.6    628.6   -233.7 -0.2690E+01 -0.2233E-01
2021  8 11 15 30  127.9408   29.7837  1765.03  345.209   188.2   26.33  20.85    12.33   302.57  301.79    10.3    636.1   -216.8 -0.2934E+01  0.1424E-01
2021  8 11 15 20  127.9208   29.7283  1762.83  345.103   184.5   26.31  20.88    12.49   302.56  301.76    10.2    589.2   -209.9 -0.2807E+01 -0.3859E-01
2021  8 11 15 10  127.9006   29.6736  1786.39  345.252   182.2   26.28  20.98    12.72   302.54  301.74    10.3    599.8   -221.1 -0.2713E+01 -0.5193E-01
2021  8 11 15  0  127.8799   29.6192  1803.16  345.264   183.3   26.25  20.96    12.24   302.52  301.76    10.4    605.1   -229.6 -0.2635E+01 -0.5551E-02
2021  8 11 14 50  127.8601   29.5640  1796.64  345.187   195.0   26.24  20.81    11.72   302.51  301.80    10.7    595.9   -250.6 -0.2378E+01  0.1660E-01
2021  8 11 14 40  127.8411   29.5079  1796.62  345.221   201.6   26.25  20.76    11.82   302.52  301.82    11.0    613.5   -266.2 -0.2305E+01 -0.2157E-01
2021  8 11 14 30  127.8213   29.4522  1823.49  345.260   202.0   26.27  20.76    11.70   302.53  301.83    11.0    657.5   -264.2 -0.2489E+01 -0.6794E-01
2021  8 11 14 20  127.8010   29.3972  1854.09  345.187   206.1   26.29  20.72    11.84   302.54  301.85    11.0    669.5   -267.2 -0.2505E+01 -0.2823E-01
2021  8 11 14 10  127.7814   29.3428  1854.00  345.179   209.9   26.31  20.61    11.53   302.56  301.87    11.0    662.1   -257.9 -0.2567E+01  0.2949E-01
2021  8 11 14  0  127.7634   29.2883  1848.53  345.190   211.6   26.33  20.50    11.32   302.57  301.88    10.8    647.5   -243.4 -0.2660E+01 -0.2782E-01
2021  8 11 13 50  127.7468   29.2348  1852.24  345.233   206.3   26.35  20.44    11.00   302.58  301.89    10.4    664.0   -215.8 -0.3076E+01  0.3110E-01
2021  8 11 13 40  127.7305   29.1821  1851.95  345.151   201.3   26.37  20.43    11.25   302.60  301.87    10.0    665.7   -194.7 -0.3418E+01 -0.2080E-02
2021  8 11 13 30  127.7134   29.1304  1825.11  345.273   197.4   26.40  20.48    11.72   302.62  301.85     9.9    676.6   -184.7 -0.3663E+01  0.5243E-01
2021  8 11 13 20  127.6953   29.0802  1844.65  345.174   190.0   26.44  20.59    12.24   302.64  301.82     9.6    689.1   -171.3 -0.4022E+01 -0.8094E-01
2021  8 11 13 10  127.6771   29.0317  1892.03  345.249   187.7   26.46  20.72    12.73   302.66  301.81     9.7    705.7   -176.1 -0.4008E+01 -0.1048E+00
2021  8 11 13  0  127.6595   28.9834  1924.06  345.392   184.1   26.47  20.78    12.70   302.67  301.82     9.6    706.2   -172.4 -0.4095E+01  0.1394E-02
2021  8 11 12 50  127.6436   28.9337  1905.80  345.443   177.4   26.48  20.76    11.98   302.68  301.84     9.2    691.4   -156.1 -0.4429E+01  0.9319E-01
2021  8 11 12 40  127.6296   28.8822  1857.19  345.297   174.0   26.48  20.78    11.89   302.69  301.83     9.1    679.0   -148.4 -0.4575E+01  0.8120E-01
2021  8 11 12 30  127.6157   28.8299  1807.62  345.379   178.0   26.49  20.74    12.78   302.69  301.78     9.2    673.2   -150.6 -0.4471E+01  0.4376E-01
2021  8 11 12 20  127.5994   28.7779  1789.18  345.458   168.2   26.50  20.93    13.95   302.69  301.68     9.0    671.8   -140.8 -0.4771E+01  0.2471E-01
2021  8 11 12 10  127.5805   28.7262  1803.61  345.494   158.7   26.50  21.11    13.53   302.69  301.69     8.8    703.5   -136.4 -0.5158E+01 -0.6860E-01
2021  8 11 12  0  127.5602   28.6743  1822.52  345.641   185.1   26.49  20.56    10.55   302.68  301.94     9.2    753.2   -156.3 -0.4818E+01 -0.1685E-01
2021  8 11 11 50  127.5397   28.6218  1837.65  345.582   211.0   26.48  19.95     8.05   302.67  302.12     9.5    746.5   -166.2 -0.4492E+01 -0.1019E-02
2021  8 11 11 40  127.5199   28.5686  1833.49  345.634   213.1   26.45  19.95     7.99   302.65  302.11     9.6    711.6   -174.0 -0.4089E+01  0.1830E-02
2021  8 11 11 30  127.5022   28.5153  1814.36  345.748   206.7   26.40  19.99     7.80   302.62  302.08     9.5    678.6   -169.5 -0.4002E+01  0.3759E-01
2021  8 11 11 20  127.4859   28.4623  1801.85  345.759   197.5   26.32  19.98     7.19   302.57  302.06     9.1    635.1   -158.7 -0.4001E+01  0.5786E-01
2021  8 11 11 10  127.4699   28.4087  1773.62  345.857   198.5   26.21  19.97     7.00   302.50  302.01     9.4    599.3   -171.2 -0.3500E+01 -0.2228E-01
2021  8 11 11  0  127.4537   28.3542  1807.97  345.832   191.6   26.09  19.96     6.42   302.42  301.97     9.2    596.6   -168.9 -0.3533E+01 -0.6161E-01
2021  8 11 10 50  127.4373   28.2990  1871.39  345.910   182.3   25.98  19.94     5.90   302.35  301.92     8.9    608.1   -158.5 -0.3835E+01 -0.1492E+00
2021  8 11 10 40  127.4223   28.2437  1899.79  345.961   178.7   25.89  19.98     5.61   302.30  301.89     8.9    599.9   -163.3 -0.3674E+01  0.2928E-01
2021  8 11 10 30  127.4092   28.1877  1915.04  346.072   171.8   25.81  20.00     5.10   302.25  301.87     8.7    607.1   -159.6 -0.3804E+01 -0.4265E-01
2021  8 11 10 20  127.3964   28.1320  1942.93  346.121   168.1   25.73  20.02     4.71   302.20  301.85     8.7    634.0   -163.2 -0.3885E+01 -0.4435E-01
2021  8 11 10 10  127.3828   28.0763  1974.51  346.263   167.7   25.63  20.05     4.21   302.13  301.83     8.9    663.8   -178.9 -0.3710E+01 -0.8511E-01
2021  8 11 10  0  127.3685   28.0203  2047.58  346.363   160.8   25.52  20.08     3.36   302.06  301.81     8.8    693.9   -183.0 -0.3791E+01 -0.1497E+00
2021  8 11  9 50  127.3542   27.9645  2091.69  346.387   151.3   25.41  20.11     2.76   302.00  301.78     8.5    701.3   -174.5 -0.4020E+01 -0.2112E-01
2021  8 11  9 40  127.3413   27.9085  2066.82  346.336   142.4   25.34  20.13     2.49   301.94  301.74     8.2    685.7   -161.4 -0.4249E+01  0.1075E+00
2021  8 11  9 30  127.3304   27.8516  2042.38  346.385   142.2   25.27  20.18     2.39   301.90  301.71     8.4    687.2   -175.2 -0.3922E+01 -0.1796E-01
2021  8 11  9 20  127.3207   27.7949  2042.87  346.605   141.8   25.21  20.23     2.28   301.86  301.69     8.6    710.5   -190.8 -0.3723E+01  0.7343E-03
2021  8 11  9 10  127.3114   27.7385  2024.12  346.630   140.8   25.16  20.27     2.29   301.82  301.65     8.7    706.0   -201.1 -0.3511E+01  0.5961E-01
2021  8 11  9  0  127.3025   27.6812  2016.97  346.543   134.9   25.11  20.29     2.22   301.79  301.61     8.5    687.8   -191.2 -0.3598E+01  0.2420E-01
2021  8 11  8 50  127.2948   27.6224  1980.42  346.544   137.5   25.06  20.32     2.28   301.75  301.58     8.8    662.0   -213.0 -0.3108E+01  0.4807E-01
2021  8 11  8 40  127.2879   27.5623  1978.02  346.614   133.1   25.01  20.33     2.23   301.72  301.55     8.6    663.3   -206.4 -0.3214E+01 -0.1351E-01
2021  8 11  8 30  127.2812   27.5023  1990.89  346.580   128.6   24.97  20.34     2.23   301.69  301.52     8.4    660.2   -195.7 -0.3374E+01 -0.2118E-01
2021  8 11  8 20  127.2760   27.4426  1968.94  346.712   126.4   24.94  20.36     2.14   301.67  301.50     8.4    653.2   -197.5 -0.3308E+01  0.1076E+00
2021  8 11  8 10  127.2722   27.3826  1943.27  346.665   124.6   24.91  20.38     2.17   301.65  301.48     8.4    644.4   -197.7 -0.3259E+01  0.1270E-02
2021  8 11  8  0  127.2693   27.3227  1975.21  346.643   119.0   24.88  20.39     1.97   301.63  301.47     8.1    659.6   -184.5 -0.3575E+01 -0.1052E+00
2021  8 11  7 50  127.2659   27.2630  1965.61  346.602   115.7   24.84  20.42     1.89   301.61  301.45     8.0    647.0   -179.6 -0.3602E+01  0.1534E+00
2021  8 11  7 40  127.2619   27.2014  1928.23  346.615   116.4   24.80  20.43     2.01   301.58  301.42     8.1    649.2   -190.6 -0.3406E+01 -0.4279E-01
2021  8 11  7 30  127.2583   27.1387  1940.42  346.563   111.7   24.75  20.44     1.81   301.55  301.40     7.9    654.1   -181.8 -0.3599E+01  0.9077E-02
2021  8 11  7 20  127.2555   27.0745  1952.08  346.458   111.9   24.70  20.44     1.72   301.51  301.37     8.0    654.0   -192.7 -0.3394E+01 -0.2641E-01
2021  8 11  7 10  127.2538   27.0093  1951.48  346.502   113.7   24.64  20.44     1.73   301.47  301.33     8.3    666.3   -211.0 -0.3158E+01  0.3329E-01
2021  8 11  7  0  127.2528   26.9429  1939.98  346.464   111.3   24.58  20.44     1.58   301.43  301.30     8.3    673.9   -213.5 -0.3156E+01  0.6079E-01
2021  8 11  6 50  127.2515   26.8763  1887.21  346.525   111.4   24.53  20.45     1.52   301.39  301.27     8.4    659.8   -227.2 -0.2904E+01  0.3184E-01
2021  8 11  6 40  127.2510   26.8082  1871.68  346.624   111.1   24.47  20.45     1.32   301.35  301.25     8.5    656.8   -241.3 -0.2722E+01  0.6333E-01
2021  8 11  6 30  127.2514   26.7386  1873.77  346.609   105.7   24.41  20.43     0.52   301.31  301.26     8.2    656.0   -231.2 -0.2837E+01 -0.1406E+00
2021  8 11  6 20  127.2519   26.6691  1863.88  346.494    97.6   24.36  20.40    -0.29   301.27  301.30     7.6    642.0   -204.0 -0.3147E+01  0.1412E+00
2021  8 11  6 10  127.2536   26.5979  1836.36  346.663    98.7   24.32  20.39    -0.39   301.24  301.27     7.8    623.1   -216.6 -0.2876E+01 -0.6578E-02
2021  8 11  6  0  127.2579   26.5262  1865.54  346.736    95.8   24.25  20.38    -1.01   301.20  301.28     7.7    634.9   -223.8 -0.2836E+01 -0.8854E-01
2021  8 11  5 50  127.2644   26.4544  1855.25  346.809   100.0   24.16  20.31    -0.91   301.13  301.21     8.1    643.6   -250.2 -0.2572E+01  0.7708E-01
2021  8 11  5 40  127.2730   26.3829  1833.61  347.109   101.8   24.04  20.24    -0.71   301.05  301.11     8.4    604.3   -272.6 -0.2217E+01 -0.1102E+00
2021  8 11  5 30  127.2829   26.3126  1868.94  347.602    90.9   23.92  20.24     0.43   300.97  300.94     7.7    518.7   -214.7 -0.2416E+01 -0.1341E+00
2021  8 11  5 20  127.2935   26.2422  1927.47  347.155    85.0   24.51  20.32    14.57   301.36  301.05     6.6    577.1   -109.8 -0.5258E+01 -0.2824E+00
2021  8 11  5 10  127.3045   26.1714  2002.28  346.290    68.2   23.78  20.50     0.05   300.85  300.84     6.6    581.1   -170.5 -0.3409E+01 -0.1432E-01
2021  8 11  5  0  127.3162   26.1018  2027.16  343.508    68.0   23.67  20.54    -2.55   300.80  301.04     7.0    563.0   -265.0 -0.2124E+01  0.6476E-01
2021  8 11  4 50  127.3297   26.0322  2046.71  343.429    70.7   23.61  20.56    -2.77   300.76  301.00     7.6    604.5   -328.0 -0.1843E+01 -0.1273E+00
2021  8 11  4 40  127.3445   25.9631  2059.63  343.473    69.2   23.58  20.59    -2.82   300.74  300.98     7.6    585.8   -340.0 -0.1723E+01  0.7003E-01
2021  8 11  4 30  127.3604   25.8948  2033.75  343.523    70.8   23.56  20.60    -3.04   300.73  300.99     7.8    571.3   -376.3 -0.1518E+01  0.4037E-01
2021  8 11  4 20  127.3771   25.8280  1996.19  343.572    74.1   23.56  20.63    -3.33   300.73  301.00     8.2    600.5   -439.7 -0.1366E+01  0.1508E+00
2021  8 11  4 10  127.3962   25.7601  1998.09  343.699    73.1   23.57  20.67    -3.24   300.74  301.00     8.3    612.2   -444.9 -0.1376E+01  0.1186E-01
2021  8 11  4  0  127.4173   25.6925  2025.68  343.823    70.5   23.58  20.70    -3.17   300.75  301.01     8.0    611.0   -421.6 -0.1449E+01 -0.2440E+00
2021  8 11  3 50  127.4393   25.6272  2048.40  343.824    76.5   23.60  20.69    -3.45   300.76  301.03     8.6    621.0   -490.5 -0.1266E+01  0.9257E-02
2021  8 11  3 40  127.4618   25.5613  2081.85  343.780    76.8   23.62  20.70    -3.56   300.78  301.05     8.6    621.5   -498.9 -0.1246E+01 -0.1179E+00
2021  8 11  3 30  127.4828   25.4953  2053.82  344.150    77.8   23.65  20.71    -3.47   300.79  301.06     8.7    572.9   -494.5 -0.1158E+01  0.2069E+00
2021  8 11  3 20  127.5051   25.4281  2051.22  344.360    77.6   23.67  20.70    -3.42   300.81  301.07     8.6    564.8   -472.6 -0.1195E+01  0.9101E-02
2021  8 11  3 10  127.5286   25.3602  2058.02  344.323    79.4   23.69  20.70    -3.54   300.82  301.09     8.7    571.6   -492.6 -0.1160E+01 -0.8929E-01
2021  8 11  3  0  127.5532   25.2912  2098.59  344.352    79.5   23.71  20.69    -3.43   300.84  301.11     8.6    558.7   -468.6 -0.1192E+01 -0.1656E+00
2021  8 11  2 50  127.5780   25.2230  2157.57  344.445    85.1   23.75  20.60    -3.54   300.87  301.13     8.7    526.6   -463.5 -0.1136E+01 -0.9362E-01
2021  8 11  2 40  127.6039   25.1554  2183.03  344.402   100.0   23.79  20.50    -3.73   300.90  301.15     9.7    521.1   -558.5 -0.9331E+00 -0.2259E-01
2021  8 11  2 30  127.6301   25.0891  2252.21  344.517    99.2   23.84  20.42    -3.49   300.93  301.18     9.2    535.2   -467.6 -0.1144E+01  0.1264E-01
2021  8 11  2 20  127.6562   25.0228  2232.04  344.516   108.2   23.91  20.34    -2.87   300.98  301.18     9.6    522.2   -458.4 -0.1139E+01 -0.4931E-01
2021  8 11  2 10  127.6818   24.9563  2250.16  344.667   111.1   23.99  20.27    -2.08   301.04  301.18     9.3    503.1   -392.1 -0.1283E+01  0.3415E-01
2021  8 11  2  0  127.7061   24.8904  2210.78  344.349   121.7   24.07  20.24    -1.30   301.10  301.18     9.8    486.9   -411.1 -0.1185E+01  0.1673E-01
2021  8 11  1 50  127.7287   24.8238  2254.94  344.398   123.9   24.15  20.25    -0.58   301.15  301.19     9.8    487.4   -388.6 -0.1254E+01 -0.5844E-01
2021  8 11  1 40  127.7509   24.7564  2314.58  344.900   125.8   24.22  20.25     0.32   301.20  301.18     9.8    471.5   -362.7 -0.1300E+01 -0.2567E+00
2021  8 11  1 30  127.7757   24.6894  2360.44  344.885   121.9   24.25  20.25     0.71   301.23  301.18     9.4    464.6   -317.5 -0.1464E+01  0.1207E+00
2021  8 11  1 20  127.8030   24.6200  2285.88  344.984   123.9   24.27  20.24     1.44   301.24  301.14     9.5    443.5   -310.5 -0.1428E+01  0.2146E+00
2021  8 11  1 10  127.8317   24.5489  2261.77  345.515   127.7   24.28  20.23     2.10   301.24  301.10     9.7    430.2   -318.7 -0.1350E+01 -0.7806E-01
2021  8 11  1  0  127.8623   24.4786  2244.21  345.592   143.5   24.29  20.16     3.09   301.25  301.06    10.6    408.8   -389.0 -0.1051E+01 -0.1229E+00
2021  8 11  0 50  127.8938   24.4100  2251.61  345.999   151.8   24.33  20.01     4.52   301.27  301.00    10.7    375.0   -361.3 -0.1038E+01  0.2123E+00
2021  8 11  0 40  127.9240   24.3395  2293.52  345.869   147.7   24.40  19.91     6.39   301.33  300.90     9.9    371.3   -264.1 -0.1406E+01 -0.2967E+00
2021  8 11  0 30  127.9559   24.2656  2395.88  346.000   124.8   24.48  19.99     7.21   301.39  300.83     8.3    385.8   -160.4 -0.2406E+01 -0.1933E+00
2021  8 11  0 20  127.9891   24.1907  2462.87  346.355   103.2   24.56  20.22     7.10   301.43  300.79     7.1    404.9   -108.2 -0.3743E+01 -0.8098E-02
2021  8 11  0 10  128.0220   24.1148  2432.42  345.879   107.0   24.60  20.44     7.87   301.47  300.81     7.8    411.3   -137.7 -0.2988E+01  0.2824E-01
2021  8 11  0  0  128.0561   24.0385  2459.67  345.692   144.2   24.67  20.23     8.52   301.51  300.94     9.9    412.9   -249.9 -0.1652E+01 -0.2329E+00
