2021  8 12  0  0  129.9159   32.6243   500.00  356.040    58.2   22.93  20.02    11.27   300.28  299.13     6.2    407.5    -78.8 -0.5168E+01  0.3710E+00
2021  8 11 23 50  129.8699   32.5833   270.57  357.053    64.2   23.06  20.00     8.52   300.38  299.55     6.5    389.1    -98.9 -0.3936E+01  0.2287E+00
2021  8 11 23 40  129.8249   32.5381   193.10  357.451    77.3   23.21  20.04     8.88   300.48  299.73     7.6    353.0   -146.8 -0.2404E+01  0.2245E-01
2021  8 11 23 30  129.7746   32.4864   175.15  357.548    88.6   23.37  20.12    10.42   300.60  299.81     8.5    350.9   -185.3 -0.1894E+01 -0.1299E-02
2021  8 11 23 20  129.7219   32.4317   164.45  357.726    89.4   23.55  20.27    11.87   300.72  299.81     8.5    364.5   -174.5 -0.2089E+01  0.2413E-02
2021  8 11 23 10  129.6710   32.3795   152.22  357.898    79.3   23.72  20.44    11.28   300.83  299.87     7.6    371.0   -130.2 -0.2850E+01  0.5807E-01
2021  8 11 23  0  129.6227   32.3298   138.42  357.989    81.4   23.84  20.51    11.09   300.91  299.97     7.7    383.2   -132.3 -0.2897E+01  0.5653E-03
2021  8 11 22 50  129.5774   32.2830   164.53  358.074    83.5   23.92  20.60    11.60   300.97  300.02     7.9    418.6   -143.1 -0.2925E+01 -0.8332E-01
2021  8 11 22 40  129.5338   32.2364   236.96  357.979    94.5   23.95  20.55    14.41   300.99  299.93     8.6    474.9   -165.4 -0.2871E+01 -0.2097E+00
2021  8 11 22 30  129.4858   32.1893   361.22  357.708    99.9   23.96  20.24    17.95   300.99  299.58     8.0    414.8   -115.0 -0.3608E+01 -0.1883E-01
2021  8 11 22 20  129.4393   32.1398   447.45  357.113    70.2   23.92  20.56    14.15   300.97  299.57     6.2    398.2    -66.1 -0.6027E+01  0.4135E-01
2021  8 11 22 10  129.3962   32.0862   480.44  357.789    37.7   23.89  21.04     8.25   300.95  299.71     3.9    423.3    -29.6 -0.1432E+02  0.2339E+00
2021  8 11 22  0  129.3593   32.0257   308.10  360.778    41.2   23.86  21.39     7.88   300.93  299.99     5.6    430.7    -74.3 -0.5799E+01  0.4704E+00
2021  8 11 21 50  129.3259   31.9607   151.50  361.947    64.1   23.85  21.47     5.84   300.93  300.51     9.3    610.2   -358.3 -0.1703E+01  0.1423E+00
2021  8 11 21 40  129.2890   31.8841   110.42  361.921    80.3   23.87  21.42     6.54   300.93  300.54    11.3    469.9   -604.3 -0.7776E+00 -0.3881E-02
2021  8 11 21 30  129.2508   31.8140   125.42  362.117    66.3   23.88  21.46     4.88   300.95  300.61     9.4    549.3   -387.7 -0.1417E+01  0.1961E-02
2021  8 11 21 20  129.2162   31.7520   110.97  362.197    67.4   23.95  21.45     5.03   301.00  300.64     9.2    539.6   -350.3 -0.1540E+01  0.3265E-01
2021  8 11 21 10  129.1877   31.6921    91.21  362.075    75.2   24.06  21.36     5.65   301.06  300.67     9.3    529.0   -334.7 -0.1580E+01  0.1441E-01
2021  8 11 21  0  129.1652   31.6318    71.70  361.900    90.2   24.17  21.25     6.59   301.14  300.71    10.1    515.6   -380.3 -0.1356E+01 -0.4582E-02
2021  8 11 20 50  129.1482   31.5700    70.14  361.770    93.1   24.29  21.21     6.85   301.21  300.76     9.8    533.7   -333.7 -0.1599E+01 -0.1257E-01
2021  8 11 20 40  129.1332   31.5093    80.05  361.625    94.3   24.40  21.20     7.42   301.29  300.78     9.5    529.0   -288.5 -0.1834E+01 -0.1392E-01
2021  8 11 20 30  129.1161   31.4464    89.25  361.491   102.6   24.52  21.20     9.20   301.37  300.76     9.9    492.9   -295.6 -0.1667E+01 -0.2466E-01
2021  8 11 20 20  129.1011   31.3833    98.34  361.358   106.2   24.63  21.18    10.26   301.46  300.77     9.8    480.3   -267.0 -0.1799E+01 -0.2189E-01
2021  8 11 20 10  129.0913   31.3220   106.45  361.195   107.0   24.73  21.15    11.31   301.53  300.74     9.4    456.4   -226.5 -0.2015E+01 -0.2238E-01
2021  8 11 20  0  129.0858   31.2644   101.89  361.009   111.1   24.80  21.09    13.21   301.58  300.66     9.4    460.0   -205.8 -0.2235E+01  0.5885E-02
2021  8 11 19 50  129.0863   31.2081    92.49  360.612   117.7   24.83  20.99    15.62   301.60  300.53     9.5    432.9   -197.5 -0.2192E+01  0.1265E-01
2021  8 11 19 40  129.0900   31.1521    86.60  360.087   124.5   24.84  20.89    18.13   301.61  300.40     9.7    382.3   -192.9 -0.1981E+01 -0.4412E-02
2021  8 11 19 30  129.0952   31.0945    86.05  359.576   132.6   24.85  20.80    21.44   301.61  300.23    10.0    369.9   -194.8 -0.1899E+01 -0.1417E-01
2021  8 11 19 20  129.1021   31.0364    91.86  358.989   136.7   24.87  20.71    24.31   301.62  300.05    10.0    370.8   -177.9 -0.2084E+01 -0.2260E-01
2021  8 11 19 10  129.1108   30.9791   113.85  358.249   129.0   24.90  20.69    24.55   301.64  299.94     9.3    397.9   -141.2 -0.2818E+01 -0.6117E-01
2021  8 11 19  0  129.1175   30.9202   122.87  357.605   130.7   24.98  20.74    27.47   301.70  299.81     9.3    413.2   -134.3 -0.3076E+01  0.3172E-01
2021  8 11 18 50  129.1260   30.8502    97.40  356.791   175.2   25.10  20.65    39.12   301.78  299.65    11.8    373.7   -232.6 -0.1607E+01 -0.2660E-01
2021  8 11 18 40  129.1314   30.7680   125.55  356.120   210.5   25.24  20.62    46.15   301.87  299.69    13.5    374.0   -326.9 -0.1144E+01 -0.1777E+00
2021  8 11 18 30  129.1224   30.6843   238.88  355.552   192.7   25.35  20.81    41.21   301.94  299.86    12.6    380.8   -280.4 -0.1358E+01 -0.3541E+00
2021  8 11 18 20  129.0987   30.6056   424.26  355.856   167.0   25.45  20.83    33.98   302.00  299.99    10.8    367.6   -183.5 -0.2003E+01 -0.3471E+00
2021  8 11 18 10  129.0686   30.5290   515.52  356.369   152.1   25.53  21.15    28.54   302.06  300.32    10.6    428.6   -191.0 -0.2244E+01 -0.3762E-01
2021  8 11 18  0  129.0368   30.4508   469.25  357.652   151.2   25.57  21.39    23.77   302.08  300.70    11.1    557.2   -252.7 -0.2205E+01  0.1186E+00
2021  8 11 17 50  129.0108   30.3738   404.67  358.155   154.9   25.55  21.18    16.76   302.07  301.07    10.9    760.1   -269.9 -0.2816E+01  0.1438E+00
2021  8 11 17 40  128.9925   30.2997   326.03  358.532   162.1   25.52  20.99    13.27   302.06  301.26    10.9    786.4   -290.0 -0.2712E+01  0.1499E+00
2021  8 11 17 30  128.9776   30.2241   259.74  359.093   179.9   25.56  20.96    15.49   302.07  301.22    11.9    728.1   -352.0 -0.2069E+01  0.1011E+00
2021  8 11 17 20  128.9655   30.1487   236.10  359.212   176.9   25.63  20.93    16.86   302.13  301.17    11.4    699.4   -297.6 -0.2350E+01  0.1625E-01
2021  8 11 17 10  128.9532   30.0756   205.57  359.604   176.2   25.73  20.99    17.76   302.19  301.16    11.2    651.7   -273.7 -0.2381E+01  0.7578E-01
2021  8 11 17  0  128.9397   30.0018   168.86  359.787   187.9   25.83  20.98    19.44   302.26  301.18    11.7    628.6   -297.7 -0.2111E+01  0.4389E-01
2021  8 11 16 50  128.9249   29.9260   143.17  359.886   197.3   25.91  21.01    22.54   302.31  301.10    12.1    591.1   -311.7 -0.1896E+01  0.5892E-01
2021  8 11 16 40  128.9104   29.8476   133.56  359.868   209.8   25.98  21.01    25.07   302.35  301.07    12.7    552.0   -345.3 -0.1599E+01 -0.2587E-01
2021  8 11 16 30  128.8972   29.7707   128.99  359.969   215.5   25.99  21.00    26.73   302.36  301.03    12.9    578.6   -358.0 -0.1616E+01  0.9907E-03
2021  8 11 16 20  128.8870   29.6953   120.65  360.232   208.0   25.91  21.00    25.62   302.31  301.01    12.7    653.4   -348.4 -0.1876E+01  0.4054E-01
2021  8 11 16 10  128.8792   29.6211   107.55  360.133   193.4   25.77  20.92    21.83   302.23  301.05    12.0    682.7   -311.3 -0.2193E+01  0.3860E-01
2021  8 11 16  0  128.8741   29.5492    91.86  360.161   187.7   25.61  20.83    16.58   302.12  301.21    11.8    668.6   -331.9 -0.2014E+01  0.3248E-01
2021  8 11 15 50  128.8706   29.4763    81.09  359.996   182.3   25.43  20.68    10.77   302.01  301.40    11.6    725.4   -356.0 -0.2037E+01  0.1924E-01
2021  8 11 15 40  128.8695   29.4073    75.96  359.797   159.7   25.23  20.59     7.47   301.88  301.41    10.5    702.5   -293.5 -0.2394E+01  0.1180E-01
2021  8 11 15 30  128.8678   29.3433    75.04  359.675   142.4   25.03  20.56     5.53   301.75  301.37     9.7    668.9   -257.8 -0.2594E+01  0.5997E-02
2021  8 11 15 20  128.8681   29.2795    68.34  359.623   149.2   24.84  20.53     4.79   301.62  301.32    10.6    647.8   -349.4 -0.1854E+01  0.7328E-02
2021  8 11 15 10  128.8685   29.2127    70.96  359.476   142.6   24.66  20.52     3.62   301.50  301.28    10.6    656.5   -375.0 -0.1751E+01 -0.1128E-01
2021  8 11 15  0  128.8667   29.1460    76.48  359.321   131.5   24.48  20.50     2.17   301.39  301.25    10.2    670.5   -372.9 -0.1798E+01 -0.6238E-02
2021  8 11 14 50  128.8647   29.0794    77.69  359.197   127.2   24.33  20.48     1.06   301.28  301.22    10.3    661.5   -407.9 -0.1622E+01  0.3783E-03
2021  8 11 14 40  128.8632   29.0117    76.29  359.058   127.6   24.21  20.43     0.46   301.20  301.17    10.5    631.0   -458.6 -0.1376E+01  0.1199E-02
2021  8 11 14 30  128.8625   28.9435    81.41  358.872   118.1   24.12  20.41    -0.21   301.14  301.16    10.0    647.7   -415.5 -0.1559E+01 -0.1385E-01
2021  8 11 14 20  128.8606   28.8773    85.02  358.738   114.8   24.06  20.39    -0.56   301.10  301.14     9.8    660.1   -407.3 -0.1621E+01  0.3825E-02
2021  8 11 14 10  128.8594   28.8095    83.74  358.627   119.9   24.03  20.35    -0.97   301.09  301.15    10.2    651.8   -462.3 -0.1410E+01  0.2660E-02
2021  8 11 14  0  128.8569   28.7394    81.52  358.499   126.9   24.05  20.31    -0.91   301.10  301.15    10.6    637.7   -501.1 -0.1273E+01  0.7651E-02
2021  8 11 13 50  128.8525   28.6684    74.56  358.387   136.3   24.12  20.26    -0.20   301.15  301.16    10.9    594.1   -510.3 -0.1164E+01  0.1682E-01
2021  8 11 13 40  128.8477   28.5972    68.09  358.292   143.2   24.23  20.21     0.97   301.22  301.16    10.9    538.6   -469.5 -0.1147E+01  0.1151E-01
2021  8 11 13 30  128.8469   28.5260    65.13  358.085   153.8   24.34  20.16     2.21   301.30  301.17    11.2    502.6   -459.7 -0.1093E+01 -0.3315E-02
2021  8 11 13 20  128.8519   28.4541    69.78  357.825   158.5   24.43  20.14     3.31   301.36  301.16    11.2    506.4   -436.5 -0.1160E+01 -0.1267E-01
2021  8 11 13 10  128.8591   28.3829    76.57  357.499   153.7   24.49  20.14     3.90   301.40  301.16    10.7    506.3   -370.7 -0.1366E+01 -0.1492E-01
2021  8 11 13  0  128.8640   28.3145    85.08  357.206   141.7   24.52  20.15     3.91   301.43  301.17     9.9    510.2   -290.7 -0.1755E+01 -0.1386E-01
2021  8 11 12 50  128.8670   28.2488    92.64  356.914   130.5   24.52  20.17     3.73   301.44  301.17     9.1    512.1   -237.0 -0.2160E+01 -0.1349E-01
2021  8 11 12 40  128.8679   28.1850    99.17  356.666   121.9   24.51  20.18     3.52   301.43  301.16     8.5    513.9   -204.0 -0.2519E+01 -0.9430E-02
2021  8 11 12 30  128.8681   28.1214   103.55  356.541   118.5   24.49  20.18     3.61   301.41  301.13     8.4    514.4   -192.5 -0.2672E+01 -0.2688E-02
2021  8 11 12 20  128.8702   28.0557   102.36  356.408   119.9   24.45  20.19     4.03   301.39  301.08     8.6    498.2   -203.0 -0.2454E+01  0.6216E-03
2021  8 11 12 10  128.8735   27.9887   101.66  356.304   116.8   24.41  20.15     4.32   301.36  301.02     8.3    485.4   -187.3 -0.2592E+01  0.1945E-02
2021  8 11 12  0  128.8758   27.9207   105.49  356.141   120.6   24.36  20.04     5.23   301.32  300.92     8.5    473.7   -184.5 -0.2567E+01 -0.2638E-01
2021  8 11 11 50  128.8801   27.8526   125.97  356.024   124.4   24.33  19.91     6.62   301.28  300.77     8.5    462.8   -173.4 -0.2669E+01 -0.1054E-01
2021  8 11 11 40  128.8893   27.7871   138.65  356.050   105.8   23.66  19.73    -0.06   300.79  300.55     8.3    464.9   -208.7 -0.2228E+01 -0.5002E-01
2021  8 11 11 30  128.8995   27.7277   181.82  356.020    70.0   22.78  19.52    -8.44   300.08  300.04     7.5    501.2   -221.0 -0.2268E+01  0.5563E-02
2021  8 11 11 20  128.9075   27.6700   120.73  355.939   122.3   23.96  19.69     0.46   301.03  300.80     9.1    486.5   -244.4 -0.1990E+01  0.7409E-01
2021  8 11 11 10  128.9128   27.6075   113.46  355.564   149.6   24.24  19.68     5.38   301.24  300.89     9.8    467.5   -264.4 -0.1768E+01 -0.4875E-02
2021  8 11 11  0  128.9175   27.5422   115.40  355.167   153.7   24.27  19.70     6.96   301.26  300.81    10.1    443.4   -270.7 -0.1638E+01  0.1846E-02
2021  8 11 10 50  128.9219   27.4750   110.76  354.648   156.3   24.28  19.70     8.98   301.27  300.70    10.2    396.6   -261.3 -0.1518E+01  0.1805E-01
2021  8 11 10 40  128.9257   27.4063   103.96  354.213   163.6   24.30  19.65    10.81   301.28  300.61    10.5    366.7   -268.3 -0.1367E+01 -0.3471E-02
2021  8 11 10 30  128.9271   27.3366   109.60  353.108   173.1   24.31  19.62    14.44   301.29  300.44    10.9    341.8   -275.2 -0.1242E+01 -0.1574E-01
2021  8 11 10 20  128.9253   27.2649   171.10  351.834   153.5   24.33  19.83    17.74   301.30  300.17    10.2    337.2   -208.0 -0.1622E+01 -0.2093E+00
2021  8 11 10 10  128.9210   27.1941   331.20  352.766   133.1   24.32  20.05    15.97   301.30  300.20     9.3    390.4   -172.5 -0.2263E+01 -0.4528E+00
2021  8 11 10  0  128.9147   27.1206   418.71  353.926   148.5   24.32  19.91    11.67   301.30  300.56    10.1    502.6   -243.2 -0.2066E+01 -0.2118E+00
2021  8 11  9 50  128.9087   27.0436   491.14  354.251   159.5   24.32  19.66     6.13   301.29  300.91    10.3    596.4   -288.7 -0.2066E+01  0.1314E+00
2021  8 11  9 40  128.9032   26.9650   461.93  354.117   162.6   24.33  19.63     4.51   301.30  301.01    10.4    589.0   -308.5 -0.1910E+01  0.2170E+00
2021  8 11  9 30  128.8989   26.8839   383.90  354.027   177.7   24.35  19.54     5.84   301.31  300.96    11.0    472.6   -346.8 -0.1363E+01  0.1030E+00
2021  8 11  9 20  128.8993   26.8045   336.45  353.967   171.9   24.38  19.49     7.04   301.33  300.89    10.5    419.5   -285.2 -0.1471E+01  0.8475E-01
2021  8 11  9 10  128.9027   26.7295   325.54  353.861   163.7   24.41  19.41     8.03   301.34  300.81     9.7    396.4   -219.3 -0.1807E+01  0.1405E-02
2021  8 11  9  0  128.9055   26.6563   351.37  353.897   168.3   24.44  19.36     9.61   301.36  300.73     9.8    397.7   -211.1 -0.1884E+01 -0.1055E+00
2021  8 11  8 50  128.9071   26.5822   389.18  353.920   176.7   24.45  19.36    11.50   301.38  300.65    10.2    409.5   -226.4 -0.1808E+01 -0.7756E-01
2021  8 11  8 40  128.9093   26.5065   442.27  353.865   179.4   24.45  19.36    12.70   301.38  300.59    10.4    424.7   -230.2 -0.1845E+01 -0.1108E+00
2021  8 11  8 30  128.9131   26.4281   490.33  353.894   189.4   24.41  19.38    13.95   301.35  300.53    11.1    457.6   -276.5 -0.1655E+01 -0.3752E-01
2021  8 11  8 20  128.9162   26.3463   517.58  353.977   194.0   24.33  19.39    13.99   301.29  300.51    11.6    465.0   -319.4 -0.1456E+01  0.3474E-01
2021  8 11  8 10  128.9202   26.2627   522.18  353.986   194.7   24.25  19.41    13.71   301.23  300.49    11.9    470.9   -354.9 -0.1327E+01  0.2483E-01
2021  8 11  8  0  128.9284   26.1796   486.57  353.906   194.7   24.17  19.45    13.29   301.18  300.47    12.2    464.8   -394.1 -0.1180E+01  0.5135E-01
2021  8 11  7 50  128.9388   26.0974   455.23  353.834   181.2   24.09  19.49    11.77   301.12  300.47    11.7    448.7   -368.4 -0.1218E+01  0.6295E-01
2021  8 11  7 40  128.9489   26.0177   428.41  353.819   174.3   24.03  19.50    10.54   301.08  300.49    11.5    437.6   -357.5 -0.1224E+01  0.3795E-01
2021  8 11  7 30  128.9593   25.9381   423.50  353.859   174.1   24.00  19.50    10.33   301.06  300.48    11.5    426.0   -370.0 -0.1151E+01 -0.3427E-01
2021  8 11  7 20  128.9682   25.8592   431.07  353.959   176.5   24.00  19.46    11.07   301.06  300.44    11.6    429.5   -366.0 -0.1174E+01 -0.3873E-01
2021  8 11  7 10  128.9753   25.7771   445.45  354.124   178.5   24.00  19.41    11.54   301.06  300.41    11.6    425.7   -358.0 -0.1189E+01  0.2974E-01
2021  8 11  7  0  128.9816   25.6925   448.44  354.209   171.8   23.99  19.49    11.86   301.05  300.38    11.4    407.6   -339.1 -0.1202E+01  0.6540E-01
2021  8 11  6 50  128.9903   25.6061   452.33  354.159   167.2   23.99  19.62    11.89   301.04  300.37    11.5    415.8   -356.0 -0.1168E+01 -0.7364E-01
2021  8 11  6 40  129.0005   25.5190   477.42  354.074   170.0   23.98  19.72    10.22   301.04  300.49    12.0    449.1   -432.4 -0.1039E+01 -0.1174E+00
2021  8 11  6 30  129.0129   25.4321   526.95  353.920   171.4   23.99  19.74     5.65   301.05  300.75    12.2    485.0   -518.2 -0.9360E+00 -0.7801E-02
2021  8 11  6 20  129.0256   25.3479   506.79  353.838   166.3   24.01  19.67     3.48   301.06  300.86    11.6    462.3   -470.3 -0.9831E+00  0.1342E+00
2021  8 11  6 10  129.0352   25.2647   439.25  353.548   164.7   24.04  19.71     2.86   301.08  300.92    11.5    430.2   -465.5 -0.9243E+00  0.8033E-01
2021  8 11  6  0  129.0407   25.1790   429.14  353.545   178.3   24.10  19.62     2.27   301.12  301.00    11.9    430.4   -512.5 -0.8398E+00 -0.1112E+00
2021  8 11  5 50  129.0467   25.0938   476.53  353.815   194.6   24.16  19.53     3.05   301.17  301.01    12.5    462.4   -555.9 -0.8317E+00 -0.1038E+00
2021  8 11  5 40  129.0546   25.0079   522.84  354.211   202.3   24.25  19.57     4.38   301.23  301.01    12.8    479.8   -574.4 -0.8353E+00 -0.7138E-01
2021  8 11  5 30  129.0634   24.9232   536.07  354.466   190.8   24.37  19.74     5.22   301.31  301.04    12.3    486.1   -501.0 -0.9703E+00  0.9589E-01
2021  8 11  5 20  129.0721   24.8389   532.42  354.549   192.0   24.52  19.76     6.18   301.41  301.08    12.0    474.2   -448.1 -0.1058E+01 -0.2272E-01
2021  8 11  5 10  129.0823   24.7580   552.46  354.668   180.3   24.66  19.82     5.67   301.51  301.18    11.1    520.6   -355.9 -0.1463E+01 -0.7899E-01
2021  8 11  5  0  129.0907   24.6779   502.90  354.743   185.4   24.83  19.95     4.59   301.62  301.37    11.4    554.6   -392.7 -0.1412E+01  0.1647E+00
2021  8 11  4 50  129.1029   24.5966   389.15  354.290   208.7   25.01  19.68     1.73   301.74  301.64    11.6    515.9   -410.0 -0.1258E+01  0.2267E+00
2021  8 11  4 40  129.1133   24.5153   295.40  354.034   216.5   25.21  19.56     3.48   301.86  301.66    11.3    447.1   -345.5 -0.1294E+01  0.9157E-01
2021  8 11  4 30  129.1217   24.4353   285.40  353.622   217.4   25.36  19.52     5.51   301.97  301.64    10.9    418.8   -289.0 -0.1449E+01 -0.6411E-01
2021  8 11  4 20  129.1291   24.3569   305.37  353.660   234.5   25.51  19.55     8.90   302.07  301.56    11.5    401.5   -307.2 -0.1307E+01 -0.3013E-01
2021  8 11  4 10  129.1330   24.2795   324.24  353.516   223.2   25.65  19.49    11.68   302.16  301.44    10.6    376.6   -217.6 -0.1731E+01  0.2496E-01
2021  8 11  4  0  129.1328   24.1994   271.23  353.476   284.3   25.81  19.43    19.49   302.26  301.28    12.8    333.0   -336.2 -0.9903E+00  0.3350E-01
2021  8 11  3 50  129.1324   24.1160   303.87  353.249   269.6   25.95  19.39    25.13   302.35  300.98    11.9    318.5   -236.4 -0.1347E+01 -0.4437E-01
2021  8 11  3 40  129.1316   24.0394   358.72  353.417   273.8   26.05  19.32    35.53   302.42  300.46    11.6    314.5   -188.6 -0.1667E+01 -0.1802E+00
2021  8 11  3 30  129.1307   23.9661   475.10  353.802   286.0   26.13  19.33    49.76   302.47  299.82    11.9    313.2   -175.6 -0.1784E+01 -0.2358E+00
2021  8 11  3 20  129.1291   23.8931   592.39  354.618   326.2   26.17  19.31    61.76   302.51  299.59    13.3    312.7   -225.7 -0.1385E+01 -0.2879E+00
2021  8 11  3 10  129.1264   23.8185   723.55  355.802   367.4   26.20  19.62    73.71   302.52  299.58    15.6    329.9   -363.8 -0.9070E+00 -0.2959E+00
2021  8 11  3  0  129.1230   23.7381   734.02  356.608   251.2   26.23  20.77    34.14   302.54  300.95    13.6    413.6   -365.7 -0.1131E+01  0.3878E+00
2021  8 11  2 50  129.1206   23.6596   654.75  355.491   171.8   26.25  21.14    14.12   302.55  301.64    10.1    407.2   -205.8 -0.1978E+01  0.5546E-01
2021  8 11  2 40  129.1184   23.5774   572.38  356.487   163.0   26.27  21.50    15.69   302.56  301.57    10.4    437.0   -224.1 -0.1950E+01  0.1385E-01
2021  8 11  2 30  129.1171   23.4924   588.06  356.319   162.3   26.26  21.57    13.97   302.55  301.68    10.6    490.3   -248.4 -0.1973E+01 -0.6354E-01
2021  8 11  2 20  129.1205   23.4080   593.78  357.096   168.8   26.24  21.43     8.97   302.54  301.98    10.7    656.4   -287.0 -0.2287E+01  0.3934E-01
2021  8 11  2 10  129.1268   23.3286   543.42  357.863   168.8   26.19  21.10     2.29   302.51  302.36    10.1    828.6   -282.2 -0.2936E+01  0.1353E+00
2021  8 11  2  0  129.1327   23.2511   472.65  358.002   180.6   26.16  20.89     0.57   302.50  302.46    10.3    807.6   -312.6 -0.2583E+01  0.1045E+00
2021  8 11  1 50  129.1359   23.1728   408.90  358.119   200.9   26.14  20.72    -0.09   302.48  302.49    11.1    729.7   -381.1 -0.1915E+01  0.4699E-01
2021  8 11  1 40  129.1384   23.0932   406.72  358.097   203.4   26.12  20.66    -0.07   302.47  302.47    11.2    756.9   -383.1 -0.1976E+01 -0.4037E-01
2021  8 11  1 30  129.1426   23.0134   423.12  357.817   205.2   26.10  20.63    -0.10   302.46  302.46    11.2    786.4   -388.1 -0.2026E+01 -0.1132E-01
2021  8 11  1 20  129.1460   22.9340   450.46  357.547   196.2   26.09  20.66    -0.15   302.45  302.46    10.8    811.3   -355.1 -0.2285E+01 -0.6579E-01
2021  8 11  1 10  129.1486   22.8562   444.53  357.586   189.4   26.08  20.72     0.01   302.45  302.45    10.6    849.8   -338.7 -0.2509E+01  0.4375E-01
2021  8 11  1  0  129.1510   22.7769   419.66  357.056   191.0   26.09  20.71     0.71   302.45  302.41    10.7    747.9   -333.9 -0.2240E+01  0.8138E-01
2021  8 11  0 50  129.1525   22.6931   392.04  356.589   211.1   26.10  20.69     1.70   302.45  302.35    11.7    703.7   -414.8 -0.1697E+01 -0.2570E-01
2021  8 11  0 40  129.1540   22.6050   422.58  355.935   215.7   26.09  20.70     2.04   302.44  302.33    12.0    738.5   -443.6 -0.1665E+01 -0.7382E-01
2021  8 11  0 30  129.1579   22.5155   449.58  355.591   220.3   26.08  20.71     2.54   302.44  302.30    12.2    747.6   -467.9 -0.1598E+01 -0.3505E-01
2021  8 11  0 20  129.1633   22.4247   472.25  355.414   218.5   26.05  20.71     2.73   302.42  302.28    12.2    743.1   -467.4 -0.1590E+01 -0.7589E-01
2021  8 11  0 10  129.1685   22.3350   491.80  355.570   216.0   26.02  20.70     2.79   302.40  302.25    12.2    738.4   -460.5 -0.1603E+01 -0.1221E-01
2021  8 11  0  0  129.1743   22.2458   488.79  355.812   216.1   26.01  20.69     3.11   302.40  302.23    12.1    692.1   -455.1 -0.1521E+01  0.1040E-01
