2021  8 12  0  0  129.9159   32.6032   500.00  356.441    65.4   22.94  20.03    10.49   300.29  299.33     7.0    426.0   -114.7 -0.3715E+01  0.3269E+00
2021  8 11 23 50  129.8626   32.5550   334.84  357.168    62.6   23.11  20.29     7.45   300.41  299.74     7.1    422.8   -139.3 -0.3035E+01  0.1508E+00
2021  8 11 23 40  129.8090   32.5035   255.43  358.190    65.6   23.29  20.54     6.66   300.54  299.99     7.7    462.2   -186.5 -0.2479E+01  0.1372E+00
2021  8 11 23 30  129.7540   32.4477   189.59  358.899    71.8   23.48  20.69     6.79   300.67  300.14     8.4    469.7   -235.0 -0.1999E+01  0.9455E-01
2021  8 11 23 20  129.6998   32.3907   141.08  358.723    75.7   23.66  20.80     6.44   300.79  300.30     8.7    446.0   -253.6 -0.1759E+01  0.3928E-01
2021  8 11 23 10  129.6459   32.3383   107.73  358.521    91.9   23.81  20.69     4.29   300.89  300.58     9.5    445.1   -335.6 -0.1327E+01  0.1121E-01
2021  8 11 23  0  129.5941   32.2935   118.21  357.839    90.9   23.90  20.62     3.69   300.96  300.68     8.9    431.7   -277.5 -0.1556E+01 -0.7655E-01
2021  8 11 22 50  129.5479   32.2554   181.19  357.528    77.5   23.94  20.75     5.30   300.99  300.54     7.7    434.6   -180.4 -0.2409E+01 -0.1384E+00
2021  8 11 22 40  129.5018   32.2193   264.28  357.662    71.5   23.96  20.65     9.16   301.00  300.12     6.6    434.9    -97.4 -0.4467E+01 -0.1622E+00
2021  8 11 22 30  129.4521   32.1829   314.91  358.123    76.4   23.94  20.38    12.72   300.99  299.75     6.4    425.4    -73.8 -0.5767E+01 -0.8535E-01
2021  8 11 22 20  129.4063   32.1472   348.43  358.572    64.9   23.91  20.69    12.34   300.97  299.71     6.1    407.1    -69.0 -0.5902E+01  0.9711E-01
2021  8 11 22 10  129.3693   32.1129   296.57  359.343    58.6   23.89  20.86    11.80   300.95  299.71     5.9    380.7    -66.3 -0.5746E+01  0.1518E+00
2021  8 11 22  0  129.3398   32.0787   233.37  358.853    65.5   23.88  20.71    10.48   300.94  299.88     6.3    389.4    -82.6 -0.4717E+01  0.6792E-01
2021  8 11 21 50  129.3038   32.0444   184.80  357.990    76.4   23.89  20.37     6.16   300.94  300.34     6.6    424.3   -109.2 -0.3884E+01  0.1777E-01
2021  8 11 21 40  129.2603   32.0070   182.77  357.578    89.0   23.90  20.26     4.00   300.96  300.61     7.5    439.1   -163.6 -0.2685E+01 -0.3816E-01
2021  8 11 21 30  129.2124   31.9596   184.86  357.486   120.6   23.97  20.27     4.46   301.00  300.71    10.1    428.3   -349.0 -0.1227E+01 -0.2906E-01
2021  8 11 21 20  129.1640   31.9067   218.42  357.395   119.8   24.06  20.30     6.47   301.06  300.63     9.9    410.2   -298.2 -0.1376E+01 -0.1108E+00
2021  8 11 21 10  129.1197   31.8563   271.28  357.634   105.2   24.17  20.58     8.62   301.14  300.52     9.1    414.1   -226.8 -0.1826E+01 -0.1203E+00
2021  8 11 21  0  129.0776   31.8069   279.97  357.998    88.4   24.29  21.04     8.75   301.22  300.56     8.6    446.0   -207.1 -0.2153E+01  0.4699E-01
2021  8 11 20 50  129.0354   31.7560   268.63  357.720    75.4   24.43  21.36     8.04   301.31  300.65     7.9    452.5   -175.3 -0.2582E+01  0.4072E-01
2021  8 11 20 40  128.9908   31.7023   299.77  357.665    81.4   24.57  21.45     9.25   301.40  300.69     8.4    486.4   -191.8 -0.2535E+01 -0.1452E+00
2021  8 11 20 30  128.9451   31.6453   359.56  357.461    85.4   24.71  21.47     9.64   301.50  300.76     8.4    541.6   -187.3 -0.2891E+01 -0.1021E+00
2021  8 11 20 20  128.8981   31.5868   377.99  357.685    89.9   24.85  21.53    10.22   301.60  300.84     8.7    562.2   -195.9 -0.2869E+01 -0.1974E-01
2021  8 11 20 10  128.8524   31.5259   385.07  358.066    91.6   24.99  21.58    10.27   301.70  300.92     8.6    587.4   -187.9 -0.3126E+01  0.1567E-01
2021  8 11 20  0  128.8121   31.4661   345.59  358.416    95.3   25.10  21.57     9.23   301.77  301.06     8.6    606.7   -189.4 -0.3203E+01  0.1165E+00
2021  8 11 19 50  128.7798   31.4081   299.07  358.271    94.6   25.19  21.49     7.81   301.83  301.19     8.1    586.7   -164.0 -0.3578E+01  0.7699E-01
2021  8 11 19 40  128.7530   31.3524   304.81  357.939    95.8   25.26  21.37     6.06   301.87  301.36     7.7    637.6   -150.1 -0.4248E+01 -0.4873E-01
2021  8 11 19 30  128.7263   31.2972   332.74  358.074   107.7   25.31  21.24     4.79   301.90  301.52     8.2    724.5   -183.7 -0.3944E+01 -0.4218E-01
2021  8 11 19 20  128.7000   31.2398   327.54  358.706   120.1   25.36  21.11     4.11   301.94  301.63     8.7    721.0   -213.9 -0.3371E+01  0.4889E-01
2021  8 11 19 10  128.6739   31.1806   322.68  358.902   127.5   25.42  20.99     3.31   301.98  301.73     8.9    690.3   -221.0 -0.3124E+01 -0.1111E-01
2021  8 11 19  0  128.6457   31.1202   311.91  358.873   138.7   25.48  20.91     3.12   302.01  301.80     9.3    674.1   -247.1 -0.2728E+01  0.2229E-01
2021  8 11 18 50  128.6184   31.0575   312.65  358.770   147.4   25.55  20.83     3.02   302.05  301.85     9.6    669.8   -259.5 -0.2581E+01 -0.1098E-01
2021  8 11 18 40  128.5928   30.9922   311.63  358.641   161.4   25.60  20.77     3.25   302.09  301.88    10.2    651.0   -296.4 -0.2196E+01 -0.1946E-01
2021  8 11 18 30  128.5680   30.9246   348.89  358.471   158.9   25.62  20.77     2.92   302.11  301.91    10.0    685.6   -283.0 -0.2423E+01 -0.9624E-01
2021  8 11 18 20  128.5451   30.8594   368.40  358.155   153.7   25.64  20.75     2.93   302.12  301.92     9.6    697.4   -251.2 -0.2776E+01  0.9253E-02
2021  8 11 18 10  128.5250   30.7927   357.86  358.759   161.6   25.66  20.69     3.37   302.13  301.91     9.9    655.7   -265.5 -0.2469E+01  0.2993E-01
2021  8 11 18  0  128.5044   30.7241   335.62  358.581   173.7   25.71  20.65     4.13   302.16  301.90    10.4    593.7   -296.1 -0.2005E+01  0.3396E-01
2021  8 11 17 50  128.4815   30.6546   333.05  358.211   178.3   25.77  20.63     4.97   302.20  301.89    10.5    572.7   -289.9 -0.1975E+01 -0.1890E-01
2021  8 11 17 40  128.4573   30.5848   348.47  357.934   186.9   25.84  20.62     6.19   302.24  301.86    10.8    577.2   -299.2 -0.1929E+01 -0.3835E-01
2021  8 11 17 30  128.4343   30.5137   375.22  357.856   188.0   25.89  20.62     6.88   302.28  301.86    10.7    612.7   -289.7 -0.2115E+01 -0.4178E-01
2021  8 11 17 20  128.4135   30.4428   395.04  357.602   184.8   25.93  20.63     7.22   302.30  301.85    10.5    619.2   -266.1 -0.2327E+01 -0.1493E-01
2021  8 11 17 10  128.3939   30.3723   410.79  357.664   185.0   25.97  20.62     7.61   302.33  301.85    10.4    617.4   -255.1 -0.2420E+01 -0.4549E-01
2021  8 11 17  0  128.3749   30.3011   421.97  357.159   194.2   26.02  20.61     8.67   302.37  301.84    10.7    611.0   -269.9 -0.2264E+01 -0.6495E-02
2021  8 11 16 50  128.3570   30.2258   438.30  356.763   204.0   26.09  20.59     9.89   302.41  301.83    11.1    613.7   -286.3 -0.2143E+01 -0.9256E-01
2021  8 11 16 40  128.3400   30.1497   447.84  356.390   214.0   26.19  20.55    11.58   302.48  301.81    11.3    609.7   -286.0 -0.2131E+01 -0.3898E-02
2021  8 11 16 30  128.3248   30.0717   450.72  356.029   226.2   26.29  20.53    14.09   302.53  301.75    11.6    590.1   -292.8 -0.2016E+01  0.8013E-02
2021  8 11 16 20  128.3117   29.9929   468.74  355.477   220.3   26.33  20.52    14.81   302.57  301.71    11.2    592.5   -257.5 -0.2301E+01 -0.4906E-01
2021  8 11 16 10  128.2982   29.9160   489.08  355.011   212.8   26.33  20.54    15.27   302.57  301.66    10.9    584.9   -233.4 -0.2506E+01 -0.3093E-02
2021  8 11 16  0  128.2859   29.8395   492.02  354.597   211.3   26.31  20.53    16.10   302.55  301.59    10.8    553.1   -225.9 -0.2449E+01  0.3813E-02
2021  8 11 15 50  128.2758   29.7624   494.14  354.538   207.0   26.27  20.55    16.60   302.53  301.52    10.7    540.9   -218.0 -0.2481E+01 -0.2993E-03
2021  8 11 15 40  128.2663   29.6853   510.31  354.477   200.7   26.22  20.57    17.09   302.50  301.45    10.6    535.5   -207.1 -0.2586E+01 -0.5577E-01
2021  8 11 15 30  128.2566   29.6089   550.66  354.491   194.2   26.16  20.59    17.56   302.47  301.37    10.3    543.4   -194.0 -0.2802E+01 -0.1139E+00
2021  8 11 15 20  128.2463   29.5330   589.36  354.510   180.9   26.09  20.63    17.11   302.43  301.30     9.8    546.2   -170.9 -0.3196E+01 -0.2257E-01
2021  8 11 15 10  128.2359   29.4563   578.43  354.510   176.8   25.98  20.69    17.78   302.36  301.20    10.0    517.7   -177.9 -0.2910E+01  0.4034E-01
2021  8 11 15  0  128.2254   29.3758   550.65  354.590   176.4   25.83  20.71    17.60   302.25  301.15    10.3    497.0   -202.7 -0.2452E+01  0.4145E-01
2021  8 11 14 50  128.2138   29.2930   543.70  354.649   171.4   25.67  20.65    16.23   302.16  301.13    10.2    484.7   -206.7 -0.2344E+01 -0.1104E-01
2021  8 11 14 40  128.2014   29.2097   552.98  354.740   172.9   25.59  20.52    15.55   302.10  301.11    10.2    476.6   -207.5 -0.2296E+01 -0.1488E-01
2021  8 11 14 30  128.1894   29.1260   565.93  354.792   182.1   25.55  20.33    15.94   302.08  301.08    10.4    457.1   -213.1 -0.2145E+01 -0.1562E-01
2021  8 11 14 20  128.1793   29.0410   572.71  354.902   195.1   25.52  20.10    17.12   302.06  301.02    10.7    438.9   -218.1 -0.2012E+01 -0.3716E-01
2021  8 11 14 10  128.1710   28.9554   605.29  355.000   201.2   25.49  19.84    18.29   302.04  300.91    10.5    420.2   -196.7 -0.2137E+01 -0.1032E+00
2021  8 11 14  0  128.1635   28.8710   658.54  355.254   189.9   25.45  19.64    17.80   302.02  300.82     9.5    417.5   -148.4 -0.2814E+01 -0.1397E-01
2021  8 11 13 50  128.1586   28.7868   633.30  355.464   187.2   25.42  19.59    17.57   302.00  300.79     9.4    400.9   -141.3 -0.2838E+01  0.1143E+00
2021  8 11 13 40  128.1555   28.7018   593.62  355.323   185.0   25.40  19.72    17.76   301.99  300.78     9.6    378.2   -151.5 -0.2496E+01  0.5976E-01
2021  8 11 13 30  128.1544   28.6174   617.90  355.467   178.1   25.37  19.87    17.60   301.97  300.78     9.5    377.7   -154.0 -0.2452E+01 -0.9631E-01
2021  8 11 13 20  128.1552   28.5348   625.59  355.814   159.4   25.36  20.21    17.83   301.96  300.71     9.2    385.2   -142.3 -0.2707E+01  0.4270E-01
2021  8 11 13 10  128.1573   28.4541   678.93  355.907   120.7   25.35  20.75    16.73   301.97  300.60     7.8    414.1   -100.3 -0.4129E+01 -0.8588E-01
2021  8 11 13  0  128.1603   28.3762   696.39  355.827    94.8   25.37  21.36    14.56   301.98  300.69     7.2    455.2    -90.1 -0.5054E+01  0.1239E+00
2021  8 11 12 50  128.1594   28.2955   653.26  355.779   106.2   25.42  21.48    15.35   302.01  300.81     8.4    464.2   -135.1 -0.3436E+01 -0.1418E-01
2021  8 11 12 40  128.1571   28.2168   713.62  355.280   127.1   25.45  21.14    11.91   302.03  301.15     9.0    541.5   -174.1 -0.3110E+01 -0.1401E+00
2021  8 11 12 30  128.1525   28.1406   742.80  355.016   159.0   25.50  20.76     9.03   302.07  301.49    10.2    639.7   -251.0 -0.2548E+01 -0.4008E-01
2021  8 11 12 20  128.1447   28.0627   706.96  354.595   174.5   25.54  20.70    11.58   302.09  301.40    10.9    566.0   -284.5 -0.1989E+01 -0.6826E-01
2021  8 11 12 10  128.1338   27.9830   722.00  354.688   173.0   25.53  20.78    13.05   302.08  301.31    11.0    552.7   -285.9 -0.1933E+01  0.1333E-01
2021  8 11 12  0  128.1225   27.9009   737.71  354.593   158.7   25.44  20.85    12.85   302.03  301.23    10.5    552.4   -259.6 -0.2128E+01 -0.6674E-01
2021  8 11 11 50  128.1130   27.8188   778.55  354.276   149.3   25.30  20.86    12.64   301.93  301.13    10.3    553.3   -247.7 -0.2234E+01 -0.2233E-01
2021  8 11 11 40  128.1036   27.7364   749.36  354.818   146.6   25.12  20.69    11.46   301.81  301.07    10.1    531.4   -242.4 -0.2192E+01  0.4848E-01
2021  8 11 11 30  128.0916   27.6549   739.15  355.041   139.8   24.87  20.46     9.83   301.65  300.99     9.7    462.8   -223.9 -0.2067E+01 -0.6689E-01
2021  8 11 11 20  128.0775   27.5744   724.62  355.055   141.7   24.61  20.25     9.63   301.48  300.84     9.9    407.0   -241.8 -0.1683E+01  0.1194E+00
2021  8 11 11 10  128.0653   27.4927   690.37  355.207   144.6   24.39  20.16     9.07   301.33  300.76    10.4    362.7   -289.3 -0.1254E+01 -0.3303E-01
2021  8 11 11  0  128.0566   27.4094   733.88  355.218   135.2   24.25  20.19    10.35   301.23  300.57    10.2    362.7   -268.0 -0.1354E+01 -0.1084E+00
2021  8 11 10 50  128.0513   27.3274   685.50  355.188   121.5   24.15  20.19    10.32   301.16  300.44     9.4    346.7   -216.8 -0.1599E+01  0.2948E+00
2021  8 11 10 40  128.0452   27.2459   598.83  354.818   121.3   24.06  20.15    11.70   301.10  300.30     9.5    328.3   -216.3 -0.1518E+01 -0.9378E-02
2021  8 11 10 30  128.0404   27.1664   732.77  354.809    99.7   23.97  20.16    13.61   301.04  299.94     7.9    328.7   -124.0 -0.2650E+01 -0.3548E+00
2021  8 11 10 20  128.0382   27.0883   777.62  355.102    83.7   23.91  20.30    11.13   300.99  299.98     7.0    356.2   -100.0 -0.3562E+01  0.1314E+00
2021  8 11 10 10  128.0367   27.0073   673.46  354.897    85.9   23.84  20.41     8.97   300.95  300.20     7.7    362.2   -146.7 -0.2470E+01  0.9981E-01
2021  8 11 10  0  128.0363   26.9244   723.95  354.528    73.9   23.79  20.47     7.38   300.91  300.21     6.9    377.9   -117.8 -0.3209E+01 -0.1162E+00
2021  8 11  9 50  128.0341   26.8391   762.88  354.400    79.4   23.74  20.45     4.54   300.87  300.47     7.5    388.1   -172.8 -0.2245E+01 -0.7177E-02
2021  8 11  9 40  128.0279   26.7512   762.78  354.327    82.0   23.70  20.26     5.43   300.84  300.36     7.4    387.8   -150.0 -0.2585E+01 -0.2029E+00
2021  8 11  9 30  128.0231   26.6633   765.18  354.537    21.3   22.81  20.38     8.84   300.20  300.01     3.6    493.5    -54.9 -0.8991E+01 -0.2902E-01
2021  8 11  9 20  128.0238   26.5750   764.27  355.541    11.1   20.90  20.74    -8.05   298.52  298.67     5.1    490.8    884.3  0.5550E+00 -0.4227E-01
2021  8 11  9 10  128.0296   26.4925   628.45  355.860    52.8   23.59  21.11     5.96   300.76  300.17     6.9    407.5   -148.6 -0.2743E+01 -0.7348E-01
2021  8 11  9  0  128.0358   26.4126   578.41  356.675    51.5   23.77  21.21     4.98   300.89  300.41     6.7    494.3   -147.4 -0.3353E+01 -0.5816E-01
2021  8 11  8 50  128.0418   26.3323   492.89  357.642    58.7   23.85  21.19    -0.61   300.94  300.98     7.4    690.7   -284.8 -0.2425E+01  0.9691E-01
2021  8 11  8 40  128.0489   26.2509   398.49  358.213    73.0   23.88  21.05    -3.15   300.97  301.21     8.5    663.2   -486.2 -0.1364E+01  0.8058E-01
2021  8 11  8 30  128.0582   26.1661   367.60  358.173    70.9   23.84  21.08    -3.15   300.94  301.18     8.6    673.7   -509.4 -0.1322E+01  0.5973E-01
2021  8 11  8 20  128.0690   26.0790   362.30  357.943    68.4   23.75  21.09    -4.04   300.87  301.18     8.7    688.2   -615.0 -0.1119E+01 -0.2296E-01
2021  8 11  8 10  128.0838   25.9904   349.95  358.056    73.6   23.65  21.03    -5.72   300.80  301.20     9.5    651.5   -936.7 -0.6956E+00  0.2231E-02
2021  8 11  8  0  128.0995   25.9012   385.36  357.926    69.5   23.55  20.99    -6.75   300.74  301.22     9.3    688.3  -1119.1 -0.6150E+00 -0.8657E-01
2021  8 11  7 50  128.1124   25.8130   411.62  357.883    64.0   23.46  21.00    -7.16   300.68  301.21     9.0    742.6  -1311.6 -0.5661E+00 -0.9708E-02
2021  8 11  7 40  128.1241   25.7248   416.61  357.833    60.8   23.41  20.98    -7.39   300.64  301.21     8.7    739.4  -1429.5 -0.5173E+00  0.5631E-03
2021  8 11  7 30  128.1356   25.6379   400.83  357.795    64.2   23.41  20.92    -7.95   300.64  301.24     8.9    700.5  -1576.9 -0.4442E+00  0.4512E-01
2021  8 11  7 20  128.1456   25.5510   392.85  357.729    65.7   23.44  20.88    -7.98   300.65  301.26     8.8    677.3  -1456.1 -0.4651E+00 -0.1639E-02
2021  8 11  7 10  128.1530   25.4637   393.66  357.705    70.7   23.48  20.86    -8.18   300.68  301.28     9.2    672.5  -1421.2 -0.4732E+00 -0.9094E-02
2021  8 11  7  0  128.1595   25.3770   409.98  357.674    67.2   23.54  20.86    -7.40   300.72  301.30     8.5    693.0  -1058.6 -0.6546E+00 -0.2335E-01
2021  8 11  6 50  128.1662   25.2906   408.66  357.670    73.8   23.61  20.83    -7.59   300.77  301.34     8.9    691.6  -1040.3 -0.6648E+00 -0.1657E-01
2021  8 11  6 40  128.1727   25.2037   412.19  357.634    77.3   23.66  20.80    -7.77   300.80  301.38     9.0    683.9  -1009.5 -0.6775E+00  0.2398E-01
2021  8 11  6 30  128.1796   25.1156   396.57  357.654    83.9   23.69  20.74    -8.19   300.82  301.40     9.4    656.8  -1056.1 -0.6219E+00  0.3104E-01
2021  8 11  6 20  128.1852   25.0271   400.35  357.609    86.0   23.72  20.71    -8.26   300.84  301.43     9.4    652.4  -1008.1 -0.6472E+00 -0.3682E-01
2021  8 11  6 10  128.1895   24.9391   412.81  357.733    88.1   23.75  20.70    -8.61   300.87  301.47     9.5    703.8  -1053.9 -0.6678E+00 -0.2445E-01
2021  8 11  6  0  128.1959   24.8505   422.71  357.560    94.1   23.78  20.66    -8.92   300.89  301.50     9.8    681.1  -1081.2 -0.6299E+00  0.3816E-02
2021  8 11  5 50  128.2022   24.7640   443.96  357.484    91.7   23.84  20.62    -8.62   300.93  301.55     9.3    694.0   -902.1 -0.7693E+00 -0.5155E-01
2021  8 11  5 40  128.2062   24.6781   453.36  357.455   102.9   23.96  20.58    -8.64   301.01  301.60     9.8    704.8   -870.2 -0.8099E+00 -0.4312E-01
2021  8 11  5 30  128.2100   24.5906   445.59  357.527   119.3   24.11  20.53    -8.59   301.11  301.65    10.6    712.9   -883.0 -0.8074E+00  0.5747E-01
2021  8 11  5 20  128.2146   24.5023   441.47  357.493   129.4   24.26  20.47    -8.13   301.22  301.72    10.7    707.8   -792.8 -0.8927E+00 -0.2616E-02
2021  8 11  5 10  128.2213   24.4149   450.66  357.518   137.8   24.41  20.46    -7.30   301.32  301.76    10.9    728.9   -721.1 -0.1011E+01 -0.3722E-01
2021  8 11  5  0  128.2269   24.3253   454.23  357.382   153.8   24.57  20.45    -6.35   301.42  301.78    11.5    716.1   -740.7 -0.9667E+00 -0.4787E-02
2021  8 11  4 50  128.2316   24.2335   464.69  357.083   161.4   24.70  20.44    -5.32   301.51  301.81    11.6    692.9   -688.9 -0.1006E+01  0.1912E-01
2021  8 11  4 40  128.2361   24.1411   476.68  357.091   164.8   24.78  20.44    -4.75   301.57  301.83    11.6    713.1   -651.2 -0.1095E+01 -0.6605E-01
2021  8 11  4 30  128.2422   24.0507   486.84  357.094   165.7   24.85  20.44    -4.37   301.62  301.87    11.5    733.0   -606.4 -0.1209E+01  0.5960E-02
2021  8 11  4 20  128.2507   23.9603   485.27  356.897   173.7   24.95  20.42    -3.67   301.69  301.89    11.7    712.1   -600.7 -0.1185E+01  0.1037E-01
2021  8 11  4 10  128.2583   23.8706   497.00  356.766   174.2   25.08  20.43    -2.55   301.77  301.92    11.4    719.1   -520.5 -0.1381E+01 -0.1064E-01
2021  8 11  4  0  128.2641   23.7823   486.85  356.553   173.1   25.18  20.43    -1.72   301.84  301.94    11.1    692.5   -454.8 -0.1523E+01  0.6035E-01
2021  8 11  3 50  128.2712   23.6936   471.16  356.263   184.2   25.25  20.41    -0.94   301.88  301.94    11.5    658.6   -483.9 -0.1361E+01 -0.2587E-01
2021  8 11  3 40  128.2770   23.6044   472.84  356.218   179.9   25.26  20.41    -0.89   301.90  301.95    11.2    665.3   -446.2 -0.1491E+01 -0.7325E-02
2021  8 11  3 30  128.2825   23.5153   477.89  355.934   183.2   25.27  20.39    -0.72   301.90  301.94    11.3    655.5   -454.3 -0.1443E+01 -0.2083E-02
2021  8 11  3 20  128.2893   23.4245   485.57  355.743   188.5   25.26  20.36    -0.82   301.90  301.94    11.6    655.7   -484.2 -0.1354E+01 -0.3767E-01
2021  8 11  3 10  128.2976   23.3325   510.54  355.634   190.6   25.25  20.35    -0.84   301.89  301.93    11.7    678.0   -499.0 -0.1359E+01 -0.2951E-01
2021  8 11  3  0  128.3053   23.2389   533.38  355.426   192.7   25.24  20.33    -0.81   301.88  301.93    11.8    692.5   -509.4 -0.1359E+01 -0.2912E-01
2021  8 11  2 50  128.3124   23.1434   539.75  355.168   200.5   25.26  20.31    -0.56   301.89  301.92    12.1    689.2   -539.2 -0.1278E+01 -0.4207E-01
2021  8 11  2 40  128.3204   23.0472   552.24  354.988   207.2   25.29  20.28    -0.31   301.91  301.93    12.4    693.1   -557.4 -0.1244E+01 -0.2225E-01
2021  8 11  2 30  128.3298   22.9505   570.20  354.681   209.8   25.31  20.25    -0.03   301.93  301.93    12.4    696.7   -550.8 -0.1265E+01 -0.1988E-01
2021  8 11  2 20  128.3381   22.8546   589.98  354.504   205.2   25.32  20.24    -0.17   301.94  301.95    12.1    715.4   -513.8 -0.1393E+01 -0.5672E-01
2021  8 11  2 10  128.3448   22.7604   617.87  354.237   201.6   25.32  20.23    -0.04   301.94  301.95    11.8    737.6   -482.8 -0.1528E+01 -0.2965E-01
2021  8 11  2  0  128.3489   22.6654   640.89  353.980   201.7   25.32  20.24     0.09   301.94  301.94    11.9    752.1   -486.0 -0.1548E+01 -0.5579E-01
2021  8 11  1 50  128.3519   22.5707   658.62  353.890   195.1   25.31  20.26    -0.08   301.94  301.94    11.6    767.7   -456.7 -0.1681E+01  0.1236E-01
2021  8 11  1 40  128.3553   22.4751   650.56  353.718   202.9   25.32  20.25     0.19   301.94  301.93    12.0    747.2   -495.1 -0.1509E+01 -0.2000E-03
2021  8 11  1 30  128.3594   22.3781   644.81  353.461   207.3   25.34  20.23     0.53   301.96  301.93    12.1    724.9   -504.1 -0.1438E+01  0.2739E-01
2021  8 11  1 20  128.3645   22.2800   619.05  353.252   219.7   25.39  20.20     1.07   301.98  301.93    12.6    686.0   -544.9 -0.1259E+01  0.4178E-01
2021  8 11  1 10  128.3716   22.1796   597.60  353.158   238.4   25.46  20.16     2.15   302.03  301.92    13.3    660.4   -605.0 -0.1092E+01  0.2577E-01
2021  8 11  1  0  128.3794   22.0768   597.87  352.998   253.1   25.57  20.14     3.44   302.09  301.93    13.7    652.9   -627.5 -0.1040E+01 -0.5380E-01
2021  8 11  0 50  128.3867   21.9750   637.08  353.001   252.4   25.66  20.14     4.18   302.16  301.96    13.4    686.7   -574.6 -0.1195E+01 -0.6370E-01
2021  8 11  0 40  128.3943   21.8764   671.41  353.020   239.9   25.74  20.14     4.21   302.22  302.00    12.6    723.7   -474.8 -0.1524E+01 -0.4160E-01
2021  8 11  0 30  128.4024   21.7817   683.10  352.782   236.8   25.82  20.13     4.79   302.27  302.02    12.3    731.0   -422.0 -0.1732E+01  0.1449E-01
2021  8 11  0 20  128.4121   21.6871   684.50  352.616   246.9   25.90  20.10     5.64   302.32  302.03    12.5    731.1   -433.8 -0.1685E+01 -0.3636E-01
2021  8 11  0 10  128.4215   21.5919   702.39  352.640   252.7   25.96  20.08     6.35   302.36  302.03    12.6    752.4   -429.6 -0.1751E+01 -0.3902E-01
2021  8 11  0  0  128.4294   21.4974   719.25  352.652   254.3   26.02  20.05     6.93   302.40  302.04    12.5    786.9   -405.1 -0.1942E+01 -0.1935E-01
