2021  8 12  0  0  129.9860   32.5948   500.00  353.147    87.4   22.85  19.58    15.06   300.22  299.04     8.2    430.7   -142.9 -0.3015E+01  0.6441E-01
2021  8 11 23 50  129.9259   32.5386   478.39  353.554    71.0   23.01  19.97    12.43   300.34  299.25     7.3    433.0   -114.7 -0.3775E+01  0.9506E-01
2021  8 11 23 40  129.8633   32.4823   411.23  353.673    85.1   23.23  20.29    13.90   300.50  299.52     9.3    419.6   -220.5 -0.1903E+01  0.1028E+00
2021  8 11 23 30  129.7968   32.4200   388.36  355.364    99.7   23.48  20.50    16.45   300.67  299.69    10.7    418.7   -319.3 -0.1311E+01  0.2268E+00
2021  8 11 23 20  129.7332   32.3536   335.12  357.050    91.8   23.69  20.76    15.46   300.82  299.83    10.2    436.6   -280.1 -0.1559E+01  0.3246E+00
2021  8 11 23 10  129.6812   32.2878   213.42  358.717    77.6   23.85  21.09    13.35   300.92  299.98     9.3    460.1   -234.2 -0.1965E+01  0.1642E+00
2021  8 11 23  0  129.6379   32.2314   127.87  360.906    64.5   23.91  21.43    10.67   300.97  300.18     8.9    467.3   -239.7 -0.1950E+01  0.9641E-01
2021  8 11 22 50  129.6009   32.1850    96.58  361.863    58.8   23.92  21.30     6.24   300.98  300.43     7.5    450.7   -183.2 -0.2460E+01  0.7339E-01
2021  8 11 22 40  129.5630   32.1432    86.34  361.860    53.7   23.92  21.17     3.96   300.97  300.57     6.4    542.9   -132.7 -0.4090E+01  0.1156E-01
2021  8 11 22 30  129.5228   32.1074    69.38  362.284    51.6   23.90  21.25     5.19   300.96  300.44     6.4    570.7   -124.7 -0.4575E+01  0.2067E-01
2021  8 11 22 20  129.4846   32.0780    50.35  362.548    44.2   23.89  21.35     6.87   300.95  300.19     5.7    519.7    -85.5 -0.6081E+01  0.4881E-01
2021  8 11 22 10  129.4476   32.0516    50.36  362.617    40.7   23.87  21.46     7.69   300.94  300.07     5.5    458.7    -77.8 -0.5894E+01  0.3378E-01
2021  8 11 22  0  129.4177   32.0185    50.08  362.406    46.1   23.86  21.41     8.01   300.93  300.11     6.3    412.2   -105.4 -0.3911E+01  0.1814E-01
2021  8 11 21 50  129.3993   31.9730    50.11  362.190    65.6   23.85  21.35     9.33   300.92  300.23     8.9    455.4   -254.0 -0.1793E+01  0.3406E-01
2021  8 11 21 40  129.3846   31.9151    50.02  361.950    75.5   23.81  21.32    11.27   300.90  300.19    10.3    427.5   -361.3 -0.1183E+01  0.1081E-02
2021  8 11 21 30  129.3633   31.8547    53.03  361.576    75.2   23.80  21.19     8.90   300.89  300.28     9.7    463.5   -321.6 -0.1442E+01  0.2668E-01
2021  8 11 21 20  129.3412   31.7972    50.95  361.338    77.0   23.80  21.05     5.70   300.89  300.49     9.2    488.2   -320.6 -0.1523E+01 -0.5327E-03
2021  8 11 21 10  129.3195   31.7427    50.90  361.164    80.4   23.83  20.93     3.11   300.91  300.68     9.1    510.3   -340.0 -0.1501E+01 -0.4830E-02
2021  8 11 21  0  129.2995   31.6890    50.01  360.990    84.0   23.88  20.89     3.57   300.94  300.68     9.1    455.7   -328.2 -0.1389E+01  0.5217E-02
2021  8 11 20 50  129.2811   31.6333    51.17  360.845    88.7   23.95  20.88     4.86   300.98  300.64     9.3    419.9   -318.8 -0.1317E+01 -0.6270E-02
2021  8 11 20 40  129.2601   31.5781    57.93  360.720    90.5   24.03  20.88     5.75   301.04  300.64     9.3    423.0   -292.8 -0.1445E+01 -0.1888E-01
2021  8 11 20 30  129.2370   31.5217    65.05  360.582   100.1   24.13  20.89     7.50   301.12  300.62     9.9    425.5   -318.9 -0.1334E+01 -0.1249E-01
2021  8 11 20 20  129.2144   31.4608    70.41  360.408   111.1   24.25  20.89    10.12   301.20  300.57    10.5    410.3   -340.4 -0.1205E+01 -0.8774E-02
2021  8 11 20 10  129.1930   31.3977    81.73  360.125   116.7   24.40  20.88    12.82   301.30  300.50    10.5    405.2   -299.0 -0.1355E+01 -0.9309E-02
2021  8 11 20  0  129.1749   31.3339    88.98  359.799   123.8   24.54  20.84    15.63   301.40  300.42    10.4    417.5   -265.2 -0.1574E+01 -0.1645E-01
2021  8 11 19 50  129.1636   31.2698    80.72  359.430   137.7   24.65  20.76    19.04   301.47  300.34    10.9    418.7   -275.8 -0.1518E+01 -0.1593E-02
2021  8 11 19 40  129.1600   31.2028    75.78  358.880   152.5   24.71  20.68    23.06   301.52  300.23    11.6    391.8   -298.0 -0.1315E+01 -0.7050E-02
2021  8 11 19 30  129.1612   31.1318    76.93  358.323   165.3   24.74  20.59    27.82   301.54  300.06    12.1    374.1   -310.3 -0.1206E+01 -0.1473E-02
2021  8 11 19 20  129.1654   31.0572    79.11  357.597   173.6   24.77  20.52    33.24   301.56  299.82    12.3    360.2   -298.4 -0.1207E+01 -0.1039E-01
2021  8 11 19 10  129.1732   30.9817    96.07  356.579   166.9   24.84  20.46    36.70   301.60  299.54    11.5    346.3   -219.1 -0.1581E+01 -0.6277E-01
2021  8 11 19  0  129.1770   30.9027   134.46  355.525   194.8   24.98  20.30    44.69   301.69  299.38    12.3    338.3   -244.1 -0.1386E+01 -0.1799E+00
2021  8 11 18 50  129.1665   30.8155   284.01  355.245   189.1   25.16  20.40    43.03   301.81  299.47    11.7    341.9   -207.1 -0.1651E+01 -0.4929E+00
2021  8 11 18 40  129.1375   30.7235   557.87  356.211   154.4   25.30  20.53    33.95   301.91  299.64     9.5    348.0   -120.3 -0.2893E+01 -0.5510E+00
2021  8 11 18 30  129.0944   30.6269   696.32  355.976   122.2   25.43  21.19    23.85   301.99  300.22     8.8    420.5   -120.9 -0.3479E+01  0.2052E+00
2021  8 11 18 20  129.0476   30.5333   683.60  355.995   162.5   25.54  20.92    13.01   302.06  301.26    10.8    675.2   -272.3 -0.2479E+01  0.1576E+00
2021  8 11 18 10  129.0038   30.4473   630.09  355.660   195.5   25.59  20.44     5.62   302.09  301.77    11.4    892.1   -367.2 -0.2430E+01  0.1962E+00
2021  8 11 18  0  128.9648   30.3633   535.81  354.529   247.3   25.58  19.94     4.65   302.08  301.85    12.9    783.1   -501.1 -0.1563E+01  0.1600E+00
2021  8 11 17 50  128.9317   30.2801   511.14  354.522   236.5   25.57  19.84     5.65   302.08  301.78    12.1    720.6   -399.2 -0.1805E+01 -0.9581E-01
2021  8 11 17 40  128.9013   30.2003   513.15  354.574   237.2   25.65  19.79     6.78   302.13  301.76    11.9    710.4   -358.8 -0.1980E+01  0.6295E-02
2021  8 11 17 30  128.8706   30.1196   492.93  354.081   245.3   25.79  19.71     8.57   302.23  301.75    11.8    660.1   -328.0 -0.2013E+01  0.3831E-01
2021  8 11 17 20  128.8366   30.0411   464.40  353.716   252.4   25.95  19.65    10.66   302.33  301.74    11.7    621.0   -298.0 -0.2084E+01  0.5769E-01
2021  8 11 17 10  128.8014   29.9626   453.92  353.475   257.5   26.07  19.65    12.83   302.40  301.69    11.7    610.6   -280.6 -0.2176E+01  0.1041E-01
2021  8 11 17  0  128.7679   29.8836   466.82  353.165   249.1   26.14  19.67    13.74   302.45  301.66    11.2    618.8   -242.8 -0.2548E+01 -0.1783E-01
2021  8 11 16 50  128.7359   29.8042   466.64  352.661   249.6   26.16  19.65    14.96   302.46  301.59    11.2    595.7   -232.5 -0.2562E+01  0.3042E-01
2021  8 11 16 40  128.7039   29.7237   453.47  352.028   246.8   26.10  19.54    15.48   302.43  301.51    11.0    537.7   -216.8 -0.2480E+01  0.4106E-01
2021  8 11 16 30  128.6706   29.6421   436.01  351.469   244.3   25.96  19.45    15.76   302.34  301.40    10.9    484.4   -213.6 -0.2268E+01  0.3053E-01
2021  8 11 16 20  128.6365   29.5581   408.84  351.118   243.6   25.74  19.43    16.45   302.20  301.25    11.2    434.4   -234.1 -0.1856E+01  0.1005E-01
2021  8 11 16 10  128.6024   29.4725   420.20  351.187   228.8   25.51  19.39    15.64   302.05  301.12    10.9    426.0   -222.5 -0.1914E+01 -0.4224E-02
2021  8 11 16  0  128.5697   29.3878   431.97  351.220   213.7   25.28  19.33    14.31   301.90  301.01    10.5    417.7   -207.4 -0.2014E+01 -0.4134E-01
2021  8 11 15 50  128.5390   29.3038   442.50  351.258   204.5   25.08  19.32    13.85   301.78  300.91    10.4    409.7   -208.0 -0.1970E+01 -0.1780E-01
2021  8 11 15 40  128.5101   29.2192   446.92  351.382   196.4   24.94  19.36    13.97   301.69  300.81    10.3    400.6   -207.8 -0.1928E+01 -0.5543E-01
2021  8 11 15 30  128.4824   29.1340   464.97  351.461   202.1   24.86  19.34    15.19   301.63  300.71    10.7    395.5   -228.2 -0.1733E+01 -0.3311E-01
2021  8 11 15 20  128.4564   29.0457   476.01  351.524   217.9   24.83  19.24    17.02   301.61  300.64    11.4    389.2   -262.9 -0.1480E+01 -0.3525E-01
2021  8 11 15 10  128.4323   28.9562   499.33  351.534   224.8   24.82  19.16    19.24   301.61  300.53    11.6    379.6   -262.9 -0.1444E+01 -0.3546E-01
2021  8 11 15  0  128.4080   28.8662   521.35  351.631   220.1   24.84  19.24    23.10   301.62  300.32    11.4    374.0   -237.1 -0.1578E+01 -0.6947E-01
2021  8 11 14 50  128.3830   28.7756   567.48  351.851   203.4   24.89  19.36    24.53   301.65  300.18    10.7    386.8   -191.7 -0.2018E+01 -0.8218E-01
2021  8 11 14 40  128.3570   28.6847   585.44  352.039   204.4   24.94  19.41    24.18   301.69  300.24    10.8    400.9   -197.0 -0.2035E+01  0.2464E-01
2021  8 11 14 30  128.3307   28.5934   585.67  351.914   210.4   25.00  19.32    24.13   301.73  300.28    10.8    394.7   -193.0 -0.2045E+01 -0.2949E-01
2021  8 11 14 20  128.3053   28.5041   619.97  351.862   192.3   25.07  19.26    23.78   301.78  300.18     9.6    399.2   -135.3 -0.2951E+01 -0.2165E-01
2021  8 11 14 10  128.2805   28.4149   579.90  351.970   210.6   25.17  19.23    28.14   301.84  300.07    10.3    373.8   -152.0 -0.2459E+01  0.9968E-01
2021  8 11 14  0  128.2565   28.3255   594.82  352.439   201.4   25.27  19.23    31.13   301.91  299.83     9.6    362.4   -118.1 -0.3069E+01 -0.1865E-01
2021  8 11 13 50  128.2356   28.2373   614.07  352.343   209.2   25.35  19.30    35.28   301.96  299.69    10.0    345.1   -123.0 -0.2805E+01 -0.1325E+00
2021  8 11 13 40  128.2175   28.1481   733.94  352.194   188.4   25.42  19.35    31.31   302.01  299.76     8.9    353.6    -93.3 -0.3791E+01 -0.2109E+00
2021  8 11 13 30  128.2021   28.0589   798.49  352.591   169.8   25.46  19.58    25.48   302.04  300.08     8.3    382.9    -85.7 -0.4466E+01 -0.7052E-01
2021  8 11 13 20  128.1906   27.9701   884.00  352.728   163.4   25.44  19.81    19.27   302.02  300.55     8.5    423.3   -105.1 -0.4027E+01 -0.5948E-01
2021  8 11 13 10  128.1835   27.8825   904.07  352.715   187.5   25.33  19.79    16.97   301.95  300.85    10.0    423.0   -175.5 -0.2410E+01  0.1138E+00
2021  8 11 13  0  128.1760   27.7963   858.33  352.474   199.7   25.17  19.70    17.29   301.85  300.81    10.7    373.8   -220.2 -0.1697E+01  0.2949E-01
2021  8 11 12 50  128.1694   27.7090   866.20  352.332   184.5   24.97  19.84    19.72   301.72  300.52    10.6    377.0   -211.8 -0.1780E+01 -0.3879E-01
2021  8 11 12 40  128.1658   27.6220   933.29  352.020   149.7   24.69  20.01    17.26   301.54  300.37     9.5    399.5   -170.2 -0.2347E+01 -0.2310E-03
2021  8 11 12 30  128.1613   27.5345   941.10  351.493   136.9   24.44  20.11    16.27   301.36  300.26     9.5    398.2   -181.9 -0.2190E+01  0.1089E+00
2021  8 11 12 20  128.1554   27.4467   981.02  351.161   131.0   24.26  20.04    16.27   301.24  300.12     9.3    363.5   -174.4 -0.2084E+01 -0.2535E-01
2021  8 11 12 10  128.1498   27.3579  1025.05  351.733   127.0   24.14  20.14    16.29   301.16  300.07     9.7    380.7   -197.9 -0.1924E+01 -0.1893E+00
2021  8 11 12  0  128.1412   27.2683  1077.50  351.654   115.8   24.04  20.25    12.85   301.10  300.23     9.3    398.3   -205.3 -0.1940E+01 -0.7768E-01
2021  8 11 11 50  128.1311   27.1783  1119.23  351.486    91.7   23.94  20.43     6.57   301.03  300.51     8.1    409.7   -182.4 -0.2247E+01 -0.7049E-01
2021  8 11 11 40  128.1183   27.0901  1098.43  351.197    72.6   23.86  20.64     1.82   300.97  300.82     7.1    534.0   -183.6 -0.2909E+01  0.9881E-01
2021  8 11 11 30  128.1029   27.0021  1057.48  351.250    54.9   23.80  20.84    -1.63   300.92  301.11     6.0    692.4   -185.8 -0.3726E+01  0.2452E-01
2021  8 11 11 20  128.0869   26.9138  1005.56  351.292    54.3   23.75  20.83    -3.49   300.89  301.27     6.1    728.8   -253.3 -0.2877E+01  0.1235E+00
2021  8 11 11 10  128.0736   26.8210   926.23  351.375    71.4   23.72  20.69    -4.86   300.86  301.28     7.7    681.4   -445.7 -0.1529E+01  0.4612E-01
2021  8 11 11  0  128.0630   26.7243   946.32  351.258    74.6   23.70  20.58    -4.31   300.84  301.21     7.7    675.8   -396.1 -0.1706E+01 -0.5726E-01
2021  8 11 10 50  128.0552   26.6259   984.30  351.200    49.1   21.30  20.57   -60.52   298.92  299.92     6.1    745.5    191.2  0.3899E+01 -0.5210E+00
2021  8 11 10 40  128.0462   26.5289  1065.19  350.901    58.6   23.14  21.07   -20.63   300.41  300.89     7.9    820.3  -1286.6 -0.6376E+00  0.1380E+00
2021  8 11 10 30  128.0345   26.4353  1029.82  350.773    71.1   23.73  21.13    -6.19   300.88  301.32     9.3    729.5   -980.4 -0.7442E+00  0.4552E-01
2021  8 11 10 20  128.0253   26.3391   991.91  350.626    80.7   23.82  21.12    -5.73   300.93  301.31    10.0    708.5   -963.2 -0.7356E+00  0.7840E-01
2021  8 11 10 10  128.0171   26.2407   977.55  350.679    79.9   23.86  21.16    -5.06   300.96  301.29    10.0    698.8   -891.8 -0.7835E+00 -0.1745E-01
2021  8 11 10  0  128.0081   26.1430   967.48  350.692    70.6   23.79  21.22    -4.86   300.91  301.25     9.4    689.0   -836.6 -0.8236E+00  0.2173E-01
2021  8 11  9 50  127.9982   26.0464   975.69  350.788    59.9   23.67  21.26    -5.02   300.83  301.22     8.6    687.8   -835.0 -0.8237E+00 -0.5281E-01
2021  8 11  9 40  127.9881   25.9512   992.71  350.844    52.1   23.57  21.29    -5.24   300.76  301.19     8.1    693.9   -892.4 -0.7776E+00  0.5496E-01
2021  8 11  9 30  127.9787   25.8544   991.37  351.003    51.7   23.47  21.29    -6.13   300.69  301.17     8.5    704.8  -1339.1 -0.5264E+00 -0.1734E-01
2021  8 11  9 20  127.9706   25.7548   985.06  351.291    53.3   23.40  21.26    -7.23   300.63  301.17     9.0    734.4  -2143.0 -0.3427E+00 -0.2332E-01
2021  8 11  9 10  127.9630   25.6547   978.07  351.463    52.5   23.39  21.22    -7.60   300.62  301.21     8.7    745.8  -2477.8 -0.3010E+00  0.7221E-01
2021  8 11  9  0  127.9551   25.5546   956.30  351.435    55.0   23.42  21.18    -7.78   300.64  301.24     8.7    724.8  -2278.0 -0.3182E+00  0.9988E-01
2021  8 11  8 50  127.9490   25.4536   958.18  351.524    60.2   23.47  21.11    -8.14   300.68  301.29     8.9    738.6  -2063.4 -0.3579E+00 -0.9439E-01
2021  8 11  8 40  127.9430   25.3526   985.61  352.006    67.8   23.53  21.02    -8.82   300.72  301.36     9.3    817.2  -1990.5 -0.4106E+00 -0.2226E-01
2021  8 11  8 30  127.9373   25.2515   997.32  351.939    72.4   23.61  20.96    -8.93   300.77  301.42     9.3    805.2  -1690.1 -0.4764E+00 -0.4291E-02
2021  8 11  8 20  127.9331   25.1498   983.18  351.882    81.2   23.71  20.95    -9.32   300.84  301.47     9.9    792.0  -1632.8 -0.4851E+00  0.8323E-02
2021  8 11  8 10  127.9286   25.0477   983.21  352.030    81.6   23.81  20.99    -8.68   300.92  301.52     9.7    804.0  -1327.6 -0.6056E+00  0.3030E-01
2021  8 11  8  0  127.9222   24.9467   955.29  352.104    82.8   23.91  21.05    -8.07   300.98  301.54     9.7    751.3  -1143.9 -0.6568E+00  0.4717E-01
2021  8 11  7 50  127.9155   24.8458   943.25  352.411    84.5   24.00  21.13    -7.78   301.04  301.57     9.8    767.2  -1102.3 -0.6960E+00 -0.3212E-01
2021  8 11  7 40  127.9076   24.7444   937.49  352.540    87.7   24.09  21.16    -7.83   301.10  301.62    10.0    794.7  -1094.1 -0.7264E+00  0.4270E-01
2021  8 11  7 30  127.8995   24.6423   917.88  352.543    94.8   24.16  21.11    -8.18   301.14  301.67    10.3    777.7  -1101.7 -0.7059E+00  0.2395E-03
2021  8 11  7 20  127.8899   24.5403   924.26  352.636   106.7   24.23  20.99    -8.73   301.19  301.73    10.7    789.8  -1119.7 -0.7054E+00 -0.2947E-01
2021  8 11  7 10  127.8797   24.4384   966.26  353.066   120.8   24.33  20.88    -8.88   301.26  301.78    11.2    827.5  -1091.2 -0.7583E+00 -0.8080E-01
2021  8 11  7  0  127.8683   24.3379  1006.04  352.970   127.5   24.45  20.85    -8.31   301.34  301.83    11.2    871.6   -967.5 -0.9008E+00 -0.6708E-02
2021  8 11  6 50  127.8567   24.2387  1020.21  352.514   133.5   24.55  20.84    -7.67   301.41  301.86    11.3    870.2   -897.9 -0.9691E+00  0.1809E-01
2021  8 11  6 40  127.8450   24.1407  1033.57  352.391   134.9   24.61  20.83    -7.50   301.45  301.89    11.2    891.4   -843.8 -0.1056E+01 -0.2397E-01
2021  8 11  6 30  127.8343   24.0441  1013.21  352.477   136.4   24.66  20.85    -7.19   301.49  301.91    11.2    888.8   -817.1 -0.1088E+01  0.1541E+00
2021  8 11  6 20  127.8249   23.9468   965.62  352.865   142.3   24.74  20.88    -6.78   301.54  301.92    11.5    870.1   -826.7 -0.1052E+01  0.3478E-01
2021  8 11  6 10  127.8163   23.8497   963.63  353.003   143.0   24.83  20.91    -6.09   301.60  301.95    11.4    882.9   -753.9 -0.1171E+01 -0.4107E-02
2021  8 11  6  0  127.8080   23.7520   946.64  353.085   147.9   24.91  20.92    -5.48   301.65  301.96    11.6    877.7   -740.4 -0.1186E+01  0.4861E-01
2021  8 11  5 50  127.7991   23.6536   944.15  352.871   152.6   24.94  20.89    -5.33   301.67  301.97    11.7    880.4   -740.8 -0.1188E+01 -0.1899E-01
2021  8 11  5 40  127.7912   23.5554   958.82  352.971   160.3   24.95  20.79    -5.80   301.68  302.00    11.9    891.3   -765.1 -0.1165E+01 -0.6863E-01
2021  8 11  5 30  127.7857   23.4592   958.01  353.094   164.8   24.97  20.70    -5.75   301.69  302.01    11.9    882.3   -737.4 -0.1197E+01  0.3626E-01
2021  8 11  5 20  127.7814   23.3653   937.81  353.368   168.8   24.98  20.63    -5.92   301.70  302.03    11.9    873.7   -728.2 -0.1200E+01  0.4352E-01
2021  8 11  5 10  127.7799   23.2727   907.04  353.295   176.1   25.00  20.58    -5.74   301.71  302.02    12.2    853.1   -748.0 -0.1141E+01  0.9754E-01
2021  8 11  5  0  127.7799   23.1811   885.25  353.392   173.0   25.02  20.56    -5.27   301.72  302.01    11.9    845.5   -681.5 -0.1241E+01  0.5014E-01
2021  8 11  4 50  127.7779   23.0901   870.32  353.146   177.9   25.04  20.55    -4.82   301.73  301.99    12.1    817.6   -693.5 -0.1179E+01 -0.1817E-01
2021  8 11  4 40  127.7741   22.9995   895.77  353.264   170.5   25.05  20.57    -4.63   301.74  302.00    11.6    856.4   -622.5 -0.1376E+01 -0.4455E-01
2021  8 11  4 30  127.7723   22.9093   895.36  353.031   171.9   25.08  20.58    -4.30   301.76  302.00    11.6    852.0   -614.5 -0.1387E+01  0.1781E-01
2021  8 11  4 20  127.7710   22.8182   896.72  353.602   170.8   25.10  20.59    -4.11   301.78  302.01    11.5    882.2   -595.2 -0.1482E+01 -0.2160E-01
2021  8 11  4 10  127.7693   22.7268   865.55  353.655   173.3   25.14  20.61    -3.72   301.80  302.01    11.7    875.7   -596.5 -0.1468E+01  0.1075E+00
2021  8 11  4  0  127.7696   22.6351   801.21  354.371   174.5   25.20  20.62    -3.31   301.85  302.03    11.6    883.0   -573.2 -0.1540E+01  0.1037E+00
2021  8 11  3 50  127.7716   22.5432   743.16  354.206   182.6   25.27  20.60    -3.02   301.89  302.06    11.9    859.5   -586.3 -0.1466E+01  0.5608E-01
2021  8 11  3 40  127.7725   22.4508   734.81  354.299   186.0   25.33  20.58    -2.65   301.93  302.08    11.9    885.5   -570.4 -0.1553E+01  0.1035E-01
2021  8 11  3 30  127.7735   22.3586   696.42  354.954   192.1   25.38  20.55    -2.24   301.96  302.09    12.0    878.8   -568.1 -0.1547E+01  0.1034E+00
2021  8 11  3 20  127.7758   22.2671   655.79  355.402   188.5   25.43  20.53    -1.99   302.00  302.11    11.6    867.2   -509.2 -0.1703E+01  0.6029E-01
2021  8 11  3 10  127.7769   22.1778   623.42  355.536   188.6   25.48  20.49    -1.68   302.04  302.13    11.4    842.6   -468.1 -0.1800E+01  0.6490E-01
2021  8 11  3  0  127.7777   22.0868   580.09  355.746   206.4   25.55  20.45    -0.96   302.08  302.13    12.1    790.0   -528.8 -0.1494E+01  0.6141E-01
2021  8 11  2 50  127.7795   21.9942   550.82  355.987   207.4   25.62  20.43    -0.39   302.12  302.14    12.0    761.2   -495.0 -0.1538E+01  0.7864E-01
2021  8 11  2 40  127.7840   21.9014   529.14  355.623   217.0   25.70  20.40     0.69   302.17  302.14    12.2    730.5   -495.9 -0.1473E+01 -0.1347E-01
2021  8 11  2 30  127.7885   21.8085   524.08  355.332   225.6   25.78  20.36     1.41   302.23  302.15    12.4    726.3   -492.8 -0.1474E+01  0.1970E-01
2021  8 11  2 20  127.7912   21.7148   531.54  355.260   225.4   25.81  20.33     1.90   302.25  302.15    12.2    737.2   -462.4 -0.1594E+01 -0.6640E-01
2021  8 11  2 10  127.7911   21.6219   527.48  355.173   239.1   25.81  20.27     2.75   302.24  302.10    12.7    729.2   -506.5 -0.1440E+01  0.7095E-01
2021  8 11  2  0  127.7926   21.5241   501.81  354.845   259.3   25.81  20.20     3.61   302.24  302.07    13.6    688.0   -590.5 -0.1165E+01 -0.3952E-02
2021  8 11  1 50  127.7948   21.4282   518.94  354.541   251.5   25.88  20.18     4.15   302.29  302.08    13.0    713.0   -505.5 -0.1410E+01 -0.4455E-01
2021  8 11  1 40  127.7958   21.3368   550.71  354.328   240.2   25.98  20.20     5.11   302.36  302.09    12.3    745.1   -413.7 -0.1801E+01 -0.6088E-01
2021  8 11  1 30  127.7960   21.2486   560.75  354.012   243.1   26.09  20.22     6.74   302.43  302.08    12.2    746.1   -386.9 -0.1928E+01  0.2821E-02
2021  8 11  1 20  127.7958   21.1609   572.17  353.491   244.5   26.19  20.23     8.15   302.50  302.06    12.1    754.1   -359.2 -0.2099E+01 -0.3687E-01
2021  8 11  1 10  127.7942   21.0749   585.34  353.288   242.7   26.29  20.24     9.36   302.56  302.05    11.8    761.8   -324.5 -0.2347E+01 -0.5958E-02
2021  8 11  1  0  127.7930   20.9894   582.16  353.153   250.7   26.37  20.24    11.09   302.61  302.01    12.0    750.6   -326.4 -0.2300E+01  0.4177E-02
2021  8 11  0 50  127.7931   20.9031   585.42  352.819   256.3   26.42  20.23    12.44   302.65  301.98    12.1    751.7   -326.2 -0.2304E+01 -0.2098E-01
2021  8 11  0 40  127.7946   20.8171   591.31  352.786   257.8   26.45  20.23    13.64   302.67  301.94    12.1    750.8   -316.2 -0.2375E+01  0.7670E-02
2021  8 11  0 30  127.7974   20.7320   586.61  352.796   257.7   26.47  20.21    14.46   302.68  301.90    12.0    738.8   -304.0 -0.2430E+01  0.8569E-02
2021  8 11  0 20  127.7999   20.6478   587.11  352.470   257.9   26.47  20.17    15.08   302.68  301.87    12.0    739.0   -294.3 -0.2511E+01 -0.9152E-02
2021  8 11  0 10  127.8033   20.5644   590.45  352.373   260.2   26.46  20.14    15.90   302.68  301.82    12.0    744.5   -291.4 -0.2555E+01 -0.9727E-03
2021  8 11  0  0  127.8070   20.4815   586.36  352.712   258.8   26.46  20.13    16.62   302.68  301.77    11.9    733.5   -281.3 -0.2608E+01  0.2003E-01
