2021  8 12  0  0  129.9760   32.6454   500.00  355.184    56.5   22.81  19.85    10.02   300.19  299.12     5.9    423.0    -71.3 -0.5933E+01  0.6271E+00
2021  8 11 23 50  129.9388   32.5965   314.58  355.768    60.8   22.91  19.67    10.41   300.27  299.12     5.6    396.9    -60.3 -0.6579E+01  0.2058E+00
2021  8 11 23 40  129.8992   32.5473   208.54  356.038    83.2   23.04  19.44    13.62   300.37  299.12     6.9    342.4    -87.2 -0.3928E+01  0.1106E+00
2021  8 11 23 30  129.8495   32.4928   163.76  356.772   105.3   23.23  19.52    16.64   300.50  299.25     8.6    319.6   -143.4 -0.2229E+01  0.6705E-02
2021  8 11 23 20  129.7933   32.4353   176.55  357.123   113.0   23.46  19.48    18.88   300.65  299.22     8.5    320.1   -128.8 -0.2484E+01 -0.4566E-01
2021  8 11 23 10  129.7397   32.3808   191.99  357.299    99.3   23.64  19.57    17.70   300.78  299.22     7.2    321.2    -81.9 -0.3923E+01  0.5844E-02
2021  8 11 23  0  129.6877   32.3292   202.37  357.899    89.4   23.79  19.78    16.93   300.88  299.25     6.5    323.3    -63.8 -0.5071E+01 -0.3247E-01
2021  8 11 22 50  129.6334   32.2786   212.89  359.065    81.0   23.88  19.99    15.47   300.95  299.36     6.1    333.3    -55.6 -0.5991E+01 -0.2058E-01
2021  8 11 22 40  129.5757   32.2230   231.89  359.889    86.8   23.94  20.47    16.48   300.99  299.61     7.7    369.4   -110.6 -0.3341E+01  0.9356E-01
2021  8 11 22 30  129.5125   32.1597   348.69  359.376    77.6   23.93  20.78    12.79   300.98  299.93     7.7    507.4   -131.0 -0.3875E+01 -0.3428E+00
2021  8 11 22 20  129.4416   32.0917   515.51  359.396    47.4   23.90  21.21     5.64   300.95  300.28     5.9    548.8    -93.5 -0.5868E+01 -0.1528E-01
2021  8 11 22 10  129.3680   32.0251   523.95  359.084    66.2   23.86  21.46    -0.39   300.93  300.88     9.5    616.1   -536.9 -0.1148E+01  0.2266E-01
2021  8 11 22  0  129.2993   31.9603   487.11  358.921    82.1   23.88  21.30    -4.55   300.94  301.21    10.8    712.9  -1090.8 -0.6535E+00  0.2183E+00
2021  8 11 21 50  129.2301   31.8890   417.12  358.945   108.1   23.94  21.08    -4.76   300.97  301.23    12.4    616.9  -1315.0 -0.4691E+00 -0.3699E-01
2021  8 11 21 40  129.1678   31.8182   435.84  358.715   104.2   24.05  21.07    -3.07   301.06  301.23    11.4    610.6   -898.2 -0.6798E+00  0.2050E-01
2021  8 11 21 30  129.1090   31.7489   444.03  358.615   107.3   24.22  21.12    -1.05   301.18  301.24    11.2    585.6   -721.9 -0.8112E+00 -0.5556E-01
2021  8 11 21 20  129.0516   31.6793   469.55  358.696   110.1   24.42  21.16     1.05   301.32  301.25    10.9    608.1   -562.9 -0.1080E+01 -0.2305E-01
2021  8 11 21 10  128.9973   31.6092   456.43  358.689   116.3   24.62  21.16     2.73   301.45  301.28    10.7    589.2   -466.9 -0.1262E+01  0.2841E-01
2021  8 11 21  0  128.9467   31.5414   430.68  358.582   111.0   24.80  21.17     3.89   301.57  301.30     9.7    554.3   -325.2 -0.1704E+01  0.6959E-01
2021  8 11 20 50  128.8988   31.4736   366.45  358.541   117.8   24.97  21.17     6.26   301.67  301.25     9.7    485.6   -286.0 -0.1698E+01  0.7485E-01
2021  8 11 20 40  128.8600   31.4033   356.47  358.660   128.7   25.10  21.17     7.61   301.75  301.26    10.3    481.2   -308.5 -0.1560E+01 -0.7122E-01
2021  8 11 20 30  128.8261   31.3304   417.15  358.578   124.9   25.18  21.15     7.01   301.81  301.34     9.7    522.0   -260.5 -0.2004E+01 -0.1226E+00
2021  8 11 20 20  128.7894   31.2596   486.64  358.566   119.4   25.25  21.17     6.22   301.87  301.42     9.1    584.6   -227.7 -0.2567E+01 -0.1122E+00
2021  8 11 20 10  128.7514   31.1896   505.87  358.652   116.4   25.31  21.24     5.31   301.92  301.53     8.9    632.4   -220.3 -0.2871E+01  0.4338E-01
2021  8 11 20  0  128.7170   31.1161   493.96  358.470   121.8   25.39  21.35     5.95   301.96  301.55     9.4    601.7   -253.3 -0.2375E+01  0.5332E-02
2021  8 11 19 50  128.6844   31.0377   479.14  358.344   129.0   25.47  21.43     6.65   302.01  301.57    10.0    595.7   -290.3 -0.2052E+01  0.1910E-01
2021  8 11 19 40  128.6524   30.9586   463.99  358.423   128.8   25.53  21.44     5.98   302.05  301.65     9.9    595.7   -282.6 -0.2108E+01  0.2337E-01
2021  8 11 19 30  128.6219   30.8799   449.84  358.393   133.3   25.57  21.36     4.83   302.07  301.75     9.9    603.4   -290.6 -0.2076E+01  0.8954E-02
2021  8 11 19 20  128.5928   30.8012   435.17  358.499   145.1   25.60  21.25     3.83   302.09  301.84    10.4    616.1   -334.8 -0.1840E+01  0.4004E-02
2021  8 11 19 10  128.5634   30.7224   449.50  358.216   154.1   25.66  21.15     3.61   302.13  301.90    10.6    633.7   -344.9 -0.1837E+01 -0.1872E-01
2021  8 11 19  0  128.5339   30.6444   459.60  357.990   158.6   25.74  21.05     3.36   302.18  301.97    10.4    659.9   -323.1 -0.2042E+01 -0.7481E-02
2021  8 11 18 50  128.5062   30.5680   462.31  357.773   160.0   25.82  20.98     3.45   302.23  302.01    10.1    682.7   -290.1 -0.2353E+01  0.3170E-01
2021  8 11 18 40  128.4818   30.4918   473.59  357.333   170.3   25.89  20.88     4.13   302.27  302.01    10.4    697.0   -295.0 -0.2362E+01 -0.2297E-01
2021  8 11 18 30  128.4575   30.4148   483.57  357.000   191.1   25.93  20.71     4.54   302.30  302.03    11.0    708.0   -336.9 -0.2102E+01 -0.1667E-01
2021  8 11 18 20  128.4308   30.3365   488.15  357.348   198.9   25.97  20.67     5.51   302.33  302.01    11.3    718.6   -344.2 -0.2088E+01 -0.3285E-01
2021  8 11 18 10  128.4017   30.2582   474.92  357.712   203.8   26.04  20.69     6.36   302.38  302.02    11.4    706.6   -348.8 -0.2026E+01  0.7322E-01
2021  8 11 18  0  128.3724   30.1782   450.27  357.511   219.9   26.15  20.65     8.10   302.45  302.01    11.9    668.4   -369.6 -0.1808E+01  0.8205E-02
2021  8 11 17 50  128.3430   30.0979   464.75  357.160   219.3   26.26  20.64     9.56   302.52  301.98    11.6    657.2   -325.3 -0.2020E+01 -0.5592E-01
2021  8 11 17 40  128.3141   30.0185   463.47  356.867   228.2   26.33  20.62    11.23   302.56  301.94    11.9    637.5   -330.0 -0.1932E+01 -0.1180E-02
2021  8 11 17 30  128.2874   29.9387   484.13  356.670   219.5   26.34  20.60    11.23   302.57  301.92    11.4    654.3   -290.2 -0.2255E+01 -0.3109E-01
2021  8 11 17 20  128.2619   29.8583   485.42  356.375   228.6   26.32  20.58    12.21   302.56  301.88    11.8    640.8   -316.6 -0.2024E+01 -0.1860E-01
2021  8 11 17 10  128.2377   29.7763   511.93  356.215   223.6   26.29  20.56    12.08   302.54  301.86    11.6    671.5   -300.7 -0.2233E+01 -0.7236E-01
2021  8 11 17  0  128.2135   29.6943   528.38  356.094   225.0   26.25  20.54    12.31   302.52  301.83    11.7    677.4   -309.3 -0.2190E+01 -0.5101E-01
2021  8 11 16 50  128.1891   29.6118   537.51  356.111   220.5   26.21  20.53    12.57   302.49  301.78    11.5    671.3   -294.9 -0.2277E+01 -0.1828E-02
2021  8 11 16 40  128.1662   29.5290   532.94  356.040   213.7   26.14  20.52    12.38   302.45  301.73    11.3    655.0   -281.2 -0.2330E+01 -0.7998E-02
2021  8 11 16 30  128.1445   29.4458   536.05  355.913   209.3   26.05  20.51    11.99   302.39  301.70    11.2    650.7   -282.2 -0.2305E+01 -0.2361E-01
2021  8 11 16 20  128.1236   29.3616   524.89  355.746   207.0   25.97  20.48    11.74   302.34  301.65    11.2    631.7   -285.0 -0.2216E+01  0.5369E-01
2021  8 11 16 10  128.1035   29.2758   496.84  355.384   212.1   25.92  20.43    12.19   302.31  301.62    11.5    578.2   -303.4 -0.1906E+01  0.3751E-01
2021  8 11 16  0  128.0832   29.1899   498.22  355.155   204.0   25.90  20.40    11.86   302.29  301.59    11.1    544.2   -270.6 -0.2011E+01 -0.3093E-01
2021  8 11 15 50  128.0639   29.1054   515.87  355.154   194.8   25.86  20.34    11.21   302.28  301.58    10.5    549.4   -235.1 -0.2337E+01 -0.7992E-02
2021  8 11 15 40  128.0453   29.0193   521.26  355.117   205.2   25.83  20.27    11.88   302.26  301.55    10.9    556.8   -260.3 -0.2139E+01 -0.3430E-01
2021  8 11 15 30  128.0273   28.9301   546.10  355.091   209.0   25.81  20.22    12.47   302.24  301.51    11.1    565.5   -266.7 -0.2121E+01 -0.3325E-01
2021  8 11 15 20  128.0113   28.8381   548.35  355.038   213.1   25.78  20.17    12.85   302.22  301.47    11.2    556.1   -275.0 -0.2022E+01  0.2497E-01
2021  8 11 15 10  127.9975   28.7449   556.43  354.937   206.8   25.74  20.16    12.49   302.20  301.46    11.0    563.9   -257.9 -0.2187E+01 -0.3137E-01
2021  8 11 15  0  127.9841   28.6525   562.48  354.941   203.2   25.72  20.17    12.11   302.18  301.46    10.9    574.5   -254.3 -0.2259E+01 -0.4201E-01
2021  8 11 14 50  127.9709   28.5606   587.03  355.021   192.5   25.69  20.23    11.27   302.17  301.47    10.5    621.1   -233.9 -0.2655E+01 -0.5945E-01
2021  8 11 14 40  127.9590   28.4693   586.28  355.029   192.5   25.68  20.29    11.00   302.16  301.49    10.6    644.3   -250.2 -0.2575E+01  0.1992E-01
2021  8 11 14 30  127.9493   28.3755   572.13  354.924   199.4   25.67  20.35    11.33   302.16  301.50    11.2    648.3   -289.7 -0.2238E+01  0.1851E-01
2021  8 11 14 20  127.9394   28.2793   551.92  354.769   210.1   25.68  20.37    12.68   302.17  301.47    11.8    635.4   -330.1 -0.1925E+01  0.4984E-01
2021  8 11 14 10  127.9297   28.1811   550.34  354.604   216.7   25.73  20.37    14.39   302.20  301.42    12.0    629.1   -338.0 -0.1861E+01 -0.2763E-01
2021  8 11 14  0  127.9210   28.0842   561.57  354.758   212.5   25.80  20.36    15.66   302.25  301.37    11.6    641.9   -291.7 -0.2201E+01 -0.1524E-01
2021  8 11 13 50  127.9107   27.9902   549.97  355.022   205.2   25.79  20.30    15.93   302.24  301.31    11.1    622.3   -254.1 -0.2449E+01  0.5839E-01
2021  8 11 13 40  127.8982   27.8982   519.42  355.127   196.5   25.62  20.23    14.88   302.13  301.24    10.9    586.8   -243.2 -0.2413E+01  0.3584E-01
2021  8 11 13 30  127.8838   27.8077   501.34  355.190   181.0   25.37  20.19    13.26   301.98  301.15    10.4    558.1   -229.5 -0.2432E+01  0.2238E-02
2021  8 11 13 20  127.8667   27.7169   495.29  355.397   171.9   25.13  20.24    14.13   301.82  300.95    10.6    516.7   -243.1 -0.2125E+01  0.3383E-01
2021  8 11 13 10  127.8478   27.6262   491.34  356.029   157.7   24.90  20.28    13.90   301.67  300.79    10.3    478.4   -236.2 -0.2025E+01 -0.7935E-02
2021  8 11 13  0  127.8311   27.5380   524.49  356.029   133.7   24.70  20.36    13.43   301.54  300.61     9.4    436.5   -185.7 -0.2351E+01 -0.1003E+00
2021  8 11 12 50  127.8182   27.4521   496.17  356.187   120.9   24.56  20.44    12.79   301.44  300.51     9.0    434.1   -173.4 -0.2503E+01 -0.3659E-01
2021  8 11 12 40  127.8091   27.3695   459.02  356.404   106.6   24.43  20.38     9.83   301.36  300.56     8.0    434.4   -141.6 -0.3068E+01  0.6774E-01
2021  8 11 12 30  127.8027   27.2899   412.15  356.475    99.2   24.33  20.40     9.14   301.28  300.52     7.7    403.7   -133.5 -0.3024E+01  0.1993E-01
2021  8 11 12 20  127.7989   27.2112   398.83  356.557    91.0   24.23  20.43     8.26   301.22  300.49     7.3    393.8   -121.5 -0.3241E+01  0.1902E-01
2021  8 11 12 10  127.7972   27.1318   403.14  356.586    87.8   24.16  20.51     8.38   301.17  300.44     7.4    389.9   -128.0 -0.3047E+01 -0.7764E-01
2021  8 11 12  0  127.7967   27.0538   450.79  356.752    73.7   24.09  20.58     6.91   301.12  300.44     6.5    409.8    -98.5 -0.4159E+01 -0.4836E-01
2021  8 11 11 50  127.7957   26.9783   422.67  356.873    71.4   24.03  20.61     6.10   301.09  300.48     6.4    397.3   -103.0 -0.3858E+01  0.1028E+00
2021  8 11 11 40  127.7934   26.9002   434.23  356.712    68.2   23.99  20.67     6.01   301.05  300.45     6.4    424.2   -102.9 -0.4123E+01 -0.1455E+00
2021  8 11 11 30  127.7947   26.8236   430.49  356.792    59.2   23.94  20.73     3.38   301.02  300.63     5.7    495.2    -94.3 -0.5253E+01  0.1035E+00
2021  8 11 11 20  127.7948   26.7452   423.28  356.888    56.3   23.18  20.65   -10.67   300.44  300.54     6.4    615.6   -233.8 -0.2634E+01 -0.7358E-01
2021  8 11 11 10  127.7918   26.6681   379.62  356.893    77.8   23.85  20.50    -1.92   300.95  301.12     7.4    562.6   -253.7 -0.2217E+01  0.1316E+00
2021  8 11 11  0  127.7899   26.5895   349.95  356.888    84.3   23.80  20.34    -2.29   300.91  301.11     7.7    537.1   -278.2 -0.1930E+01 -0.4583E-01
2021  8 11 10 50  127.7892   26.5087   373.68  357.085    72.2   23.76  20.17    -0.70   300.89  300.96     6.2    549.2   -145.6 -0.3771E+01 -0.8825E-02
2021  8 11 10 40  127.7919   26.4261   420.99  356.925    52.1   21.08  20.13   -41.45   298.81  299.71     4.1    638.7    105.9  0.6028E+01 -0.1683E+00
2021  8 11 10 30  127.7944   26.3447   429.29  356.889     5.0   24.35  19.90    15.48   301.18  300.87     4.5    696.4    -48.3 -0.1442E+02 -0.2074E-01
2021  8 11 10 20  127.7980   26.2603   414.54  356.926    57.6   22.63  20.50   -18.59   300.03  300.33     6.6    557.4   -436.9 -0.1276E+01  0.5497E-01
2021  8 11 10 10  127.8017   26.1741   424.90  356.945    49.5   22.08  20.80   -35.82   299.59  300.15     6.7    619.0   1396.1  0.4434E+00 -0.7944E-01
2021  8 11 10  0  127.8084   26.0886   397.10  357.069    75.1   23.69  20.90    -0.60   300.83  300.88     8.9    527.2   -431.2 -0.1223E+01 -0.7690E-01
2021  8 11  9 50  127.8164   26.0035   435.23  357.361    63.0   23.60  21.04    -0.19   300.77  300.79     8.3    563.0   -382.0 -0.1474E+01 -0.8199E-01
2021  8 11  9 40  127.8224   25.9207   456.43  357.379    46.6   23.52  21.18    -0.47   300.72  300.77     6.8    607.8   -274.7 -0.2213E+01  0.1018E+00
2021  8 11  9 30  127.8288   25.8393   386.80  357.109    42.6   23.46  21.28    -2.91   300.68  300.95     7.0    576.6   -464.0 -0.1243E+01  0.2478E+00
2021  8 11  9 20  127.8370   25.7544   307.84  356.596    51.6   23.43  21.23    -6.20   300.65  301.14     8.4    544.3  -1368.0 -0.3979E+00 -0.6645E-02
2021  8 11  9 10  127.8449   25.6670   310.62  357.375    61.2   23.42  21.15    -6.78   300.64  301.13     9.5    622.1  -1605.4 -0.3875E+00 -0.9017E-01
2021  8 11  9  0  127.8521   25.5806   350.49  357.794    66.8   23.45  21.07    -7.50   300.66  301.18     9.8    712.8  -1725.2 -0.4132E+00 -0.1017E+00
2021  8 11  8 50  127.8606   25.4955   373.72  358.234    64.8   23.49  21.07    -7.95   300.68  301.26     9.3    778.7  -1756.5 -0.4433E+00 -0.5411E-01
2021  8 11  8 40  127.8718   25.4103   353.83  358.809    67.7   23.52  21.02    -8.72   300.71  301.33     9.3    835.3  -1957.3 -0.4268E+00 -0.3780E-01
2021  8 11  8 30  127.8862   25.3232   344.84  359.031    72.1   23.57  21.00    -9.16   300.74  301.38     9.6    847.3  -1992.5 -0.4253E+00 -0.1339E-01
2021  8 11  8 20  127.8997   25.2370   348.99  359.013    73.4   23.63  20.99    -9.01   300.79  301.42     9.5    788.2  -1749.8 -0.4504E+00  0.2594E-01
2021  8 11  8 10  127.9129   25.1505   339.56  359.017    79.8   23.71  20.96    -9.13   300.84  301.47     9.7    738.4  -1569.5 -0.4705E+00  0.4252E-02
2021  8 11  8  0  127.9254   25.0639   346.50  359.000    80.9   23.80  20.97    -8.62   300.91  301.51     9.6    764.5  -1284.4 -0.5952E+00 -0.2467E-01
2021  8 11  7 50  127.9372   24.9771   353.46  358.997    84.5   23.88  20.97    -8.52   300.96  301.55     9.7    795.7  -1182.0 -0.6732E+00 -0.5213E-02
2021  8 11  7 40  127.9474   24.8884   355.45  358.971    90.6   23.94  20.95    -8.60   301.00  301.58    10.0    804.7  -1154.3 -0.6971E+00 -0.3857E-02
2021  8 11  7 30  127.9544   24.7984   358.10  358.945    94.7   24.00  20.93    -8.59   301.04  301.60    10.1    841.3  -1113.5 -0.7555E+00  0.4150E-02
2021  8 11  7 20  127.9593   24.7072   361.19  358.912   100.9   24.06  20.89    -8.58   301.08  301.62    10.4    857.5  -1090.4 -0.7864E+00 -0.1484E-01
2021  8 11  7 10  127.9631   24.6163   358.77  358.846   108.2   24.10  20.84    -9.01   301.11  301.66    10.7    844.1  -1135.9 -0.7431E+00  0.1373E-01
2021  8 11  7  0  127.9673   24.5254   360.78  358.813   114.2   24.16  20.81    -9.22   301.15  301.70    10.9    846.2  -1138.7 -0.7431E+00 -0.1534E-01
2021  8 11  6 50  127.9708   24.4350   369.47  358.780   119.8   24.26  20.78    -8.85   301.22  301.75    11.0    862.5  -1031.0 -0.8365E+00 -0.1186E-01
2021  8 11  6 40  127.9743   24.3455   364.14  358.694   132.8   24.41  20.74    -8.38   301.31  301.79    11.4    835.2   -979.0 -0.8531E+00  0.4699E-02
2021  8 11  6 30  127.9787   24.2562   371.88  358.638   138.7   24.52  20.71    -7.77   301.40  301.84    11.4    843.8   -874.9 -0.9644E+00 -0.1882E-01
2021  8 11  6 20  127.9831   24.1675   369.72  358.591   142.6   24.60  20.70    -7.24   301.44  301.86    11.4    832.7   -821.6 -0.1014E+01  0.1495E-01
2021  8 11  6 10  127.9862   24.0786   368.85  358.503   145.6   24.64  20.68    -7.17   301.47  301.88    11.4    823.4   -806.0 -0.1022E+01 -0.8918E-02
2021  8 11  6  0  127.9883   23.9895   381.53  358.402   148.9   24.70  20.67    -7.00   301.51  301.91    11.5    843.4   -780.8 -0.1080E+01 -0.1634E-01
2021  8 11  5 50  127.9900   23.8991   385.87  358.347   158.2   24.80  20.65    -6.42   301.58  301.94    11.8    850.8   -772.7 -0.1101E+01 -0.6627E-02
2021  8 11  5 40  127.9918   23.8075   385.11  358.212   169.7   24.92  20.63    -5.57   301.65  301.95    12.1    819.8   -764.7 -0.1072E+01  0.2348E-01
2021  8 11  5 30  127.9941   23.7146   395.00  358.083   172.0   24.98  20.61    -4.96   301.70  301.97    12.0    836.5   -712.7 -0.1174E+01 -0.3691E-01
2021  8 11  5 20  127.9976   23.6228   404.67  358.015   175.5   25.01  20.59    -4.92   301.72  301.98    12.1    853.1   -715.9 -0.1192E+01 -0.1940E-01
2021  8 11  5 10  128.0042   23.5326   406.15  357.896   172.9   25.02  20.57    -4.82   301.73  301.99    11.9    817.9   -670.6 -0.1220E+01  0.3200E-01
2021  8 11  5  0  128.0135   23.4437   408.68  357.817   173.9   25.04  20.56    -4.68   301.74  301.99    11.8    810.4   -657.4 -0.1233E+01 -0.1091E-02
2021  8 11  4 50  128.0219   23.3558   425.00  357.750   167.9   25.04  20.54    -4.62   301.74  302.01    11.4    861.0   -591.7 -0.1455E+01 -0.2148E-01
2021  8 11  4 40  128.0299   23.2688   432.24  357.677   170.4   25.04  20.53    -4.65   301.74  302.01    11.5    869.2   -607.1 -0.1432E+01 -0.1291E-01
2021  8 11  4 30  128.0355   23.1836   437.23  357.591   161.1   25.04  20.53    -4.33   301.75  302.01    10.9    864.6   -520.7 -0.1661E+01  0.2217E-01
2021  8 11  4 20  128.0386   23.0985   441.62  357.528   164.7   25.04  20.51    -4.56   301.75  302.02    11.1    884.4   -548.7 -0.1612E+01 -0.5742E-01
2021  8 11  4 10  128.0409   23.0120   450.01  357.383   171.8   25.05  20.50    -4.55   301.75  302.01    11.5    880.3   -594.1 -0.1482E+01  0.4725E-02
2021  8 11  4  0  128.0425   22.9236   436.27  357.410   178.9   25.07  20.47    -4.45   301.76  302.01    11.8    840.5   -628.6 -0.1337E+01  0.3071E-01
2021  8 11  3 50  128.0459   22.8337   434.55  357.499   180.3   25.08  20.46    -4.31   301.77  302.01    11.8    837.2   -622.7 -0.1344E+01 -0.3095E-02
2021  8 11  3 40  128.0518   22.7451   420.33  357.661   178.2   25.10  20.46    -4.23   301.79  302.02    11.7    795.1   -594.0 -0.1339E+01  0.3564E-01
2021  8 11  3 30  128.0594   22.6577   392.74  357.857   184.1   25.13  20.45    -3.93   301.80  302.02    11.9    764.0   -613.1 -0.1246E+01  0.5425E-01
2021  8 11  3 20  128.0671   22.5690   374.56  357.746   191.3   25.15  20.41    -3.77   301.82  302.02    12.2    762.6   -634.1 -0.1203E+01  0.9596E-02
2021  8 11  3 10  128.0739   22.4812   374.92  357.606   187.1   25.17  20.38    -3.62   301.84  302.04    11.8    779.8   -574.5 -0.1357E+01  0.1255E-01
2021  8 11  3  0  128.0813   22.3942   372.38  357.421   191.0   25.20  20.35    -3.48   301.85  302.05    11.9    775.3   -573.9 -0.1351E+01 -0.1243E-01
2021  8 11  2 50  128.0894   22.3076   372.26  357.294   194.3   25.23  20.32    -3.23   301.88  302.05    11.9    769.0   -566.6 -0.1357E+01  0.9959E-02
2021  8 11  2 40  128.0954   22.2199   375.97  357.244   200.3   25.27  20.31    -2.81   301.90  302.06    12.1    779.3   -577.1 -0.1350E+01 -0.1776E-01
2021  8 11  2 30  128.0993   22.1326   386.52  357.222   194.2   25.33  20.34    -2.34   301.94  302.07    11.7    797.5   -515.5 -0.1547E+01 -0.1820E-01
2021  8 11  2 20  128.1024   22.0464   384.79  357.156   195.1   25.40  20.35    -1.62   301.99  302.08    11.6    790.8   -486.4 -0.1626E+01  0.3445E-01
2021  8 11  2 10  128.1063   21.9588   365.70  357.075   202.9   25.48  20.35    -0.67   302.04  302.08    11.8    770.9   -486.7 -0.1584E+01  0.2786E-01
2021  8 11  2  0  128.1102   21.8693   346.40  356.817   214.9   25.58  20.33     0.49   302.10  302.07    12.2    746.3   -502.5 -0.1485E+01  0.4248E-01
2021  8 11  1 50  128.1159   21.7764   328.45  356.455   239.8   25.68  20.27     2.00   302.16  302.07    13.1    725.1   -574.0 -0.1263E+01  0.2342E-02
2021  8 11  1 40  128.1215   21.6816   329.61  356.460   249.8   25.76  20.23     3.11   302.21  302.06    13.3    726.7   -572.7 -0.1269E+01 -0.9299E-02
2021  8 11  1 30  128.1270   21.5882   334.56  356.613   251.7   25.82  20.18     3.75   302.26  302.07    13.1    719.0   -534.2 -0.1346E+01 -0.1220E-01
2021  8 11  1 20  128.1310   21.4979   347.68  356.513   243.1   25.89  20.16     4.15   302.31  302.09    12.5    741.7   -451.0 -0.1645E+01 -0.1248E-01
2021  8 11  1 10  128.1346   21.4116   353.07  356.383   241.3   26.00  20.13     5.11   302.39  302.11    12.1    751.7   -392.7 -0.1914E+01 -0.3502E-02
2021  8 11  1  0  128.1392   21.3264   353.07  356.275   253.0   26.14  20.11     7.06   302.47  302.10    12.3    740.9   -385.1 -0.1924E+01 -0.5028E-02
2021  8 11  0 50  128.1452   21.2410   360.32  356.213   257.4   26.24  20.09     8.27   302.54  302.10    12.2    753.1   -363.8 -0.2070E+01 -0.2062E-01
2021  8 11  0 40  128.1517   21.1559   366.07  356.033   264.1   26.31  20.06     9.55   302.58  302.08    12.3    755.9   -359.2 -0.2104E+01  0.3070E-02
2021  8 11  0 30  128.1592   21.0704   367.42  355.911   268.2   26.35  20.03    10.42   302.60  302.06    12.4    758.1   -354.1 -0.2141E+01 -0.8744E-02
2021  8 11  0 20  128.1662   20.9853   370.73  355.768   269.2   26.37  20.00    10.92   302.62  302.05    12.3    763.2   -342.1 -0.2231E+01 -0.1609E-02
2021  8 11  0 10  128.1741   20.9000   366.14  355.655   277.8   26.38  19.96    11.93   302.63  302.01    12.6    749.0   -355.7 -0.2106E+01  0.1177E-01
2021  8 11  0  0  128.1835   20.8145   366.87  355.472   279.7   26.38  19.91    12.63   302.63  301.98    12.5    740.3   -348.1 -0.2126E+01 -0.1395E-01
