2021  8 12  0  0  129.9960   32.5947   500.00  352.451    90.0   22.84  19.56    15.53   300.22  299.03     8.4    438.7   -151.0 -0.2905E+01  0.3377E-01
2021  8 11 23 50  129.9359   32.5363   462.16  352.377    74.1   22.99  19.92    13.09   300.33  299.21     7.5    442.1   -121.0 -0.3654E+01  0.1275E+00
2021  8 11 23 40  129.8726   32.4767   401.12  352.360    89.9   23.23  20.21    15.01   300.49  299.46     9.4    419.0   -220.3 -0.1902E+01  0.4977E-01
2021  8 11 23 30  129.8039   32.4131   405.58  353.800   112.4   23.49  20.37    19.93   300.68  299.56    11.4    425.0   -344.0 -0.1236E+01  0.1470E+00
2021  8 11 23 20  129.7378   32.3456   379.98  356.410    98.6   23.70  20.72    17.82   300.83  299.74    10.8    438.6   -305.9 -0.1434E+01  0.4196E+00
2021  8 11 23 10  129.6840   32.2780   275.98  356.486    88.0   23.85  20.90    16.38   300.93  299.82     9.7    438.7   -229.7 -0.1910E+01  0.1332E+00
2021  8 11 23  0  129.6389   32.2187   190.62  358.283    67.4   23.90  21.35    13.01   300.97  300.01     8.9    468.2   -214.2 -0.2186E+01 -0.3362E-03
2021  8 11 22 50  129.6033   32.1689   151.88  361.454    59.2   23.92  21.44     9.11   300.97  300.26     8.3    456.1   -210.1 -0.2171E+01  0.1514E+00
2021  8 11 22 40  129.5721   32.1193    79.95  362.322    53.5   23.91  21.30     4.23   300.96  300.55     6.9    584.0   -163.5 -0.3573E+01  0.1691E+00
2021  8 11 22 30  129.5474   32.0708    50.30  362.538    71.5   23.87  21.24     1.16   300.94  300.86     9.1    542.2   -425.0 -0.1276E+01  0.3220E-01
2021  8 11 22 20  129.5237   32.0154    50.06  362.454    79.6   23.84  21.25     2.61   300.92  300.75    10.3    528.8   -545.4 -0.9695E+00  0.2160E-01
2021  8 11 22 10  129.4991   31.9552    50.15  362.182    84.3   23.83  21.21     4.49   300.91  300.63    10.8    476.6   -552.0 -0.8634E+00  0.1434E-01
2021  8 11 22  0  129.4792   31.8932    50.13  361.995    84.6   23.82  21.19     6.08   300.89  300.52    10.7    413.3   -502.2 -0.8230E+00  0.1751E-01
2021  8 11 21 50  129.4622   31.8280    54.15  361.805    82.7   23.78  21.18     6.85   300.87  300.45    10.6    388.9   -473.0 -0.8222E+00 -0.1821E-01
2021  8 11 21 40  129.4429   31.7639    61.64  361.570    87.0   23.77  21.13     6.82   300.87  300.46    11.0    452.7   -516.8 -0.8761E+00 -0.1657E-01
2021  8 11 21 30  129.4240   31.6996    68.73  361.281    88.2   23.78  21.02     4.89   300.88  300.58    10.6    497.6   -491.7 -0.1012E+01  0.3806E-02
2021  8 11 21 20  129.4097   31.6358    64.92  361.113    89.8   23.82  20.94     3.74   300.91  300.67    10.2    501.7   -453.6 -0.1106E+01 -0.7177E-03
2021  8 11 21 10  129.3976   31.5730    58.95  360.960    95.7   23.88  20.87     3.90   300.95  300.70    10.3    510.8   -448.1 -0.1140E+01  0.4079E-02
2021  8 11 21  0  129.3855   31.5115    52.96  360.763   100.4   23.96  20.81     4.75   301.00  300.70    10.2    534.8   -407.0 -0.1314E+01  0.1046E-01
2021  8 11 20 50  129.3743   31.4495    50.03  360.464   111.8   24.06  20.74     6.54   301.06  300.67    10.7    500.6   -412.6 -0.1213E+01  0.1017E-01
2021  8 11 20 40  129.3624   31.3850    50.02  360.055   122.0   24.18  20.66     9.15   301.15  300.60    10.9    454.2   -380.0 -0.1195E+01 -0.6334E-03
2021  8 11 20 30  129.3473   31.3218    51.98  359.603   124.5   24.31  20.59    11.62   301.24  300.51    10.4    417.3   -294.1 -0.1419E+01 -0.6832E-02
2021  8 11 20 20  129.3321   31.2611    58.15  359.099   124.9   24.43  20.54    14.52   301.32  300.37     9.9    391.5   -224.9 -0.1741E+01 -0.1595E-01
2021  8 11 20 10  129.3225   31.2007    64.44  358.651   131.7   24.51  20.51    18.34   301.38  300.20    10.1    370.5   -213.5 -0.1736E+01 -0.1516E-01
2021  8 11 20  0  129.3198   31.1396    73.55  358.132   134.1   24.56  20.44    21.40   301.42  300.02     9.9    359.9   -184.8 -0.1947E+01 -0.1950E-01
2021  8 11 19 50  129.3223   31.0810    84.14  357.561   132.0   24.60  20.35    23.65   301.45  299.82     9.4    360.8   -147.6 -0.2444E+01 -0.1686E-01
2021  8 11 19 40  129.3263   31.0279    99.79  356.879   123.2   24.65  20.22    24.20   301.49  299.61     8.3    360.1    -98.7 -0.3647E+01 -0.1031E-01
2021  8 11 19 30  129.3271   30.9788   112.73  356.187   123.1   24.73  20.09    26.09   301.54  299.41     7.8    356.4    -77.6 -0.4594E+01 -0.2607E-01
2021  8 11 19 20  129.3237   30.9296   132.38  355.594   129.5   24.82  19.99    29.07   301.60  299.24     7.8    344.4    -72.1 -0.4775E+01 -0.4157E-01
2021  8 11 19 10  129.3178   30.8784   160.31  355.329   134.0   24.94  19.82    31.93   301.68  299.01     7.4    332.8    -59.1 -0.5630E+01 -0.7245E-01
2021  8 11 19  0  129.3068   30.8239   209.00  355.171   137.9   25.07  19.59    34.15   301.76  298.77     7.0    331.7    -46.7 -0.7102E+01 -0.9122E-01
2021  8 11 18 50  129.2920   30.7618   254.38  355.329   137.9   25.20  19.49    31.49   301.85  298.96     6.6    343.2    -41.6 -0.8255E+01 -0.9686E-02
2021  8 11 18 40  129.2778   30.6886   234.39  355.530   146.2   25.32  19.63    27.35   301.92  299.57     7.3    369.3    -58.5 -0.6311E+01  0.1618E+00
2021  8 11 18 30  129.2650   30.6084   220.76  355.824   145.9   25.40  19.96    25.39   301.98  299.89     7.8    385.7    -74.4 -0.5182E+01  0.1092E+00
2021  8 11 18 20  129.2492   30.5268   201.23  356.191   151.7   25.46  20.24    23.59   302.01  300.24     8.6    422.3   -103.7 -0.4071E+01  0.2657E-01
2021  8 11 18 10  129.2325   30.4469   203.03  356.491   140.0   25.48  20.50    19.55   302.03  300.51     8.4    458.6   -107.7 -0.4259E+01  0.5079E-01
2021  8 11 18  0  129.2154   30.3672   199.06  356.301   163.6   25.46  20.56    16.76   302.02  300.93    10.1    492.1   -197.9 -0.2486E+01  0.1121E-01
2021  8 11 17 50  129.1963   30.2864   205.89  355.661   195.7   25.44  20.35    15.20   302.01  301.15    11.5    506.2   -300.0 -0.1687E+01 -0.2166E-01
2021  8 11 17 40  129.1789   30.2036   215.32  354.725   229.5   25.47  20.16    18.79   302.03  301.07    12.8    492.6   -376.6 -0.1308E+01 -0.5144E-01
2021  8 11 17 30  129.1616   30.1179   247.83  354.221   234.5   25.54  20.22    22.58   302.07  300.95    13.0    508.0   -372.7 -0.1363E+01 -0.1028E+00
2021  8 11 17 20  129.1436   30.0299   283.94  353.674   225.6   25.61  20.46    26.12   302.12  300.83    13.0    526.7   -357.0 -0.1475E+01 -0.1138E+00
2021  8 11 17 10  129.1269   29.9418   315.98  353.065   215.4   25.69  20.71    30.64   302.17  300.63    12.8    534.9   -330.3 -0.1619E+01 -0.5350E-01
2021  8 11 17  0  129.1120   29.8530   388.21  352.745   183.8   25.75  20.98    31.92   302.21  300.43    11.6    550.2   -237.0 -0.2321E+01 -0.6629E-01
2021  8 11 16 50  129.0944   29.7657   458.08  352.385   174.2   25.76  21.22    34.34   302.22  300.31    11.6    551.2   -230.5 -0.2392E+01 -0.1706E+00
2021  8 11 16 40  129.0747   29.6754   549.31  352.615   175.9   25.69  21.19    32.87   302.18  300.39    11.8    516.1   -254.6 -0.2027E+01 -0.2256E+00
2021  8 11 16 30  129.0496   29.5817   666.60  353.036   181.2   25.53  20.87    22.57   302.07  300.82    11.8    571.6   -292.1 -0.1957E+01 -0.1869E+00
2021  8 11 16 20  129.0188   29.4876   729.67  353.949   181.7   25.31  20.58    10.75   301.93  301.33    11.6    698.1   -356.6 -0.1958E+01 -0.5117E-02
2021  8 11 16 10  128.9865   29.3943   760.77  354.058   165.9   25.05  20.54     5.92   301.76  301.41    11.2    783.9   -379.6 -0.2065E+01  0.7553E-01
2021  8 11 16  0  128.9538   29.3014   723.11  354.074   161.1   24.79  20.52     3.75   301.59  301.37    11.5    808.3   -464.0 -0.1742E+01  0.1017E+00
2021  8 11 15 50  128.9231   29.2084   696.20  354.041   148.4   24.58  20.53     1.76   301.44  301.34    11.3    794.8   -494.1 -0.1608E+01  0.2424E-01
2021  8 11 15 40  128.8948   29.1164   659.84  353.873   138.7   24.38  20.55    -0.20   301.31  301.33    11.2    754.7   -556.6 -0.1356E+01  0.7503E-01
2021  8 11 15 30  128.8702   29.0222   604.44  353.795   138.5   24.22  20.54    -1.61   301.21  301.30    11.7    690.8   -692.8 -0.9970E+00  0.4686E-01
2021  8 11 15 20  128.8476   28.9277   627.26  353.567   127.1   24.12  20.55    -2.44   301.14  301.28    11.1    713.4   -655.0 -0.1089E+01 -0.6681E-01
2021  8 11 15 10  128.8227   28.8367   651.10  353.330   116.9   24.07  20.54    -3.15   301.10  301.30    10.5    737.4   -587.8 -0.1255E+01  0.2769E-01
2021  8 11 15  0  128.7982   28.7468   612.85  353.078   123.1   24.07  20.50    -3.49   301.10  301.32    10.9    691.4   -650.5 -0.1063E+01  0.7409E-01
2021  8 11 14 50  128.7753   28.6558   587.59  352.856   129.0   24.15  20.51    -2.75   301.16  301.32    11.1    662.1   -641.1 -0.1033E+01  0.3184E-01
2021  8 11 14 40  128.7542   28.5651   566.34  352.706   132.7   24.28  20.53    -1.52   301.25  301.34    11.0    635.3   -572.9 -0.1109E+01  0.4372E-01
2021  8 11 14 30  128.7340   28.4748   556.13  352.401   138.8   24.42  20.56     0.06   301.35  301.34    11.1    601.1   -533.6 -0.1126E+01 -0.1873E-02
2021  8 11 14 20  128.7152   28.3838   592.08  352.458   141.0   24.61  20.63     2.20   301.47  301.34    11.0    630.9   -454.8 -0.1387E+01 -0.1155E+00
2021  8 11 14 10  128.6964   28.2921   650.10  352.457   143.8   24.78  20.71     4.42   301.59  301.32    10.9    673.9   -401.7 -0.1677E+01 -0.4690E-01
2021  8 11 14  0  128.6768   28.1988   666.51  352.026   142.0   24.85  20.77     5.75   301.63  301.28    10.7    665.5   -367.0 -0.1813E+01  0.3882E-01
2021  8 11 13 50  128.6600   28.1054   680.95  351.891   136.4   24.82  20.83     5.98   301.62  301.25    10.6    673.6   -352.5 -0.1911E+01 -0.1215E+00
2021  8 11 13 40  128.6422   28.0138   747.71  351.957   119.0   24.76  20.87     4.84   301.58  301.25     9.5    712.6   -280.1 -0.2544E+01 -0.1235E+00
2021  8 11 13 30  128.6227   27.9228   778.70  352.117   107.7   24.67  20.92     3.94   301.53  301.24     9.0    715.2   -257.0 -0.2783E+01 -0.6128E-01
2021  8 11 13 20  128.6053   27.8310   742.24  352.978   105.3   24.56  21.02     3.31   301.45  301.22     9.4    740.9   -314.9 -0.2353E+01  0.1440E+00
2021  8 11 13 10  128.5916   27.7383   707.34  352.988   103.9   24.45  21.05     1.96   301.37  301.24     9.8    693.6   -385.3 -0.1800E+01  0.8098E-01
2021  8 11 13  0  128.5776   27.6471   705.07  352.996    95.5   24.38  21.08     1.56   301.33  301.22     9.3    633.7   -356.0 -0.1780E+01  0.9429E-02
2021  8 11 12 50  128.5627   27.5580   722.87  353.198    78.9   24.32  21.07     0.43   301.29  301.26     7.8    696.7   -248.7 -0.2801E+01  0.4003E-01
2021  8 11 12 40  128.5488   27.4680   675.52  353.268    78.1   24.25  20.90    -0.14   301.24  301.26     7.4    693.7   -221.7 -0.3130E+01  0.5385E-01
2021  8 11 12 30  128.5367   27.3757   724.76  353.094    50.4   22.80  20.95   -25.70   300.11  300.53     7.7    815.5  -1351.3 -0.6034E+00 -0.1245E+00
2021  8 11 12 20  128.5259   27.2851   721.84  353.010    78.5   24.04  21.14    -3.37   301.10  301.35     9.0    802.1   -537.6 -0.1492E+01 -0.9017E-01
2021  8 11 12 10  128.5131   27.1958   722.39  353.434    79.5   23.98  21.08    -4.73   301.06  301.40     9.1    857.1   -634.7 -0.1350E+01  0.2206E-01
2021  8 11 12  0  128.5022   27.1067   714.04  353.525    78.0   23.95  20.99    -5.42   301.04  301.45     8.7    864.3   -618.8 -0.1397E+01  0.3289E-01
2021  8 11 11 50  128.4960   27.0171   662.81  353.393    90.2   23.95  20.87    -6.48   301.04  301.49     9.5    785.7   -769.4 -0.1021E+01  0.9026E-01
2021  8 11 11 40  128.4921   26.9257   655.92  353.397    92.0   23.95  20.79    -6.88   301.03  301.52     9.5    778.7   -768.3 -0.1014E+01 -0.3699E-01
2021  8 11 11 30  128.4858   26.8354   661.74  353.306    91.9   23.96  20.76    -6.99   301.04  301.54     9.3    770.4   -739.3 -0.1042E+01  0.4695E-01
2021  8 11 11 20  128.4772   26.7435   643.15  353.112   101.7   23.98  20.72    -7.32   301.05  301.53    10.1    730.6   -841.7 -0.8680E+00 -0.2275E-01
2021  8 11 11 10  128.4679   26.6515   676.62  353.353    97.3   24.01  20.75    -6.81   301.07  301.54     9.7    783.3   -743.5 -0.1054E+01 -0.7767E-01
2021  8 11 11  0  128.4593   26.5607   703.88  353.538    96.2   24.04  20.77    -6.51   301.10  301.55     9.5    847.9   -694.5 -0.1221E+01 -0.2983E-01
2021  8 11 10 50  128.4512   26.4708   714.78  353.561    92.5   24.06  20.80    -6.06   301.11  301.55     9.2    849.9   -624.9 -0.1360E+01  0.1383E-01
2021  8 11 10 40  128.4433   26.3802   690.03  353.571    97.8   24.08  20.80    -6.16   301.12  301.54     9.6    797.2   -681.3 -0.1170E+01  0.3555E-02
2021  8 11 10 30  128.4375   26.2887   711.64  353.554    96.2   24.07  20.83    -5.86   301.12  301.52     9.6    824.3   -668.5 -0.1233E+01 -0.4345E-01
2021  8 11 10 20  128.4309   26.1971   733.24  353.621    89.2   24.01  20.88    -5.66   301.07  301.47     9.3    827.1   -651.8 -0.1269E+01 -0.1101E-01
2021  8 11 10 10  128.4228   26.1060   740.16  353.675    81.5   23.88  20.91    -5.99   300.98  301.42     9.0    776.2   -704.2 -0.1102E+01  0.3019E-01
2021  8 11 10  0  128.4157   26.0147   729.11  353.701    75.5   23.75  20.92    -6.55   300.89  301.38     8.9    734.9   -815.3 -0.9014E+00 -0.2737E-01
2021  8 11  9 50  128.4091   25.9238   735.23  353.823    67.5   23.67  20.97    -6.59   300.84  301.36     8.4    740.3   -851.8 -0.8692E+00  0.2334E-02
2021  8 11  9 40  128.4025   25.8334   726.89  353.967    64.6   23.61  20.97    -6.89   300.79  301.35     8.3    728.0   -943.5 -0.7717E+00  0.3542E-01
2021  8 11  9 30  128.3966   25.7416   730.80  354.163    68.4   23.57  20.94    -7.71   300.76  301.35     8.8    759.2  -1214.2 -0.6253E+00 -0.6544E-01
2021  8 11  9 20  128.3909   25.6473   738.03  354.154    73.2   23.56  20.90    -8.46   300.75  301.36     9.3    770.2  -1446.6 -0.5324E+00 -0.1750E-01
2021  8 11  9 10  128.3853   25.5515   752.22  354.247    76.1   23.57  20.87    -8.91   300.76  301.38     9.5    817.8  -1570.5 -0.5207E+00 -0.7350E-01
2021  8 11  9  0  128.3796   25.4564   803.71  354.337    71.3   23.58  20.88    -8.44   300.77  301.40     8.9    871.8  -1358.0 -0.6420E+00 -0.4610E-01
2021  8 11  8 50  128.3739   25.3615   801.38  354.329    75.2   23.63  20.86    -8.48   300.79  301.42     9.1    868.6  -1283.2 -0.6769E+00  0.6844E-01
2021  8 11  8 40  128.3674   25.2659   776.44  354.359    77.3   23.67  20.86    -8.39   300.82  301.43     9.2    843.5  -1215.1 -0.6942E+00  0.2375E-01
2021  8 11  8 30  128.3606   25.1699   761.94  354.289    76.0   23.68  20.87    -8.28   300.83  301.44     9.1    784.9  -1184.4 -0.6627E+00  0.1205E-01
2021  8 11  8 20  128.3535   25.0758   747.65  354.413    76.5   23.68  20.86    -8.90   300.83  301.49     9.1    778.0  -1351.4 -0.5757E+00  0.5200E-01
2021  8 11  8 10  128.3453   24.9808   726.35  354.450    82.6   23.71  20.86    -9.57   300.85  301.51     9.6    759.2  -1532.0 -0.4956E+00  0.1138E-01
2021  8 11  8  0  128.3362   24.8854   731.42  354.457    83.7   23.76  20.88    -9.49   300.89  301.54     9.7    769.3  -1464.7 -0.5252E+00 -0.9069E-02
2021  8 11  7 50  128.3290   24.7902   762.49  354.377    84.7   23.84  20.92    -9.46   300.94  301.59     9.6    844.8  -1397.5 -0.6045E+00 -0.6478E-01
2021  8 11  7 40  128.3237   24.6940   779.02  354.522    93.7   23.96  20.93    -9.72   301.03  301.66    10.2    873.2  -1374.7 -0.6352E+00 -0.2443E-01
2021  8 11  7 30  128.3196   24.5974   772.51  354.392   104.9   24.15  20.91    -9.17   301.15  301.73    10.5    859.5  -1137.1 -0.7559E+00  0.1851E-01
2021  8 11  7 20  128.3169   24.5015   759.18  354.186   117.1   24.34  20.85    -8.57   301.28  301.80    10.7    848.4   -956.2 -0.8873E+00  0.4146E-01
2021  8 11  7 10  128.3138   24.4058   744.31  354.256   132.2   24.51  20.77    -8.00   301.39  301.87    11.1    849.6   -872.3 -0.9740E+00  0.4603E-03
2021  8 11  7  0  128.3083   24.3111   734.31  354.359   141.4   24.67  20.75    -6.83   301.50  301.90    11.3    838.7   -768.3 -0.1092E+01  0.4527E-01
2021  8 11  6 50  128.3006   24.2160   738.78  354.301   149.9   24.79  20.74    -6.13   301.58  301.93    11.5    836.7   -744.7 -0.1123E+01 -0.6898E-01
2021  8 11  6 40  128.2932   24.1219   775.72  354.439   150.9   24.86  20.75    -5.70   301.63  301.96    11.4    874.4   -692.5 -0.1263E+01 -0.5649E-01
2021  8 11  6 30  128.2863   24.0283   789.14  354.471   154.7   24.93  20.76    -5.18   301.67  301.97    11.5    876.8   -677.8 -0.1294E+01  0.9993E-02
2021  8 11  6 20  128.2797   23.9354   770.25  354.615   157.5   25.02  20.78    -4.67   301.73  302.00    11.5    866.3   -646.2 -0.1341E+01  0.3577E-01
2021  8 11  6 10  128.2735   23.8425   770.09  354.637   165.2   25.13  20.81    -3.70   301.81  302.01    11.7    860.3   -639.0 -0.1346E+01 -0.3916E-01
2021  8 11  6  0  128.2685   23.7499   772.41  354.834   162.4   25.22  20.84    -2.94   301.86  302.03    11.4    866.5   -569.5 -0.1522E+01  0.3110E-01
2021  8 11  5 50  128.2629   23.6575   755.89  354.565   163.1   25.25  20.86    -2.75   301.88  302.04    11.4    851.3   -562.4 -0.1514E+01  0.3401E-01
2021  8 11  5 40  128.2562   23.5646   732.77  354.507   164.9   25.25  20.86    -2.86   301.88  302.04    11.5    860.3   -580.7 -0.1482E+01  0.1119E-01
2021  8 11  5 30  128.2498   23.4721   702.28  354.477   161.4   25.24  20.86    -2.75   301.87  302.03    11.3    863.4   -554.6 -0.1557E+01  0.1121E+00
2021  8 11  5 20  128.2471   23.3800   674.99  354.525   159.2   25.22  20.85    -3.00   301.86  302.03    11.2    879.8   -549.9 -0.1600E+01 -0.5785E-02
2021  8 11  5 10  128.2473   23.2909   658.71  354.728   154.6   25.19  20.81    -3.53   301.84  302.06    10.9    896.6   -513.3 -0.1747E+01  0.3285E-01
2021  8 11  5  0  128.2505   23.2026   620.49  354.885   161.0   25.19  20.74    -3.81   301.84  302.07    11.1    890.8   -542.1 -0.1643E+01  0.9748E-01
2021  8 11  4 50  128.2542   23.1135   609.44  354.739   163.7   25.21  20.67    -3.64   301.85  302.07    11.1    889.1   -517.3 -0.1719E+01 -0.3538E-01
2021  8 11  4 40  128.2581   23.0270   607.65  355.130   163.1   25.22  20.60    -3.62   301.87  302.09    10.8    907.2   -478.1 -0.1898E+01  0.1283E-01
2021  8 11  4 30  128.2620   22.9398   588.91  355.275   173.9   25.24  20.54    -3.52   301.88  302.08    11.3    882.8   -522.4 -0.1690E+01  0.2410E-01
2021  8 11  4 20  128.2656   22.8499   551.51  355.442   192.8   25.26  20.47    -3.36   301.89  302.07    12.2    825.9   -620.1 -0.1332E+01  0.2793E-01
2021  8 11  4 10  128.2694   22.7589   550.97  355.499   190.3   25.27  20.44    -3.45   301.89  302.08    11.9    843.9   -581.1 -0.1452E+01 -0.1425E-01
2021  8 11  4  0  128.2718   22.6696   535.44  355.595   194.2   25.28  20.40    -3.38   301.90  302.08    12.0    835.8   -585.8 -0.1427E+01  0.6244E-01
2021  8 11  3 50  128.2753   22.5805   514.73  355.716   189.6   25.28  20.39    -3.18   301.90  302.08    11.7    812.8   -538.9 -0.1508E+01  0.6601E-01
2021  8 11  3 40  128.2818   22.4926   482.61  355.916   192.7   25.29  20.36    -3.19   301.91  302.09    11.8    779.6   -547.6 -0.1424E+01  0.6183E-01
2021  8 11  3 30  128.2910   22.4033   465.59  356.085   201.0   25.31  20.34    -3.11   301.92  302.09    12.1    765.7   -586.9 -0.1305E+01 -0.3755E-02
2021  8 11  3 20  128.2993   22.3152   467.50  355.942   201.6   25.33  20.31    -2.85   301.94  302.10    12.0    787.2   -561.8 -0.1401E+01 -0.1880E-01
2021  8 11  3 10  128.3048   22.2291   484.99  355.949   195.8   25.37  20.30    -2.39   301.97  302.11    11.6    842.6   -493.9 -0.1706E+01 -0.1387E-01
2021  8 11  3  0  128.3082   22.1444   498.71  356.019   196.9   25.44  20.30    -1.75   302.02  302.12    11.5    864.9   -466.3 -0.1855E+01 -0.4787E-01
2021  8 11  2 50  128.3096   22.0602   509.10  356.176   198.8   25.52  20.32    -0.86   302.07  302.12    11.5    864.3   -441.8 -0.1956E+01  0.1325E-01
2021  8 11  2 40  128.3105   21.9760   500.21  356.062   199.4   25.59  20.32    -0.17   302.12  302.13    11.3    834.4   -414.3 -0.2014E+01  0.3059E-03
2021  8 11  2 30  128.3118   21.8910   472.06  356.010   209.7   25.67  20.31     0.78   302.17  302.13    11.6    781.7   -426.9 -0.1831E+01  0.8572E-01
2021  8 11  2 20  128.3172   21.8019   432.22  355.960   236.0   25.77  20.24     2.28   302.22  302.11    12.6    720.0   -503.5 -0.1430E+01  0.2152E-01
2021  8 11  2 10  128.3235   21.7117   437.37  355.879   237.2   25.84  20.21     3.13   302.27  302.11    12.4    745.0   -462.2 -0.1612E+01  0.1604E-01
2021  8 11  2  0  128.3292   21.6204   423.53  355.975   257.0   25.91  20.15     4.55   302.31  302.09    13.1    717.8   -509.8 -0.1408E+01  0.1083E-01
2021  8 11  1 50  128.3344   21.5293   428.10  355.784   255.7   25.97  20.10     5.13   302.36  302.10    12.8    721.7   -461.6 -0.1563E+01 -0.3667E-01
2021  8 11  1 40  128.3384   21.4425   445.22  355.670   248.5   26.04  20.06     5.66   302.41  302.11    12.2    735.7   -391.7 -0.1878E+01 -0.1164E-01
2021  8 11  1 30  128.3420   21.3580   452.12  355.539   249.3   26.13  20.03     6.60   302.47  302.11    12.0    736.9   -356.1 -0.2069E+01  0.9490E-03
2021  8 11  1 20  128.3460   21.2743   460.04  355.410   253.7   26.21  20.00     7.57   302.52  302.11    12.0    743.9   -341.9 -0.2175E+01 -0.3840E-01
2021  8 11  1 10  128.3503   21.1914   467.39  355.297   258.5   26.27  19.98     8.71   302.56  302.09    12.0    745.3   -332.9 -0.2239E+01  0.4388E-02
2021  8 11  1  0  128.3551   21.1086   469.99  355.120   259.4   26.32  19.95     9.47   302.59  302.07    11.9    744.5   -317.9 -0.2342E+01 -0.4520E-02
2021  8 11  0 50  128.3596   21.0253   472.22  354.937   268.7   26.35  19.93    10.72   302.61  302.04    12.2    740.1   -329.5 -0.2246E+01 -0.1334E-01
2021  8 11  0 40  128.3645   20.9413   484.86  354.773   271.3   26.38  19.91    11.69   302.63  302.01    12.2    747.6   -324.7 -0.2303E+01 -0.2592E-01
2021  8 11  0 30  128.3716   20.8575   490.96  354.456   276.2   26.40  19.89    12.62   302.64  301.98    12.3    743.7   -326.1 -0.2281E+01 -0.1559E-02
2021  8 11  0 20  128.3808   20.7738   498.37  354.058   278.9   26.42  19.84    13.38   302.66  301.95    12.3    743.3   -318.6 -0.2333E+01 -0.2214E-01
2021  8 11  0 10  128.3902   20.6910   511.70  353.763   278.2   26.45  19.81    14.03   302.68  301.93    12.1    753.2   -300.1 -0.2510E+01 -0.1979E-01
2021  8 11  0  0  128.3998   20.6081   510.83  353.721   288.1   26.50  19.79    15.88   302.70  301.88    12.4    746.8   -309.9 -0.2410E+01  0.1137E-03
