2021  8 12  0  0  129.9360   32.5947   500.00  355.876    77.4   22.92  19.85    11.75   300.27  299.30     7.9    421.3   -144.9 -0.2907E+01  0.6172E-01
2021  8 11 23 50  129.8766   32.5443   461.48  356.218    68.8   23.10  20.21     9.30   300.40  299.61     7.6    437.9   -151.2 -0.2895E+01  0.1486E+00
2021  8 11 23 40  129.8150   32.4926   374.21  357.120    73.4   23.30  20.50     9.09   300.54  299.86     8.5    472.8   -212.4 -0.2226E+01  0.2265E+00
2021  8 11 23 30  129.7535   32.4345   270.98  358.632    74.5   23.50  20.80     7.57   300.69  300.14     9.1    519.3   -285.6 -0.1818E+01  0.2475E+00
2021  8 11 23 20  129.6954   32.3749   187.62  359.054    80.5   23.69  20.86     4.50   300.82  300.49     9.4    497.3   -346.4 -0.1436E+01  0.1279E+00
2021  8 11 23 10  129.6387   32.3201   137.65  358.463    97.5   23.84  20.66     0.99   300.92  300.85     9.9    476.9   -443.2 -0.1076E+01  0.2203E-01
2021  8 11 23  0  129.5847   32.2762   153.26  358.014    89.0   23.92  20.59     2.18   300.97  300.80     8.5    445.4   -268.7 -0.1657E+01 -0.9582E-01
2021  8 11 22 50  129.5355   32.2409   221.34  357.884    69.5   23.95  20.79     4.55   300.99  300.57     7.0    422.5   -144.2 -0.2930E+01 -0.1140E+00
2021  8 11 22 40  129.4844   32.2078   287.49  357.587    56.7   23.96  20.63     7.66   301.00  300.06     5.1    397.9    -53.2 -0.7484E+01 -0.1132E+00
2021  8 11 22 30  129.4288   32.1741   328.68  358.324    60.6   23.93  20.55     9.33   300.98  299.90     5.3    403.0    -53.8 -0.7485E+01 -0.1285E+00
2021  8 11 22 20  129.3747   32.1381   313.80  359.850    48.5   23.89  20.87     7.91   300.95  299.94     4.9    430.9    -49.9 -0.8633E+01  0.1277E+00
2021  8 11 22 10  129.3264   32.1003   204.37  360.956    53.5   23.88  21.05     5.46   300.94  300.35     6.1    497.1   -103.1 -0.4823E+01  0.2760E+00
2021  8 11 22  0  129.2781   32.0609   112.50  361.687    66.8   23.90  21.11     1.52   300.95  300.81     8.0    696.4   -274.5 -0.2537E+01  0.1038E+00
2021  8 11 21 50  129.2248   32.0242    82.79  362.088    72.7   23.95  21.14     0.68   300.99  300.93     8.6    653.5   -359.5 -0.1818E+01  0.5264E-01
2021  8 11 21 40  129.1739   31.9830    62.58  361.979    87.1   24.04  21.08     1.07   301.05  300.97     9.7    563.6   -440.5 -0.1280E+01  0.1959E-01
2021  8 11 21 30  129.1278   31.9360    56.36  362.028    90.2   24.13  21.08     1.93   301.12  300.98     9.6    553.4   -406.9 -0.1360E+01  0.4768E-02
2021  8 11 21 20  129.0896   31.8900    50.44  362.037    84.1   24.23  21.08     2.89   301.18  300.96     8.7    558.6   -283.3 -0.1971E+01  0.1393E-01
2021  8 11 21 10  129.0597   31.8475    50.00  362.178    77.8   24.32  21.13     3.81   301.24  300.92     7.8    522.6   -204.8 -0.2552E+01  0.2263E-01
2021  8 11 21  0  129.0335   31.8069    50.24  362.319    78.3   24.40  21.20     4.73   301.29  300.90     7.8    480.5   -194.0 -0.2477E+01  0.2282E-01
2021  8 11 20 50  129.0083   31.7636    51.52  362.309    81.5   24.49  21.27     6.82   301.35  300.80     8.1    453.5   -192.5 -0.2356E+01 -0.1584E-01
2021  8 11 20 40  128.9824   31.7160    61.73  362.583    87.5   24.58  21.42     9.35   301.41  300.73     8.9    505.9   -226.4 -0.2235E+01 -0.3936E-01
2021  8 11 20 30  128.9547   31.6663    73.63  362.758    91.5   24.67  21.51    11.35   301.48  300.69     9.4    554.1   -240.7 -0.2302E+01 -0.2762E-01
2021  8 11 20 20  128.9258   31.6176    78.96  362.746    94.3   24.77  21.52    12.96   301.55  300.65     9.4    554.3   -225.6 -0.2457E+01 -0.1029E-01
2021  8 11 20 10  128.8976   31.5687    79.40  362.500    99.6   24.87  21.46    14.45   301.61  300.61     9.3    495.3   -205.1 -0.2415E+01  0.1548E-01
2021  8 11 20  0  128.8757   31.5204    78.09  361.894    98.4   24.96  21.26    13.98   301.67  300.59     8.4    431.3   -145.3 -0.2968E+01  0.3144E-01
2021  8 11 19 50  128.8622   31.4736    74.16  361.284    98.1   25.02  21.06    13.35   301.71  300.58     7.6    383.1   -108.0 -0.3548E+01  0.2398E-02
2021  8 11 19 40  128.8534   31.4254    73.24  360.770   115.8   25.07  20.96    15.48   301.75  300.59     8.6    385.6   -141.8 -0.2720E+01 -0.3020E-01
2021  8 11 19 30  128.8460   31.3719    77.24  360.287   137.3   25.12  20.90    19.24   301.78  300.53     9.9    400.2   -192.9 -0.2075E+01 -0.2387E-01
2021  8 11 19 20  128.8416   31.3124    82.74  359.484   158.8   25.16  20.75    23.71   301.81  300.40    10.9    403.7   -230.3 -0.1753E+01 -0.1457E-01
2021  8 11 19 10  128.8410   31.2491    90.32  358.669   169.9   25.19  20.60    26.43   301.83  300.29    11.1    388.5   -228.9 -0.1697E+01 -0.1272E-02
2021  8 11 19  0  128.8447   31.1802    95.34  357.658   195.0   25.21  20.46    32.88   301.84  300.11    12.2    362.5   -273.3 -0.1326E+01 -0.2990E-01
2021  8 11 18 50  128.8503   31.1033   127.92  357.195   211.1   25.22  20.38    39.12   301.85  299.90    12.8    349.5   -294.0 -0.1189E+01 -0.1244E+00
2021  8 11 18 40  128.8449   31.0229   202.37  357.674   200.5   25.25  20.35    38.93   301.87  299.81    11.9    341.5   -233.1 -0.1465E+01 -0.1811E+00
2021  8 11 18 30  128.8246   30.9422   247.94  358.539   169.0   25.30  20.60    30.14   301.90  300.12    10.7    362.6   -187.4 -0.1935E+01 -0.5539E-01
2021  8 11 18 20  128.7976   30.8650   252.01  358.730   149.7   25.37  20.84    20.29   301.94  300.65    10.0    443.2   -187.1 -0.2369E+01  0.6746E-01
2021  8 11 18 10  128.7686   30.7932   185.01  358.695   162.7   25.42  20.71     8.60   301.97  301.43    10.5    548.9   -283.2 -0.1938E+01  0.2209E+00
2021  8 11 18  0  128.7399   30.7205   125.59  357.835   225.3   25.48  20.17     6.53   302.02  301.68    12.6    489.4   -464.6 -0.1053E+01 -0.3741E-01
2021  8 11 17 50  128.7144   30.6486   158.67  358.104   202.3   25.58  20.28     8.43   302.08  301.60    11.4    542.5   -328.4 -0.1652E+01 -0.9484E-01
2021  8 11 17 40  128.6952   30.5769   193.08  357.815   203.9   25.68  20.30    10.02   302.15  301.57    11.3    574.7   -303.7 -0.1892E+01 -0.5579E-01
2021  8 11 17 30  128.6743   30.5048   211.79  357.669   210.0   25.77  20.29    11.46   302.20  301.55    11.4    599.6   -297.7 -0.2014E+01 -0.4534E-01
2021  8 11 17 20  128.6497   30.4321   213.39  356.977   212.6   25.81  20.26    13.21   302.23  301.47    11.4    551.3   -283.0 -0.1948E+01  0.3547E-02
2021  8 11 17 10  128.6232   30.3581   211.22  356.650   222.6   25.83  20.23    14.93   302.25  301.42    11.7    525.8   -300.5 -0.1750E+01 -0.5205E-01
2021  8 11 17  0  128.5982   30.2820   250.15  356.327   220.7   25.88  20.23    16.16   302.28  301.37    11.5    547.1   -275.2 -0.1988E+01 -0.9169E-01
2021  8 11 16 50  128.5774   30.2046   280.68  355.997   223.5   25.98  20.23    17.74   302.35  301.34    11.4    546.6   -258.8 -0.2112E+01 -0.4193E-01
2021  8 11 16 40  128.5584   30.1260   287.58  355.710   227.6   26.13  20.24    19.79   302.45  301.32    11.3    533.7   -238.9 -0.2234E+01  0.2502E-01
2021  8 11 16 30  128.5394   30.0456   273.04  355.083   236.7   26.29  20.18    21.84   302.54  301.29    11.4    507.0   -228.2 -0.2221E+01  0.4540E-01
2021  8 11 16 20  128.5190   29.9660   243.75  354.291   247.3   26.35  20.03    24.11   302.58  301.21    11.4    454.9   -217.8 -0.2089E+01  0.5231E-01
2021  8 11 16 10  128.4992   29.8859   223.37  353.729   263.6   26.35  19.82    27.40   302.58  301.07    11.7    408.5   -220.2 -0.1855E+01  0.2675E-01
2021  8 11 16  0  128.4824   29.8049   232.11  353.361   262.3   26.29  19.62    29.56   302.54  300.86    11.4    364.2   -191.8 -0.1899E+01 -0.1384E-01
2021  8 11 15 50  128.4688   29.7248   267.70  353.288   241.5   26.17  19.56    30.05   302.47  300.63    10.5    346.4   -151.0 -0.2295E+01 -0.3331E-01
2021  8 11 15 40  128.4573   29.6456   315.24  353.440   223.9   26.00  19.51    28.65   302.37  300.51    10.0    338.4   -130.3 -0.2598E+01 -0.2384E-01
2021  8 11 15 30  128.4457   29.5670   371.23  353.658   203.7   25.81  19.52    27.62   302.25  300.35     9.3    331.7   -110.9 -0.2989E+01  0.1176E+00
2021  8 11 15 20  128.4333   29.4872   416.32  353.527   189.8   25.64  19.54    26.48   302.14  300.25     8.9    331.7   -102.3 -0.3243E+01 -0.3628E-01
2021  8 11 15 10  128.4196   29.4053   490.42  353.206   176.7   25.48  19.58    23.27   302.03  300.31     8.6    335.0    -99.3 -0.3374E+01  0.2955E-02
2021  8 11 15  0  128.4056   29.3176   555.21  353.075   169.0   25.30  19.77    22.38   301.92  300.31     8.9    338.7   -114.0 -0.2972E+01 -0.1570E+00
2021  8 11 14 50  128.3905   29.2291   659.50  352.610   145.1   25.16  19.91    16.95   301.83  300.48     8.1    350.5   -100.5 -0.3487E+01 -0.7008E-01
2021  8 11 14 40  128.3757   29.1376   696.51  352.217   141.9   25.09  20.07    16.36   301.78  300.52     8.3    367.6   -114.3 -0.3215E+01 -0.2338E-02
2021  8 11 14 30  128.3620   29.0423   704.04  351.813   143.6   25.06  20.14    15.16   301.76  300.63     8.7    389.7   -132.9 -0.2933E+01 -0.9422E-02
2021  8 11 14 20  128.3488   28.9457   708.88  351.866   142.8   25.04  20.28    13.90   301.75  300.74     9.0    403.0   -155.2 -0.2596E+01 -0.5715E-02
2021  8 11 14 10  128.3363   28.8483   748.26  351.921   126.7   25.03  20.53    13.96   301.74  300.68     8.5    403.5   -136.1 -0.2965E+01 -0.6935E-01
2021  8 11 14  0  128.3255   28.7499   803.33  351.857   115.3   25.03  20.70    12.83   301.75  300.71     8.1    439.9   -124.4 -0.3535E+01 -0.9831E-01
2021  8 11 13 50  128.3152   28.6503   842.17  351.732   140.8   25.04  20.51    10.55   301.75  301.02     9.5    488.5   -202.1 -0.2418E+01 -0.4654E-01
2021  8 11 13 40  128.3052   28.5489   830.26  351.992   173.6   25.06  20.20    12.78   301.77  300.99    10.7    431.4   -262.2 -0.1645E+01 -0.1617E-01
2021  8 11 13 30  128.2970   28.4463   854.89  351.783   165.7   25.11  20.28    14.48   301.81  300.89    10.3    407.9   -226.0 -0.1805E+01 -0.8392E-01
2021  8 11 13 20  128.2892   28.3444   864.87  351.908   171.9   25.20  20.22    17.33   301.87  300.78    10.4    393.6   -210.3 -0.1872E+01 -0.9411E-01
2021  8 11 13 10  128.2794   28.2445   835.13  352.471   172.3   25.27  20.18    18.71   301.92  300.72    10.1    391.6   -185.9 -0.2106E+01  0.1469E+00
2021  8 11 13  0  128.2703   28.1446   730.87  351.924   181.0   25.34  20.20    22.25   301.96  300.58    10.5    351.4   -192.3 -0.1827E+01 -0.1067E-01
2021  8 11 12 50  128.2626   28.0476   712.67  352.154   149.7   25.37  20.33    20.18   301.98  300.51     8.8    351.6   -121.4 -0.2896E+01 -0.5942E-01
2021  8 11 12 40  128.2565   27.9565   668.91  353.590   120.4   25.32  20.67    15.14   301.95  300.70     7.7    371.3    -99.4 -0.3736E+01  0.7770E-02
2021  8 11 12 30  128.2549   27.8638   642.37  354.494   121.3   25.20  20.92    13.23   301.87  300.88     8.7    421.7   -151.5 -0.2784E+01 -0.1649E+00
2021  8 11 12 20  128.2533   27.7699   729.24  354.441    99.6   25.01  21.12     7.84   301.75  301.11     7.9    537.9   -151.7 -0.3547E+01 -0.9570E-01
2021  8 11 12 10  128.2480   27.6755   761.12  353.642    99.3   24.80  21.25     4.70   301.60  301.25     8.9    607.1   -253.3 -0.2397E+01 -0.2975E-01
2021  8 11 12  0  128.2392   27.5804   788.99  353.677    92.9   24.53  21.29     0.61   301.42  301.37     9.4    685.1   -385.2 -0.1779E+01  0.2705E-01
2021  8 11 11 50  128.2294   27.4873   781.29  353.572    95.3   24.31  21.12    -2.01   301.27  301.41     9.7    704.6   -508.2 -0.1386E+01  0.7442E-01
2021  8 11 11 40  128.2183   27.3942   777.75  353.746   100.4   24.17  20.90    -3.90   301.18  301.44     9.9    730.5   -593.6 -0.1231E+01 -0.5480E-01
2021  8 11 11 30  128.2056   27.3029   794.66  353.774    90.5   24.07  20.79    -4.66   301.12  301.46     8.9    751.6   -505.3 -0.1488E+01  0.2065E-01
2021  8 11 11 20  128.1931   27.2135   792.45  353.851    74.6   23.97  20.75    -4.35   301.05  301.43     7.5    778.2   -355.4 -0.2190E+01  0.6723E-01
2021  8 11 11 10  128.1819   27.1227   750.63  353.986    82.8   23.88  20.59    -5.67   300.98  301.45     8.1    780.9   -465.5 -0.1678E+01  0.2776E-01
2021  8 11 11  0  128.1751   27.0301   747.51  354.011    71.1   23.80  20.57    -5.38   300.93  301.43     7.1    742.0   -375.5 -0.1976E+01  0.6438E-02
2021  8 11 10 50  128.1715   26.9367   723.77  354.086    71.5   23.76  20.51    -5.32   300.90  301.39     7.1    702.2   -369.4 -0.1901E+01  0.3344E-02
2021  8 11 10 40  128.1688   26.8427   711.80  354.210    72.1   23.75  20.41    -5.15   300.89  301.38     6.9    686.3   -328.8 -0.2087E+01  0.3771E-01
2021  8 11 10 30  128.1685   26.7461   699.98  354.082    37.2   23.37  20.14   -16.84   300.55  300.99     6.3    714.5   -255.0 -0.2801E+01 -0.1757E+00
2021  8 11 10 20  128.1724   26.6487   859.84  354.506    18.7   22.90  20.73    -9.24   300.05  300.21     7.4    864.7   -429.1 -0.2015E+01  0.3262E+00
2021  8 11 10 10  128.1707   26.5575   747.28  354.806    67.2   23.77  21.00    -7.15   300.90  301.32     8.6    777.0   -688.5 -0.1128E+01  0.5188E-01
2021  8 11 10  0  128.1683   26.4647   731.13  354.854    78.1   23.81  20.99    -5.95   300.93  301.36     9.2    747.6   -797.3 -0.9376E+00  0.3531E-01
2021  8 11  9 50  128.1646   26.3707   700.86  354.769    84.3   23.89  20.96    -5.66   300.98  301.37     9.5    727.2   -765.1 -0.9503E+00  0.6196E-01
2021  8 11  9 40  128.1590   26.2774   695.57  354.556    81.9   23.93  20.96    -5.07   301.01  301.38     9.1    712.4   -635.9 -0.1120E+01  0.3178E-03
2021  8 11  9 30  128.1520   26.1852   692.33  354.548    80.3   23.88  20.97    -5.34   300.97  301.36     9.1    709.2   -685.5 -0.1035E+01  0.2135E-01
2021  8 11  9 20  128.1468   26.0913   698.32  354.602    77.3   23.77  20.97    -5.85   300.90  301.32     9.2    709.6   -796.2 -0.8912E+00 -0.1274E-01
2021  8 11  9 10  128.1411   25.9959   697.66  354.571    75.1   23.66  20.95    -6.39   300.82  301.27     9.3    689.7   -939.6 -0.7341E+00  0.4416E-01
2021  8 11  9  0  128.1356   25.8996   691.21  354.454    74.1   23.56  20.93    -7.12   300.74  301.24     9.5    678.8  -1161.9 -0.5842E+00 -0.3400E-01
2021  8 11  8 50  128.1294   25.8032   705.19  354.537    67.8   23.46  20.94    -7.49   300.67  301.22     9.2    690.4  -1352.2 -0.5106E+00  0.2080E-01
2021  8 11  8 40  128.1240   25.7065   717.35  354.414    66.0   23.42  20.96    -7.92   300.64  301.21     9.3    695.9  -1645.9 -0.4228E+00 -0.7568E-01
2021  8 11  8 30  128.1189   25.6096   745.07  354.663    63.2   23.41  21.01    -8.00   300.64  301.22     9.2    738.9  -1828.4 -0.4041E+00 -0.1229E-01
2021  8 11  8 20  128.1151   25.5122   760.87  354.535    62.0   23.44  21.06    -7.96   300.66  301.24     9.1    760.0  -1855.4 -0.4096E+00 -0.1566E-01
2021  8 11  8 10  128.1116   25.4153   764.38  354.323    62.5   23.49  21.09    -8.01   300.69  301.28     9.1    761.4  -1819.4 -0.4185E+00  0.1165E-01
2021  8 11  8  0  128.1072   25.3180   777.60  354.330    63.0   23.56  21.13    -7.86   300.74  301.33     9.0    804.5  -1672.3 -0.4810E+00 -0.5575E-01
2021  8 11  7 50  128.1029   25.2203   794.55  354.130    64.3   23.63  21.18    -7.70   300.79  301.35     9.1    826.8  -1557.5 -0.5309E+00 -0.6297E-02
2021  8 11  7 40  128.1000   25.1220   785.09  354.043    65.2   23.69  21.23    -7.59   300.84  301.39     9.2    813.9  -1475.7 -0.5515E+00  0.1313E-02
2021  8 11  7 30  128.0974   25.0241   775.06  353.788    66.9   23.76  21.25    -7.48   300.88  301.42     9.2    789.5  -1357.4 -0.5817E+00  0.2776E-01
2021  8 11  7 20  128.0931   24.9253   751.23  353.900    72.9   23.82  21.22    -7.85   300.92  301.47     9.6    785.8  -1374.9 -0.5715E+00  0.2234E-01
2021  8 11  7 10  128.0881   24.8256   750.14  353.783    77.7   23.88  21.16    -8.24   300.95  301.52     9.7    790.0  -1350.2 -0.5851E+00 -0.1028E-02
2021  8 11  7  0  128.0830   24.7258   744.27  353.646    86.6   23.95  21.09    -8.74   301.00  301.58    10.1    781.7  -1361.1 -0.5743E+00 -0.2669E-01
2021  8 11  6 50  128.0790   24.6265   769.79  353.626    89.3   24.04  21.08    -8.52   301.06  301.63    10.0    824.7  -1185.1 -0.6959E+00 -0.1712E-01
2021  8 11  6 40  128.0759   24.5274   774.21  353.442    96.5   24.14  21.06    -8.58   301.13  301.68    10.3    820.7  -1144.7 -0.7169E+00 -0.7753E-02
2021  8 11  6 30  128.0734   24.4290   769.60  353.371   103.6   24.28  21.06    -8.13   301.23  301.74    10.5    817.1  -1023.8 -0.7981E+00 -0.1995E-01
2021  8 11  6 20  128.0710   24.3315   767.68  353.274   108.6   24.44  21.05    -7.22   301.34  301.80    10.3    841.5   -824.1 -0.1021E+01  0.3285E-01
2021  8 11  6 10  128.0682   24.2344   744.07  353.210   122.2   24.57  20.93    -7.05   301.43  301.86    10.6    831.1   -765.6 -0.1086E+01  0.4447E-01
2021  8 11  6  0  128.0651   24.1367   741.64  352.946   133.4   24.64  20.80    -7.35   301.47  301.92    10.9    833.7   -764.7 -0.1090E+01 -0.1402E-01
2021  8 11  5 50  128.0631   24.0386   747.72  352.559   148.5   24.70  20.66    -7.66   301.51  301.95    11.4    826.8   -802.5 -0.1030E+01 -0.2153E-01
2021  8 11  5 40  128.0616   23.9394   739.13  352.412   165.2   24.79  20.53    -7.51   301.57  301.99    11.9    809.0   -807.2 -0.1002E+01  0.2360E-01
2021  8 11  5 30  128.0600   23.8393   736.73  352.212   179.9   24.92  20.46    -6.54   301.66  302.01    12.3    786.8   -784.1 -0.1003E+01 -0.4589E-02
2021  8 11  5 20  128.0589   23.7388   735.69  352.178   187.1   25.02  20.43    -5.66   301.72  302.02    12.4    763.3   -741.1 -0.1030E+01  0.4066E-01
2021  8 11  5 10  128.0613   23.6390   759.40  351.976   190.2   25.05  20.38    -5.30   301.75  302.03    12.3    763.6   -709.3 -0.1077E+01 -0.8822E-01
2021  8 11  5  0  128.0646   23.5410   795.24  351.958   190.8   25.06  20.35    -5.12   301.75  302.03    12.2    796.6   -686.6 -0.1160E+01 -0.8700E-01
2021  8 11  4 50  128.0662   23.4433   839.81  351.609   189.9   25.07  20.36    -4.61   301.76  302.01    12.2    818.1   -665.5 -0.1229E+01 -0.1375E+00
2021  8 11  4 40  128.0675   23.3472   861.66  351.727   185.1   25.06  20.41    -4.55   301.76  302.00    12.0    848.7   -649.9 -0.1306E+01 -0.1175E-01
2021  8 11  4 30  128.0675   23.2513   890.95  351.583   173.0   25.07  20.46    -4.11   301.76  301.99    11.4    864.4   -568.6 -0.1520E+01 -0.6861E-01
2021  8 11  4 20  128.0628   23.1560   916.56  351.573   172.4   25.06  20.49    -4.36   301.75  302.00    11.5    881.4   -585.9 -0.1504E+01 -0.1127E+00
2021  8 11  4 10  128.0577   23.0596   941.88  351.340   172.9   25.06  20.49    -4.49   301.75  302.01    11.5    889.0   -593.1 -0.1499E+01  0.3285E-01
2021  8 11  4  0  128.0524   22.9623   919.82  350.929   176.1   25.07  20.46    -4.45   301.76  302.01    11.6    860.4   -602.6 -0.1428E+01  0.7939E-01
2021  8 11  3 50  128.0492   22.8636   905.47  350.635   182.3   25.08  20.45    -4.34   301.77  302.01    11.9    837.5   -636.5 -0.1316E+01 -0.4815E-01
2021  8 11  3 40  128.0485   22.7657   897.35  349.947   179.3   25.09  20.45    -4.29   301.78  302.02    11.7    799.2   -604.2 -0.1323E+01  0.4537E-01
2021  8 11  3 30  128.0494   22.6685   867.97  349.936   183.0   25.12  20.44    -3.99   301.80  302.02    11.9    769.0   -608.1 -0.1265E+01  0.6030E-01
2021  8 11  3 20  128.0505   22.5702   850.21  350.114   190.1   25.15  20.42    -3.77   301.82  302.02    12.1    761.2   -636.2 -0.1196E+01 -0.3148E-04
2021  8 11  3 10  128.0508   22.4731   869.73  349.954   184.2   25.17  20.41    -3.58   301.83  302.03    11.7    780.5   -567.1 -0.1376E+01 -0.6955E-02
2021  8 11  3  0  128.0517   22.3775   873.88  349.719   186.8   25.20  20.38    -3.43   301.85  302.04    11.7    776.0   -557.2 -0.1393E+01 -0.2877E-01
2021  8 11  2 50  128.0531   22.2824   868.71  349.606   195.5   25.23  20.34    -3.10   301.88  302.04    12.0    763.6   -577.5 -0.1322E+01  0.1308E-01
2021  8 11  2 40  128.0529   22.1863   871.84  349.468   201.8   25.28  20.31    -2.53   301.91  302.05    12.2    764.2   -578.5 -0.1321E+01 -0.1462E-02
2021  8 11  2 30  128.0514   22.0912   878.87  349.532   198.3   25.34  20.33    -2.02   301.95  302.06    11.9    772.4   -525.5 -0.1470E+01 -0.1449E-01
2021  8 11  2 20  128.0485   21.9966   874.76  349.412   206.8   25.42  20.32    -1.09   302.00  302.06    12.1    754.7   -532.4 -0.1418E+01  0.2784E-01
2021  8 11  2 10  128.0460   21.9010   872.37  349.239   217.1   25.52  20.31     0.18   302.06  302.05    12.4    741.6   -534.0 -0.1389E+01  0.1206E-03
2021  8 11  2  0  128.0434   21.8048   856.56  349.225   226.8   25.63  20.29     1.34   302.13  302.06    12.6    726.4   -528.4 -0.1375E+01  0.8051E-01
2021  8 11  1 50  128.0418   21.7058   827.32  349.170   250.8   25.72  20.24     2.73   302.19  302.06    13.5    701.7   -603.2 -0.1163E+01  0.1022E-01
2021  8 11  1 40  128.0397   21.6069   832.90  349.065   250.4   25.77  20.19     2.95   302.22  302.08    13.2    709.9   -558.8 -0.1271E+01 -0.2836E-01
2021  8 11  1 30  128.0380   21.5109   854.98  348.744   250.0   25.84  20.18     3.59   302.27  302.09    13.0    721.2   -515.8 -0.1398E+01 -0.8468E-01
2021  8 11  1 20  128.0356   21.4191   907.67  348.481   236.1   25.96  20.19     4.30   302.35  302.12    12.1    765.2   -402.8 -0.1900E+01 -0.5046E-01
2021  8 11  1 10  128.0319   21.3299   928.48  348.333   240.3   26.11  20.17     5.81   302.45  302.14    11.9    784.9   -366.1 -0.2144E+01 -0.2341E-01
2021  8 11  1  0  128.0278   21.2410   938.27  348.262   245.5   26.23  20.16     7.43   302.53  302.12    11.9    791.0   -343.8 -0.2301E+01  0.1223E-01
2021  8 11  0 50  128.0253   21.1520   919.83  348.072   254.6   26.29  20.13     8.88   302.57  302.09    12.1    766.8   -346.8 -0.2211E+01  0.2369E-01
2021  8 11  0 40  128.0237   21.0624   909.49  347.988   265.2   26.33  20.08    10.24   302.59  302.06    12.4    753.3   -358.1 -0.2104E+01  0.2360E-01
2021  8 11  0 30  128.0226   20.9725   904.33  347.695   270.6   26.36  20.03    11.24   302.61  302.03    12.5    731.1   -356.0 -0.2054E+01 -0.7310E-02
2021  8 11  0 20  128.0215   20.8840   922.08  347.432   268.7   26.36  20.00    11.65   302.61  302.00    12.3    736.1   -337.1 -0.2184E+01 -0.4235E-01
2021  8 11  0 10  128.0204   20.7966   947.43  347.086   267.8   26.37  19.98    12.33   302.62  301.96    12.2    745.1   -326.1 -0.2284E+01 -0.5111E-01
2021  8 11  0  0  128.0202   20.7101   959.45  346.994   267.4   26.38  19.97    13.20   302.63  301.93    12.1    749.2   -313.3 -0.2392E+01  0.1578E-01
