/work03/am/2022.06.ECS.OBS/26.16.LFM.NCL.pt3/15.12.ECAPE/20.10.MAKE.VPROF/OUT_NCL.LFM.VPR
Thu, 16 Feb 2023 18:36:50 +0900
/work03/am/2022.06.ECS.OBS/26.16.LFM.NCL.pt3/15.12.ECAPE/20.10.MAKE.VPROF/OUT_NCL.LFM.VPR
Thu, 16 Feb 2023 18:38:02 +0900
/work03/am/2022.06.ECS.OBS/26.16.LFM.NCL.pt3/15.12.ECAPE/20.10.MAKE.VPROF/OUT_NCL.LFM.VPR
Thu, 16 Feb 2023 18:47:37 +0900
/work03/am/2022.06.ECS.OBS/26.16.LFM.NCL.pt3/15.12.ECAPE/20.10.MAKE.VPROF/OUT_NCL.LFM.VPR
Thu, 16 Feb 2023 18:48:21 +0900
/work03/am/2022.06.ECS.OBS/26.16.LFM.NCL.pt3/15.12.ECAPE/20.10.MAKE.VPROF/OUT_NCL.LFM.VPR
Thu, 16 Feb 2023 18:48:34 +0900
/work03/am/2022.06.ECS.OBS/26.16.LFM.NCL.pt3/15.12.ECAPE/20.10.MAKE.VPROF/OUT_NCL.LFM.VPR
Thu, 16 Feb 2023 18:49:30 +0900
/work03/am/2022.06.ECS.OBS/26.16.LFM.NCL.pt3/15.12.ECAPE/20.10.MAKE.VPROF/OUT_NCL.LFM.VPR
Thu, 16 Feb 2023 18:50:33 +0900
/work03/am/2022.06.ECS.OBS/26.16.LFM.NCL.pt3/15.12.ECAPE/20.10.MAKE.VPROF/OUT_NCL.LFM.VPR
Thu, 16 Feb 2023 18:51:47 +0900
/work03/am/2022.06.ECS.OBS/26.16.LFM.NCL.pt3/15.12.ECAPE/20.10.MAKE.VPROF/OUT_NCL.LFM.VPR
Thu, 16 Feb 2023 18:52:40 +0900
/work03/am/2022.06.ECS.OBS/26.16.LFM.NCL.pt3/15.12.ECAPE/20.10.MAKE.VPROF/OUT_NCL.LFM.VPR
Thu, 16 Feb 2023 18:53:03 +0900
/work03/am/2022.06.ECS.OBS/26.16.LFM.NCL.pt3/15.12.ECAPE/20.10.MAKE.VPROF/OUT_NCL.LFM.VPR
Thu, 16 Feb 2023 18:58:14 +0900
/work03/am/2022.06.ECS.OBS/26.16.LFM.NCL.pt3/15.12.ECAPE/20.10.MAKE.VPROF/OUT_NCL.LFM.VPR
Thu, 16 Feb 2023 18:58:24 +0900
