%!PS-Adobe-3.0 EPSF-3.0
%%Creator: cairo 1.12.16 (http://cairographics.org)
%%CreationDate: Sat Jan 23 14:33:53 2021
%%Pages: 1
%%DocumentData: Clean7Bit
%%LanguageLevel: 2
%%BoundingBox: 0 0 612 792
%%EndComments
%%BeginProlog
save
50 dict begin
/q { gsave } bind def
/Q { grestore } bind def
/cm { 6 array astore concat } bind def
/w { setlinewidth } bind def
/J { setlinecap } bind def
/j { setlinejoin } bind def
/M { setmiterlimit } bind def
/d { setdash } bind def
/m { moveto } bind def
/l { lineto } bind def
/c { curveto } bind def
/h { closepath } bind def
/re { exch dup neg 3 1 roll 5 3 roll moveto 0 rlineto
      0 exch rlineto 0 rlineto closepath } bind def
/S { stroke } bind def
/f { fill } bind def
/f* { eofill } bind def
/n { newpath } bind def
/W { clip } bind def
/W* { eoclip } bind def
/BT { } bind def
/ET { } bind def
/pdfmark where { pop globaldict /?pdfmark /exec load put }
    { globaldict begin /?pdfmark /pop load def /pdfmark
    /cleartomark load def end } ifelse
/BDC { mark 3 1 roll /BDC pdfmark } bind def
/EMC { mark /EMC pdfmark } bind def
/cairo_store_point { /cairo_point_y exch def /cairo_point_x exch def } def
/Tj { show currentpoint cairo_store_point } bind def
/TJ {
  {
    dup
    type /stringtype eq
    { show } { -0.001 mul 0 cairo_font_matrix dtransform rmoveto } ifelse
  } forall
  currentpoint cairo_store_point
} bind def
/cairo_selectfont { cairo_font_matrix aload pop pop pop 0 0 6 array astore
    cairo_font exch selectfont cairo_point_x cairo_point_y moveto } bind def
/Tf { pop /cairo_font exch def /cairo_font_matrix where
      { pop cairo_selectfont } if } bind def
/Td { matrix translate cairo_font_matrix matrix concatmatrix dup
      /cairo_font_matrix exch def dup 4 get exch 5 get cairo_store_point
      /cairo_font where { pop cairo_selectfont } if } bind def
/Tm { 2 copy 8 2 roll 6 array astore /cairo_font_matrix exch def
      cairo_store_point /cairo_font where { pop cairo_selectfont } if } bind def
/g { setgray } bind def
/rg { setrgbcolor } bind def
/d1 { setcachedevice } bind def
%%EndProlog
%%Page: 1 1
%%BeginPageSetup
%%PageBoundingBox: 0 0 612 792
%%EndPageSetup
q 0 0 612 792 rectclip q
1 g
0 0 612 792 rectfill
0 g
1.5 w
1 J
1 j
[] 0.0 d
10 M 80.602 640.84 416.117 -419.727 re S
1 w
80.602 312.062 m 83.492 304.945 l 86.383 298.082 l 89.273 292.109 l 92.16
 287.387 l 95.051 283.883 l 97.941 281.324 l 100.832 279.344 l 103.719 277.633
 l 106.609 276.047 l 109.5 274.566 l 112.391 273.297 l 115.281 272.344 l
 118.168 271.668 l 121.059 271.121 l 123.949 270.625 l 126.84 270.305 l 
129.727 270.434 l 132.617 271.234 l 135.508 272.613 l 138.398 274.102 l 
141.285 275.137 l 144.176 275.516 l 147.066 275.52 l 149.957 275.465 l 152.844
 275.332 l 155.734 274.766 l 158.625 273.422 l 161.516 271.328 l 164.406
 268.922 l 167.293 266.805 l 170.184 265.453 l 173.074 265.094 l 175.965
 265.66 l 178.852 266.828 l 181.742 268.172 l 184.633 269.375 l 187.523 
270.273 l 190.41 270.785 l 193.301 270.688 l 196.191 269.645 l 199.082 267.742
 l 201.969 265.727 l 204.859 264.352 l 207.75 263.855 l 210.641 264.094 
l 213.531 264.898 l 216.418 266.207 l 219.309 268.105 l 222.199 270.648 
l 225.09 273.762 l 227.977 277.109 l 230.867 280.223 l 233.758 282.797 l
 236.648 285.008 l 239.535 287.43 l 242.426 290.559 l 245.316 294.367 l 
248.207 298.129 l 251.094 300.938 l 253.984 302.539 l 256.875 303.43 l 259.766
 304.156 l 262.656 304.727 l 265.543 304.898 l 268.434 304.648 l 271.324
 304.277 l 274.215 304.188 l 277.102 304.477 l 279.992 304.887 l 282.883
 304.98 l 285.773 304.648 l 288.66 304.227 l 291.551 304.074 l 294.441 304.148
 l 297.332 304.105 l 300.219 303.676 l 303.109 303.023 l 306 302.375 l 308.891
 301.91 l 311.781 301.73 l 314.668 301.836 l 317.559 302.207 l 320.449 302.711
 l 323.34 303.273 l 326.227 304.121 l 329.117 305.684 l 332.008 308.184 
l 334.898 311.16 l 337.785 313.254 l 340.676 312.898 l 343.566 309.699 l
 346.457 304.867 l 349.344 299.734 l 352.234 294.914 l 355.125 290.465 l
 358.016 286.363 l 360.906 282.906 l 363.793 280.297 l 366.684 278.465 l
 369.574 277.195 l 372.465 276.441 l 375.352 276.398 l 378.242 277.297 l
 381.133 279.074 l 384.023 281.379 l 386.91 283.773 l 389.801 286.016 l 
392.691 288.148 l 395.582 290.332 l 398.469 292.707 l 401.359 295.363 l 
404.25 298.344 l 407.141 301.543 l 410.031 304.754 l 412.918 307.746 l 415.809
 310.527 l 418.699 313.484 l 421.59 317.32 l 424.477 322.965 l 427.367 331.191
 l 430.258 342.191 l 433.148 355.414 l 436.035 370.621 l 438.926 389.441
 l 441.816 416.027 l 444.707 459.004 l 447.594 530.707 l 450.484 612.309
 l 453.375 543.598 l 456.266 457.234 l 459.156 412.75 l 462.043 390.992 
l 464.934 381.746 l 467.824 378.523 l 470.715 374.746 l 473.602 365.531 
l 476.492 353.73 l 479.383 344.137 l 482.273 338.113 l 485.16 334.168 l 
488.051 330.133 l 490.941 325.059 l 493.832 307.398 l 496.719 312.062 l S
80.602 221.113 m 80.602 216.078 l S
80.129 211.863 m 78.699 211.293 l 77.75 209.574 l 77.273 206.715 l 77.273
 204.996 l 77.75 202.133 l 78.699 200.418 l 80.129 199.844 l 81.078 199.844
 l 82.504 200.418 l 83.457 202.133 l 83.934 204.996 l 83.934 206.715 l 83.457
 209.574 l 82.504 211.293 l 81.078 211.863 l 80.129 211.863 l S
149.957 221.113 m 149.957 216.078 l S
143.07 210.148 m 142.598 211.293 l 141.168 211.863 l 140.219 211.863 l 
138.793 211.293 l 137.84 209.574 l 137.367 206.715 l 137.367 203.852 l 137.84
 201.562 l 138.793 200.418 l 140.219 199.844 l 140.695 199.844 l 142.121
 200.418 l 143.07 201.562 l 143.547 203.277 l 143.547 203.852 l 143.07 205.57
 l 142.121 206.715 l 140.695 207.285 l 140.219 207.285 l 138.793 206.715
 l 137.84 205.57 l 137.367 203.852 l S
149.73 211.863 m 148.305 211.293 l 147.352 209.574 l 146.875 206.715 l 
146.875 204.996 l 147.352 202.133 l 148.305 200.418 l 149.73 199.844 l 150.68
 199.844 l 152.109 200.418 l 153.059 202.133 l 153.535 204.996 l 153.535
 206.715 l 153.059 209.574 l 152.109 211.293 l 150.68 211.863 l 149.73 211.863
 l S
157.09 211.863 m 157.09 199.844 l S
157.09 211.863 m 163.273 211.863 l S
157.09 206.141 m 160.895 206.141 l S
157.09 199.844 m 163.273 199.844 l S
219.309 221.113 m 219.309 216.078 l S
202.676 209.574 m 203.629 210.148 l 205.055 211.863 l 205.055 199.844 l
 S
211.711 209.004 m 211.711 209.574 l 212.188 210.719 l 212.664 211.293 l
 213.613 211.863 l 215.516 211.863 l 216.469 211.293 l 216.941 210.719 l
 217.418 209.574 l 217.418 208.43 l 216.941 207.285 l 215.992 205.57 l 211.234
 199.844 l 217.895 199.844 l S
224.078 211.863 m 222.648 211.293 l 221.699 209.574 l 221.223 206.715 l
 221.223 204.996 l 221.699 202.133 l 222.648 200.418 l 224.078 199.844 l
 225.027 199.844 l 226.453 200.418 l 227.406 202.133 l 227.879 204.996 l
 227.879 206.715 l 227.406 209.574 l 226.453 211.293 l 225.027 211.863 l
 224.078 211.863 l S
231.438 211.863 m 231.438 199.844 l S
231.438 211.863 m 237.617 211.863 l S
231.438 206.141 m 235.238 206.141 l S
231.438 199.844 m 237.617 199.844 l S
288.66 221.113 m 288.66 216.078 l S
276.773 209.574 m 277.723 210.148 l 279.152 211.863 l 279.152 199.844 l
 S
287.711 211.863 m 286.285 211.293 l 285.809 210.148 l 285.809 209.004 l
 286.285 207.859 l 287.234 207.285 l 289.137 206.715 l 290.562 206.141 l
 291.516 204.996 l 291.992 203.852 l 291.992 202.133 l 291.516 200.988 l
 291.039 200.418 l 289.613 199.844 l 287.711 199.844 l 286.285 200.418 l
 285.809 200.988 l 285.332 202.133 l 285.332 203.852 l 285.809 204.996 l
 286.758 206.141 l 288.188 206.715 l 290.09 207.285 l 291.039 207.859 l 
291.516 209.004 l 291.516 210.148 l 291.039 211.293 l 289.613 211.863 l 
287.711 211.863 l S
298.172 211.863 m 296.746 211.293 l 295.797 209.574 l 295.32 206.715 l 
295.32 204.996 l 295.797 202.133 l 296.746 200.418 l 298.172 199.844 l 299.125
 199.844 l 300.551 200.418 l 301.504 202.133 l 301.977 204.996 l 301.977
 206.715 l 301.504 209.574 l 300.551 211.293 l 299.125 211.863 l 298.172
 211.863 l S
358.016 221.113 m 358.016 216.078 l S
340.133 209.574 m 341.086 210.148 l 342.512 211.863 l 342.512 199.844 l
 S
349.168 209.004 m 349.168 209.574 l 349.645 210.719 l 350.121 211.293 l
 351.07 211.863 l 352.973 211.863 l 353.926 211.293 l 354.402 210.719 l 
354.875 209.574 l 354.875 208.43 l 354.402 207.285 l 353.449 205.57 l 348.695
 199.844 l 355.352 199.844 l S
361.535 211.863 m 360.105 211.293 l 359.156 209.574 l 358.68 206.715 l 
358.68 204.996 l 359.156 202.133 l 360.105 200.418 l 361.535 199.844 l 362.484
 199.844 l 363.91 200.418 l 364.863 202.133 l 365.34 204.996 l 365.34 206.715
 l 364.863 209.574 l 363.91 211.293 l 362.484 211.863 l 361.535 211.863 
l S
368.238 211.863 m 370.617 199.844 l S
372.996 211.863 m 370.617 199.844 l S
372.996 211.863 m 375.371 199.844 l S
377.75 211.863 m 375.371 199.844 l S
427.367 221.113 m 427.367 216.078 l S
419.234 210.148 m 418.762 211.293 l 417.332 211.863 l 416.383 211.863 l
 414.957 211.293 l 414.004 209.574 l 413.527 206.715 l 413.527 203.852 l
 414.004 201.562 l 414.957 200.418 l 416.383 199.844 l 416.859 199.844 l
 418.285 200.418 l 419.234 201.562 l 419.711 203.277 l 419.711 203.852 l
 419.234 205.57 l 418.285 206.715 l 416.859 207.285 l 416.383 207.285 l 
414.957 206.715 l 414.004 205.57 l 413.527 203.852 l S
425.895 211.863 m 424.465 211.293 l 423.516 209.574 l 423.039 206.715 l
 423.039 204.996 l 423.516 202.133 l 424.465 200.418 l 425.895 199.844 l
 426.844 199.844 l 428.27 200.418 l 429.223 202.133 l 429.699 204.996 l 
429.699 206.715 l 429.223 209.574 l 428.27 211.293 l 426.844 211.863 l 425.895
 211.863 l S
432.598 211.863 m 434.977 199.844 l S
437.355 211.863 m 434.977 199.844 l S
437.355 211.863 m 439.73 199.844 l S
442.109 211.863 m 439.73 199.844 l S
496.719 221.113 m 496.719 216.078 l S
496.246 211.863 m 494.816 211.293 l 493.867 209.574 l 493.391 206.715 l
 493.391 204.996 l 493.867 202.133 l 494.816 200.418 l 496.246 199.844 l
 497.195 199.844 l 498.621 200.418 l 499.574 202.133 l 500.051 204.996 l
 500.051 206.715 l 499.574 209.574 l 498.621 211.293 l 497.195 211.863 l
 496.246 211.863 l S
80.602 245.805 m 75.609 245.805 l S
67.051 251.664 m 62.293 243.652 l 69.426 243.652 l S
67.051 251.664 m 67.051 239.645 l S
80.602 295.184 m 75.609 295.184 l S
68.477 299.328 m 68 300.473 l 66.574 301.043 l 65.621 301.043 l 64.195 
300.473 l 63.246 298.754 l 62.77 295.895 l 62.77 293.031 l 63.246 290.742
 l 64.195 289.598 l 65.621 289.023 l 66.098 289.023 l 67.523 289.598 l 68.477
 290.742 l 68.953 292.457 l 68.953 293.031 l 68.477 294.75 l 67.523 295.895
 l 66.098 296.465 l 65.621 296.465 l 64.195 295.895 l 63.246 294.75 l 62.77
 293.031 l S
80.602 344.562 m 75.609 344.562 l S
64.672 350.422 m 63.246 349.852 l 62.77 348.707 l 62.77 347.562 l 63.246
 346.418 l 64.195 345.844 l 66.098 345.273 l 67.523 344.699 l 68.477 343.555
 l 68.953 342.41 l 68.953 340.695 l 68.477 339.551 l 68 338.977 l 66.574
 338.402 l 64.672 338.402 l 63.246 338.977 l 62.77 339.551 l 62.293 340.695
 l 62.293 342.41 l 62.77 343.555 l 63.719 344.699 l 65.148 345.273 l 67.051
 345.844 l 68 346.418 l 68.477 347.562 l 68.477 348.707 l 68 349.852 l 66.574
 350.422 l 64.672 350.422 l S
80.602 393.941 m 75.609 393.941 l S
53.734 397.516 m 54.684 398.086 l 56.113 399.805 l 56.113 387.785 l S
65.148 399.805 m 63.719 399.23 l 62.77 397.516 l 62.293 394.652 l 62.293
 392.934 l 62.77 390.074 l 63.719 388.355 l 65.148 387.785 l 66.098 387.785
 l 67.523 388.355 l 68.477 390.074 l 68.953 392.934 l 68.953 394.652 l 68.477
 397.516 l 67.523 399.23 l 66.098 399.805 l 65.148 399.805 l S
80.602 443.32 m 75.609 443.32 l S
53.734 446.895 m 54.684 447.465 l 56.113 449.184 l 56.113 437.164 l S
62.77 446.32 m 62.77 446.895 l 63.246 448.039 l 63.719 448.609 l 64.672
 449.184 l 66.574 449.184 l 67.523 448.609 l 68 448.039 l 68.477 446.895
 l 68.477 445.75 l 68 444.605 l 67.051 442.887 l 62.293 437.164 l 68.953
 437.164 l S
80.602 492.703 m 75.609 492.703 l S
53.734 496.273 m 54.684 496.848 l 56.113 498.562 l 56.113 486.543 l S
67.051 498.562 m 62.293 490.551 l 69.426 490.551 l S
67.051 498.562 m 67.051 486.543 l S
80.602 542.082 m 75.609 542.082 l S
53.734 545.652 m 54.684 546.227 l 56.113 547.941 l 56.113 535.922 l S
68.477 546.227 m 68 547.371 l 66.574 547.941 l 65.621 547.941 l 64.195 
547.371 l 63.246 545.652 l 62.77 542.793 l 62.77 539.93 l 63.246 537.641
 l 64.195 536.496 l 65.621 535.922 l 66.098 535.922 l 67.523 536.496 l 68.477
 537.641 l 68.953 539.355 l 68.953 539.93 l 68.477 541.648 l 67.523 542.793
 l 66.098 543.363 l 65.621 543.363 l 64.195 542.793 l 63.246 541.648 l 62.77
 539.93 l S
80.602 591.461 m 75.609 591.461 l S
53.734 595.031 m 54.684 595.605 l 56.113 597.32 l 56.113 585.301 l S
64.672 597.32 m 63.246 596.75 l 62.77 595.605 l 62.77 594.461 l 63.246 
593.316 l 64.195 592.742 l 66.098 592.172 l 67.523 591.598 l 68.477 590.453
 l 68.953 589.309 l 68.953 587.594 l 68.477 586.449 l 68 585.875 l 66.574
 585.301 l 64.672 585.301 l 63.246 585.875 l 62.77 586.449 l 62.293 587.594
 l 62.293 589.309 l 62.77 590.453 l 63.719 591.598 l 65.148 592.172 l 67.051
 592.742 l 68 593.316 l 68.477 594.461 l 68.477 595.605 l 68 596.75 l 66.574
 597.32 l 64.672 597.32 l S
80.602 640.84 m 75.609 640.84 l S
52.781 643.84 m 52.781 644.414 l 53.258 645.559 l 53.734 646.129 l 54.684
 646.703 l 56.586 646.703 l 57.539 646.129 l 58.016 645.559 l 58.488 644.414
 l 58.488 643.27 l 58.016 642.121 l 57.062 640.406 l 52.309 634.684 l 58.965
 634.684 l S
65.148 646.703 m 63.719 646.129 l 62.77 644.414 l 62.293 641.551 l 62.293
 639.832 l 62.77 636.973 l 63.719 635.254 l 65.148 634.684 l 66.098 634.684
 l 67.523 635.254 l 68.477 636.973 l 68.953 639.832 l 68.953 641.551 l 68.477
 644.414 l 67.523 646.129 l 66.098 646.703 l 65.148 646.703 l S
1.25 w
20.371 19.91 m 20.074 20.547 l 19.48 21.184 l 18.887 21.5 l 17.699 21.5
 l 17.102 21.184 l 16.508 20.547 l 16.211 19.91 l 15.914 18.957 l 15.914
 17.367 l 16.211 16.414 l 16.508 15.777 l 17.102 15.141 l 17.699 14.824 
l 18.887 14.824 l 19.48 15.141 l 20.074 15.777 l 20.371 16.414 l 20.371 
17.367 l S
18.887 17.367 m 20.371 17.367 l S
22.41 19.277 m 22.41 14.824 l S
22.41 17.367 m 22.707 18.32 l 23.301 18.957 l 23.895 19.277 l 24.785 19.277
 l S
28.137 21.5 m 25.758 14.824 l S
28.137 21.5 m 30.516 14.824 l S
26.652 17.051 m 29.625 17.051 l S
32.141 21.5 m 32.141 14.824 l S
32.141 21.5 m 34.223 21.5 l 35.113 21.184 l 35.711 20.547 l 36.008 19.91
 l 36.305 18.957 l 36.305 17.367 l 36.008 16.414 l 35.711 15.777 l 35.113
 15.141 l 34.223 14.824 l 32.141 14.824 l S
42.703 20.547 m 42.105 21.184 l 41.215 21.5 l 40.027 21.5 l 39.137 21.184
 l 38.539 20.547 l 38.539 19.91 l 38.836 19.277 l 39.137 18.957 l 39.73 
18.641 l 41.512 18.004 l 42.105 17.688 l 42.406 17.367 l 42.703 16.73 l 
42.703 15.777 l 42.105 15.141 l 41.215 14.824 l 40.027 14.824 l 39.137 15.141
 l 38.539 15.777 l S
49.852 22.773 m 44.5 12.598 l S
56.262 19.91 m 55.965 20.547 l 55.371 21.184 l 54.777 21.5 l 53.586 21.5
 l 52.992 21.184 l 52.398 20.547 l 52.102 19.91 l 51.805 18.957 l 51.805
 17.367 l 52.102 16.414 l 52.398 15.777 l 52.992 15.141 l 53.586 14.824 
l 54.777 14.824 l 55.371 15.141 l 55.965 15.777 l 56.262 16.414 l S
60 21.5 m 59.406 21.184 l 58.812 20.547 l 58.516 19.91 l 58.219 18.957 
l 58.219 17.367 l 58.516 16.414 l 58.812 15.777 l 59.406 15.141 l 60 14.824
 l 61.188 14.824 l 61.785 15.141 l 62.379 15.777 l 62.676 16.414 l 62.973
 17.367 l 62.973 18.957 l 62.676 19.91 l 62.379 20.547 l 61.785 21.184 l
 61.188 21.5 l 60 21.5 l S
64.898 21.5 m 64.898 14.824 l S
64.898 14.824 m 68.465 14.824 l S
72.141 21.5 m 69.766 14.824 l S
72.141 21.5 m 74.52 14.824 l S
70.656 17.051 m 73.629 17.051 l S
484.188 19.91 m 484.188 20.23 l 484.484 20.867 l 484.781 21.184 l 485.375
 21.5 l 486.566 21.5 l 487.16 21.184 l 487.457 20.867 l 487.754 20.23 l 
487.754 19.594 l 487.457 18.957 l 486.863 18.004 l 483.891 14.824 l 488.051
 14.824 l S
491.914 21.5 m 491.023 21.184 l 490.43 20.23 l 490.133 18.641 l 490.133
 17.688 l 490.43 16.098 l 491.023 15.141 l 491.914 14.824 l 492.512 14.824
 l 493.402 15.141 l 493.996 16.098 l 494.293 17.688 l 494.293 18.641 l 493.996
 20.23 l 493.402 21.184 l 492.512 21.5 l 491.914 21.5 l S
496.672 19.91 m 496.672 20.23 l 496.969 20.867 l 497.266 21.184 l 497.859
 21.5 l 499.051 21.5 l 499.645 21.184 l 499.941 20.867 l 500.238 20.23 l
 500.238 19.594 l 499.941 18.957 l 499.348 18.004 l 496.375 14.824 l 500.535
 14.824 l S
503.508 20.23 m 504.102 20.547 l 504.992 21.5 l 504.992 14.824 l S
509.199 17.688 m 514.551 17.688 l S
518.754 21.5 m 517.863 21.184 l 517.27 20.23 l 516.973 18.641 l 516.973
 17.688 l 517.27 16.098 l 517.863 15.141 l 518.754 14.824 l 519.348 14.824
 l 520.242 15.141 l 520.836 16.098 l 521.133 17.688 l 521.133 18.641 l 520.836
 20.23 l 520.242 21.184 l 519.348 21.5 l 518.754 21.5 l S
524.105 20.23 m 524.699 20.547 l 525.59 21.5 l 525.59 14.824 l S
529.797 17.688 m 535.148 17.688 l S
537.867 19.91 m 537.867 20.23 l 538.164 20.867 l 538.461 21.184 l 539.055
 21.5 l 540.246 21.5 l 540.84 21.184 l 541.137 20.867 l 541.434 20.23 l 
541.434 19.594 l 541.137 18.957 l 540.543 18.004 l 537.57 14.824 l 541.73
 14.824 l S
544.406 21.5 m 547.676 21.5 l 545.891 18.957 l 546.785 18.957 l 547.379
 18.641 l 547.676 18.32 l 547.973 17.367 l 547.973 16.73 l 547.676 15.777
 l 547.082 15.141 l 546.188 14.824 l 545.297 14.824 l 544.406 15.141 l 544.109
 15.461 l 543.812 16.098 l S
550.395 17.688 m 555.746 17.688 l S
559.059 20.23 m 559.652 20.547 l 560.547 21.5 l 560.547 14.824 l S
567.383 21.5 m 564.41 17.051 l 568.867 17.051 l S
567.383 21.5 m 567.383 14.824 l S
571.172 19.277 m 570.875 18.957 l 571.172 18.641 l 571.469 18.957 l 571.172
 19.277 l S
571.172 15.461 m 570.875 15.141 l 571.172 14.824 l 571.469 15.141 l 571.172
 15.461 l S
574.367 21.5 m 577.637 21.5 l 575.852 18.957 l 576.742 18.957 l 577.34 
18.641 l 577.637 18.32 l 577.934 17.367 l 577.934 16.73 l 577.637 15.777
 l 577.043 15.141 l 576.148 14.824 l 575.258 14.824 l 574.367 15.141 l 574.07
 15.461 l 573.773 16.098 l S
580.609 21.5 m 583.879 21.5 l 582.094 18.957 l 582.984 18.957 l 583.582
 18.641 l 583.879 18.32 l 584.176 17.367 l 584.176 16.73 l 583.879 15.777
 l 583.281 15.141 l 582.391 14.824 l 581.5 14.824 l 580.609 15.141 l 580.312
 15.461 l 580.012 16.098 l S
1 w
411.145 197.785 m 411.145 179.469 l S
411.145 197.785 m 414.613 197.785 l S
411.145 179.469 m 414.613 179.469 l S
419.492 193.207 m 420.48 193.777 l 421.969 195.496 l 421.969 183.477 l S
431.379 195.496 m 429.895 194.922 l 428.902 193.207 l 428.406 190.344 l
 428.406 188.625 l 428.902 185.766 l 429.895 184.047 l 431.379 183.477 l
 432.371 183.477 l 433.855 184.047 l 434.848 185.766 l 435.344 188.625 l
 435.344 190.344 l 434.848 193.207 l 433.855 194.922 l 432.371 195.496 l
 431.379 195.496 l S
438.305 196.113 m 440.754 196.113 l 439.418 194.051 l 440.086 194.051 l
 440.531 193.793 l 440.754 193.535 l 440.977 192.766 l 440.977 192.25 l 
440.754 191.477 l 440.309 190.961 l 439.641 190.703 l 438.973 190.703 l 
438.305 190.961 l 438.082 191.219 l 437.855 191.734 l S
443.703 195.496 m 443.703 183.477 l S
448.656 191.488 m 443.703 185.766 l S
445.684 188.055 m 449.152 183.477 l S
452.953 191.488 m 452.953 183.477 l S
452.953 189.199 m 454.441 190.918 l 455.43 191.488 l 456.918 191.488 l 
457.906 190.918 l 458.402 189.199 l 458.402 183.477 l S
458.402 189.199 m 459.891 190.918 l 460.879 191.488 l 462.367 191.488 l
 463.355 190.918 l 463.852 189.199 l 463.852 183.477 l S
471.332 197.785 m 471.332 179.469 l S
467.863 197.785 m 471.332 197.785 l S
467.863 179.469 m 471.332 179.469 l S
181.684 661.344 m 181.684 647.988 l S
181.684 661.344 m 185.152 661.344 l 186.637 660.707 l 187.629 659.438 l
 188.125 658.164 l 188.621 656.258 l 188.621 653.078 l 188.125 651.168 l
 187.629 649.898 l 186.637 648.625 l 185.152 647.988 l 181.684 647.988 l
 S
196.758 661.344 m 196.758 651.168 l 196.262 649.262 l 195.766 648.625 l
 194.773 647.988 l 193.785 647.988 l 192.793 648.625 l 192.297 649.262 l
 191.805 651.168 l 191.805 652.441 l S
200.645 661.344 m 200.645 647.988 l S
200.645 661.344 m 207.086 661.344 l S
200.645 654.984 m 204.609 654.984 l S
227.086 658.164 m 226.59 659.438 l 225.602 660.707 l 224.609 661.344 l 
222.629 661.344 l 221.637 660.707 l 220.645 659.438 l 220.152 658.164 l 
219.656 656.258 l 219.656 653.078 l 220.152 651.168 l 220.645 649.898 l 
221.637 648.625 l 222.629 647.988 l 224.609 647.988 l 225.602 648.625 l 
226.59 649.898 l 227.086 651.168 l S
230.035 661.344 m 230.035 647.988 l S
230.035 647.988 m 235.977 647.988 l S
239.422 661.344 m 239.422 647.988 l S
239.422 661.344 m 243.879 661.344 l 245.367 660.707 l 245.859 660.07 l 
246.355 658.801 l 246.355 657.527 l 245.859 656.258 l 245.367 655.621 l 
243.879 654.984 l 239.422 654.984 l S
242.891 654.984 m 246.355 647.988 l S
250.652 655.621 m 259.57 655.621 l S
250.652 651.805 m 259.57 651.805 l S
263.324 661.344 m 263.324 647.988 l S
263.324 647.988 m 269.27 647.988 l S
275.398 661.344 m 271.434 647.988 l S
275.398 661.344 m 279.359 647.988 l S
272.922 652.441 m 277.875 652.441 l S
282.359 661.344 m 282.359 647.988 l S
282.359 661.344 m 286.32 647.988 l S
290.285 661.344 m 286.32 647.988 l S
290.285 661.344 m 290.285 647.988 l S
294.559 661.344 m 294.559 647.988 l S
294.559 661.344 m 299.016 661.344 l 300.5 660.707 l 300.996 660.07 l 301.492
 658.801 l 301.492 657.527 l 300.996 656.258 l 300.5 655.621 l 299.016 654.984
 l S
294.559 654.984 m 299.016 654.984 l 300.5 654.348 l 300.996 653.711 l 301.492
 652.441 l 301.492 650.531 l 300.996 649.262 l 300.5 648.625 l 299.016 647.988
 l 294.559 647.988 l S
305.48 661.344 m 305.48 647.988 l S
305.48 661.344 m 308.949 661.344 l 310.434 660.707 l 311.426 659.438 l 
311.918 658.164 l 312.414 656.258 l 312.414 653.078 l 311.918 651.168 l 
311.426 649.898 l 310.434 648.625 l 308.949 647.988 l 305.48 647.988 l S
319.09 661.344 m 315.129 647.988 l S
319.09 661.344 m 323.055 647.988 l S
316.613 652.441 m 321.566 652.441 l S
335.289 663.887 m 335.289 643.539 l S
335.289 663.887 m 338.758 663.887 l S
335.289 643.539 m 338.758 643.539 l S
343.637 658.801 m 344.629 659.438 l 346.113 661.344 l 346.113 647.988 l
 S
355.527 661.344 m 354.039 660.707 l 353.047 658.801 l 352.555 655.621 l
 352.555 653.711 l 353.047 650.531 l 354.039 648.625 l 355.527 647.988 l
 356.516 647.988 l 358.004 648.625 l 358.992 650.531 l 359.488 653.711 l
 359.488 655.621 l 358.992 658.801 l 358.004 660.707 l 356.516 661.344 l
 355.527 661.344 l S
362.449 662.031 m 364.902 662.031 l 363.562 659.738 l 364.23 659.738 l 
364.676 659.453 l 364.902 659.168 l 365.125 658.309 l 365.125 657.738 l 
364.902 656.879 l 364.453 656.305 l 363.785 656.02 l 363.117 656.02 l 362.449
 656.305 l 362.227 656.594 l 362.004 657.164 l S
367.848 661.344 m 367.848 647.988 l S
372.801 656.891 m 367.848 650.531 l S
369.828 653.078 m 373.297 647.988 l S
377.098 656.891 m 377.098 647.988 l S
377.098 654.348 m 378.586 656.258 l 379.574 656.891 l 381.062 656.891 l
 382.055 656.258 l 382.547 654.348 l 382.547 647.988 l S
382.547 654.348 m 384.035 656.258 l 385.023 656.891 l 386.512 656.891 l
 387.504 656.258 l 387.996 654.348 l 387.996 647.988 l S
395.477 663.887 m 395.477 643.539 l S
392.012 663.887 m 395.477 663.887 l S
392.012 643.539 m 395.477 643.539 l S
0.8 w
81.668 707.055 m 81.668 700.379 l S
81.668 707.055 m 84.043 707.055 l 84.836 706.738 l 85.102 706.422 l 85.363
 705.785 l 85.363 705.148 l 85.102 704.512 l 84.836 704.195 l 84.043 703.875
 l 81.668 703.875 l S
83.516 703.875 m 85.363 700.379 l S
88.953 707.055 m 88.422 706.738 l 87.895 706.102 l 87.629 705.465 l 87.367
 704.512 l 87.367 702.922 l 87.629 701.969 l 87.895 701.332 l 88.422 700.695
 l 88.953 700.379 l 90.008 700.379 l 90.535 700.695 l 91.066 701.332 l 91.328
 701.969 l 91.594 702.922 l 91.594 704.512 l 91.328 705.465 l 91.066 706.102
 l 90.535 706.738 l 90.008 707.055 l 88.953 707.055 l S
97.156 706.102 m 96.625 706.738 l 95.836 707.055 l 94.777 707.055 l 93.984
 706.738 l 93.457 706.102 l 93.457 705.465 l 93.719 704.832 l 93.984 704.512
 l 94.512 704.195 l 96.098 703.559 l 96.625 703.242 l 96.891 702.922 l 97.156
 702.285 l 97.156 701.332 l 96.625 700.695 l 95.836 700.379 l 94.777 700.379
 l 93.984 700.695 l 93.457 701.332 l S
102.703 706.102 m 102.176 706.738 l 101.383 707.055 l 100.324 707.055 l
 99.531 706.738 l 99.004 706.102 l 99.004 705.465 l 99.27 704.832 l 99.531
 704.512 l 100.062 704.195 l 101.648 703.559 l 102.176 703.242 l 102.438
 702.922 l 102.703 702.285 l 102.703 701.332 l 102.176 700.695 l 101.383
 700.379 l 100.324 700.379 l 99.531 700.695 l 99.004 701.332 l S
104.691 707.055 m 104.691 700.379 l S
104.691 707.055 m 107.07 707.055 l 107.863 706.738 l 108.125 706.422 l 
108.391 705.785 l 108.391 705.148 l 108.125 704.512 l 107.863 704.195 l 
107.07 703.875 l S
104.691 703.875 m 107.07 703.875 l 107.863 703.559 l 108.125 703.242 l 
108.391 702.605 l 108.391 701.652 l 108.125 701.016 l 107.863 700.695 l 
107.07 700.379 l 104.691 700.379 l S
109.836 707.055 m 111.949 703.875 l 111.949 700.379 l S
114.062 707.055 m 111.949 703.875 l S
114.316 698.152 m 119.598 698.152 l S
124.617 706.102 m 124.09 706.738 l 123.297 707.055 l 122.242 707.055 l 
121.449 706.738 l 120.922 706.102 l 120.922 705.465 l 121.184 704.832 l 
121.449 704.512 l 121.977 704.195 l 123.562 703.559 l 124.09 703.242 l 124.355
 702.922 l 124.617 702.285 l 124.617 701.332 l 124.09 700.695 l 123.297 
700.379 l 122.242 700.379 l 121.449 700.695 l 120.922 701.332 l S
127.762 707.055 m 127.762 700.379 l S
125.914 707.055 m 129.613 707.055 l S
132.48 707.055 m 130.367 700.379 l S
132.48 707.055 m 134.594 700.379 l S
131.156 702.605 m 133.801 702.605 l S
137.195 707.055 m 137.195 700.379 l S
135.344 707.055 m 139.043 707.055 l S
140.523 707.055 m 140.523 700.379 l S
144.156 707.055 m 143.629 706.738 l 143.102 706.102 l 142.836 705.465 l
 142.57 704.512 l 142.57 702.922 l 142.836 701.969 l 143.102 701.332 l 143.629
 700.695 l 144.156 700.379 l 145.215 700.379 l 145.742 700.695 l 146.27 
701.332 l 146.535 701.969 l 146.797 702.922 l 146.797 704.512 l 146.535 
705.465 l 146.27 706.102 l 145.742 706.738 l 145.215 707.055 l 144.156 707.055
 l S
148.938 707.055 m 148.938 700.379 l S
148.938 707.055 m 152.637 700.379 l S
152.637 707.055 m 152.637 700.379 l S
156.336 707.055 m 154.223 700.379 l S
156.336 707.055 m 158.449 700.379 l S
155.016 702.605 m 157.656 702.605 l S
159.895 707.055 m 159.895 700.379 l S
159.895 707.055 m 162.273 707.055 l 163.066 706.738 l 163.332 706.422 l
 163.594 705.785 l 163.594 705.148 l 163.332 704.512 l 163.066 704.195 l
 162.273 703.875 l 159.895 703.875 l S
161.746 703.875 m 163.594 700.379 l S
165.043 707.055 m 167.156 703.875 l 167.156 700.379 l S
169.27 707.055 m 167.156 703.875 l S
169.52 698.152 m 174.805 698.152 l S
175.887 707.055 m 177.207 700.379 l S
178.531 707.055 m 177.207 700.379 l S
178.531 707.055 m 179.852 700.379 l S
181.172 707.055 m 179.852 700.379 l S
184.355 707.055 m 182.242 700.379 l S
184.355 707.055 m 186.469 700.379 l S
183.035 702.605 m 185.676 702.605 l S
187.234 707.055 m 189.348 700.379 l S
191.461 707.055 m 189.348 700.379 l S
191.715 698.152 m 196.996 698.152 l S
198.594 707.055 m 198.594 700.379 l S
198.594 707.055 m 202.293 700.379 l S
202.293 707.055 m 202.293 700.379 l S
204.699 707.055 m 204.699 702.285 l 204.961 701.332 l 205.492 700.695 l
 206.285 700.379 l 206.812 700.379 l 207.605 700.695 l 208.133 701.332 l
 208.398 702.285 l 208.398 707.055 l S
210.816 707.055 m 210.816 700.379 l S
210.816 707.055 m 212.93 700.379 l S
215.043 707.055 m 212.93 700.379 l S
215.043 707.055 m 215.043 700.379 l S
217.645 701.016 m 217.379 700.695 l 217.645 700.379 l 217.91 700.695 l 
217.645 701.016 l S
224.059 705.465 m 223.793 706.102 l 223.266 706.738 l 222.738 707.055 l
 221.68 707.055 l 221.152 706.738 l 220.625 706.102 l 220.359 705.465 l 
220.094 704.512 l 220.094 702.922 l 220.359 701.969 l 220.625 701.332 l 
221.152 700.695 l 221.68 700.379 l 222.738 700.379 l 223.266 700.695 l 223.793
 701.332 l 224.059 701.969 l S
226.059 707.055 m 226.059 700.379 l S
229.758 707.055 m 229.758 700.379 l S
226.059 703.875 m 229.758 703.875 l S
232.023 707.055 m 232.023 700.379 l S
235.723 707.055 m 232.023 702.605 l S
233.344 704.195 m 235.723 700.379 l S
239.031 707.055 m 238.238 706.738 l 237.977 706.102 l 237.977 705.465 l
 238.238 704.832 l 238.766 704.512 l 239.824 704.195 l 240.617 703.875 l
 241.145 703.242 l 241.41 702.605 l 241.41 701.652 l 241.145 701.016 l 240.883
 700.695 l 240.09 700.379 l 239.031 700.379 l 238.238 700.695 l 237.977 
701.016 l 237.711 701.652 l 237.711 702.605 l 237.977 703.242 l 238.504 
703.875 l 239.297 704.195 l 240.352 704.512 l 240.883 704.832 l 241.145 
705.465 l 241.145 706.102 l 240.883 706.738 l 240.09 707.055 l 239.031 707.055
 l S
242.203 698.152 m 247.484 698.152 l S
248.945 707.055 m 248.945 700.379 l S
248.945 707.055 m 250.797 707.055 l 251.586 706.738 l 252.117 706.102 l
 252.379 705.465 l 252.645 704.512 l 252.645 702.922 l 252.379 701.969 l
 252.117 701.332 l 251.586 700.695 l 250.797 700.379 l 248.945 700.379 l
 S
256.984 707.055 m 256.984 701.969 l 256.719 701.016 l 256.457 700.695 l
 255.926 700.379 l 255.398 700.379 l 254.871 700.695 l 254.605 701.016 l
 254.344 701.969 l 254.344 702.605 l S
259.059 707.055 m 259.059 700.379 l S
259.059 707.055 m 262.492 707.055 l S
259.059 703.875 m 261.172 703.875 l S
263.008 698.152 m 268.293 698.152 l S
269.461 707.055 m 269.461 700.379 l S
269.461 700.379 m 272.633 700.379 l S
275.902 707.055 m 273.789 700.379 l S
275.902 707.055 m 278.016 700.379 l S
274.578 702.605 m 277.223 702.605 l S
279.613 707.055 m 279.613 700.379 l S
279.613 707.055 m 281.727 700.379 l S
283.84 707.055 m 281.727 700.379 l S
283.84 707.055 m 283.84 700.379 l S
286.117 707.055 m 286.117 700.379 l S
286.117 707.055 m 288.496 707.055 l 289.289 706.738 l 289.555 706.422 l
 289.816 705.785 l 289.816 705.148 l 289.555 704.512 l 289.289 704.195 l
 288.496 703.875 l S
286.117 703.875 m 288.496 703.875 l 289.289 703.559 l 289.555 703.242 l
 289.816 702.605 l 289.816 701.652 l 289.555 701.016 l 289.289 700.695 l
 288.496 700.379 l 286.117 700.379 l S
291.945 707.055 m 291.945 700.379 l S
291.945 707.055 m 293.793 707.055 l 294.586 706.738 l 295.113 706.102 l
 295.379 705.465 l 295.645 704.512 l 295.645 702.922 l 295.379 701.969 l
 295.113 701.332 l 294.586 700.695 l 293.793 700.379 l 291.945 700.379 l
 S
299.203 707.055 m 297.09 700.379 l S
299.203 707.055 m 301.316 700.379 l S
297.883 702.605 m 300.523 702.605 l S
303.152 707.055 m 306.059 707.055 l 304.473 704.512 l 305.266 704.512 l
 305.797 704.195 l 306.059 703.875 l 306.324 702.922 l 306.324 702.285 l
 306.059 701.332 l 305.531 700.695 l 304.738 700.379 l 303.945 700.379 l
 303.152 700.695 l 302.891 701.016 l 302.625 701.652 l S
309.758 707.055 m 308.965 706.738 l 308.438 705.785 l 308.172 704.195 l
 308.172 703.242 l 308.438 701.652 l 308.965 700.695 l 309.758 700.379 l
 310.285 700.379 l 311.078 700.695 l 311.609 701.652 l 311.871 703.242 l
 311.871 704.195 l 311.609 705.785 l 311.078 706.738 l 310.285 707.055 l
 309.758 707.055 l S
315.305 707.055 m 314.516 706.738 l 313.984 705.785 l 313.723 704.195 l
 313.723 703.242 l 313.984 701.652 l 314.516 700.695 l 315.305 700.379 l
 315.836 700.379 l 316.629 700.695 l 317.156 701.652 l 317.422 703.242 l
 317.422 704.195 l 317.156 705.785 l 316.629 706.738 l 315.836 707.055 l
 315.305 707.055 l S
319.73 701.016 m 319.469 700.695 l 319.73 700.379 l 319.996 700.695 l 319.73
 701.016 l S
322.031 702.922 m 325.199 702.922 l 325.199 703.559 l 324.938 704.195 l
 324.672 704.512 l 324.145 704.832 l 323.352 704.832 l 322.824 704.512 l
 322.293 703.875 l 322.031 702.922 l 322.031 702.285 l 322.293 701.332 l
 322.824 700.695 l 323.352 700.379 l 324.145 700.379 l 324.672 700.695 l
 325.199 701.332 l S
327.164 704.832 m 327.164 698.152 l S
327.164 703.875 m 327.691 704.512 l 328.219 704.832 l 329.012 704.832 l
 329.539 704.512 l 330.07 703.875 l 330.332 702.922 l 330.332 702.285 l 
330.07 701.332 l 329.539 700.695 l 329.012 700.379 l 328.219 700.379 l 327.691
 700.695 l 327.164 701.332 l S
335.328 703.875 m 335.062 704.512 l 334.27 704.832 l 333.477 704.832 l 
332.684 704.512 l 332.422 703.875 l 332.684 703.242 l 333.211 702.922 l 
334.535 702.605 l 335.062 702.285 l 335.328 701.652 l 335.328 701.332 l 
335.062 700.695 l 334.27 700.379 l 333.477 700.379 l 332.684 700.695 l 332.422
 701.332 l S
86.031 720.219 m 81.277 710.047 l S
87.645 716.723 m 88.699 712.27 l S
89.758 716.723 m 88.699 712.27 l S
89.758 716.723 m 90.812 712.27 l S
91.871 716.723 m 90.812 712.27 l S
95.18 716.723 m 94.652 716.406 l 94.125 715.77 l 93.859 714.816 l 93.859
 714.18 l 94.125 713.227 l 94.652 712.59 l 95.18 712.27 l 95.973 712.27 
l 96.5 712.59 l 97.031 713.227 l 97.293 714.18 l 97.293 714.816 l 97.031
 715.77 l 96.5 716.406 l 95.973 716.723 l 95.18 716.723 l S
99.09 716.723 m 99.09 712.27 l S
99.09 714.816 m 99.355 715.77 l 99.883 716.406 l 100.41 716.723 l 101.203
 716.723 l S
102.723 718.949 m 102.723 712.27 l S
105.367 716.723 m 102.723 713.543 l S
103.781 714.816 m 105.629 712.27 l S
108.914 718.949 m 108.121 718.629 l 107.59 717.676 l 107.328 716.086 l 
107.328 715.133 l 107.59 713.543 l 108.121 712.59 l 108.914 712.27 l 109.441
 712.27 l 110.234 712.59 l 110.762 713.543 l 111.027 715.133 l 111.027 716.086
 l 110.762 717.676 l 110.234 718.629 l 109.441 718.949 l 108.914 718.949
 l S
116.047 718.949 m 113.402 718.949 l 113.141 716.086 l 113.402 716.406 l
 114.195 716.723 l 114.988 716.723 l 115.781 716.406 l 116.309 715.77 l 
116.574 714.816 l 116.574 714.18 l 116.309 713.227 l 115.781 712.59 l 114.988
 712.27 l 114.195 712.27 l 113.402 712.59 l 113.141 712.906 l 112.875 713.543
 l S
122.93 720.219 m 118.172 710.047 l S
124.855 716.723 m 124.855 712.27 l S
124.855 715.449 m 125.648 716.406 l 126.18 716.723 l 126.969 716.723 l 
127.5 716.406 l 127.762 715.449 l 127.762 712.27 l S
127.762 715.449 m 128.555 716.406 l 129.082 716.723 l 129.875 716.723 l
 130.406 716.406 l 130.668 715.449 l 130.668 712.27 l S
136.145 716.723 m 136.145 712.27 l S
136.145 715.77 m 135.617 716.406 l 135.09 716.723 l 134.297 716.723 l 133.766
 716.406 l 133.238 715.77 l 132.973 714.816 l 132.973 714.18 l 133.238 713.227
 l 133.766 712.59 l 134.297 712.27 l 135.09 712.27 l 135.617 712.59 l 136.145
 713.227 l S
138.508 716.723 m 138.508 712.27 l S
138.508 715.449 m 139.301 716.406 l 139.832 716.723 l 140.621 716.723 l
 141.152 716.406 l 141.414 715.449 l 141.414 712.27 l S
146.688 718.949 m 146.688 712.27 l S
146.688 715.77 m 146.156 716.406 l 145.629 716.723 l 144.836 716.723 l 
144.309 716.406 l 143.781 715.77 l 143.516 714.816 l 143.516 714.18 l 143.781
 713.227 l 144.309 712.59 l 144.836 712.27 l 145.629 712.27 l 146.156 712.59
 l 146.688 713.227 l S
151.957 716.723 m 151.957 712.27 l S
151.957 715.77 m 151.43 716.406 l 150.902 716.723 l 150.109 716.723 l 149.578
 716.406 l 149.051 715.77 l 148.785 714.816 l 148.785 714.18 l 149.051 713.227
 l 149.578 712.59 l 150.109 712.27 l 150.902 712.27 l 151.43 712.59 l 151.957
 713.227 l S
158.438 720.219 m 153.68 710.047 l S
161.328 718.949 m 161.328 712.27 l S
159.48 718.949 m 163.18 718.949 l S
164.598 718.949 m 164.598 712.27 l S
164.598 718.949 m 168.035 718.949 l S
164.598 715.77 m 166.715 715.77 l S
164.598 712.27 m 168.035 712.27 l S
171.316 718.949 m 169.203 712.27 l S
171.316 718.949 m 173.43 712.27 l S
169.996 714.496 m 172.637 714.496 l S
178.84 717.359 m 178.574 717.996 l 178.047 718.629 l 177.52 718.949 l 176.461
 718.949 l 175.934 718.629 l 175.406 717.996 l 175.141 717.359 l 174.875
 716.406 l 174.875 714.816 l 175.141 713.859 l 175.406 713.227 l 175.934
 712.59 l 176.461 712.27 l 177.52 712.27 l 178.047 712.59 l 178.574 713.227
 l 178.84 713.859 l S
180.84 718.949 m 180.84 712.27 l S
184.539 718.949 m 184.539 712.27 l S
180.84 715.77 m 184.539 715.77 l S
186.852 718.949 m 186.852 712.27 l S
189.164 718.949 m 189.164 712.27 l S
189.164 718.949 m 192.863 712.27 l S
192.863 718.949 m 192.863 712.27 l S
199.09 717.359 m 198.828 717.996 l 198.297 718.629 l 197.77 718.949 l 196.715
 718.949 l 196.184 718.629 l 195.656 717.996 l 195.391 717.359 l 195.129
 716.406 l 195.129 714.816 l 195.391 713.859 l 195.656 713.227 l 196.184
 712.59 l 196.715 712.27 l 197.77 712.27 l 198.297 712.59 l 198.828 713.227
 l 199.09 713.859 l 199.09 714.816 l S
197.77 714.816 m 199.09 714.816 l S
205.32 720.219 m 200.562 710.047 l S
207.184 717.359 m 207.184 717.676 l 207.445 718.312 l 207.711 718.629 l
 208.238 718.949 l 209.297 718.949 l 209.824 718.629 l 210.09 718.312 l 
210.352 717.676 l 210.352 717.039 l 210.09 716.406 l 209.559 715.449 l 206.918
 712.27 l 210.617 712.27 l S
214.051 718.949 m 213.258 718.629 l 212.73 717.676 l 212.465 716.086 l 
212.465 715.133 l 212.73 713.543 l 213.258 712.59 l 214.051 712.27 l 214.578
 712.27 l 215.371 712.59 l 215.902 713.543 l 216.164 715.133 l 216.164 716.086
 l 215.902 717.676 l 215.371 718.629 l 214.578 718.949 l 214.051 718.949
 l S
218.277 717.359 m 218.277 717.676 l 218.543 718.312 l 218.809 718.629 l
 219.336 718.949 l 220.391 718.949 l 220.922 718.629 l 221.184 718.312 l
 221.449 717.676 l 221.449 717.039 l 221.184 716.406 l 220.656 715.449 l
 218.016 712.27 l 221.715 712.27 l S
225.148 718.949 m 224.355 718.629 l 223.828 717.676 l 223.562 716.086 l
 223.562 715.133 l 223.828 713.543 l 224.355 712.59 l 225.148 712.27 l 225.676
 712.27 l 226.469 712.59 l 226.996 713.543 l 227.262 715.133 l 227.262 716.086
 l 226.996 717.676 l 226.469 718.629 l 225.676 718.949 l 225.148 718.949
 l S
228.055 710.047 m 233.34 710.047 l S
234.797 718.949 m 234.797 712.27 l S
238.496 718.949 m 234.797 714.496 l S
236.117 716.086 m 238.496 712.27 l S
242.055 718.949 m 239.941 712.27 l S
242.055 718.949 m 244.172 712.27 l S
240.734 714.496 m 243.379 714.496 l S
245.754 718.949 m 245.754 712.27 l S
245.754 718.949 m 249.453 712.27 l S
249.453 718.949 m 249.453 712.27 l S
251.719 718.949 m 251.719 712.27 l S
255.418 718.949 m 251.719 714.496 l S
253.039 716.086 m 255.418 712.27 l S
256.863 718.949 m 258.98 715.77 l 258.98 712.27 l S
261.094 718.949 m 258.98 715.77 l S
264 718.949 m 263.469 718.629 l 262.941 717.996 l 262.676 717.359 l 262.414
 716.406 l 262.414 714.816 l 262.676 713.859 l 262.941 713.227 l 263.469
 712.59 l 264 712.27 l 265.055 712.27 l 265.582 712.59 l 266.113 713.227
 l 266.375 713.859 l 266.641 714.816 l 266.641 716.406 l 266.375 717.359
 l 266.113 717.996 l 265.582 718.629 l 265.055 718.949 l 264 718.949 l S
267.445 710.047 m 272.73 710.047 l S
274.191 718.949 m 274.191 712.27 l S
277.891 718.949 m 274.191 714.496 l S
275.512 716.086 m 277.891 712.27 l S
281.449 718.949 m 279.336 712.27 l S
281.449 718.949 m 283.562 712.27 l S
280.129 714.496 m 282.77 714.496 l S
285.055 718.949 m 285.055 712.27 l S
290.789 717.996 m 290.262 718.629 l 289.469 718.949 l 288.41 718.949 l 
287.617 718.629 l 287.09 717.996 l 287.09 717.359 l 287.355 716.723 l 287.617
 716.406 l 288.148 716.086 l 289.73 715.449 l 290.262 715.133 l 290.523 
714.816 l 290.789 714.18 l 290.789 713.227 l 290.262 712.59 l 289.469 712.27
 l 288.41 712.27 l 287.617 712.59 l 287.09 713.227 l S
292.762 718.949 m 292.762 712.27 l S
292.762 718.949 m 296.199 718.949 l S
292.762 715.77 m 294.879 715.77 l S
292.762 712.27 m 296.199 712.27 l S
298.047 718.949 m 298.047 712.27 l S
301.746 718.949 m 298.047 714.496 l S
299.367 716.086 m 301.746 712.27 l S
303.918 718.949 m 303.918 712.27 l S
310.457 720.219 m 305.703 710.047 l S
313.641 718.949 m 312.848 718.629 l 312.32 717.676 l 312.059 716.086 l 
312.059 715.133 l 312.32 713.543 l 312.848 712.59 l 313.641 712.27 l 314.172
 712.27 l 314.965 712.59 l 315.492 713.543 l 315.754 715.133 l 315.754 716.086
 l 315.492 717.676 l 314.965 718.629 l 314.172 718.949 l 313.641 718.949
 l S
321.305 718.949 m 318.66 712.27 l S
317.605 718.949 m 321.305 718.949 l S
323.457 715.133 m 328.211 715.133 l S
331.953 718.949 m 331.16 718.629 l 330.629 717.676 l 330.367 716.086 l 
330.367 715.133 l 330.629 713.543 l 331.16 712.59 l 331.953 712.27 l 332.48
 712.27 l 333.273 712.59 l 333.801 713.543 l 334.066 715.133 l 334.066 716.086
 l 333.801 717.676 l 333.273 718.629 l 332.48 718.949 l 331.953 718.949 
l S
339.348 717.996 m 339.086 718.629 l 338.293 718.949 l 337.762 718.949 l
 336.973 718.629 l 336.441 717.676 l 336.18 716.086 l 336.18 714.496 l 336.441
 713.227 l 336.973 712.59 l 337.762 712.27 l 338.027 712.27 l 338.82 712.59
 l 339.348 713.227 l 339.613 714.18 l 339.613 714.496 l 339.348 715.449 
l 338.82 716.086 l 338.027 716.406 l 337.762 716.406 l 336.973 716.086 l
 336.441 715.449 l 336.18 714.496 l S
341.926 712.906 m 341.66 712.59 l 341.926 712.27 l 342.188 712.59 l 341.926
 712.906 l S
344.375 718.949 m 344.375 712.27 l S
344.375 718.949 m 346.754 718.949 l 347.547 718.629 l 347.809 718.312 l
 348.074 717.676 l 348.074 717.039 l 347.809 716.406 l 347.547 716.086 l
 346.754 715.77 l 344.375 715.77 l S
346.227 715.77 m 348.074 712.27 l S
351.66 718.949 m 351.133 718.629 l 350.605 717.996 l 350.34 717.359 l 350.074
 716.406 l 350.074 714.816 l 350.34 713.859 l 350.605 713.227 l 351.133 
712.59 l 351.66 712.27 l 352.719 712.27 l 353.246 712.59 l 353.773 713.227
 l 354.039 713.859 l 354.301 714.816 l 354.301 716.406 l 354.039 717.359
 l 353.773 717.996 l 353.246 718.629 l 352.719 718.949 l 351.66 718.949 
l S
359.863 717.996 m 359.336 718.629 l 358.543 718.949 l 357.484 718.949 l
 356.695 718.629 l 356.164 717.996 l 356.164 717.359 l 356.43 716.723 l 
356.695 716.406 l 357.223 716.086 l 358.809 715.449 l 359.336 715.133 l 
359.602 714.816 l 359.863 714.18 l 359.863 713.227 l 359.336 712.59 l 358.543
 712.27 l 357.484 712.27 l 356.695 712.59 l 356.164 713.227 l S
365.414 717.996 m 364.883 718.629 l 364.09 718.949 l 363.035 718.949 l 
362.242 718.629 l 361.715 717.996 l 361.715 717.359 l 361.977 716.723 l 
362.242 716.406 l 362.77 716.086 l 364.355 715.449 l 364.883 715.133 l 365.148
 714.816 l 365.414 714.18 l 365.414 713.227 l 364.883 712.59 l 364.09 712.27
 l 363.035 712.27 l 362.242 712.59 l 361.715 713.227 l S
367.402 718.949 m 367.402 712.27 l S
367.402 718.949 m 369.777 718.949 l 370.57 718.629 l 370.836 718.312 l 
371.098 717.676 l 371.098 717.039 l 370.836 716.406 l 370.57 716.086 l 369.777
 715.77 l S
367.402 715.77 m 369.777 715.77 l 370.57 715.449 l 370.836 715.133 l 371.098
 714.496 l 371.098 713.543 l 370.836 712.906 l 370.57 712.59 l 369.777 712.27
 l 367.402 712.27 l S
372.547 718.949 m 374.66 715.77 l 374.66 712.27 l S
376.773 718.949 m 374.66 715.77 l S
377.023 710.047 m 382.309 710.047 l S
387.328 717.996 m 386.801 718.629 l 386.008 718.949 l 384.949 718.949 l
 384.156 718.629 l 383.629 717.996 l 383.629 717.359 l 383.895 716.723 l
 384.156 716.406 l 384.688 716.086 l 386.27 715.449 l 386.801 715.133 l 
387.062 714.816 l 387.328 714.18 l 387.328 713.227 l 386.801 712.59 l 386.008
 712.27 l 384.949 712.27 l 384.156 712.59 l 383.629 713.227 l S
390.473 718.949 m 390.473 712.27 l S
388.621 718.949 m 392.32 718.949 l S
395.188 718.949 m 393.074 712.27 l S
395.188 718.949 m 397.301 712.27 l S
393.867 714.496 m 396.508 714.496 l S
399.902 718.949 m 399.902 712.27 l S
398.055 718.949 m 401.754 718.949 l S
403.234 718.949 m 403.234 712.27 l S
406.867 718.949 m 406.336 718.629 l 405.809 717.996 l 405.543 717.359 l
 405.281 716.406 l 405.281 714.816 l 405.543 713.859 l 405.809 713.227 l
 406.336 712.59 l 406.867 712.27 l 407.922 712.27 l 408.449 712.59 l 408.98
 713.227 l 409.242 713.859 l 409.508 714.816 l 409.508 716.406 l 409.242
 717.359 l 408.98 717.996 l 408.449 718.629 l 407.922 718.949 l 406.867 
718.949 l S
411.648 718.949 m 411.648 712.27 l S
411.648 718.949 m 415.348 712.27 l S
415.348 718.949 m 415.348 712.27 l S
419.047 718.949 m 416.934 712.27 l S
419.047 718.949 m 421.16 712.27 l S
417.723 714.496 m 420.367 714.496 l S
422.605 718.949 m 422.605 712.27 l S
422.605 718.949 m 424.984 718.949 l 425.777 718.629 l 426.039 718.312 l
 426.305 717.676 l 426.305 717.039 l 426.039 716.406 l 425.777 716.086 l
 424.984 715.77 l 422.605 715.77 l S
424.453 715.77 m 426.305 712.27 l S
427.75 718.949 m 429.863 715.77 l 429.863 712.27 l S
431.977 718.949 m 429.863 715.77 l S
432.23 710.047 m 437.512 710.047 l S
438.598 718.949 m 439.918 712.27 l S
441.238 718.949 m 439.918 712.27 l S
441.238 718.949 m 442.559 712.27 l S
443.879 718.949 m 442.559 712.27 l S
447.062 718.949 m 444.949 712.27 l S
447.062 718.949 m 449.176 712.27 l S
445.742 714.496 m 448.387 714.496 l S
449.945 718.949 m 452.059 712.27 l S
454.172 718.949 m 452.059 712.27 l S
454.422 710.047 m 459.707 710.047 l S
461.305 718.949 m 461.305 712.27 l S
461.305 718.949 m 465.004 712.27 l S
465.004 718.949 m 465.004 712.27 l S
467.406 718.949 m 467.406 714.18 l 467.672 713.227 l 468.199 712.59 l 468.992
 712.27 l 469.52 712.27 l 470.312 712.59 l 470.844 713.227 l 471.105 714.18
 l 471.105 718.949 l S
473.523 718.949 m 473.523 712.27 l S
473.523 718.949 m 475.637 712.27 l S
477.75 718.949 m 475.637 712.27 l S
477.75 718.949 m 477.75 712.27 l S
485.348 712.906 m 485.082 712.59 l 485.348 712.27 l 485.609 712.59 l 485.348
 712.906 l S
492.164 720.219 m 487.406 710.047 l S
493.898 718.949 m 493.898 712.27 l S
493.898 718.949 m 496.277 718.949 l 497.07 718.629 l 497.336 718.312 l 
497.598 717.676 l 497.598 717.039 l 497.336 716.406 l 497.07 716.086 l 496.277
 715.77 l 493.898 715.77 l S
495.75 715.77 m 497.598 712.27 l S
501.188 718.949 m 500.656 718.629 l 500.129 717.996 l 499.863 717.359 l
 499.602 716.406 l 499.602 714.816 l 499.863 713.859 l 500.129 713.227 l
 500.656 712.59 l 501.188 712.27 l 502.242 712.27 l 502.77 712.59 l 503.301
 713.227 l 503.562 713.859 l 503.828 714.816 l 503.828 716.406 l 503.562
 717.359 l 503.301 717.996 l 502.77 718.629 l 502.242 718.949 l 501.188 
718.949 l S
509.391 717.996 m 508.859 718.629 l 508.066 718.949 l 507.012 718.949 l
 506.219 718.629 l 505.691 717.996 l 505.691 717.359 l 505.953 716.723 l
 506.219 716.406 l 506.746 716.086 l 508.332 715.449 l 508.859 715.133 l
 509.125 714.816 l 509.391 714.18 l 509.391 713.227 l 508.859 712.59 l 508.066
 712.27 l 507.012 712.27 l 506.219 712.59 l 505.691 713.227 l S
514.938 717.996 m 514.41 718.629 l 513.617 718.949 l 512.559 718.949 l 
511.766 718.629 l 511.238 717.996 l 511.238 717.359 l 511.504 716.723 l 
511.766 716.406 l 512.297 716.086 l 513.879 715.449 l 514.41 715.133 l 514.672
 714.816 l 514.938 714.18 l 514.938 713.227 l 514.41 712.59 l 513.617 712.27
 l 512.559 712.27 l 511.766 712.59 l 511.238 713.227 l S
516.926 718.949 m 516.926 712.27 l S
516.926 718.949 m 519.305 718.949 l 520.098 718.629 l 520.359 718.312 l
 520.625 717.676 l 520.625 717.039 l 520.359 716.406 l 520.098 716.086 l
 519.305 715.77 l S
516.926 715.77 m 519.305 715.77 l 520.098 715.449 l 520.359 715.133 l 520.625
 714.496 l 520.625 713.543 l 520.359 712.906 l 520.098 712.59 l 519.305 
712.27 l 516.926 712.27 l S
522.07 718.949 m 524.184 715.77 l 524.184 712.27 l S
526.297 718.949 m 524.184 715.77 l S
526.551 710.047 m 531.832 710.047 l S
536.852 717.996 m 536.324 718.629 l 535.531 718.949 l 534.477 718.949 l
 533.684 718.629 l 533.152 717.996 l 533.152 717.359 l 533.418 716.723 l
 533.684 716.406 l 534.211 716.086 l 535.797 715.449 l 536.324 715.133 l
 536.59 714.816 l 536.852 714.18 l 536.852 713.227 l 536.324 712.59 l 535.531
 712.27 l 534.477 712.27 l 533.684 712.59 l 533.152 713.227 l S
539.996 718.949 m 539.996 712.27 l S
538.148 718.949 m 541.848 718.949 l S
544.711 718.949 m 542.598 712.27 l S
544.711 718.949 m 546.828 712.27 l S
543.391 714.496 m 546.035 714.496 l S
549.43 718.949 m 549.43 712.27 l S
547.578 718.949 m 551.277 718.949 l S
552.758 718.949 m 552.758 712.27 l S
556.391 718.949 m 555.863 718.629 l 555.332 717.996 l 555.07 717.359 l 
554.805 716.406 l 554.805 714.816 l 555.07 713.859 l 555.332 713.227 l 555.863
 712.59 l 556.391 712.27 l 557.449 712.27 l 557.977 712.59 l 558.504 713.227
 l 558.77 713.859 l 559.031 714.816 l 559.031 716.406 l 558.77 717.359 l
 558.504 717.996 l 557.977 718.629 l 557.449 718.949 l 556.391 718.949 l
 S
561.172 718.949 m 561.172 712.27 l S
561.172 718.949 m 564.871 712.27 l S
564.871 718.949 m 564.871 712.27 l S
568.57 718.949 m 566.457 712.27 l S
568.57 718.949 m 570.684 712.27 l S
567.25 714.496 m 569.891 714.496 l S
572.129 718.949 m 572.129 712.27 l S
572.129 718.949 m 574.508 718.949 l 575.301 718.629 l 575.566 718.312 l
 575.828 717.676 l 575.828 717.039 l 575.566 716.406 l 575.301 716.086 l
 574.508 715.77 l 572.129 715.77 l S
573.98 715.77 m 575.828 712.27 l S
577.277 718.949 m 579.391 715.77 l 579.391 712.27 l S
581.504 718.949 m 579.391 715.77 l S
581.754 710.047 m 587.039 710.047 l S
588.121 718.949 m 589.441 712.27 l S
590.762 718.949 m 589.441 712.27 l S
590.762 718.949 m 592.086 712.27 l S
593.406 718.949 m 592.086 712.27 l S
596.59 718.949 m 594.477 712.27 l S
596.59 718.949 m 598.703 712.27 l S
595.27 714.496 m 597.91 714.496 l S
599.469 718.949 m 600.75 714.898 l S
81.668 730.84 m 81.668 724.164 l S
81.668 730.84 m 84.043 730.84 l 84.836 730.523 l 85.102 730.203 l 85.363
 729.57 l 85.363 728.934 l 85.102 728.297 l 84.836 727.98 l 84.043 727.66
 l 81.668 727.66 l S
83.516 727.66 m 85.363 724.164 l S
88.953 730.84 m 88.422 730.523 l 87.895 729.887 l 87.629 729.25 l 87.367
 728.297 l 87.367 726.707 l 87.629 725.754 l 87.895 725.117 l 88.422 724.48
 l 88.953 724.164 l 90.008 724.164 l 90.535 724.48 l 91.066 725.117 l 91.328
 725.754 l 91.594 726.707 l 91.594 728.297 l 91.328 729.25 l 91.066 729.887
 l 90.535 730.523 l 90.008 730.84 l 88.953 730.84 l S
97.156 729.887 m 96.625 730.523 l 95.836 730.84 l 94.777 730.84 l 93.984
 730.523 l 93.457 729.887 l 93.457 729.25 l 93.719 728.613 l 93.984 728.297
 l 94.512 727.98 l 96.098 727.344 l 96.625 727.023 l 96.891 726.707 l 97.156
 726.07 l 97.156 725.117 l 96.625 724.48 l 95.836 724.164 l 94.777 724.164
 l 93.984 724.48 l 93.457 725.117 l S
102.703 729.887 m 102.176 730.523 l 101.383 730.84 l 100.324 730.84 l 99.531
 730.523 l 99.004 729.887 l 99.004 729.25 l 99.27 728.613 l 99.531 728.297
 l 100.062 727.98 l 101.648 727.344 l 102.176 727.023 l 102.438 726.707 
l 102.703 726.07 l 102.703 725.117 l 102.176 724.48 l 101.383 724.164 l 
100.324 724.164 l 99.531 724.48 l 99.004 725.117 l S
104.691 730.84 m 104.691 724.164 l S
104.691 730.84 m 107.07 730.84 l 107.863 730.523 l 108.125 730.203 l 108.391
 729.57 l 108.391 728.934 l 108.125 728.297 l 107.863 727.98 l 107.07 727.66
 l S
104.691 727.66 m 107.07 727.66 l 107.863 727.344 l 108.125 727.023 l 108.391
 726.391 l 108.391 725.434 l 108.125 724.801 l 107.863 724.48 l 107.07 724.164
 l 104.691 724.164 l S
109.836 730.84 m 111.949 727.66 l 111.949 724.164 l S
114.062 730.84 m 111.949 727.66 l S
114.316 721.938 m 119.598 721.938 l S
124.617 729.887 m 124.09 730.523 l 123.297 730.84 l 122.242 730.84 l 121.449
 730.523 l 120.922 729.887 l 120.922 729.25 l 121.184 728.613 l 121.449 
728.297 l 121.977 727.98 l 123.562 727.344 l 124.09 727.023 l 124.355 726.707
 l 124.617 726.07 l 124.617 725.117 l 124.09 724.48 l 123.297 724.164 l 
122.242 724.164 l 121.449 724.48 l 120.922 725.117 l S
127.762 730.84 m 127.762 724.164 l S
125.914 730.84 m 129.613 730.84 l S
132.48 730.84 m 130.367 724.164 l S
132.48 730.84 m 134.594 724.164 l S
131.156 726.391 m 133.801 726.391 l S
137.195 730.84 m 137.195 724.164 l S
135.344 730.84 m 139.043 730.84 l S
140.523 730.84 m 140.523 724.164 l S
144.156 730.84 m 143.629 730.523 l 143.102 729.887 l 142.836 729.25 l 142.57
 728.297 l 142.57 726.707 l 142.836 725.754 l 143.102 725.117 l 143.629 
724.48 l 144.156 724.164 l 145.215 724.164 l 145.742 724.48 l 146.27 725.117
 l 146.535 725.754 l 146.797 726.707 l 146.797 728.297 l 146.535 729.25 
l 146.27 729.887 l 145.742 730.523 l 145.215 730.84 l 144.156 730.84 l S
148.938 730.84 m 148.938 724.164 l S
148.938 730.84 m 152.637 724.164 l S
152.637 730.84 m 152.637 724.164 l S
156.336 730.84 m 154.223 724.164 l S
156.336 730.84 m 158.449 724.164 l S
155.016 726.391 m 157.656 726.391 l S
159.895 730.84 m 159.895 724.164 l S
159.895 730.84 m 162.273 730.84 l 163.066 730.523 l 163.332 730.203 l 163.594
 729.57 l 163.594 728.934 l 163.332 728.297 l 163.066 727.98 l 162.273 727.66
 l 159.895 727.66 l S
161.746 727.66 m 163.594 724.164 l S
165.043 730.84 m 167.156 727.66 l 167.156 724.164 l S
169.27 730.84 m 167.156 727.66 l S
169.52 721.938 m 174.805 721.938 l S
175.887 730.84 m 177.207 724.164 l S
178.531 730.84 m 177.207 724.164 l S
178.531 730.84 m 179.852 724.164 l S
181.172 730.84 m 179.852 724.164 l S
184.355 730.84 m 182.242 724.164 l S
184.355 730.84 m 186.469 724.164 l S
183.035 726.391 m 185.676 726.391 l S
187.234 730.84 m 189.348 724.164 l S
191.461 730.84 m 189.348 724.164 l S
191.715 721.938 m 196.996 721.938 l S
198.594 730.84 m 198.594 724.164 l S
198.594 730.84 m 202.293 724.164 l S
202.293 730.84 m 202.293 724.164 l S
204.699 730.84 m 204.699 726.07 l 204.961 725.117 l 205.492 724.48 l 206.285
 724.164 l 206.812 724.164 l 207.605 724.48 l 208.133 725.117 l 208.398 
726.07 l 208.398 730.84 l S
210.816 730.84 m 210.816 724.164 l S
210.816 730.84 m 212.93 724.164 l S
215.043 730.84 m 212.93 724.164 l S
215.043 730.84 m 215.043 724.164 l S
217.645 724.801 m 217.379 724.48 l 217.645 724.164 l 217.91 724.48 l 217.645
 724.801 l S
224.059 729.25 m 223.793 729.887 l 223.266 730.523 l 222.738 730.84 l 221.68
 730.84 l 221.152 730.523 l 220.625 729.887 l 220.359 729.25 l 220.094 728.297
 l 220.094 726.707 l 220.359 725.754 l 220.625 725.117 l 221.152 724.48 
l 221.68 724.164 l 222.738 724.164 l 223.266 724.48 l 223.793 725.117 l 
224.059 725.754 l S
226.059 730.84 m 226.059 724.164 l S
229.758 730.84 m 229.758 724.164 l S
226.059 727.66 m 229.758 727.66 l S
232.023 730.84 m 232.023 724.164 l S
235.723 730.84 m 232.023 726.391 l S
233.344 727.98 m 235.723 724.164 l S
239.031 730.84 m 238.238 730.523 l 237.977 729.887 l 237.977 729.25 l 238.238
 728.613 l 238.766 728.297 l 239.824 727.98 l 240.617 727.66 l 241.145 727.023
 l 241.41 726.391 l 241.41 725.434 l 241.145 724.801 l 240.883 724.48 l 
240.09 724.164 l 239.031 724.164 l 238.238 724.48 l 237.977 724.801 l 237.711
 725.434 l 237.711 726.391 l 237.977 727.023 l 238.504 727.66 l 239.297 
727.98 l 240.352 728.297 l 240.883 728.613 l 241.145 729.25 l 241.145 729.887
 l 240.883 730.523 l 240.09 730.84 l 239.031 730.84 l S
243.723 724.801 m 243.457 724.48 l 243.723 724.164 l 243.984 724.48 l 243.723
 724.801 l S
250.133 729.25 m 249.871 729.887 l 249.344 730.523 l 248.812 730.84 l 247.758
 730.84 l 247.227 730.523 l 246.699 729.887 l 246.438 729.25 l 246.172 728.297
 l 246.172 726.707 l 246.438 725.754 l 246.699 725.117 l 247.227 724.48 
l 247.758 724.164 l 248.812 724.164 l 249.344 724.48 l 249.871 725.117 l
 250.133 725.754 l 250.133 726.707 l S
248.812 726.707 m 250.133 726.707 l S
255.559 729.887 m 255.027 730.523 l 254.234 730.84 l 253.18 730.84 l 252.387
 730.523 l 251.859 729.887 l 251.859 729.25 l 252.121 728.613 l 252.387 
728.297 l 252.914 727.98 l 254.5 727.344 l 255.027 727.023 l 255.293 726.707
 l 255.559 726.07 l 255.559 725.117 l 255.027 724.48 l 254.234 724.164 l
 253.18 724.164 l 252.387 724.48 l 251.859 725.117 l S
85.227 741.777 m 84.699 742.414 l 83.906 742.734 l 82.848 742.734 l 82.055
 742.414 l 81.527 741.777 l 81.527 741.145 l 81.793 740.508 l 82.055 740.188
 l 82.586 739.871 l 84.168 739.234 l 84.699 738.918 l 84.961 738.598 l 85.227
 737.965 l 85.227 737.008 l 84.699 736.375 l 83.906 736.055 l 82.848 736.055
 l 82.055 736.375 l 81.527 737.008 l S
90.371 740.508 m 90.371 736.055 l S
90.371 739.555 m 89.844 740.188 l 89.316 740.508 l 88.523 740.508 l 87.992
 740.188 l 87.465 739.555 l 87.203 738.598 l 87.203 737.965 l 87.465 737.008
 l 87.992 736.375 l 88.523 736.055 l 89.316 736.055 l 89.844 736.375 l 90.371
 737.008 l S
93.086 742.734 m 93.086 737.328 l 93.352 736.375 l 93.879 736.055 l 94.406
 736.055 l S
92.293 740.508 m 94.145 740.508 l S
96.402 736.375 m 96.137 736.055 l 95.875 736.375 l 96.137 736.691 l 96.402
 736.375 l 96.402 735.738 l 96.137 735.102 l 95.875 734.785 l S
103.707 741.145 m 103.707 741.461 l 103.973 742.098 l 104.234 742.414 l
 104.766 742.734 l 105.82 742.734 l 106.348 742.414 l 106.613 742.098 l 
106.879 741.461 l 106.879 740.824 l 106.613 740.188 l 106.086 739.234 l 
103.441 736.055 l 107.141 736.055 l S
109.52 742.734 m 112.426 742.734 l 110.84 740.188 l 111.633 740.188 l 112.16
 739.871 l 112.426 739.555 l 112.691 738.598 l 112.691 737.965 l 112.426
 737.008 l 111.898 736.375 l 111.105 736.055 l 110.312 736.055 l 109.52 
736.375 l 109.254 736.691 l 108.992 737.328 l S
121.883 742.734 m 121.883 737.645 l 121.621 736.691 l 121.355 736.375 l
 120.828 736.055 l 120.301 736.055 l 119.77 736.375 l 119.508 736.691 l 
119.242 737.645 l 119.242 738.281 l S
127.266 740.508 m 127.266 736.055 l S
127.266 739.555 m 126.738 740.188 l 126.211 740.508 l 125.418 740.508 l
 124.891 740.188 l 124.363 739.555 l 124.098 738.598 l 124.098 737.965 l
 124.363 737.008 l 124.891 736.375 l 125.418 736.055 l 126.211 736.055 l
 126.738 736.375 l 127.266 737.008 l S
129.633 740.508 m 129.633 736.055 l S
129.633 739.234 m 130.426 740.188 l 130.953 740.508 l 131.746 740.508 l
 132.273 740.188 l 132.539 739.234 l 132.539 736.055 l S
139.77 741.145 m 139.77 741.461 l 140.035 742.098 l 140.301 742.414 l 140.828
 742.734 l 141.883 742.734 l 142.414 742.414 l 142.676 742.098 l 142.941
 741.461 l 142.941 740.824 l 142.676 740.188 l 142.148 739.234 l 139.508
 736.055 l 143.207 736.055 l S
146.641 742.734 m 145.848 742.414 l 145.32 741.461 l 145.055 739.871 l 
145.055 738.918 l 145.32 737.328 l 145.848 736.375 l 146.641 736.055 l 147.168
 736.055 l 147.961 736.375 l 148.488 737.328 l 148.754 738.918 l 148.754
 739.871 l 148.488 741.461 l 147.961 742.414 l 147.168 742.734 l 146.641
 742.734 l S
150.867 741.145 m 150.867 741.461 l 151.133 742.098 l 151.395 742.414 l
 151.926 742.734 l 152.98 742.734 l 153.508 742.414 l 153.773 742.098 l 
154.039 741.461 l 154.039 740.824 l 153.773 740.188 l 153.246 739.234 l 
150.602 736.055 l 154.301 736.055 l S
156.945 741.461 m 157.473 741.777 l 158.266 742.734 l 158.266 736.055 l
 S
167.484 741.461 m 168.016 741.777 l 168.809 742.734 l 168.809 736.055 l
 S
174.883 742.734 m 172.242 738.281 l 176.203 738.281 l S
174.883 742.734 m 174.883 736.055 l S
178.25 740.508 m 177.988 740.188 l 178.25 739.871 l 178.516 740.188 l 178.25
 740.508 l S
178.25 736.691 m 177.988 736.375 l 178.25 736.055 l 178.516 736.375 l 178.25
 736.691 l S
181.094 742.734 m 184 742.734 l 182.414 740.188 l 183.207 740.188 l 183.734
 739.871 l 184 739.555 l 184.262 738.598 l 184.262 737.965 l 184 737.008
 l 183.469 736.375 l 182.676 736.055 l 181.883 736.055 l 181.094 736.375
 l 180.828 736.691 l 180.562 737.328 l S
186.641 742.734 m 189.547 742.734 l 187.961 740.188 l 188.754 740.188 l
 189.281 739.871 l 189.547 739.555 l 189.812 738.598 l 189.812 737.965 l
 189.547 737.008 l 189.02 736.375 l 188.227 736.055 l 187.434 736.055 l 
186.641 736.375 l 186.375 736.691 l 186.113 737.328 l S
192.121 740.508 m 191.859 740.188 l 192.121 739.871 l 192.387 740.188 l
 192.121 740.508 l S
192.121 736.691 m 191.859 736.375 l 192.121 736.055 l 192.387 736.375 l
 192.121 736.691 l S
197.605 742.734 m 194.961 742.734 l 194.699 739.871 l 194.961 740.188 l
 195.754 740.508 l 196.547 740.508 l 197.34 740.188 l 197.867 739.555 l 
198.133 738.598 l 198.133 737.965 l 197.867 737.008 l 197.34 736.375 l 196.547
 736.055 l 195.754 736.055 l 194.961 736.375 l 194.699 736.691 l 194.434
 737.328 l S
200.512 742.734 m 203.418 742.734 l 201.832 740.188 l 202.625 740.188 l
 203.152 739.871 l 203.418 739.555 l 203.68 738.598 l 203.68 737.965 l 203.418
 737.008 l 202.891 736.375 l 202.098 736.055 l 201.305 736.055 l 200.512
 736.375 l 200.246 736.691 l 199.984 737.328 l S
213.207 741.777 m 213.207 736.055 l S
210.828 738.918 m 215.582 738.918 l S
219.32 742.734 m 218.531 742.414 l 218 741.461 l 217.738 739.871 l 217.738
 738.918 l 218 737.328 l 218.531 736.375 l 219.32 736.055 l 219.852 736.055
 l 220.645 736.375 l 221.172 737.328 l 221.438 738.918 l 221.438 739.871
 l 221.172 741.461 l 220.645 742.414 l 219.852 742.734 l 219.32 742.734 
l S
226.719 740.508 m 226.457 739.555 l 225.926 738.918 l 225.133 738.598 l
 224.871 738.598 l 224.078 738.918 l 223.551 739.555 l 223.285 740.508 l
 223.285 740.824 l 223.551 741.777 l 224.078 742.414 l 224.871 742.734 l
 225.133 742.734 l 225.926 742.414 l 226.457 741.777 l 226.719 740.508 l
 226.719 738.918 l 226.457 737.328 l 225.926 736.375 l 225.133 736.055 l
 224.605 736.055 l 223.812 736.375 l 223.551 737.008 l S
230.418 742.734 m 229.625 742.414 l 229.098 741.461 l 228.832 739.871 l
 228.832 738.918 l 229.098 737.328 l 229.625 736.375 l 230.418 736.055 l
 230.945 736.055 l 231.738 736.375 l 232.27 737.328 l 232.531 738.918 l 
232.531 739.871 l 232.27 741.461 l 231.738 742.414 l 230.945 742.734 l 230.418
 742.734 l S
235.965 742.734 m 235.176 742.414 l 234.645 741.461 l 234.383 739.871 l
 234.383 738.918 l 234.645 737.328 l 235.176 736.375 l 235.965 736.055 l
 236.496 736.055 l 237.289 736.375 l 237.816 737.328 l 238.082 738.918 l
 238.082 739.871 l 237.816 741.461 l 237.289 742.414 l 236.496 742.734 l
 235.965 742.734 l S
248.082 739.555 m 247.551 740.188 l 247.023 740.508 l 246.23 740.508 l 
245.703 740.188 l 245.176 739.555 l 244.91 738.598 l 244.91 737.965 l 245.176
 737.008 l 245.703 736.375 l 246.23 736.055 l 247.023 736.055 l 247.551 
736.375 l 248.082 737.008 l S
253.211 740.508 m 253.211 736.055 l S
253.211 739.555 m 252.684 740.188 l 252.156 740.508 l 251.363 740.508 l
 250.836 740.188 l 250.305 739.555 l 250.043 738.598 l 250.043 737.965 l
 250.305 737.008 l 250.836 736.375 l 251.363 736.055 l 252.156 736.055 l
 252.684 736.375 l 253.211 737.008 l S
255.371 742.734 m 255.371 736.055 l S
257.117 740.508 m 258.703 736.055 l S
260.285 740.508 m 258.703 736.055 l 258.172 734.785 l 257.645 734.148 l
 257.117 733.828 l 256.852 733.828 l S
261.973 740.508 m 261.973 733.828 l S
261.973 739.555 m 262.5 740.188 l 263.027 740.508 l 263.82 740.508 l 264.348
 740.188 l 264.879 739.555 l 265.141 738.598 l 265.141 737.965 l 264.879
 737.008 l 264.348 736.375 l 263.82 736.055 l 263.027 736.055 l 262.5 736.375
 l 261.973 737.008 l S
270.133 739.555 m 269.871 740.188 l 269.078 740.508 l 268.285 740.508 l
 267.492 740.188 l 267.227 739.555 l 267.492 738.918 l 268.02 738.598 l 
269.344 738.281 l 269.871 737.965 l 270.133 737.328 l 270.133 737.008 l 
269.871 736.375 l 269.078 736.055 l 268.285 736.055 l 267.492 736.375 l 
267.227 737.008 l S
273.277 740.508 m 272.75 740.188 l 272.223 739.555 l 271.957 738.598 l 
271.957 737.965 l 272.223 737.008 l 272.75 736.375 l 273.277 736.055 l 274.07
 736.055 l 274.602 736.375 l 275.129 737.008 l 275.391 737.965 l 275.391
 738.598 l 275.129 739.555 l 274.602 740.188 l 274.07 740.508 l 273.277 
740.508 l S
277.566 736.691 m 277.301 736.375 l 277.566 736.055 l 277.828 736.375 l
 277.566 736.691 l S
280.004 742.734 m 280.004 736.055 l S
280.004 739.555 m 280.531 740.188 l 281.059 740.508 l 281.852 740.508 l
 282.379 740.188 l 282.91 739.555 l 283.172 738.598 l 283.172 737.965 l 
282.91 737.008 l 282.379 736.375 l 281.852 736.055 l 281.059 736.055 l 280.531
 736.375 l 280.004 737.008 l S
286.594 740.508 m 286.066 740.188 l 285.539 739.555 l 285.273 738.598 l
 285.273 737.965 l 285.539 737.008 l 286.066 736.375 l 286.594 736.055 l
 287.387 736.055 l 287.914 736.375 l 288.445 737.008 l 288.707 737.965 l
 288.707 738.598 l 288.445 739.555 l 287.914 740.188 l 287.387 740.508 l
 286.594 740.508 l S
293.438 739.555 m 293.172 740.188 l 292.379 740.508 l 291.586 740.508 l
 290.797 740.188 l 290.531 739.555 l 290.797 738.918 l 291.324 738.598 l
 292.645 738.281 l 293.172 737.965 l 293.438 737.328 l 293.438 737.008 l
 293.172 736.375 l 292.379 736.055 l 291.586 736.055 l 290.797 736.375 l
 290.531 737.008 l S
298.43 740.508 m 298.43 736.055 l S
298.43 739.555 m 297.902 740.188 l 297.375 740.508 l 296.582 740.508 l 
296.055 740.188 l 295.523 739.555 l 295.262 738.598 l 295.262 737.965 l 
295.523 737.008 l 296.055 736.375 l 296.582 736.055 l 297.375 736.055 l 
297.902 736.375 l 298.43 737.008 l S
300.328 742.734 m 300.59 742.414 l 300.855 742.734 l 300.59 743.051 l 300.328
 742.734 l S
300.59 740.508 m 300.59 736.055 l S
303.086 736.691 m 302.824 736.375 l 303.086 736.055 l 303.352 736.375 l
 303.086 736.691 l S
308.695 740.508 m 308.695 735.418 l 308.43 734.465 l 308.168 734.148 l 
307.637 733.828 l 306.844 733.828 l 306.316 734.148 l S
308.695 739.555 m 308.168 740.188 l 307.637 740.508 l 306.844 740.508 l
 306.316 740.188 l 305.789 739.555 l 305.523 738.598 l 305.523 737.965 l
 305.789 737.008 l 306.316 736.375 l 306.844 736.055 l 307.637 736.055 l
 308.168 736.375 l 308.695 737.008 l S
312.117 740.508 m 311.586 740.188 l 311.059 739.555 l 310.797 738.598 l
 310.797 737.965 l 311.059 737.008 l 311.586 736.375 l 312.117 736.055 l
 312.91 736.055 l 313.438 736.375 l 313.965 737.008 l 314.23 737.965 l 314.23
 738.598 l 313.965 739.555 l 313.438 740.188 l 312.91 740.508 l 312.117 
740.508 l S
316.402 736.691 m 316.141 736.375 l 316.402 736.055 l 316.668 736.375 l
 316.402 736.691 l S
319.176 742.734 m 319.441 742.414 l 319.707 742.734 l 319.441 743.051 l
 319.176 742.734 l S
319.441 740.508 m 319.441 735.102 l 319.176 734.148 l 318.648 733.828 l
 318.121 733.828 l S
321.613 740.508 m 321.613 733.828 l S
321.613 739.555 m 322.145 740.188 l 322.672 740.508 l 323.465 740.508 l
 323.992 740.188 l 324.52 739.555 l 324.785 738.598 l 324.785 737.965 l 
324.52 737.008 l 323.992 736.375 l 323.465 736.055 l 322.672 736.055 l 322.145
 736.375 l 321.613 737.008 l S
Q Q
showpage
%%Trailer
end restore
%%EOF
