【LFM-P データ内容】

＜解析値＞
$ wgrib2 Z__C_RJTD_20220618000000_LFM_GPV_Rjp_L-pall_FH0000.grib2
 
1.1:0:d=2022061800:HGT:1000 mb:anl:
1.2:0:d=2022061800:UGRD:1000 mb:anl:
1.3:0:d=2022061800:VGRD:1000 mb:anl:
1.4:0:d=2022061800:TMP:1000 mb:anl:
1.5:0:d=2022061800:VVEL:1000 mb:anl:
1.6:0:d=2022061800:RH:1000 mb:anl:
1.7:0:d=2022061800:HGT:975 mb:anl:
1.8:0:d=2022061800:UGRD:975 mb:anl:
1.9:0:d=2022061800:VGRD:975 mb:anl:
1.10:0:d=2022061800:TMP:975 mb:anl:
1.11:0:d=2022061800:VVEL:975 mb:anl:
1.12:0:d=2022061800:RH:975 mb:anl:
1.13:0:d=2022061800:HGT:950 mb:anl:
1.14:0:d=2022061800:UGRD:950 mb:anl:
1.15:0:d=2022061800:VGRD:950 mb:anl:
1.16:0:d=2022061800:TMP:950 mb:anl:
1.17:0:d=2022061800:VVEL:950 mb:anl:
1.18:0:d=2022061800:RH:950 mb:anl:
1.19:0:d=2022061800:HGT:925 mb:anl:
1.20:0:d=2022061800:UGRD:925 mb:anl:
1.21:0:d=2022061800:VGRD:925 mb:anl:
1.22:0:d=2022061800:TMP:925 mb:anl:
1.23:0:d=2022061800:VVEL:925 mb:anl:
1.24:0:d=2022061800:RH:925 mb:anl:
1.25:0:d=2022061800:HGT:900 mb:anl:
1.26:0:d=2022061800:UGRD:900 mb:anl:
1.27:0:d=2022061800:VGRD:900 mb:anl:
1.28:0:d=2022061800:TMP:900 mb:anl:
1.29:0:d=2022061800:VVEL:900 mb:anl:
1.30:0:d=2022061800:RH:900 mb:anl:
1.31:0:d=2022061800:HGT:850 mb:anl:
1.32:0:d=2022061800:UGRD:850 mb:anl:
1.33:0:d=2022061800:VGRD:850 mb:anl:
1.34:0:d=2022061800:TMP:850 mb:anl:
1.35:0:d=2022061800:VVEL:850 mb:anl:
1.36:0:d=2022061800:RH:850 mb:anl:
1.37:0:d=2022061800:HGT:800 mb:anl:
1.38:0:d=2022061800:UGRD:800 mb:anl:
1.39:0:d=2022061800:VGRD:800 mb:anl:
1.40:0:d=2022061800:TMP:800 mb:anl:
1.41:0:d=2022061800:VVEL:800 mb:anl:
1.42:0:d=2022061800:RH:800 mb:anl:
1.43:0:d=2022061800:HGT:700 mb:anl:
1.44:0:d=2022061800:UGRD:700 mb:anl:
1.45:0:d=2022061800:VGRD:700 mb:anl:
1.46:0:d=2022061800:TMP:700 mb:anl:
1.47:0:d=2022061800:VVEL:700 mb:anl:
1.48:0:d=2022061800:RH:700 mb:anl:
1.49:0:d=2022061800:HGT:600 mb:anl:
1.50:0:d=2022061800:UGRD:600 mb:anl:
1.51:0:d=2022061800:VGRD:600 mb:anl:
1.52:0:d=2022061800:TMP:600 mb:anl:
1.53:0:d=2022061800:VVEL:600 mb:anl:
1.54:0:d=2022061800:RH:600 mb:anl:
1.55:0:d=2022061800:HGT:500 mb:anl:
1.56:0:d=2022061800:UGRD:500 mb:anl:
1.57:0:d=2022061800:VGRD:500 mb:anl:
1.58:0:d=2022061800:TMP:500 mb:anl:
1.59:0:d=2022061800:VVEL:500 mb:anl:
1.60:0:d=2022061800:RH:500 mb:anl:
1.61:0:d=2022061800:HGT:400 mb:anl:
1.62:0:d=2022061800:UGRD:400 mb:anl:
1.63:0:d=2022061800:VGRD:400 mb:anl:
1.64:0:d=2022061800:TMP:400 mb:anl:
1.65:0:d=2022061800:VVEL:400 mb:anl:
1.66:0:d=2022061800:RH:400 mb:anl:
1.67:0:d=2022061800:HGT:300 mb:anl:
1.68:0:d=2022061800:UGRD:300 mb:anl:
1.69:0:d=2022061800:VGRD:300 mb:anl:
1.70:0:d=2022061800:TMP:300 mb:anl:
1.71:0:d=2022061800:VVEL:300 mb:anl:
1.72:0:d=2022061800:RH:300 mb:anl:
1.73:0:d=2022061800:HGT:250 mb:anl:
1.74:0:d=2022061800:UGRD:250 mb:anl:
1.75:0:d=2022061800:VGRD:250 mb:anl:
1.76:0:d=2022061800:TMP:250 mb:anl:
1.77:0:d=2022061800:VVEL:250 mb:anl:
1.78:0:d=2022061800:HGT:200 mb:anl:
1.79:0:d=2022061800:UGRD:200 mb:anl:
1.80:0:d=2022061800:VGRD:200 mb:anl:
1.81:0:d=2022061800:TMP:200 mb:anl:
1.82:0:d=2022061800:VVEL:200 mb:anl:
1.83:0:d=2022061800:HGT:150 mb:anl:
1.84:0:d=2022061800:UGRD:150 mb:anl:
1.85:0:d=2022061800:VGRD:150 mb:anl:
1.86:0:d=2022061800:TMP:150 mb:anl:
1.87:0:d=2022061800:VVEL:150 mb:anl:
1.88:0:d=2022061800:HGT:100 mb:anl:
1.89:0:d=2022061800:UGRD:100 mb:anl:
1.90:0:d=2022061800:VGRD:100 mb:anl:
1.91:0:d=2022061800:TMP:100 mb:anl:
1.92:0:d=2022061800:VVEL:100 mb:anl:


＜予報値＞
$ wgrib2 Z__C_RJTD_20220618000000_LFM_GPV_Rjp_L-pall_FH0300.grib2 

1.1:0:d=2022061800:HGT:1000 mb:180 min fcst:
1.2:0:d=2022061800:UGRD:1000 mb:180 min fcst:
1.3:0:d=2022061800:VGRD:1000 mb:180 min fcst:
1.4:0:d=2022061800:TMP:1000 mb:180 min fcst:
1.5:0:d=2022061800:VVEL:1000 mb:180 min fcst:
1.6:0:d=2022061800:RH:1000 mb:180 min fcst:
1.7:0:d=2022061800:HGT:975 mb:180 min fcst:
1.8:0:d=2022061800:UGRD:975 mb:180 min fcst:
1.9:0:d=2022061800:VGRD:975 mb:180 min fcst:
1.10:0:d=2022061800:TMP:975 mb:180 min fcst:
1.11:0:d=2022061800:VVEL:975 mb:180 min fcst:
1.12:0:d=2022061800:RH:975 mb:180 min fcst:
1.13:0:d=2022061800:HGT:950 mb:180 min fcst:
1.14:0:d=2022061800:UGRD:950 mb:180 min fcst:
1.15:0:d=2022061800:VGRD:950 mb:180 min fcst:
1.16:0:d=2022061800:TMP:950 mb:180 min fcst:
1.17:0:d=2022061800:VVEL:950 mb:180 min fcst:
1.18:0:d=2022061800:RH:950 mb:180 min fcst:
1.19:0:d=2022061800:HGT:925 mb:180 min fcst:
1.20:0:d=2022061800:UGRD:925 mb:180 min fcst:
1.21:0:d=2022061800:VGRD:925 mb:180 min fcst:
1.22:0:d=2022061800:TMP:925 mb:180 min fcst:
1.23:0:d=2022061800:VVEL:925 mb:180 min fcst:
1.24:0:d=2022061800:RH:925 mb:180 min fcst:
1.25:0:d=2022061800:HGT:900 mb:180 min fcst:
1.26:0:d=2022061800:UGRD:900 mb:180 min fcst:
1.27:0:d=2022061800:VGRD:900 mb:180 min fcst:
1.28:0:d=2022061800:TMP:900 mb:180 min fcst:
1.29:0:d=2022061800:VVEL:900 mb:180 min fcst:
1.30:0:d=2022061800:RH:900 mb:180 min fcst:
1.31:0:d=2022061800:HGT:850 mb:180 min fcst:
1.32:0:d=2022061800:UGRD:850 mb:180 min fcst:
1.33:0:d=2022061800:VGRD:850 mb:180 min fcst:
1.34:0:d=2022061800:TMP:850 mb:180 min fcst:
1.35:0:d=2022061800:VVEL:850 mb:180 min fcst:
1.36:0:d=2022061800:RH:850 mb:180 min fcst:
1.37:0:d=2022061800:HGT:800 mb:180 min fcst:
1.38:0:d=2022061800:UGRD:800 mb:180 min fcst:
1.39:0:d=2022061800:VGRD:800 mb:180 min fcst:
1.40:0:d=2022061800:TMP:800 mb:180 min fcst:
1.41:0:d=2022061800:VVEL:800 mb:180 min fcst:
1.42:0:d=2022061800:RH:800 mb:180 min fcst:
1.43:0:d=2022061800:HGT:700 mb:180 min fcst:
1.44:0:d=2022061800:UGRD:700 mb:180 min fcst:
1.45:0:d=2022061800:VGRD:700 mb:180 min fcst:
1.46:0:d=2022061800:TMP:700 mb:180 min fcst:
1.47:0:d=2022061800:VVEL:700 mb:180 min fcst:
1.48:0:d=2022061800:RH:700 mb:180 min fcst:
1.49:0:d=2022061800:HGT:600 mb:180 min fcst:
1.50:0:d=2022061800:UGRD:600 mb:180 min fcst:
1.51:0:d=2022061800:VGRD:600 mb:180 min fcst:
1.52:0:d=2022061800:TMP:600 mb:180 min fcst:
1.53:0:d=2022061800:VVEL:600 mb:180 min fcst:
1.54:0:d=2022061800:RH:600 mb:180 min fcst:
1.55:0:d=2022061800:HGT:500 mb:180 min fcst:
1.56:0:d=2022061800:UGRD:500 mb:180 min fcst:
1.57:0:d=2022061800:VGRD:500 mb:180 min fcst:
1.58:0:d=2022061800:TMP:500 mb:180 min fcst:
1.59:0:d=2022061800:VVEL:500 mb:180 min fcst:
1.60:0:d=2022061800:RH:500 mb:180 min fcst:
1.61:0:d=2022061800:HGT:400 mb:180 min fcst:
1.62:0:d=2022061800:UGRD:400 mb:180 min fcst:
1.63:0:d=2022061800:VGRD:400 mb:180 min fcst:
1.64:0:d=2022061800:TMP:400 mb:180 min fcst:
1.65:0:d=2022061800:VVEL:400 mb:180 min fcst:
1.66:0:d=2022061800:RH:400 mb:180 min fcst:
1.67:0:d=2022061800:HGT:300 mb:180 min fcst:
1.68:0:d=2022061800:UGRD:300 mb:180 min fcst:
1.69:0:d=2022061800:VGRD:300 mb:180 min fcst:
1.70:0:d=2022061800:TMP:300 mb:180 min fcst:
1.71:0:d=2022061800:VVEL:300 mb:180 min fcst:
1.72:0:d=2022061800:RH:300 mb:180 min fcst:
1.73:0:d=2022061800:HGT:250 mb:180 min fcst:
1.74:0:d=2022061800:UGRD:250 mb:180 min fcst:
1.75:0:d=2022061800:VGRD:250 mb:180 min fcst:
1.76:0:d=2022061800:TMP:250 mb:180 min fcst:
1.77:0:d=2022061800:VVEL:250 mb:180 min fcst:
1.78:0:d=2022061800:HGT:200 mb:180 min fcst:
1.79:0:d=2022061800:UGRD:200 mb:180 min fcst:
1.80:0:d=2022061800:VGRD:200 mb:180 min fcst:
1.81:0:d=2022061800:TMP:200 mb:180 min fcst:
1.82:0:d=2022061800:VVEL:200 mb:180 min fcst:
1.83:0:d=2022061800:HGT:150 mb:180 min fcst:
1.84:0:d=2022061800:UGRD:150 mb:180 min fcst:
1.85:0:d=2022061800:VGRD:150 mb:180 min fcst:
1.86:0:d=2022061800:TMP:150 mb:180 min fcst:
1.87:0:d=2022061800:VVEL:150 mb:180 min fcst:
1.88:0:d=2022061800:HGT:100 mb:180 min fcst:
1.89:0:d=2022061800:UGRD:100 mb:180 min fcst:
1.90:0:d=2022061800:VGRD:100 mb:180 min fcst:
1.91:0:d=2022061800:TMP:100 mb:180 min fcst:
1.92:0:d=2022061800:VVEL:100 mb:180 min fcst:

-------------------------------------------------

【LFM-S データ内容】

＜解析値＞
$ wgrib2 Z__C_RJTD_20220618000000_LFM_GPV_Rjp_Lsurf_FH0000.grib2

1.1:0:d=2022061800:PRMSL:mean sea level:anl:
1.2:0:d=2022061800:PRES:surface:anl:
1.3:0:d=2022061800:UGRD:10 m above ground:anl:
1.4:0:d=2022061800:VGRD:10 m above ground:anl:
1.5:0:d=2022061800:TMP:1.5 m above ground:anl:
1.6:0:d=2022061800:RH:1.5 m above ground:anl:
1.7:0:d=2022061800:TCDC:surface:anl:
1.8:0:d=2022061800:LCDC:surface:anl:
1.9:0:d=2022061800:MCDC:surface:anl:
1.10:0:d=2022061800:HCDC:surface:anl:

＜予報値＞
$ wgrib2 Z__C_RJTD_20220618000000_LFM_GPV_Rjp_Lsurf_FH0300.grib2
 
1.1:0:d=2022061800:PRMSL:mean sea level:180 min fcst:
1.2:0:d=2022061800:PRES:surface:180 min fcst:
1.3:0:d=2022061800:UGRD:10 m above ground:180 min fcst:
1.4:0:d=2022061800:VGRD:10 m above ground:180 min fcst:
1.5:0:d=2022061800:TMP:1.5 m above ground:180 min fcst:
1.6:0:d=2022061800:RH:1.5 m above ground:180 min fcst:
1.7:0:d=2022061800:APCP:surface:0-3 hour acc fcst:
1.8:0:d=2022061800:TCDC:surface:180 min fcst:
1.9:0:d=2022061800:LCDC:surface:180 min fcst:
1.10:0:d=2022061800:MCDC:surface:180 min fcst:
1.11:0:d=2022061800:HCDC:surface:180 min fcst:
1.12:0:d=2022061800:DSWRF:surface:150-180 min ave fcst: