30.16222 128.33614  N1 
30.15819 128.18969  N2 
30.15367 128.03339  N3 
30.29908 127.99972  N4 
30.29889 128.16494  N5 
30.30233 128.33431  N6 
30.36983 128.33314  N7 
30.43983 128.33206  N8 
30.44258 128.16161  N9 
30.44222 128.00200  N10
30.58150 127.99919  N11
30.58350 128.16517  N12
30.58381 128.33361  N13
30.72578 128.33128  N14
30.72681 128.16569  N15
30.72581 128.00053  N16
30.86994 127.99764  N17
30.86847 128.16911  N18
30.94378 128.33625  N19
31.00864 128.33289  N20
31.00761 128.17842  N21
31.00722 128.01431  N22
31.14894 128.00022  N23
31.14911 128.16703  N24
31.15069 128.33217  N25
30.15897 128.83269  K1 
30.15839 128.66589  K2 
30.15867 128.49875  K3 
30.30075 128.66897  K4 
30.29939 128.83464  K5 
30.44311 128.83461  K6 
30.44597 128.66678  K7 
30.44422 128.50136  K8 
30.58239 128.50175  K9 
30.59267 128.63408  K10
30.58375 128.83636  K11
30.72444 128.83303  K12
30.73025 128.66567  K13
30.72403 128.50219  K14
30.86617 128.49658  K15
30.86400 128.66736  K16
30.86864 128.83239  K17
31.00853 128.83325  K18
31.01069 128.67522  K19
31.00969 128.50397  K20
31.15183 128.49997  K21
31.14761 128.66928  K22
31.15294 128.83231  K23
30.15867 129.33203  S1 
30.15864 129.16567  S2 
30.15939 128.99892  S3 
30.30061 129.00161  S4 
30.29919 129.17075  S5 
30.30097 129.33619  S6 
30.44078 129.33644  S7 
30.43842 129.16903  S8 
30.44164 128.99983  S9 
30.58406 129.00081  S10
30.58289 129.16889  S11
30.58314 129.33519  S12
30.72464 129.33200  S13
30.72467 129.16617  S14
30.72500 129.00086  S15
30.86739 128.99964  S16
30.86658 129.16647  S17
30.86639 129.33272  S18
31.00725 129.33222  S19
31.00878 129.16236  S20
31.00872 129.00047  S21
31.14972 129.00081  S22
31.15144 129.16450  S23
31.15119 129.33217  S24
