/work03/2021/nakamuro/32.12.RAIN/32.12.R1H_HISTOGRAM_DAILY/12.12.MAKE.HISTO.DATA/NC_HISTO/N-KYUSHU01/MSM
Tue, 27 Dec 2022 13:34:53 +0900
/work03/2021/nakamuro/32.12.RAIN/32.12.R1H_HISTOGRAM_DAILY/12.12.MAKE.HISTO.DATA/NC_HISTO/N-KYUSHU01/MSM
Tue, 27 Dec 2022 13:39:57 +0900
/work03/2021/nakamuro/32.12.RAIN/32.12.R1H_HISTOGRAM_DAILY/12.12.MAKE.HISTO.DATA/NC_HISTO/N-KYUSHU01/MSM
Tue, 27 Dec 2022 13:43:33 +0900
/work03/2021/nakamuro/32.12.RAIN/32.12.R1H_HISTOGRAM_DAILY/12.12.MAKE.HISTO.DATA/NC_HISTO/N-KYUSHU01/MSM
Tue, 27 Dec 2022 13:45:06 +0900
/work03/2021/nakamuro/32.12.RAIN/32.12.R1H_HISTOGRAM_DAILY/12.12.MAKE.HISTO.DATA/NC_HISTO/N-KYUSHU01/MSM
Tue, 27 Dec 2022 13:45:49 +0900
/work03/2021/nakamuro/32.12.RAIN/32.12.R1H_HISTOGRAM_DAILY/12.12.MAKE.HISTO.DATA/NC_HISTO/N-KYUSHU01/MSM
Tue, 27 Dec 2022 13:45:50 +0900
/work03/2021/nakamuro/32.12.RAIN/32.12.R1H_HISTOGRAM_DAILY/12.12.MAKE.HISTO.DATA/NC_HISTO/N-KYUSHU01/MSM
Tue, 27 Dec 2022 13:45:52 +0900
/work03/2021/nakamuro/32.12.RAIN/32.12.R1H_HISTOGRAM_DAILY/12.12.MAKE.HISTO.DATA/NC_HISTO/N-KYUSHU01/MSM
Tue, 27 Dec 2022 13:45:53 +0900
/work03/2021/nakamuro/32.12.RAIN/32.12.R1H_HISTOGRAM_DAILY/12.12.MAKE.HISTO.DATA/NC_HISTO/N-KYUSHU01/MSM
Tue, 27 Dec 2022 13:46:30 +0900
/work03/2021/nakamuro/32.12.RAIN/32.12.R1H_HISTOGRAM_DAILY/12.12.MAKE.HISTO.DATA/NC_HISTO/N-KYUSHU01/MSM
Tue, 27 Dec 2022 13:46:32 +0900
/work03/2021/nakamuro/32.12.RAIN/32.12.R1H_HISTOGRAM_DAILY/12.12.MAKE.HISTO.DATA/NC_HISTO/N-KYUSHU01/MSM
Tue, 27 Dec 2022 13:46:33 +0900
/work03/2021/nakamuro/32.12.RAIN/32.12.R1H_HISTOGRAM_DAILY/12.12.MAKE.HISTO.DATA/NC_HISTO/N-KYUSHU01/MSM
Tue, 27 Dec 2022 13:46:35 +0900
/work03/2021/nakamuro/32.12.RAIN/32.12.R1H_HISTOGRAM_DAILY/12.12.MAKE.HISTO.DATA/NC_HISTO/N-KYUSHU01/MSM
Tue, 27 Dec 2022 13:46:36 +0900
/work03/2021/nakamuro/32.12.RAIN/32.12.R1H_HISTOGRAM_DAILY/12.12.MAKE.HISTO.DATA/NC_HISTO/N-KYUSHU01/MSM
Tue, 27 Dec 2022 13:46:38 +0900
/work03/2021/nakamuro/32.12.RAIN/32.12.R1H_HISTOGRAM_DAILY/12.12.MAKE.HISTO.DATA/NC_HISTO/N-KYUSHU01/MSM
Tue, 27 Dec 2022 13:46:39 +0900
/work03/2021/nakamuro/32.12.RAIN/32.12.R1H_HISTOGRAM_DAILY/12.12.MAKE.HISTO.DATA/NC_HISTO/N-KYUSHU01/MSM
Tue, 27 Dec 2022 13:47:12 +0900
/work03/2021/nakamuro/32.12.RAIN/32.12.R1H_HISTOGRAM_DAILY/12.12.MAKE.HISTO.DATA/NC_HISTO/N-KYUSHU01/MSM
Tue, 27 Dec 2022 13:47:34 +0900
/work03/2021/nakamuro/32.12.RAIN/32.12.R1H_HISTOGRAM_DAILY/12.12.MAKE.HISTO.DATA/NC_HISTO/N-KYUSHU01/MSM
Tue, 27 Dec 2022 13:47:36 +0900
/work03/2021/nakamuro/32.12.RAIN/32.12.R1H_HISTOGRAM_DAILY/12.12.MAKE.HISTO.DATA/NC_HISTO/N-KYUSHU01/MSM
Tue, 27 Dec 2022 13:47:49 +0900
/work03/2021/nakamuro/32.12.RAIN/32.12.R1H_HISTOGRAM_DAILY/12.12.MAKE.HISTO.DATA/NC_HISTO/N-KYUSHU01/MSM
Tue, 27 Dec 2022 13:48:52 +0900
/work03/2021/nakamuro/32.12.RAIN/32.12.R1H_HISTOGRAM_DAILY/12.12.MAKE.HISTO.DATA/NC_HISTO/N-KYUSHU01/MSM
Tue, 27 Dec 2022 13:48:54 +0900
/work03/2021/nakamuro/32.12.RAIN/32.12.R1H_HISTOGRAM_DAILY/12.12.MAKE.HISTO.DATA/NC_HISTO/N-KYUSHU01/MSM
Tue, 27 Dec 2022 13:48:55 +0900
/work03/2021/nakamuro/32.12.RAIN/32.12.R1H_HISTOGRAM_DAILY/12.12.MAKE.HISTO.DATA/NC_HISTO/N-KYUSHU01/MSM
Tue, 27 Dec 2022 13:48:57 +0900
/work03/2021/nakamuro/32.12.RAIN/32.12.R1H_HISTOGRAM_DAILY/12.12.MAKE.HISTO.DATA/NC_HISTO/N-KYUSHU01/MSM
Tue, 27 Dec 2022 13:49:34 +0900
/work03/2021/nakamuro/32.12.RAIN/32.12.R1H_HISTOGRAM_DAILY/12.12.MAKE.HISTO.DATA/NC_HISTO/N-KYUSHU01/MSM
Tue, 27 Dec 2022 13:49:53 +0900
/work03/2021/nakamuro/32.12.RAIN/32.12.R1H_HISTOGRAM_DAILY/12.12.MAKE.HISTO.DATA/NC_HISTO/N-KYUSHU01/MSM
Tue, 27 Dec 2022 13:50:06 +0900
