
Tue, 28 Nov 2023 15:42:27 +0900
localhost.localdomain
/work09/am/00.WORK/2023.HEAT_FLUX_TREND/32.JOFURO3_DECOMP_FLUX/12.14.TEST_JOF3_1PNT/32.12.COARE30_RAW
am

Note:


'caldat.f90' -> 'SRCBAK_20231128-1542/caldat.f90'
'julday.f90' -> 'SRCBAK_20231128-1542/julday.f90'
'7.TEST_READ_SIMPLIFY.F90' -> 'SRCBAK_20231128-1542/7.TEST_READ_SIMPLIFY.F90'
'COR3_0af_JOF3.F90' -> 'SRCBAK_20231128-1542/COR3_0af_JOF3.F90'
'COR3_0af_MOD.F90' -> 'SRCBAK_20231128-1542/COR3_0af_MOD.F90'
'COR3_0af_NetCDF.F90' -> 'SRCBAK_20231128-1542/COR3_0af_NetCDF.F90'
'COR3_0af_SUB.F90' -> 'SRCBAK_20231128-1542/COR3_0af_SUB.F90'
'cor30a.F90' -> 'SRCBAK_20231128-1542/cor30a.F90'
'cor3_0af.F90' -> 'SRCBAK_20231128-1542/cor3_0af.F90'
'0PLOT_TSR_test3_0_af_out.dat.sh' -> 'SRCBAK_20231128-1542/0PLOT_TSR_test3_0_af_out.dat.sh'
'7.TEST_READ_SIMPLIFY.sh' -> 'SRCBAK_20231128-1542/7.TEST_READ_SIMPLIFY.sh'
'COR3_0af_JOF3.sh' -> 'SRCBAK_20231128-1542/COR3_0af_JOF3.sh'
'cor3_0af.sh' -> 'SRCBAK_20231128-1542/cor3_0af.sh'
