  1988-03-01  1988-03-02  1988-03-03  1988-03-04  1988-03-05  1988-03-06  1988-03-07  1988-03-08  1988-03-09  1988-03-10  1988-03-11  1988-03-12
  1988-03-13  1988-03-14  1988-03-15  1988-03-16  1988-03-17  1988-03-18  1988-03-19  1988-03-20  1988-03-21  1988-03-22  1988-03-23  1988-03-24
  1988-03-25  1988-03-26  1988-03-27  1988-03-28  1988-03-29  1988-03-30  1988-03-31  1988-04-01  1988-04-02  1988-04-03  1988-04-04  1988-04-05
  1988-04-06  1988-04-07  1988-04-08  1988-04-09  1988-04-10  1988-04-11  1988-04-12  1988-04-13  1988-04-14  1988-04-15  1988-04-16  1988-04-17
  1988-04-18  1988-04-19  1988-04-20  1988-04-21  1988-04-22  1988-04-23  1988-04-24  1988-04-25  1988-04-26  1988-04-27  1988-04-28  1988-04-29
  1988-04-30  1988-05-01  1988-05-02  1988-05-03  1988-05-04  1988-05-05  1988-05-06  1988-05-07  1988-05-08  1988-05-09  1988-05-10  1988-05-11
  1988-05-12  1988-05-13  1988-05-14  1988-05-15  1988-05-16  1988-05-17  1988-05-18  1988-05-19  1988-05-20  1988-05-21  1988-05-22  1988-05-23
  1988-05-24  1988-05-25  1988-05-26  1988-05-27  1988-05-28  1988-05-29  1988-05-30  1988-05-31  1989-03-01  1989-03-02  1989-03-03  1989-03-04
  1989-03-05  1989-03-06  1989-03-07  1989-03-08  1989-03-09  1989-03-10  1989-03-11  1989-03-12  1989-03-13  1989-03-14  1989-03-15  1989-03-16
  1989-03-17  1989-03-18  1989-03-19  1989-03-20  1989-03-21  1989-03-22  1989-03-23  1989-03-24  1989-03-25  1989-03-26  1989-03-27  1989-03-28
  1989-03-29  1989-03-30  1989-03-31  1989-04-01  1989-04-02  1989-04-03  1989-04-04  1989-04-05  1989-04-06  1989-04-07  1989-04-08  1989-04-09
  1989-04-10  1989-04-11  1989-04-12  1989-04-13  1989-04-14  1989-04-15  1989-04-16  1989-04-17  1989-04-18  1989-04-19  1989-04-20  1989-04-21
  1989-04-22  1989-04-23  1989-04-24  1989-04-25  1989-04-26  1989-04-27  1989-04-28  1989-04-29  1989-04-30  1989-05-01  1989-05-02  1989-05-03
  1989-05-04  1989-05-05  1989-05-06  1989-05-07  1989-05-08  1989-05-09  1989-05-10  1989-05-11  1989-05-12  1989-05-13  1989-05-14  1989-05-15
  1989-05-16  1989-05-17  1989-05-18  1989-05-19  1989-05-20  1989-05-21  1989-05-22  1989-05-23  1989-05-24  1989-05-25  1989-05-26  1989-05-27
  1989-05-28  1989-05-29  1989-05-30  1989-05-31  1990-03-01  1990-03-02  1990-03-03  1990-03-04  1990-03-05  1990-03-06  1990-03-07  1990-03-08
  1990-03-09  1990-03-10  1990-03-11  1990-03-12  1990-03-13  1990-03-14  1990-03-15  1990-03-16  1990-03-17  1990-03-18  1990-03-19  1990-03-20
  1990-03-21  1990-03-22  1990-03-23  1990-03-24  1990-03-25  1990-03-26  1990-03-27  1990-03-28  1990-03-29  1990-03-30  1990-03-31  1990-04-01
  1990-04-02  1990-04-03  1990-04-04  1990-04-05  1990-04-06  1990-04-07  1990-04-08  1990-04-09  1990-04-10  1990-04-11  1990-04-12  1990-04-13
  1990-04-14  1990-04-15  1990-04-16  1990-04-17  1990-04-18  1990-04-19  1990-04-20  1990-04-21  1990-04-22  1990-04-23  1990-04-24  1990-04-25
  1990-04-26  1990-04-27  1990-04-28  1990-04-29  1990-04-30  1990-05-01  1990-05-02  1990-05-03  1990-05-04  1990-05-05  1990-05-06  1990-05-07
  1990-05-08  1990-05-09  1990-05-10  1990-05-11  1990-05-12  1990-05-13  1990-05-14  1990-05-15  1990-05-16  1990-05-17  1990-05-18  1990-05-19
  1990-05-20  1990-05-21  1990-05-22  1990-05-23  1990-05-24  1990-05-25  1990-05-26  1990-05-27  1990-05-28  1990-05-29  1990-05-30  1990-05-31
  1991-03-01  1991-03-02  1991-03-03  1991-03-04  1991-03-05  1991-03-06  1991-03-07  1991-03-08  1991-03-09  1991-03-10  1991-03-11  1991-03-12
  1991-03-13  1991-03-14  1991-03-15  1991-03-16  1991-03-17  1991-03-18  1991-03-19  1991-03-20  1991-03-21  1991-03-22  1991-03-23  1991-03-24
  1991-03-25  1991-03-26  1991-03-27  1991-03-28  1991-03-29  1991-03-30  1991-03-31  1991-04-01  1991-04-02  1991-04-03  1991-04-04  1991-04-05
  1991-04-06  1991-04-07  1991-04-08  1991-04-09  1991-04-10  1991-04-11  1991-04-12  1991-04-13  1991-04-14  1991-04-15  1991-04-16  1991-04-17
  1991-04-18  1991-04-19  1991-04-20  1991-04-21  1991-04-22  1991-04-23  1991-04-24  1991-04-25  1991-04-26  1991-04-27  1991-04-28  1991-04-29
  1991-04-30  1991-05-01  1991-05-02  1991-05-03  1991-05-04  1991-05-05  1991-05-06  1991-05-07  1991-05-08  1991-05-09  1991-05-10  1991-05-11
  1991-05-12  1991-05-13  1991-05-14  1991-05-15  1991-05-16  1991-05-17  1991-05-18  1991-05-19  1991-05-20  1991-05-21  1991-05-22  1991-05-23
  1991-05-24  1991-05-25  1991-05-26  1991-05-27  1991-05-28  1991-05-29  1991-05-30  1991-05-31  1992-03-01  1992-03-02  1992-03-03  1992-03-04
  1992-03-05  1992-03-06  1992-03-07  1992-03-08  1992-03-09  1992-03-10  1992-03-11  1992-03-12  1992-03-13  1992-03-14  1992-03-15  1992-03-16
  1992-03-17  1992-03-18  1992-03-19  1992-03-20  1992-03-21  1992-03-22  1992-03-23  1992-03-24  1992-03-25  1992-03-26  1992-03-27  1992-03-28
  1992-03-29  1992-03-30  1992-03-31  1992-04-01  1992-04-02  1992-04-03  1992-04-04  1992-04-05  1992-04-06  1992-04-07  1992-04-08  1992-04-09
  1992-04-10  1992-04-11  1992-04-12  1992-04-13  1992-04-14  1992-04-15  1992-04-16  1992-04-17  1992-04-18  1992-04-19  1992-04-20  1992-04-21
  1992-04-22  1992-04-23  1992-04-24  1992-04-25  1992-04-26  1992-04-27  1992-04-28  1992-04-29  1992-04-30  1992-05-01  1992-05-02  1992-05-03
  1992-05-04  1992-05-05  1992-05-06  1992-05-07  1992-05-08  1992-05-09  1992-05-10  1992-05-11  1992-05-12  1992-05-13  1992-05-14  1992-05-15
  1992-05-16  1992-05-17  1992-05-18  1992-05-19  1992-05-20  1992-05-21  1992-05-22  1992-05-23  1992-05-24  1992-05-25  1992-05-26  1992-05-27
  1992-05-28  1992-05-29  1992-05-30  1992-05-31  1993-03-01  1993-03-02  1993-03-03  1993-03-04  1993-03-05  1993-03-06  1993-03-07  1993-03-08
  1993-03-09  1993-03-10  1993-03-11  1993-03-12  1993-03-13  1993-03-14  1993-03-15  1993-03-16  1993-03-17  1993-03-18  1993-03-19  1993-03-20
  1993-03-21  1993-03-22  1993-03-23  1993-03-24  1993-03-25  1993-03-26  1993-03-27  1993-03-28  1993-03-29  1993-03-30  1993-03-31  1993-04-01
  1993-04-02  1993-04-03  1993-04-04  1993-04-05  1993-04-06  1993-04-07  1993-04-08  1993-04-09  1993-04-10  1993-04-11  1993-04-12  1993-04-13
  1993-04-14  1993-04-15  1993-04-16  1993-04-17  1993-04-18  1993-04-19  1993-04-20  1993-04-21  1993-04-22  1993-04-23  1993-04-24  1993-04-25
  1993-04-26  1993-04-27  1993-04-28  1993-04-29  1993-04-30  1993-05-01  1993-05-02  1993-05-03  1993-05-04  1993-05-05  1993-05-06  1993-05-07
  1993-05-08  1993-05-09  1993-05-10  1993-05-11  1993-05-12  1993-05-13  1993-05-14  1993-05-15  1993-05-16  1993-05-17  1993-05-18  1993-05-19
  1993-05-20  1993-05-21  1993-05-22  1993-05-23  1993-05-24  1993-05-25  1993-05-26  1993-05-27  1993-05-28  1993-05-29  1993-05-30  1993-05-31
  1994-03-01  1994-03-02  1994-03-03  1994-03-04  1994-03-05  1994-03-06  1994-03-07  1994-03-08  1994-03-09  1994-03-10  1994-03-11  1994-03-12
  1994-03-13  1994-03-14  1994-03-15  1994-03-16  1994-03-17  1994-03-18  1994-03-19  1994-03-20  1994-03-21  1994-03-22  1994-03-23  1994-03-24
  1994-03-25  1994-03-26  1994-03-27  1994-03-28  1994-03-29  1994-03-30  1994-03-31  1994-04-01  1994-04-02  1994-04-03  1994-04-04  1994-04-05
  1994-04-06  1994-04-07  1994-04-08  1994-04-09  1994-04-10  1994-04-11  1994-04-12  1994-04-13  1994-04-14  1994-04-15  1994-04-16  1994-04-17
  1994-04-18  1994-04-19  1994-04-20  1994-04-21  1994-04-22  1994-04-23  1994-04-24  1994-04-25  1994-04-26  1994-04-27  1994-04-28  1994-04-29
  1994-04-30  1994-05-01  1994-05-02  1994-05-03  1994-05-04  1994-05-05  1994-05-06  1994-05-07  1994-05-08  1994-05-09  1994-05-10  1994-05-11
  1994-05-12  1994-05-13  1994-05-14  1994-05-15  1994-05-16  1994-05-17  1994-05-18  1994-05-19  1994-05-20  1994-05-21  1994-05-22  1994-05-23
  1994-05-24  1994-05-25  1994-05-26  1994-05-27  1994-05-28  1994-05-29  1994-05-30  1994-05-31  1995-03-01  1995-03-02  1995-03-03  1995-03-04
  1995-03-05  1995-03-06  1995-03-07  1995-03-08  1995-03-09  1995-03-10  1995-03-11  1995-03-12  1995-03-13  1995-03-14  1995-03-15  1995-03-16
  1995-03-17  1995-03-18  1995-03-19  1995-03-20  1995-03-21  1995-03-22  1995-03-23  1995-03-24  1995-03-25  1995-03-26  1995-03-27  1995-03-28
  1995-03-29  1995-03-30  1995-03-31  1995-04-01  1995-04-02  1995-04-03  1995-04-04  1995-04-05  1995-04-06  1995-04-07  1995-04-08  1995-04-09
  1995-04-10  1995-04-11  1995-04-12  1995-04-13  1995-04-14  1995-04-15  1995-04-16  1995-04-17  1995-04-18  1995-04-19  1995-04-20  1995-04-21
  1995-04-22  1995-04-23  1995-04-24  1995-04-25  1995-04-26  1995-04-27  1995-04-28  1995-04-29  1995-04-30  1995-05-01  1995-05-02  1995-05-03
  1995-05-04  1995-05-05  1995-05-06  1995-05-07  1995-05-08  1995-05-09  1995-05-10  1995-05-11  1995-05-12  1995-05-13  1995-05-14  1995-05-15
  1995-05-16  1995-05-17  1995-05-18  1995-05-19  1995-05-20  1995-05-21  1995-05-22  1995-05-23  1995-05-24  1995-05-25  1995-05-26  1995-05-27
  1995-05-28  1995-05-29  1995-05-30  1995-05-31  1996-03-01  1996-03-02  1996-03-03  1996-03-04  1996-03-05  1996-03-06  1996-03-07  1996-03-08
  1996-03-09  1996-03-10  1996-03-11  1996-03-12  1996-03-13  1996-03-14  1996-03-15  1996-03-16  1996-03-17  1996-03-18  1996-03-19  1996-03-20
  1996-03-21  1996-03-22  1996-03-23  1996-03-24  1996-03-25  1996-03-26  1996-03-27  1996-03-28  1996-03-29  1996-03-30  1996-03-31  1996-04-01
  1996-04-02  1996-04-03  1996-04-04  1996-04-05  1996-04-06  1996-04-07  1996-04-08  1996-04-09  1996-04-10  1996-04-11  1996-04-12  1996-04-13
  1996-04-14  1996-04-15  1996-04-16  1996-04-17  1996-04-18  1996-04-19  1996-04-20  1996-04-21  1996-04-22  1996-04-23  1996-04-24  1996-04-25
  1996-04-26  1996-04-27  1996-04-28  1996-04-29  1996-04-30  1996-05-01  1996-05-02  1996-05-03  1996-05-04  1996-05-05  1996-05-06  1996-05-07
  1996-05-08  1996-05-09  1996-05-10  1996-05-11  1996-05-12  1996-05-13  1996-05-14  1996-05-15  1996-05-16  1996-05-17  1996-05-18  1996-05-19
  1996-05-20  1996-05-21  1996-05-22  1996-05-23  1996-05-24  1996-05-25  1996-05-26  1996-05-27  1996-05-28  1996-05-29  1996-05-30  1996-05-31
  1997-03-01  1997-03-02  1997-03-03  1997-03-04  1997-03-05  1997-03-06  1997-03-07  1997-03-08  1997-03-09  1997-03-10  1997-03-11  1997-03-12
  1997-03-13  1997-03-14  1997-03-15  1997-03-16  1997-03-17  1997-03-18  1997-03-19  1997-03-20  1997-03-21  1997-03-22  1997-03-23  1997-03-24
  1997-03-25  1997-03-26  1997-03-27  1997-03-28  1997-03-29  1997-03-30  1997-03-31  1997-04-01  1997-04-02  1997-04-03  1997-04-04  1997-04-05
  1997-04-06  1997-04-07  1997-04-08  1997-04-09  1997-04-10  1997-04-11  1997-04-12  1997-04-13  1997-04-14  1997-04-15  1997-04-16  1997-04-17
  1997-04-18  1997-04-19  1997-04-20  1997-04-21  1997-04-22  1997-04-23  1997-04-24  1997-04-25  1997-04-26  1997-04-27  1997-04-28  1997-04-29
  1997-04-30  1997-05-01  1997-05-02  1997-05-03  1997-05-04  1997-05-05  1997-05-06  1997-05-07  1997-05-08  1997-05-09  1997-05-10  1997-05-11
  1997-05-12  1997-05-13  1997-05-14  1997-05-15  1997-05-16  1997-05-17  1997-05-18  1997-05-19  1997-05-20  1997-05-21  1997-05-22  1997-05-23
  1997-05-24  1997-05-25  1997-05-26  1997-05-27  1997-05-28  1997-05-29  1997-05-30  1997-05-31  1998-03-01  1998-03-02  1998-03-03  1998-03-04
  1998-03-05  1998-03-06  1998-03-07  1998-03-08  1998-03-09  1998-03-10  1998-03-11  1998-03-12  1998-03-13  1998-03-14  1998-03-15  1998-03-16
  1998-03-17  1998-03-18  1998-03-19  1998-03-20  1998-03-21  1998-03-22  1998-03-23  1998-03-24  1998-03-25  1998-03-26  1998-03-27  1998-03-28
  1998-03-29  1998-03-30  1998-03-31  1998-04-01  1998-04-02  1998-04-03  1998-04-04  1998-04-05  1998-04-06  1998-04-07  1998-04-08  1998-04-09
  1998-04-10  1998-04-11  1998-04-12  1998-04-13  1998-04-14  1998-04-15  1998-04-16  1998-04-17  1998-04-18  1998-04-19  1998-04-20  1998-04-21
  1998-04-22  1998-04-23  1998-04-24  1998-04-25  1998-04-26  1998-04-27  1998-04-28  1998-04-29  1998-04-30  1998-05-01  1998-05-02  1998-05-03
  1998-05-04  1998-05-05  1998-05-06  1998-05-07  1998-05-08  1998-05-09  1998-05-10  1998-05-11  1998-05-12  1998-05-13  1998-05-14  1998-05-15
  1998-05-16  1998-05-17  1998-05-18  1998-05-19  1998-05-20  1998-05-21  1998-05-22  1998-05-23  1998-05-24  1998-05-25  1998-05-26  1998-05-27
  1998-05-28  1998-05-29  1998-05-30  1998-05-31  1999-03-01  1999-03-02  1999-03-03  1999-03-04  1999-03-05  1999-03-06  1999-03-07  1999-03-08
  1999-03-09  1999-03-10  1999-03-11  1999-03-12  1999-03-13  1999-03-14  1999-03-15  1999-03-16  1999-03-17  1999-03-18  1999-03-19  1999-03-20
  1999-03-21  1999-03-22  1999-03-23  1999-03-24  1999-03-25  1999-03-26  1999-03-27  1999-03-28  1999-03-29  1999-03-30  1999-03-31  1999-04-01
  1999-04-02  1999-04-03  1999-04-04  1999-04-05  1999-04-06  1999-04-07  1999-04-08  1999-04-09  1999-04-10  1999-04-11  1999-04-12  1999-04-13
  1999-04-14  1999-04-15  1999-04-16  1999-04-17  1999-04-18  1999-04-19  1999-04-20  1999-04-21  1999-04-22  1999-04-23  1999-04-24  1999-04-25
  1999-04-26  1999-04-27  1999-04-28  1999-04-29  1999-04-30  1999-05-01  1999-05-02  1999-05-03  1999-05-04  1999-05-05  1999-05-06  1999-05-07
  1999-05-08  1999-05-09  1999-05-10  1999-05-11  1999-05-12  1999-05-13  1999-05-14  1999-05-15  1999-05-16  1999-05-17  1999-05-18  1999-05-19
  1999-05-20  1999-05-21  1999-05-22  1999-05-23  1999-05-24  1999-05-25  1999-05-26  1999-05-27  1999-05-28  1999-05-29  1999-05-30  1999-05-31
  2000-03-01  2000-03-02  2000-03-03  2000-03-04  2000-03-05  2000-03-06  2000-03-07  2000-03-08  2000-03-09  2000-03-10  2000-03-11  2000-03-12
  2000-03-13  2000-03-14  2000-03-15  2000-03-16  2000-03-17  2000-03-18  2000-03-19  2000-03-20  2000-03-21  2000-03-22  2000-03-23  2000-03-24
  2000-03-25  2000-03-26  2000-03-27  2000-03-28  2000-03-29  2000-03-30  2000-03-31  2000-04-01  2000-04-02  2000-04-03  2000-04-04  2000-04-05
  2000-04-06  2000-04-07  2000-04-08  2000-04-09  2000-04-10  2000-04-11  2000-04-12  2000-04-13  2000-04-14  2000-04-15  2000-04-16  2000-04-17
  2000-04-18  2000-04-19  2000-04-20  2000-04-21  2000-04-22  2000-04-23  2000-04-24  2000-04-25  2000-04-26  2000-04-27  2000-04-28  2000-04-29
  2000-04-30  2000-05-01  2000-05-02  2000-05-03  2000-05-04  2000-05-05  2000-05-06  2000-05-07  2000-05-08  2000-05-09  2000-05-10  2000-05-11
  2000-05-12  2000-05-13  2000-05-14  2000-05-15  2000-05-16  2000-05-17  2000-05-18  2000-05-19  2000-05-20  2000-05-21  2000-05-22  2000-05-23
  2000-05-24  2000-05-25  2000-05-26  2000-05-27  2000-05-28  2000-05-29  2000-05-30  2000-05-31  2001-03-01  2001-03-02  2001-03-03  2001-03-04
  2001-03-05  2001-03-06  2001-03-07  2001-03-08  2001-03-09  2001-03-10  2001-03-11  2001-03-12  2001-03-13  2001-03-14  2001-03-15  2001-03-16
  2001-03-17  2001-03-18  2001-03-19  2001-03-20  2001-03-21  2001-03-22  2001-03-23  2001-03-24  2001-03-25  2001-03-26  2001-03-27  2001-03-28
  2001-03-29  2001-03-30  2001-03-31  2001-04-01  2001-04-02  2001-04-03  2001-04-04  2001-04-05  2001-04-06  2001-04-07  2001-04-08  2001-04-09
  2001-04-10  2001-04-11  2001-04-12  2001-04-13  2001-04-14  2001-04-15  2001-04-16  2001-04-17  2001-04-18  2001-04-19  2001-04-20  2001-04-21
  2001-04-22  2001-04-23  2001-04-24  2001-04-25  2001-04-26  2001-04-27  2001-04-28  2001-04-29  2001-04-30  2001-05-01  2001-05-02  2001-05-03
  2001-05-04  2001-05-05  2001-05-06  2001-05-07  2001-05-08  2001-05-09  2001-05-10  2001-05-11  2001-05-12  2001-05-13  2001-05-14  2001-05-15
  2001-05-16  2001-05-17  2001-05-18  2001-05-19  2001-05-20  2001-05-21  2001-05-22  2001-05-23  2001-05-24  2001-05-25  2001-05-26  2001-05-27
  2001-05-28  2001-05-29  2001-05-30  2001-05-31  2002-03-01  2002-03-02  2002-03-03  2002-03-04  2002-03-05  2002-03-06  2002-03-07  2002-03-08
  2002-03-09  2002-03-10  2002-03-11  2002-03-12  2002-03-13  2002-03-14  2002-03-15  2002-03-16  2002-03-17  2002-03-18  2002-03-19  2002-03-20
  2002-03-21  2002-03-22  2002-03-23  2002-03-24  2002-03-25  2002-03-26  2002-03-27  2002-03-28  2002-03-29  2002-03-30  2002-03-31  2002-04-01
  2002-04-02  2002-04-03  2002-04-04  2002-04-05  2002-04-06  2002-04-07  2002-04-08  2002-04-09  2002-04-10  2002-04-11  2002-04-12  2002-04-13
  2002-04-14  2002-04-15  2002-04-16  2002-04-17  2002-04-18  2002-04-19  2002-04-20  2002-04-21  2002-04-22  2002-04-23  2002-04-24  2002-04-25
  2002-04-26  2002-04-27  2002-04-28  2002-04-29  2002-04-30  2002-05-01  2002-05-02  2002-05-03  2002-05-04  2002-05-05  2002-05-06  2002-05-07
  2002-05-08  2002-05-09  2002-05-10  2002-05-11  2002-05-12  2002-05-13  2002-05-14  2002-05-15  2002-05-16  2002-05-17  2002-05-18  2002-05-19
  2002-05-20  2002-05-21  2002-05-22  2002-05-23  2002-05-24  2002-05-25  2002-05-26  2002-05-27  2002-05-28  2002-05-29  2002-05-30  2002-05-31
  2003-03-01  2003-03-02  2003-03-03  2003-03-04  2003-03-05  2003-03-06  2003-03-07  2003-03-08  2003-03-09  2003-03-10  2003-03-11  2003-03-12
  2003-03-13  2003-03-14  2003-03-15  2003-03-16  2003-03-17  2003-03-18  2003-03-19  2003-03-20  2003-03-21  2003-03-22  2003-03-23  2003-03-24
  2003-03-25  2003-03-26  2003-03-27  2003-03-28  2003-03-29  2003-03-30  2003-03-31  2003-04-01  2003-04-02  2003-04-03  2003-04-04  2003-04-05
  2003-04-06  2003-04-07  2003-04-08  2003-04-09  2003-04-10  2003-04-11  2003-04-12  2003-04-13  2003-04-14  2003-04-15  2003-04-16  2003-04-17
  2003-04-18  2003-04-19  2003-04-20  2003-04-21  2003-04-22  2003-04-23  2003-04-24  2003-04-25  2003-04-26  2003-04-27  2003-04-28  2003-04-29
  2003-04-30  2003-05-01  2003-05-02  2003-05-03  2003-05-04  2003-05-05  2003-05-06  2003-05-07  2003-05-08  2003-05-09  2003-05-10  2003-05-11
  2003-05-12  2003-05-13  2003-05-14  2003-05-15  2003-05-16  2003-05-17  2003-05-18  2003-05-19  2003-05-20  2003-05-21  2003-05-22  2003-05-23
  2003-05-24  2003-05-25  2003-05-26  2003-05-27  2003-05-28  2003-05-29  2003-05-30  2003-05-31  2004-03-01  2004-03-02  2004-03-03  2004-03-04
  2004-03-05  2004-03-06  2004-03-07  2004-03-08  2004-03-09  2004-03-10  2004-03-11  2004-03-12  2004-03-13  2004-03-14  2004-03-15  2004-03-16
  2004-03-17  2004-03-18  2004-03-19  2004-03-20  2004-03-21  2004-03-22  2004-03-23  2004-03-24  2004-03-25  2004-03-26  2004-03-27  2004-03-28
  2004-03-29  2004-03-30  2004-03-31  2004-04-01  2004-04-02  2004-04-03  2004-04-04  2004-04-05  2004-04-06  2004-04-07  2004-04-08  2004-04-09
  2004-04-10  2004-04-11  2004-04-12  2004-04-13  2004-04-14  2004-04-15  2004-04-16  2004-04-17  2004-04-18  2004-04-19  2004-04-20  2004-04-21
  2004-04-22  2004-04-23  2004-04-24  2004-04-25  2004-04-26  2004-04-27  2004-04-28  2004-04-29  2004-04-30  2004-05-01  2004-05-02  2004-05-03
  2004-05-04  2004-05-05  2004-05-06  2004-05-07  2004-05-08  2004-05-09  2004-05-10  2004-05-11  2004-05-12  2004-05-13  2004-05-14  2004-05-15
  2004-05-16  2004-05-17  2004-05-18  2004-05-19  2004-05-20  2004-05-21  2004-05-22  2004-05-23  2004-05-24  2004-05-25  2004-05-26  2004-05-27
  2004-05-28  2004-05-29  2004-05-30  2004-05-31
