  1988-06-01  1988-06-02  1988-06-03  1988-06-04  1988-06-05  1988-06-06  1988-06-07  1988-06-08  1988-06-09  1988-06-10  1988-06-11  1988-06-12
  1988-06-13  1988-06-14  1988-06-15  1988-06-16  1988-06-17  1988-06-18  1988-06-19  1988-06-20  1988-06-21  1988-06-22  1988-06-23  1988-06-24
  1988-06-25  1988-06-26  1988-06-27  1988-06-28  1988-06-29  1988-06-30  1988-07-01  1988-07-02  1988-07-03  1988-07-04  1988-07-05  1988-07-06
  1988-07-07  1988-07-08  1988-07-09  1988-07-10  1988-07-11  1988-07-12  1988-07-13  1988-07-14  1988-07-15  1988-07-16  1988-07-17  1988-07-18
  1988-07-19  1988-07-20  1988-07-21  1988-07-22  1988-07-23  1988-07-24  1988-07-25  1988-07-26  1988-07-27  1988-07-28  1988-07-29  1988-07-30
  1988-07-31  1988-08-01  1988-08-02  1988-08-03  1988-08-04  1988-08-05  1988-08-06  1988-08-07  1988-08-08  1988-08-09  1988-08-10  1988-08-11
  1988-08-12  1988-08-13  1988-08-14  1988-08-15  1988-08-16  1988-08-17  1988-08-18  1988-08-19  1988-08-20  1988-08-21  1988-08-22  1988-08-23
  1988-08-24  1988-08-25  1988-08-26  1988-08-27  1988-08-28  1988-08-29  1988-08-30  1988-08-31  1989-06-01  1989-06-02  1989-06-03  1989-06-04
  1989-06-05  1989-06-06  1989-06-07  1989-06-08  1989-06-09  1989-06-10  1989-06-11  1989-06-12  1989-06-13  1989-06-14  1989-06-15  1989-06-16
  1989-06-17  1989-06-18  1989-06-19  1989-06-20  1989-06-21  1989-06-22  1989-06-23  1989-06-24  1989-06-25  1989-06-26  1989-06-27  1989-06-28
  1989-06-29  1989-06-30  1989-07-01  1989-07-02  1989-07-03  1989-07-04  1989-07-05  1989-07-06  1989-07-07  1989-07-08  1989-07-09  1989-07-10
  1989-07-11  1989-07-12  1989-07-13  1989-07-14  1989-07-15  1989-07-16  1989-07-17  1989-07-18  1989-07-19  1989-07-20  1989-07-21  1989-07-22
  1989-07-23  1989-07-24  1989-07-25  1989-07-26  1989-07-27  1989-07-28  1989-07-29  1989-07-30  1989-07-31  1989-08-01  1989-08-02  1989-08-03
  1989-08-04  1989-08-05  1989-08-06  1989-08-07  1989-08-08  1989-08-09  1989-08-10  1989-08-11  1989-08-12  1989-08-13  1989-08-14  1989-08-15
  1989-08-16  1989-08-17  1989-08-18  1989-08-19  1989-08-20  1989-08-21  1989-08-22  1989-08-23  1989-08-24  1989-08-25  1989-08-26  1989-08-27
  1989-08-28  1989-08-29  1989-08-30  1989-08-31  1990-06-01  1990-06-02  1990-06-03  1990-06-04  1990-06-05  1990-06-06  1990-06-07  1990-06-08
  1990-06-09  1990-06-10  1990-06-11  1990-06-12  1990-06-13  1990-06-14  1990-06-15  1990-06-16  1990-06-17  1990-06-18  1990-06-19  1990-06-20
  1990-06-21  1990-06-22  1990-06-23  1990-06-24  1990-06-25  1990-06-26  1990-06-27  1990-06-28  1990-06-29  1990-06-30  1990-07-01  1990-07-02
  1990-07-03  1990-07-04  1990-07-05  1990-07-06  1990-07-07  1990-07-08  1990-07-09  1990-07-10  1990-07-11  1990-07-12  1990-07-13  1990-07-14
  1990-07-15  1990-07-16  1990-07-17  1990-07-18  1990-07-19  1990-07-20  1990-07-21  1990-07-22  1990-07-23  1990-07-24  1990-07-25  1990-07-26
  1990-07-27  1990-07-28  1990-07-29  1990-07-30  1990-07-31  1990-08-01  1990-08-02  1990-08-03  1990-08-04  1990-08-05  1990-08-06  1990-08-07
  1990-08-08  1990-08-09  1990-08-10  1990-08-11  1990-08-12  1990-08-13  1990-08-14  1990-08-15  1990-08-16  1990-08-17  1990-08-18  1990-08-19
  1990-08-20  1990-08-21  1990-08-22  1990-08-23  1990-08-24  1990-08-25  1990-08-26  1990-08-27  1990-08-28  1990-08-29  1990-08-30  1990-08-31
  1991-06-01  1991-06-02  1991-06-03  1991-06-04  1991-06-05  1991-06-06  1991-06-07  1991-06-08  1991-06-09  1991-06-10  1991-06-11  1991-06-12
  1991-06-13  1991-06-14  1991-06-15  1991-06-16  1991-06-17  1991-06-18  1991-06-19  1991-06-20  1991-06-21  1991-06-22  1991-06-23  1991-06-24
  1991-06-25  1991-06-26  1991-06-27  1991-06-28  1991-06-29  1991-06-30  1991-07-01  1991-07-02  1991-07-03  1991-07-04  1991-07-05  1991-07-06
  1991-07-07  1991-07-08  1991-07-09  1991-07-10  1991-07-11  1991-07-12  1991-07-13  1991-07-14  1991-07-15  1991-07-16  1991-07-17  1991-07-18
  1991-07-19  1991-07-20  1991-07-21  1991-07-22  1991-07-23  1991-07-24  1991-07-25  1991-07-26  1991-07-27  1991-07-28  1991-07-29  1991-07-30
  1991-07-31  1991-08-01  1991-08-02  1991-08-03  1991-08-04  1991-08-05  1991-08-06  1991-08-07  1991-08-08  1991-08-09  1991-08-10  1991-08-11
  1991-08-12  1991-08-13  1991-08-14  1991-08-15  1991-08-16  1991-08-17  1991-08-18  1991-08-19  1991-08-20  1991-08-21  1991-08-22  1991-08-23
  1991-08-24  1991-08-25  1991-08-26  1991-08-27  1991-08-28  1991-08-29  1991-08-30  1991-08-31  1992-06-01  1992-06-02  1992-06-03  1992-06-04
  1992-06-05  1992-06-06  1992-06-07  1992-06-08  1992-06-09  1992-06-10  1992-06-11  1992-06-12  1992-06-13  1992-06-14  1992-06-15  1992-06-16
  1992-06-17  1992-06-18  1992-06-19  1992-06-20  1992-06-21  1992-06-22  1992-06-23  1992-06-24  1992-06-25  1992-06-26  1992-06-27  1992-06-28
  1992-06-29  1992-06-30  1992-07-01  1992-07-02  1992-07-03  1992-07-04  1992-07-05  1992-07-06  1992-07-07  1992-07-08  1992-07-09  1992-07-10
  1992-07-11  1992-07-12  1992-07-13  1992-07-14  1992-07-15  1992-07-16  1992-07-17  1992-07-18  1992-07-19  1992-07-20  1992-07-21  1992-07-22
  1992-07-23  1992-07-24  1992-07-25  1992-07-26  1992-07-27  1992-07-28  1992-07-29  1992-07-30  1992-07-31  1992-08-01  1992-08-02  1992-08-03
  1992-08-04  1992-08-05  1992-08-06  1992-08-07  1992-08-08  1992-08-09  1992-08-10  1992-08-11  1992-08-12  1992-08-13  1992-08-14  1992-08-15
  1992-08-16  1992-08-17  1992-08-18  1992-08-19  1992-08-20  1992-08-21  1992-08-22  1992-08-23  1992-08-24  1992-08-25  1992-08-26  1992-08-27
  1992-08-28  1992-08-29  1992-08-30  1992-08-31  1993-06-01  1993-06-02  1993-06-03  1993-06-04  1993-06-05  1993-06-06  1993-06-07  1993-06-08
  1993-06-09  1993-06-10  1993-06-11  1993-06-12  1993-06-13  1993-06-14  1993-06-15  1993-06-16  1993-06-17  1993-06-18  1993-06-19  1993-06-20
  1993-06-21  1993-06-22  1993-06-23  1993-06-24  1993-06-25  1993-06-26  1993-06-27  1993-06-28  1993-06-29  1993-06-30  1993-07-01  1993-07-02
  1993-07-03  1993-07-04  1993-07-05  1993-07-06  1993-07-07  1993-07-08  1993-07-09  1993-07-10  1993-07-11  1993-07-12  1993-07-13  1993-07-14
  1993-07-15  1993-07-16  1993-07-17  1993-07-18  1993-07-19  1993-07-20  1993-07-21  1993-07-22  1993-07-23  1993-07-24  1993-07-25  1993-07-26
  1993-07-27  1993-07-28  1993-07-29  1993-07-30  1993-07-31  1993-08-01  1993-08-02  1993-08-03  1993-08-04  1993-08-05  1993-08-06  1993-08-07
  1993-08-08  1993-08-09  1993-08-10  1993-08-11  1993-08-12  1993-08-13  1993-08-14  1993-08-15  1993-08-16  1993-08-17  1993-08-18  1993-08-19
  1993-08-20  1993-08-21  1993-08-22  1993-08-23  1993-08-24  1993-08-25  1993-08-26  1993-08-27  1993-08-28  1993-08-29  1993-08-30  1993-08-31
  1994-06-01  1994-06-02  1994-06-03  1994-06-04  1994-06-05  1994-06-06  1994-06-07  1994-06-08  1994-06-09  1994-06-10  1994-06-11  1994-06-12
  1994-06-13  1994-06-14  1994-06-15  1994-06-16  1994-06-17  1994-06-18  1994-06-19  1994-06-20  1994-06-21  1994-06-22  1994-06-23  1994-06-24
  1994-06-25  1994-06-26  1994-06-27  1994-06-28  1994-06-29  1994-06-30  1994-07-01  1994-07-02  1994-07-03  1994-07-04  1994-07-05  1994-07-06
  1994-07-07  1994-07-08  1994-07-09  1994-07-10  1994-07-11  1994-07-12  1994-07-13  1994-07-14  1994-07-15  1994-07-16  1994-07-17  1994-07-18
  1994-07-19  1994-07-20  1994-07-21  1994-07-22  1994-07-23  1994-07-24  1994-07-25  1994-07-26  1994-07-27  1994-07-28  1994-07-29  1994-07-30
  1994-07-31  1994-08-01  1994-08-02  1994-08-03  1994-08-04  1994-08-05  1994-08-06  1994-08-07  1994-08-08  1994-08-09  1994-08-10  1994-08-11
  1994-08-12  1994-08-13  1994-08-14  1994-08-15  1994-08-16  1994-08-17  1994-08-18  1994-08-19  1994-08-20  1994-08-21  1994-08-22  1994-08-23
  1994-08-24  1994-08-25  1994-08-26  1994-08-27  1994-08-28  1994-08-29  1994-08-30  1994-08-31  1995-06-01  1995-06-02  1995-06-03  1995-06-04
  1995-06-05  1995-06-06  1995-06-07  1995-06-08  1995-06-09  1995-06-10  1995-06-11  1995-06-12  1995-06-13  1995-06-14  1995-06-15  1995-06-16
  1995-06-17  1995-06-18  1995-06-19  1995-06-20  1995-06-21  1995-06-22  1995-06-23  1995-06-24  1995-06-25  1995-06-26  1995-06-27  1995-06-28
  1995-06-29  1995-06-30  1995-07-01  1995-07-02  1995-07-03  1995-07-04  1995-07-05  1995-07-06  1995-07-07  1995-07-08  1995-07-09  1995-07-10
  1995-07-11  1995-07-12  1995-07-13  1995-07-14  1995-07-15  1995-07-16  1995-07-17  1995-07-18  1995-07-19  1995-07-20  1995-07-21  1995-07-22
  1995-07-23  1995-07-24  1995-07-25  1995-07-26  1995-07-27  1995-07-28  1995-07-29  1995-07-30  1995-07-31  1995-08-01  1995-08-02  1995-08-03
  1995-08-04  1995-08-05  1995-08-06  1995-08-07  1995-08-08  1995-08-09  1995-08-10  1995-08-11  1995-08-12  1995-08-13  1995-08-14  1995-08-15
  1995-08-16  1995-08-17  1995-08-18  1995-08-19  1995-08-20  1995-08-21  1995-08-22  1995-08-23  1995-08-24  1995-08-25  1995-08-26  1995-08-27
  1995-08-28  1995-08-29  1995-08-30  1995-08-31  1996-06-01  1996-06-02  1996-06-03  1996-06-04  1996-06-05  1996-06-06  1996-06-07  1996-06-08
  1996-06-09  1996-06-10  1996-06-11  1996-06-12  1996-06-13  1996-06-14  1996-06-15  1996-06-16  1996-06-17  1996-06-18  1996-06-19  1996-06-20
  1996-06-21  1996-06-22  1996-06-23  1996-06-24  1996-06-25  1996-06-26  1996-06-27  1996-06-28  1996-06-29  1996-06-30  1996-07-01  1996-07-02
  1996-07-03  1996-07-04  1996-07-05  1996-07-06  1996-07-07  1996-07-08  1996-07-09  1996-07-10  1996-07-11  1996-07-12  1996-07-13  1996-07-14
  1996-07-15  1996-07-16  1996-07-17  1996-07-18  1996-07-19  1996-07-20  1996-07-21  1996-07-22  1996-07-23  1996-07-24  1996-07-25  1996-07-26
  1996-07-27  1996-07-28  1996-07-29  1996-07-30  1996-07-31  1996-08-01  1996-08-02  1996-08-03  1996-08-04  1996-08-05  1996-08-06  1996-08-07
  1996-08-08  1996-08-09  1996-08-10  1996-08-11  1996-08-12  1996-08-13  1996-08-14  1996-08-15  1996-08-16  1996-08-17  1996-08-18  1996-08-19
  1996-08-20  1996-08-21  1996-08-22  1996-08-23  1996-08-24  1996-08-25  1996-08-26  1996-08-27  1996-08-28  1996-08-29  1996-08-30  1996-08-31
  1997-06-01  1997-06-02  1997-06-03  1997-06-04  1997-06-05  1997-06-06  1997-06-07  1997-06-08  1997-06-09  1997-06-10  1997-06-11  1997-06-12
  1997-06-13  1997-06-14  1997-06-15  1997-06-16  1997-06-17  1997-06-18  1997-06-19  1997-06-20  1997-06-21  1997-06-22  1997-06-23  1997-06-24
  1997-06-25  1997-06-26  1997-06-27  1997-06-28  1997-06-29  1997-06-30  1997-07-01  1997-07-02  1997-07-03  1997-07-04  1997-07-05  1997-07-06
  1997-07-07  1997-07-08  1997-07-09  1997-07-10  1997-07-11  1997-07-12  1997-07-13  1997-07-14  1997-07-15  1997-07-16  1997-07-17  1997-07-18
  1997-07-19  1997-07-20  1997-07-21  1997-07-22  1997-07-23  1997-07-24  1997-07-25  1997-07-26  1997-07-27  1997-07-28  1997-07-29  1997-07-30
  1997-07-31  1997-08-01  1997-08-02  1997-08-03  1997-08-04  1997-08-05  1997-08-06  1997-08-07  1997-08-08  1997-08-09  1997-08-10  1997-08-11
  1997-08-12  1997-08-13  1997-08-14  1997-08-15  1997-08-16  1997-08-17  1997-08-18  1997-08-19  1997-08-20  1997-08-21  1997-08-22  1997-08-23
  1997-08-24  1997-08-25  1997-08-26  1997-08-27  1997-08-28  1997-08-29  1997-08-30  1997-08-31  1998-06-01  1998-06-02  1998-06-03  1998-06-04
  1998-06-05  1998-06-06  1998-06-07  1998-06-08  1998-06-09  1998-06-10  1998-06-11  1998-06-12  1998-06-13  1998-06-14  1998-06-15  1998-06-16
  1998-06-17  1998-06-18  1998-06-19  1998-06-20  1998-06-21  1998-06-22  1998-06-23  1998-06-24  1998-06-25  1998-06-26  1998-06-27  1998-06-28
  1998-06-29  1998-06-30  1998-07-01  1998-07-02  1998-07-03  1998-07-04  1998-07-05  1998-07-06  1998-07-07  1998-07-08  1998-07-09  1998-07-10
  1998-07-11  1998-07-12  1998-07-13  1998-07-14  1998-07-15  1998-07-16  1998-07-17  1998-07-18  1998-07-19  1998-07-20  1998-07-21  1998-07-22
  1998-07-23  1998-07-24  1998-07-25  1998-07-26  1998-07-27  1998-07-28  1998-07-29  1998-07-30  1998-07-31  1998-08-01  1998-08-02  1998-08-03
  1998-08-04  1998-08-05  1998-08-06  1998-08-07  1998-08-08  1998-08-09  1998-08-10  1998-08-11  1998-08-12  1998-08-13  1998-08-14  1998-08-15
  1998-08-16  1998-08-17  1998-08-18  1998-08-19  1998-08-20  1998-08-21  1998-08-22  1998-08-23  1998-08-24  1998-08-25  1998-08-26  1998-08-27
  1998-08-28  1998-08-29  1998-08-30  1998-08-31  1999-06-01  1999-06-02  1999-06-03  1999-06-04  1999-06-05  1999-06-06  1999-06-07  1999-06-08
  1999-06-09  1999-06-10  1999-06-11  1999-06-12  1999-06-13  1999-06-14  1999-06-15  1999-06-16  1999-06-17  1999-06-18  1999-06-19  1999-06-20
  1999-06-21  1999-06-22  1999-06-23  1999-06-24  1999-06-25  1999-06-26  1999-06-27  1999-06-28  1999-06-29  1999-06-30  1999-07-01  1999-07-02
  1999-07-03  1999-07-04  1999-07-05  1999-07-06  1999-07-07  1999-07-08  1999-07-09  1999-07-10  1999-07-11  1999-07-12  1999-07-13  1999-07-14
  1999-07-15  1999-07-16  1999-07-17  1999-07-18  1999-07-19  1999-07-20  1999-07-21  1999-07-22  1999-07-23  1999-07-24  1999-07-25  1999-07-26
  1999-07-27  1999-07-28  1999-07-29  1999-07-30  1999-07-31  1999-08-01  1999-08-02  1999-08-03  1999-08-04  1999-08-05  1999-08-06  1999-08-07
  1999-08-08  1999-08-09  1999-08-10  1999-08-11  1999-08-12  1999-08-13  1999-08-14  1999-08-15  1999-08-16  1999-08-17  1999-08-18  1999-08-19
  1999-08-20  1999-08-21  1999-08-22  1999-08-23  1999-08-24  1999-08-25  1999-08-26  1999-08-27  1999-08-28  1999-08-29  1999-08-30  1999-08-31
  2000-06-01  2000-06-02  2000-06-03  2000-06-04  2000-06-05  2000-06-06  2000-06-07  2000-06-08  2000-06-09  2000-06-10  2000-06-11  2000-06-12
  2000-06-13  2000-06-14  2000-06-15  2000-06-16  2000-06-17  2000-06-18  2000-06-19  2000-06-20  2000-06-21  2000-06-22  2000-06-23  2000-06-24
  2000-06-25  2000-06-26  2000-06-27  2000-06-28  2000-06-29  2000-06-30  2000-07-01  2000-07-02  2000-07-03  2000-07-04  2000-07-05  2000-07-06
  2000-07-07  2000-07-08  2000-07-09  2000-07-10  2000-07-11  2000-07-12  2000-07-13  2000-07-14  2000-07-15  2000-07-16  2000-07-17  2000-07-18
  2000-07-19  2000-07-20  2000-07-21  2000-07-22  2000-07-23  2000-07-24  2000-07-25  2000-07-26  2000-07-27  2000-07-28  2000-07-29  2000-07-30
  2000-07-31  2000-08-01  2000-08-02  2000-08-03  2000-08-04  2000-08-05  2000-08-06  2000-08-07  2000-08-08  2000-08-09  2000-08-10  2000-08-11
  2000-08-12  2000-08-13  2000-08-14  2000-08-15  2000-08-16  2000-08-17  2000-08-18  2000-08-19  2000-08-20  2000-08-21  2000-08-22  2000-08-23
  2000-08-24  2000-08-25  2000-08-26  2000-08-27  2000-08-28  2000-08-29  2000-08-30  2000-08-31  2001-06-01  2001-06-02  2001-06-03  2001-06-04
  2001-06-05  2001-06-06  2001-06-07  2001-06-08  2001-06-09  2001-06-10  2001-06-11  2001-06-12  2001-06-13  2001-06-14  2001-06-15  2001-06-16
  2001-06-17  2001-06-18  2001-06-19  2001-06-20  2001-06-21  2001-06-22  2001-06-23  2001-06-24  2001-06-25  2001-06-26  2001-06-27  2001-06-28
  2001-06-29  2001-06-30  2001-07-01  2001-07-02  2001-07-03  2001-07-04  2001-07-05  2001-07-06  2001-07-07  2001-07-08  2001-07-09  2001-07-10
  2001-07-11  2001-07-12  2001-07-13  2001-07-14  2001-07-15  2001-07-16  2001-07-17  2001-07-18  2001-07-19  2001-07-20  2001-07-21  2001-07-22
  2001-07-23  2001-07-24  2001-07-25  2001-07-26  2001-07-27  2001-07-28  2001-07-29  2001-07-30  2001-07-31  2001-08-01  2001-08-02  2001-08-03
  2001-08-04  2001-08-05  2001-08-06  2001-08-07  2001-08-08  2001-08-09  2001-08-10  2001-08-11  2001-08-12  2001-08-13  2001-08-14  2001-08-15
  2001-08-16  2001-08-17  2001-08-18  2001-08-19  2001-08-20  2001-08-21  2001-08-22  2001-08-23  2001-08-24  2001-08-25  2001-08-26  2001-08-27
  2001-08-28  2001-08-29  2001-08-30  2001-08-31  2002-06-01  2002-06-02  2002-06-03  2002-06-04  2002-06-05  2002-06-06  2002-06-07  2002-06-08
  2002-06-09  2002-06-10  2002-06-11  2002-06-12  2002-06-13  2002-06-14  2002-06-15  2002-06-16  2002-06-17  2002-06-18  2002-06-19  2002-06-20
  2002-06-21  2002-06-22  2002-06-23  2002-06-24  2002-06-25  2002-06-26  2002-06-27  2002-06-28  2002-06-29  2002-06-30  2002-07-01  2002-07-02
  2002-07-03  2002-07-04  2002-07-05  2002-07-06  2002-07-07  2002-07-08  2002-07-09  2002-07-10  2002-07-11  2002-07-12  2002-07-13  2002-07-14
  2002-07-15  2002-07-16  2002-07-17  2002-07-18  2002-07-19  2002-07-20  2002-07-21  2002-07-22  2002-07-23  2002-07-24  2002-07-25  2002-07-26
  2002-07-27  2002-07-28  2002-07-29  2002-07-30  2002-07-31  2002-08-01  2002-08-02  2002-08-03  2002-08-04  2002-08-05  2002-08-06  2002-08-07
  2002-08-08  2002-08-09  2002-08-10  2002-08-11  2002-08-12  2002-08-13  2002-08-14  2002-08-15  2002-08-16  2002-08-17  2002-08-18  2002-08-19
  2002-08-20  2002-08-21  2002-08-22  2002-08-23  2002-08-24  2002-08-25  2002-08-26  2002-08-27  2002-08-28  2002-08-29  2002-08-30  2002-08-31
  2003-06-01  2003-06-02  2003-06-03  2003-06-04  2003-06-05  2003-06-06  2003-06-07  2003-06-08  2003-06-09  2003-06-10  2003-06-11  2003-06-12
  2003-06-13  2003-06-14  2003-06-15  2003-06-16  2003-06-17  2003-06-18  2003-06-19  2003-06-20  2003-06-21  2003-06-22  2003-06-23  2003-06-24
  2003-06-25  2003-06-26  2003-06-27  2003-06-28  2003-06-29  2003-06-30  2003-07-01  2003-07-02  2003-07-03  2003-07-04  2003-07-05  2003-07-06
  2003-07-07  2003-07-08  2003-07-09  2003-07-10  2003-07-11  2003-07-12  2003-07-13  2003-07-14  2003-07-15  2003-07-16  2003-07-17  2003-07-18
  2003-07-19  2003-07-20  2003-07-21  2003-07-22  2003-07-23  2003-07-24  2003-07-25  2003-07-26  2003-07-27  2003-07-28  2003-07-29  2003-07-30
  2003-07-31  2003-08-01  2003-08-02  2003-08-03  2003-08-04  2003-08-05  2003-08-06  2003-08-07  2003-08-08  2003-08-09  2003-08-10  2003-08-11
  2003-08-12  2003-08-13  2003-08-14  2003-08-15  2003-08-16  2003-08-17  2003-08-18  2003-08-19  2003-08-20  2003-08-21  2003-08-22  2003-08-23
  2003-08-24  2003-08-25  2003-08-26  2003-08-27  2003-08-28  2003-08-29  2003-08-30  2003-08-31  2004-06-01  2004-06-02  2004-06-03  2004-06-04
  2004-06-05  2004-06-06  2004-06-07  2004-06-08  2004-06-09  2004-06-10  2004-06-11  2004-06-12  2004-06-13  2004-06-14  2004-06-15  2004-06-16
  2004-06-17  2004-06-18  2004-06-19  2004-06-20  2004-06-21  2004-06-22  2004-06-23  2004-06-24  2004-06-25  2004-06-26  2004-06-27  2004-06-28
  2004-06-29  2004-06-30  2004-07-01  2004-07-02  2004-07-03  2004-07-04  2004-07-05  2004-07-06  2004-07-07  2004-07-08  2004-07-09  2004-07-10
  2004-07-11  2004-07-12  2004-07-13  2004-07-14  2004-07-15  2004-07-16  2004-07-17  2004-07-18  2004-07-19  2004-07-20  2004-07-21  2004-07-22
  2004-07-23  2004-07-24  2004-07-25  2004-07-26  2004-07-27  2004-07-28  2004-07-29  2004-07-30  2004-07-31  2004-08-01  2004-08-02  2004-08-03
  2004-08-04  2004-08-05  2004-08-06  2004-08-07  2004-08-08  2004-08-09  2004-08-10  2004-08-11  2004-08-12  2004-08-13  2004-08-14  2004-08-15
  2004-08-16  2004-08-17  2004-08-18  2004-08-19  2004-08-20  2004-08-21  2004-08-22  2004-08-23  2004-08-24  2004-08-25  2004-08-26  2004-08-27
  2004-08-28  2004-08-29  2004-08-30  2004-08-31
