/work09/am/16.TOOL/22.ANALYSIS/22.CLASS/32.12.TELECONECTION_PATTERN/12.12.AO/22.12.DJF/22.12.EOF_BY_SVD_PYTHON/12.12.EOD_BY_SVD_PROJECTION_NCEP1_MON_DJF
Tue, 12 Sep 2023 10:13:28 +0900

元のデータをVに射影したものをモードの空間分布としている。