    0.0000    0.0000
    1.0000    3.7313
    2.0000    5.6600
    3.0000    6.6600
    4.0000    7.6600
    5.0000    8.6600
    6.0000    8.9280
    7.0000    9.1960
    8.0000    9.4640
    9.0000    9.7320
   10.0000   10.0000
   11.0000   30.3333
   12.0000   30.6000
   13.0000   30.6000
   14.0000   30.6000
   15.0000   30.6000
   16.0000   30.6000
   17.0000   30.6000
   18.0000   30.6000
   19.0000   30.6000
   20.0000   30.3333
   21.0000   10.0000
   22.0000    9.7320
   23.0000    9.4640
   24.0000    9.1960
   25.0000    8.9280
   26.0000    8.6600
   27.0000    7.6600
   28.0000    6.6600
   29.0000    5.6600
   30.0000    3.7313
   31.0000    0.0000
