%!PS-Adobe-3.0
%%BoundingBox: 0 0 612 792
%%Title: GMT v4.1.2 Document from psxy
%%Creator: GMT
%%For: aym
%%DocumentNeededResources: font Helvetica
%%CreationDate: Wed Oct 10 18:11:19 2007
%%LanguageLevel: 1
%%DocumentData: Clean7Bit
%%Orientation: Portrait
%%Pages: 1
%%EndComments

%%BeginProlog
250 dict begin
/A /setgray load def
/B /setdash load def
/C /setrgbcolor load def
/D /rlineto load def
/E {dup stringwidth pop} bind def
/F /fill load def
/G /rmoveto load def
/H /sethsbcolor load def
/K /setcmykcolor load def
/L /lineto load def
/M {stroke moveto} bind def
/m {moveto} bind def
/N /newpath load def
/O {M W 0 0 D S} bind def
/P /closepath load def
/R /rotate load def
/S /stroke load def
/T /translate load def
/U /grestore load def
/V /gsave load def
/W /setlinewidth load def
/X {M dup 0 D dup 2 div neg dup G 0 exch D S} bind def
/Y {findfont exch scalefont setfont} bind def
/Z /show load def
/a0 {0 0 M D D 0 D D D D D 0 D D P V A F U N} bind def
/a1 {0 0 M D D 0 D D D D D 0 D D P V A F U S} bind def
/a2 {0 0 M D D 0 D D D D D 0 D D P V C F U N} bind def
/a3 {0 0 M D D 0 D D D D D 0 D D P V C F U S} bind def
/a4 {0 0 M D D 0 D D D D D 0 D D P S} bind def
/a5 {0 0 M D D 0 D D D D D 0 D D P V K F U N} bind def
/a6 {0 0 M D D 0 D D D D D 0 D D P V K F U S} bind def
/a7 {0 0 M D D 0 D D D D D 0 D D P V H F U N} bind def
/a8 {0 0 M D D 0 D D D D D 0 D D P V H F U S} bind def
/A0 {0 exch M 0 D D D D D 0 D P V A F U N} bind def
/A1 {0 exch M 0 D D D D D 0 D P V A F U S} bind def
/A2 {0 exch M 0 D D D D D 0 D P V C F U N} bind def
/A3 {0 exch M 0 D D D D D 0 D P V C F U S} bind def
/A4 {0 exch M 0 D D D D D 0 D P S} bind def
/A5 {0 exch M 0 D D D D D 0 D P V K F U N} bind def
/A6 {0 exch M 0 D D D D D 0 D P V K F U S} bind def
/A7 {0 exch M 0 D D D D D 0 D P V H F U N} bind def
/A8 {0 exch M 0 D D D D D 0 D P V H F U S} bind def
/C0 {0 360 arc V A F U N} bind def
/C1 {0 360 arc V A F U S} bind def
/C2 {0 360 arc V C F U N} bind def
/C3 {0 360 arc V C F U S} bind def
/C4 {0 360 arc S} bind def
/C5 {0 360 arc V K F U N} bind def
/C6 {0 360 arc V K F U S} bind def
/C7 {0 360 arc V H F U N} bind def
/C8 {0 360 arc V H F U S} bind def
/D0 {M 5 {dup} repeat D neg exch D neg exch neg D P V A F U N} bind def
/D1 {M 5 {dup} repeat D neg exch D neg exch neg D P V A F U S} bind def
/D2 {M 5 {dup} repeat D neg exch D neg exch neg D P V C F U N} bind def
/D3 {M 5 {dup} repeat D neg exch D neg exch neg D P V C F U S} bind def
/D4 {M 5 {dup} repeat D neg exch D neg exch neg D P S} bind def
/D5 {M 5 {dup} repeat D neg exch D neg exch neg D P V K F U N} bind def
/D6 {M 5 {dup} repeat D neg exch D neg exch neg D P V K F U S} bind def
/D7 {M 5 {dup} repeat D neg exch D neg exch neg D P V H F U N} bind def
/D8 {M 5 {dup} repeat D neg exch D neg exch neg D P V H F U S} bind def
/R0 {M dup 0 D exch 0 exch D neg 0 D P V A F U N} bind def
/R1 {M dup 0 D exch 0 exch D neg 0 D P V A F U S} bind def
/R2 {M dup 0 D exch 0 exch D neg 0 D P V C F U N} bind def
/R3 {M dup 0 D exch 0 exch D neg 0 D P V C F U S} bind def
/R4 {M dup 0 D exch 0 exch D neg 0 D P S} bind def
/R5 {M dup 0 D exch 0 exch D neg 0 D P V K F U N} bind def
/R6 {M dup 0 D exch 0 exch D neg 0 D P V K F U S} bind def
/R7 {M dup 0 D exch 0 exch D neg 0 D P V H F U N} bind def
/R8 {M dup 0 D exch 0 exch D neg 0 D P V H F U S} bind def
/S0 {M dup dup 0 D 0 exch D neg 0 D P V A F U N} bind def
/S1 {M dup dup 0 D 0 exch D neg 0 D P V A F U S} bind def
/S2 {M dup dup 0 D 0 exch D neg 0 D P V C F U N} bind def
/S3 {M dup dup 0 D 0 exch D neg 0 D P V C F U S} bind def
/S4 {M dup dup 0 D 0 exch D neg 0 D P S} bind def
/S5 {M dup dup 0 D 0 exch D neg 0 D P V K F U N} bind def
/S6 {M dup dup 0 D 0 exch D neg 0 D P V K F U S} bind def
/S7 {M dup dup 0 D 0 exch D neg 0 D P V H F U N} bind def
/S8 {M dup dup 0 D 0 exch D neg 0 D P V H F U S} bind def
/T0 {M dup 0 D dup 2 div neg exch 0.866025 mul D P V A F U N} bind def
/T1 {M dup 0 D dup 2 div neg exch 0.866025 mul D P V A F U S} bind def
/T2 {M dup 0 D dup 2 div neg exch 0.866025 mul D P V C F U N} bind def
/T3 {M dup 0 D dup 2 div neg exch 0.866025 mul D P V C F U S} bind def
/T4 {M dup 0 D dup 2 div neg exch 0.866025 mul D P S} bind def
/T5 {M dup 0 D dup 2 div neg exch 0.866025 mul D P V K F U N} bind def
/T6 {M dup 0 D dup 2 div neg exch 0.866025 mul D P V K F U S} bind def
/T7 {M dup 0 D dup 2 div neg exch 0.866025 mul D P V H F U N} bind def
/T8 {M dup 0 D dup 2 div neg exch 0.866025 mul D P V H F U S} bind def
/I0 {M dup 0 D dup 2 div neg exch -0.866025 mul D P V A F U N} bind def
/I1 {M dup 0 D dup 2 div neg exch -0.866025 mul D P V A F U S} bind def
/I2 {M dup 0 D dup 2 div neg exch -0.866025 mul D P V C F U N} bind def
/I3 {M dup 0 D dup 2 div neg exch -0.866025 mul D P V C F U S} bind def
/I4 {M dup 0 D dup 2 div neg exch -0.866025 mul D P S} bind def
/I5 {M dup 0 D dup 2 div neg exch -0.866025 mul D P V K F U N} bind def
/I6 {M dup 0 D dup 2 div neg exch -0.866025 mul D P V K F U S} bind def
/I7 {M dup 0 D dup 2 div neg exch -0.866025 mul D P V H F U N} bind def
/I8 {M dup 0 D dup 2 div neg exch -0.866025 mul D P V H F U S} bind def
/E0 {V T dup 0 exch M 0.726542528 mul -72 R dup 0 D 4 {72 R dup 0 D -144 R dup 0 D} repeat pop P V A F U N U} bind def
/E1 {V T dup 0 exch M 0.726542528 mul -72 R dup 0 D 4 {72 R dup 0 D -144 R dup 0 D} repeat pop P V A F U S U} bind def
/E2 {V T dup 0 exch M 0.726542528 mul -72 R dup 0 D 4 {72 R dup 0 D -144 R dup 0 D} repeat pop P V C F U N U} bind def
/E3 {V T dup 0 exch M 0.726542528 mul -72 R dup 0 D 4 {72 R dup 0 D -144 R dup 0 D} repeat pop P V C F U S U} bind def
/E4 {V T dup 0 exch M 0.726542528 mul -72 R dup 0 D 4 {72 R dup 0 D -144 R dup 0 D} repeat pop P S U} bind def
/E5 {V T dup 0 exch M 0.726542528 mul -72 R dup 0 D 4 {72 R dup 0 D -144 R dup 0 D} repeat pop P V K F U N U} bind def
/E6 {V T dup 0 exch M 0.726542528 mul -72 R dup 0 D 4 {72 R dup 0 D -144 R dup 0 D} repeat pop P V K F U S U} bind def
/E7 {V T dup 0 exch M 0.726542528 mul -72 R dup 0 D 4 {72 R dup 0 D -144 R dup 0 D} repeat pop P V H F U S U} bind def
/E8 {V T dup 0 exch M 0.726542528 mul -72 R dup 0 D 4 {72 R dup 0 D -144 R dup 0 D} repeat pop P V H F U N U} bind def
/H0 {V T dup dup 2 div exch 0.866025404 mul M 5 {-60 R dup 0 D} repeat pop P V A F U N U} bind def
/H1 {V T dup dup 2 div exch 0.866025404 mul M 5 {-60 R dup 0 D} repeat pop P V A F U S U} bind def
/H2 {V T dup dup 2 div exch 0.866025404 mul M 5 {-60 R dup 0 D} repeat pop P V C F U N U} bind def
/H3 {V T dup dup 2 div exch 0.866025404 mul M 5 {-60 R dup 0 D} repeat pop P V C F U S U} bind def
/H4 {V T dup dup 2 div exch 0.866025404 mul M 5 {-60 R dup 0 D} repeat pop P S U} bind def
/H5 {V T dup dup 2 div exch 0.866025404 mul M 5 {-60 R dup 0 D} repeat pop P V K F U N U} bind def
/H6 {V T dup dup 2 div exch 0.866025404 mul M 5 {-60 R dup 0 D} repeat pop P V K F U S U} bind def
/H7 {V T dup dup 2 div exch 0.866025404 mul M 5 {-60 R dup 0 D} repeat pop P V H F U N U} bind def
/H8 {V T dup dup 2 div exch 0.866025404 mul M 5 {-60 R dup 0 D} repeat pop P V H F U S U} bind def
/N0 {V T dup 1.175570504 mul exch dup 0.587785252 mul exch -0.809016994 mul M 4 {72 R dup 0 D} repeat pop P V A F U N U} bind def
/N1 {V T dup 1.175570504 mul exch dup 0.587785252 mul exch -0.809016994 mul M 4 {72 R dup 0 D} repeat pop P V A F U S U} bind def
/N2 {V T dup 1.175570504 mul exch dup 0.587785252 mul exch -0.809016994 mul M 4 {72 R dup 0 D} repeat pop P V C F U N U} bind def
/N3 {V T dup 1.175570504 mul exch dup 0.587785252 mul exch -0.809016994 mul M 4 {72 R dup 0 D} repeat pop P V C F U S U} bind def
/N4 {V T dup 1.175570504 mul exch dup 0.587785252 mul exch -0.809016994 mul M 4 {72 R dup 0 D} repeat pop P S U} bind def
/N5 {V T dup 1.175570504 mul exch dup 0.587785252 mul exch -0.809016994 mul M 4 {72 R dup 0 D} repeat pop P V K F U N U} bind def
/H6 {V T dup 1.175570504 mul exch dup 0.587785252 mul exch -0.809016994 mul M 4 {72 R dup 0 D} repeat pop P V K F U S U} bind def
/N7 {V T dup 1.175570504 mul exch dup 0.587785252 mul exch -0.809016994 mul M 4 {72 R dup 0 D} repeat pop P V H F U N U} bind def
/H8 {V T dup 1.175570504 mul exch dup 0.587785252 mul exch -0.809016994 mul M 4 {72 R dup 0 D} repeat pop P V H F U S U} bind def
/O0 {V T dup dup 0.414213562 mul exch M 0.828427125 mul 7 {-45 R dup 0 D} repeat pop P V A F U N U} bind def
/O1 {V T dup dup 0.414213562 mul exch M 0.828427125 mul 7 {-45 R dup 0 D} repeat pop P V A F U S U} bind def
/O2 {V T dup dup 0.414213562 mul exch M 0.828427125 mul 7 {-45 R dup 0 D} repeat pop P V C F U N U} bind def
/O3 {V T dup dup 0.414213562 mul exch M 0.828427125 mul 7 {-45 R dup 0 D} repeat pop P V C F U S U} bind def
/O4 {V T dup dup 0.414213562 mul exch M 0.828427125 mul 7 {-45 R dup 0 D} repeat pop P S U} bind def
/O5 {V T dup dup 0.414213562 mul exch M 0.828427125 mul 7 {-45 R dup 0 D} repeat pop P V K F U N U} bind def
/O6 {V T dup dup 0.414213562 mul exch M 0.828427125 mul 7 {-45 R dup 0 D} repeat pop P V K F U S U} bind def
/O7 {V T dup dup 0.414213562 mul exch M 0.828427125 mul 7 {-45 R dup 0 D} repeat pop P V H F U N U} bind def
/O8 {V T dup dup 0.414213562 mul exch M 0.828427125 mul 7 {-45 R dup 0 D} repeat pop P V H F U S U} bind def
/P0 {arc P V A F U N} bind def
/P1 {arc P V A F U S} bind def
/P2 {arc P V C F U N} bind def
/P3 {arc P V C F U S} bind def
/P4 {arc P S} bind def
/P5 {arc P V K F U N} bind def
/P6 {arc P V K F U S} bind def
/P7 {arc P V H F U N} bind def
/P8 {arc P V H F U S} bind def
/a {P V A F U N} def
/b {P V A F U S} def
/c {P V C F U N} def
/d {P V C F U S} def
/k {P V K F U N} def
/l {P V K F U S} def
/h {P V H F U N} def
/i {P V H F U S} def
/p {P S} def
/q {M {D} repeat P V A F U N} def
/r {M {D} repeat P V A F U S} def
/s {M {D} repeat P V C F U N} def
/t {M {D} repeat P V C F U S} def
/u {M {D} repeat P V K F U N} def
/v {M {D} repeat P V K F U S} def
/w {M {D} repeat P S} def
/x {M {D} repeat P V H F U N} def
/y {M {D} repeat P V H F U S} def
/bby {tcf pathbbox N exch pop sub abs exch pop} bind def
/tcf {true charpath flattenpath} bind def
%%EndProlog
/Standard+_Encoding [
/.notdef	/.notdef	/.notdef	/.notdef	/.notdef	/.notdef	/.notdef	/.notdef
/.notdef	/.notdef	/.notdef	/.notdef	/.notdef	/.notdef	/.notdef	/.notdef
/.notdef	/.notdef	/.notdef	/.notdef	/.notdef	/.notdef	/.notdef	/.notdef
/.notdef	/threequarters	/threesuperior	/trademark	/twosuperior	/yacute		/ydieresis	/zcaron
/space		/exclam		/quotedbl	/numbersign	/dollar		/percent	/ampersand	/quoteright
/parenleft	/parenright	/asterisk	/plus		/comma		/hyphen		/period		/slash
/zero		/one		/two		/three		/four		/five		/six		/seven
/eight		/nine		/colon		/semicolon	/less		/equal		/greater	/question
/at		/A		/B		/C		/D		/E		/F		/G
/H		/I		/J		/K		/L		/M		/N		/O
/P		/Q		/R		/S		/T		/U		/V		/W
/X		/Y		/Z		/bracketleft	/backslash	/bracketright	/asciicircum	/underscore
/quoteleft	/a		/b		/c		/d		/e		/f		/g
/h		/i		/j		/k		/l		/m		/n		/o
/p		/q		/r		/s		/t		/u		/v		/w
/x		/y		/z		/braceleft	/bar		/braceright	/asciitilde	/florin
/Atilde		/Ccedilla	/Eth		/Lslash		/Ntilde		/Otilde		/Scaron		/Thorn
/Yacute		/Ydieresis	/Zcaron		/atilde		/brokenbar	/ccedilla	/copyright	/degree
/divide		/eth		/logicalnot	/lslash		/minus		/mu		/multiply	/ntilde
/onehalf	/onequarter	/onesuperior	/otilde		/plusminus	/registered	/scaron		/thorn
/.notdef	/exclamdown	/cent		/sterling	/fraction	/yen		/florin		/section
/currency	/quotesingle	/quotedblleft	/guillemotleft	/guilsinglleft	/guilsinglright	/fi		/fl
/Aacute		/endash		/dagger		/daggerdbl	/periodcentered	/Acircumflex	/paragraph	/bullet
/quotesinglbase	/quotedblbase	/quotedblright	/guillemotright	/ellipsis	/perthousand	/Adieresis	/questiondown
/Agrave		/grave		/acute		/circumflex	/tilde		/macron		/breve		/dotaccent
/dieresis	/Eacute		/ring		/cedilla	/Ecircumflex	/hungarumlaut	/ogonek		/caron
/emdash		/Edieresis	/Egrave		/Iacute		/Icircumflex	/Idieresis	/Igrave		/Oacute
/Ocircumflex	/Odieresis	/Ograve		/Uacute		/Ucircumflex	/Udieresis	/Ugrave		/aacute
/acircumflex	/AE		/adieresis	/ordfeminine	/agrave		/eacute		/ecircumflex	/edieresis
/egrave		/Oslash		/OE		/ordmasculine	/iacute		/icircumflex	/idieresis	/igrave
/oacute		/ae		/ocircumflex	/odieresis	/ograve		/dotlessi	/uacute		/ucircumflex
/udieresis	/oslash		/oe		/germandbls	/ugrave		/Aring		/aring		/ydieresis
] def
/PSL_reencode {
	findfont dup length dict begin
	{1 index /FID ne {def} {pop pop} ifelse} forall
	exch /Encoding exch def currentdict end definefont pop
} bind def
/PSL_font_encode 0 0 0 0 0 0 0 0 0 0 0 0 0 0 0 0 0 0 0 0 0 0 0 0 0 0 0 0 0 0 0 0 0 0 0 0 0 0 0 39 array astore def
/F0 {/Helvetica Y} bind def
/F1 {/Helvetica-Bold Y} bind def
/F2 {/Helvetica-Oblique Y} bind def
/F3 {/Helvetica-BoldOblique Y} bind def
/F4 {/Times-Roman Y} bind def
/F5 {/Times-Bold Y} bind def
/F6 {/Times-Italic Y} bind def
/F7 {/Times-BoldItalic Y} bind def
/F8 {/Courier Y} bind def
/F9 {/Courier-Bold Y} bind def
/F10 {/Courier-Oblique Y} bind def
/F11 {/Courier-BoldOblique Y} bind def
/F12 {/Symbol Y} bind def
/F13 {/AvantGarde-Book Y} bind def
/F14 {/AvantGarde-BookOblique Y} bind def
/F15 {/AvantGarde-Demi Y} bind def
/F16 {/AvantGarde-DemiOblique Y} bind def
/F17 {/Bookman-Demi Y} bind def
/F18 {/Bookman-DemiItalic Y} bind def
/F19 {/Bookman-Light Y} bind def
/F20 {/Bookman-LightItalic Y} bind def
/F21 {/Helvetica-Narrow Y} bind def
/F22 {/Helvetica-Narrow-Bold Y} bind def
/F23 {/Helvetica-Narrow-Oblique Y} bind def
/F24 {/Helvetica-Narrow-BoldOblique Y} bind def
/F25 {/NewCenturySchlbk-Roman Y} bind def
/F26 {/NewCenturySchlbk-Italic Y} bind def
/F27 {/NewCenturySchlbk-Bold Y} bind def
/F28 {/NewCenturySchlbk-BoldItalic Y} bind def
/F29 {/Palatino-Roman Y} bind def
/F30 {/Palatino-Italic Y} bind def
/F31 {/Palatino-Bold Y} bind def
/F32 {/Palatino-BoldItalic Y} bind def
/F33 {/ZapfChancery-MediumItalic Y} bind def
/F34 {/ZapfDingbats Y} bind def
/F35 {/Ryumin-Light-EUC-H Y} bind def
/F36 {/Ryumin-Light-EUC-V Y} bind def
/F37 {/GothicBBB-Medium-EUC-H Y} bind def
/F38 {/GothicBBB-Medium-EUC-V Y} bind def
/#copies 1 def

/PSL_pathtextdict 26 dict def
/PSL_pathtext
  { PSL_pathtextdict begin
    /textheight exch def
    /just exch def
    /offset exch def
    /str exch def
    /pathdist 0 def
    /setdist offset def
    /charcount 0 def
    /justy just 4 idiv textheight mul 2 div neg def
    gsave
      flattenpath
      {movetoproc} {linetoproc}
	{curvetoproc} {closepathproc}
	pathforall
    grestore
    newpath
    end
  } def
PSL_pathtextdict begin
/movetoproc
  { /newy exch def /newx exch def
    /firstx newx def /firsty newy def
    /ovr 0 def
    newx newy transform
    /cpy exch def /cpx exch def
  } def
/linetoproc
  { /oldx newx def /oldy newy def
    /newy exch def /newx exch def
    /dx newx oldx sub def
    /dy newy oldy sub def
    /dist dx dup mul dy dup mul add sqrt def
    dist 0 ne
    {
      /dsx dx dist div ovr mul def
      /dsy dy dist div ovr mul def
      oldx dsx add oldy dsy add transform
      /cpy exch def /cpx exch def
      /pathdist pathdist dist add def
      { setdist pathdist le
	  { charcount str length lt
	      {setchar} {exit} ifelse }
	  { /ovr setdist pathdist sub def
	    exit }
	  ifelse
      } loop
    } if
  } def
/curvetoproc
  { (ERROR: No curveto's after flattenpath!)
    print
  } def
/closepathproc
  { firstx firsty linetoproc
    firstx firsty movetoproc
  } def
/setchar
  { /char str charcount 1 getinterval def
    /charcount charcount 1 add def
    /charwidth char stringwidth pop def
    gsave
      cpx cpy itransform translate
      dy dx atan rotate
      0 justy moveto
      char show
      0 justy neg rmoveto
      currentpoint transform
      /cpy exch def /cpx exch def
    grestore
    /setdist setdist charwidth add def
  } def
end
/PSL_curved_text_labels
{
  /bits exch def
  /PSL_clippath bits 1 and 1 eq def
  /PSL_placetext bits 2 and 0 eq def
  /PSL_strokeline bits 4 and 4 eq def
  /PSL_firstcall bits 32 and 32 eq def
  /PSL_lastcall bits 64 and 64 eq def
  /PSL_fillbox bits 128 and 128 eq def
  /PSL_drawbox bits 256 and 256 eq def
  /PSL_n1 PSL_n 1 sub def
  /PSL_m1 PSL_m 1 sub def
  /PSL_usebox PSL_fillbox PSL_drawbox or def
  PSL_CT_calcstringwidth
  PSL_CT_calclinedist
  PSL_CT_addcutpoints
  PSL_clippath PSL_firstcall and
  {
    gsave newpath clippath
  } if
  PSL_setlinepen
  /PSL_nn1 PSL_nn 1 sub def
  /n 0 def
  /k 0 def
  /j 0 def
  /PSL_seg 0 def
  /PSL_xp PSL_nn array def
  /PSL_yp PSL_nn array def
  PSL_xp 0 PSL_xx 0 get put
  PSL_yp 0 PSL_yy 0 get put
  1 1 PSL_nn1
  {
    /i exch def
    /node_type PSL_kind i get def
    /j j 1 add def
    PSL_xp j PSL_xx i get put
    PSL_yp j PSL_yy i get put
    node_type 1 eq
    {
      n 0 eq
      {
        PSL_CT_drawline
      }
      {
	PSL_CT_reversepath
        PSL_CT_textline
      } ifelse
      /j 0 def
      PSL_xp j PSL_xx i get put
      PSL_yp j PSL_yy i get put
    } if
  } for
  n 0 eq {PSL_CT_drawline} if
  PSL_lastcall
  {
    PSL_clippath
    {
      clip
      /PSL_clip_on true def
    } if
    newpath
  } if
} def
/PSL_CT_textline
{
  PSL_placetext
  {
    PSL_clippath
    {
      PSL_CT_clippath
    }
    {
      PSL_CT_placelabel
    } ifelse
  } if
  /n 0 def /k k 1 add def PSL_setlinepen
} def
/PSL_CT_calcstringwidth
{
  /PSL_width PSL_m array def
  0 1 PSL_m1
  {
    /i exch def
    PSL_width i PSL_str i get stringwidth pop put
  } for
} def
/PSL_CT_calclinedist
{
  /PSL_newx PSL_x 0 get def
  /PSL_newy PSL_y 0 get def
  /dist 0.0 def
  /PSL_dist PSL_n array def
  PSL_dist 0 0.0 put
  1 1 PSL_n1
  {
    /i exch def
    /PSL_oldx PSL_newx def
    /PSL_oldy PSL_newy def
    /PSL_newx PSL_x i get def
    /PSL_newy PSL_y i get def
    /dx PSL_newx PSL_oldx sub def
    /dy PSL_newy PSL_oldy sub def
    /dist dist dx dx mul dy dy mul add sqrt add def
    PSL_dist i dist put
  } for
} def
/PSL_CT_addcutpoints
{
  /k 0 def
  /PSL_nc PSL_m 2 mul 1 add def
  /PSL_cuts PSL_nc array def
  /PSL_nc1 PSL_nc 1 sub def
  0 1 PSL_m1
  {
    /i exch def
    /dist PSL_dist PSL_node i get get def
    /halfwidth PSL_width i get 2 div PSL_gap_x add def
    PSL_cuts k dist halfwidth sub put
    /k k 1 add def
    PSL_cuts k dist halfwidth add put
    /k k 1 add def
  } for
  PSL_cuts k 100000.0 put
  /PSL_nn PSL_n PSL_m 2 mul add def
  /PSL_xx PSL_nn array def
  /PSL_yy PSL_nn array def
  /PSL_kind PSL_nn array def
  /j 0 def
  /k 0 def
  /dist 0.0 def
  0 1 PSL_n1
  {
    /i exch def
    /last_dist dist def
    /dist PSL_dist i get def
    k 1 PSL_nc1
    {
      /kk exch def
      /this_cut PSL_cuts kk get def
      dist this_cut gt
      {
        /ds dist last_dist sub def
        /f ds 0.0 eq {0.0} {dist this_cut sub ds div} ifelse def
	/i1 i 0 eq { 0 } { i 1 sub } ifelse def
        PSL_xx j PSL_x i get dup PSL_x i1 get sub f mul sub put
        PSL_yy j PSL_y i get dup PSL_y i1 get sub f mul sub put
        PSL_kind j 1 put
        /j j 1 add def
        /k k 1 add def
      } if
    } for
    dist PSL_cuts k get le
    {
      PSL_xx j PSL_x i get put
      PSL_yy j PSL_y i get put
      PSL_kind j 0 put
      /j j 1 add def
    } if
  } for
} def
/PSL_CT_reversepath
{
  PSL_xp j get PSL_xp 0 get lt
  {
    0 1 j 2 idiv
    {
      /left exch def
      /right j left sub def
      /tmp PSL_xp left get def
      PSL_xp left PSL_xp right get put
      PSL_xp right tmp put
      /tmp PSL_yp left get def
      PSL_yp left PSL_yp right get put
      PSL_yp right tmp put
    } for
  } if
} def
/PSL_CT_placelabel
{
  PSL_usebox
  {
    PSL_CT_clippath
    PSL_fillbox
    {
      gsave PSL_setboxrgb fill grestore
    } if
    PSL_drawbox
    {
      PSL_setboxpen stroke
    } if
    newpath
  } if
  PSL_settxtrgb PSL_CT_placeline PSL_str k get PSL_gap_x PSL_just PSL_height PSL_pathtext
} def
/PSL_CT_clippath
{
  /H PSL_height 2 div PSL_gap_y add def
  /xoff j 1 add array def
  /yoff j 1 add array def
  /angle 0 def
  0 1 j {
    /ii exch def
    /x PSL_xp ii get def
    /y PSL_yp ii get def
    ii 0 eq {
      /x1 PSL_xp 1 get def
      /y1 PSL_yp 1 get def
      /dx x1 x sub def
      /dy y1 y sub def
    }
    {
      /i1 ii 1 sub def
      /x1 PSL_xp i1 get def
      /y1 PSL_yp i1 get def
      /dx x x1 sub def
      /dy y y1 sub def
    } ifelse
    dx 0.0 ne dy 0.0 ne and
    {
      /angle dy dx atan 90 add def
    } if
    /sina angle sin def
    /cosa angle cos def
    xoff ii H cosa mul put
    yoff ii H sina mul put
  } for
  PSL_xp 0 get xoff 0 get add PSL_yp 0 get yoff 0 get add moveto
  1 1 j {
    /ii exch def
    PSL_xp ii get xoff ii get add PSL_yp ii get yoff ii get add lineto
  } for
  j -1 0 {
    /ii exch def
    PSL_xp ii get xoff ii get sub PSL_yp ii get yoff ii get sub lineto
  } for
  closepath
} def
/PSL_CT_drawline
{
  /str 20 string def
  PSL_strokeline
  {
    PSL_CT_placeline PSL_setlinepen stroke
  } if
  /PSL_seg PSL_seg 1 add def
  /n 1 def
} def
/PSL_CT_placeline
{
  PSL_xp 0 get PSL_yp 0 get moveto
  1 1 j { /ii exch def PSL_xp ii get PSL_yp ii get lineto} for
} def
/PSL_straight_text_labels
{
  /bits exch def
  /PSL_clippath bits 1 and 0 eq def
  /PSL_rounded bits 16 and 16 eq def
  /PSL_fillbox bits 128 and 128 eq def
  /PSL_drawbox bits 256 and 256 eq def
  /PSL_m1 PSL_m 1 sub def
  /PSL_justx PSL_just 4 mod 1 sub 2 div neg def
  /PSL_justy PSL_just 4 idiv PSL_height mul 2 div neg def
  /PSL_usebox PSL_fillbox PSL_drawbox or def
  PSL_clippath
  {
    PSL_ST_clippath
  }
  {
    PSL_usebox { PSL_ST_clippath } if
    PSL_ST_placelabel
  } ifelse
} def
/PSL_ST_placelabel
{
  PSL_settxtrgb
  0 1 PSL_m1
  {
    /k exch def
    /xp PSL_txt_x k get def
    /yp PSL_txt_y k get def
    gsave PSL_txt_x k get PSL_txt_y k get translate
    PSL_angle k get rotate
    /BoxW PSL_str k get stringwidth pop def
    BoxW PSL_justx mul PSL_justy moveto
    PSL_str k get show
    grestore
  } for
} def
/PSL_ST_clippath
{
  PSL_rounded { PSL_ST_clippath_round } { PSL_ST_clippath_rect } ifelse
  PSL_usebox
  {
    PSL_fillbox
    {
      gsave PSL_setboxrgb fill grestore
    } if
    PSL_drawbox
    {
      PSL_setboxpen stroke
    } if
    newpath
  }
  {
    clip
    /PSL_clip_on true def
  } ifelse
  newpath
} def
/PSL_ST_clippath_rect
{
  newpath
  /BoxH PSL_height PSL_gap_y 2 mul add def
  /DelY BoxH BoxH 0 3 array astore def
  PSL_usebox not { gsave clippath } if
  0 1 PSL_m1
  {
    /k exch def
    /xp PSL_txt_x k get def
    /yp PSL_txt_y k get def
    /MAT PSL_angle k get matrix rotate def
    /BoxW PSL_str k get stringwidth pop PSL_gap_x 2 mul add def
    /x0 0 BoxW PSL_justx mul add def
    /y0 0 PSL_justy add PSL_gap_y sub def
    /DelX 0 BoxW BoxW 3 array astore def
    x0 y0 MAT transform
    /dy exch def /dx exch def
    xp dx add yp dy add moveto
    0 1 2
    {
      /ii exch def
      x0 DelX ii get add y0 DelY ii get add MAT transform
      /dy exch def /dx exch def
      xp dx add yp dy add lineto
    } for
    closepath
  } for
} def
/PSL_ST_clippath_round
{
  newpath
  /PSL_justy2 PSL_just 4 idiv 2 div neg def
  /PSL_r PSL_gap_x PSL_gap_y lt { PSL_gap_x } { PSL_gap_y } ifelse def
  /PSL_dx PSL_gap_x PSL_r sub def
  /PSL_dy PSL_gap_y PSL_r sub def
  /PSL_r2 PSL_r 2 mul def
  /BoxH PSL_height PSL_dy 2 mul add def
  /y0 PSL_height PSL_gap_y 2 mul add PSL_justy2 mul def
  PSL_usebox not { gsave clippath } if
  0 1 PSL_m1
  {
    /k exch def
    /xp PSL_txt_x k get def
    /yp PSL_txt_y k get def
    /PSL_width PSL_str k get stringwidth pop def
    /BoxW PSL_width PSL_dx 2 mul add def
    /x0 BoxW PSL_justx mul def
    xp yp T PSL_angle k get R x0 y0 T
    0 0 moveto
    BoxW PSL_r add 0 BoxW PSL_r add PSL_r PSL_r arct
    BoxW PSL_r add BoxH PSL_r2 add BoxW BoxH PSL_r2 add PSL_r arct
    PSL_r neg BoxH PSL_r2 add PSL_r neg BoxH PSL_r add PSL_r arct
    PSL_r neg 0 0 0 PSL_r arct closepath
    x0 neg y0 neg T PSL_angle k get neg R xp neg yp neg T
  } for
} def
/PSL_clip_on false def
%%EndProlog

%%BeginSetup

/PSLevel /languagelevel where {pop languagelevel} {1} ifelse def
PSLevel 1 gt { << /PageSize [612 792] /ImagingBBox null >> setpagedevice } if

0.24 0.24 scale
%%EndSetup

%%Page: 1 1

PSL_font_encode 0 get 0 eq {
	Standard+_Encoding /Helvetica /Helvetica PSL_reencode
	PSL_font_encode 0 1 put
} if
0 setlinecap
0 setlinejoin
10 setmiterlimit
450 450 T
%% PostScript produced by:
%%GMT:  psxy -JX4/3 -R0/24.0/5/15 -W3 -Ba2f1:time [hr]:/a1f0.5:depth [m]::.:WSne -X1.5 -Y1.5 -P -K 

S 3 W
S [] 0 B
S 0 A
300 545 M
17 -10 D
16 -8 D
17 -7 D
17 -4 D
16 -2 D
17 0 D
17 3 D
16 5 D
17 6 D
17 8 D
16 10 D
34 22 D
16 11 D
34 22 D
16 9 D
17 7 D
17 6 D
16 3 D
17 1 D
17 -2 D
16 -5 D
17 -7 D
17 -11 D
16 -13 D
17 -15 D
17 -18 D
16 -19 D
34 -42 D
16 -22 D
17 -22 D
17 -21 D
16 -20 D
17 -18 D
17 -16 D
10 -9 D
6 -5 D
9 -6 D
8 -5 D
8 -4 D
10 -4 D
7 -2 D
8 -2 D
9 -1 D
8 0 D
17 3 D
16 6 D
17 10 D
17 13 D
16 16 D
17 18 D
17 20 D
16 22 D
34 46 D
16 24 D
17 23 D
 S
S [] 0 B
90 R
/PSL_sign 1 def
/PSL_do_annot 1 def
/PSL_do_label 1 def
/PSL_do_A1 0 def
/PSL_TL1 22 def
/PSL_AO0 22 def
/PSL_AO1 22 def
/PSL_LO 34 def
/PSL_AF0 67 def
/PSL_AF1 67 def
/PSL_LF 67 def
/PSL_AH0 0 def
/PSL_AH1 0 def
0 0 M 67 F0 (M) E /PSL_dimx exch def bby /PSL_LH exch def
S 5 W
S [] 0 B
0 0 M 900 0 D S
S 2 W
S [] 0 B
0 0 M 0 22 D S
90 0 M 0 22 D S
180 0 M 0 22 D S
270 0 M 0 22 D S
360 0 M 0 22 D S
450 0 M 0 22 D S
540 0 M 0 22 D S
630 0 M 0 22 D S
720 0 M 0 22 D S
810 0 M 0 22 D S
900 0 M 0 22 D S
0 0 M 67 F0 (5) E /PSL_dimx exch def bby /PSL_dimy exch def
PSL_dimx PSL_AH0 gt {/PSL_AH0 PSL_dimx def} if
0 0 M 67 F0 (6) E /PSL_dimx exch def bby /PSL_dimy exch def
PSL_dimx PSL_AH0 gt {/PSL_AH0 PSL_dimx def} if
0 0 M 67 F0 (7) E /PSL_dimx exch def bby /PSL_dimy exch def
PSL_dimx PSL_AH0 gt {/PSL_AH0 PSL_dimx def} if
0 0 M 67 F0 (8) E /PSL_dimx exch def bby /PSL_dimy exch def
PSL_dimx PSL_AH0 gt {/PSL_AH0 PSL_dimx def} if
0 0 M 67 F0 (9) E /PSL_dimx exch def bby /PSL_dimy exch def
PSL_dimx PSL_AH0 gt {/PSL_AH0 PSL_dimx def} if
0 0 M 67 F0 (10) E /PSL_dimx exch def bby /PSL_dimy exch def
PSL_dimx PSL_AH0 gt {/PSL_AH0 PSL_dimx def} if
0 0 M 67 F0 (11) E /PSL_dimx exch def bby /PSL_dimy exch def
PSL_dimx PSL_AH0 gt {/PSL_AH0 PSL_dimx def} if
0 0 M 67 F0 (12) E /PSL_dimx exch def bby /PSL_dimy exch def
PSL_dimx PSL_AH0 gt {/PSL_AH0 PSL_dimx def} if
0 0 M 67 F0 (13) E /PSL_dimx exch def bby /PSL_dimy exch def
PSL_dimx PSL_AH0 gt {/PSL_AH0 PSL_dimx def} if
0 0 M 67 F0 (14) E /PSL_dimx exch def bby /PSL_dimy exch def
PSL_dimx PSL_AH0 gt {/PSL_AH0 PSL_dimx def} if
0 0 M 67 F0 (15) E /PSL_dimx exch def bby /PSL_dimy exch def
PSL_dimx PSL_AH0 gt {/PSL_AH0 PSL_dimx def} if
0 0 M 0 11 D S
45 0 M 0 11 D S
90 0 M 0 11 D S
135 0 M 0 11 D S
180 0 M 0 11 D S
225 0 M 0 11 D S
270 0 M 0 11 D S
315 0 M 0 11 D S
360 0 M 0 11 D S
405 0 M 0 11 D S
450 0 M 0 11 D S
495 0 M 0 11 D S
540 0 M 0 11 D S
585 0 M 0 11 D S
630 0 M 0 11 D S
675 0 M 0 11 D S
720 0 M 0 11 D S
765 0 M 0 11 D S
810 0 M 0 11 D S
855 0 M 0 11 D S
900 0 M 0 11 D S
/PSL_A0_y PSL_AO0 PSL_TL1 PSL_AO0 mul 0 gt {PSL_TL1 add} if PSL_AO0 0 gt {PSL_sign 0 lt {PSL_AH0} {0} ifelse add} if PSL_sign mul def
/PSL_A1_y PSL_A0_y abs PSL_AO1 add PSL_sign 0 lt {PSL_AH1} {PSL_AH0} ifelse add PSL_sign mul def
/PSL_L_y PSL_A1_y abs PSL_LO add PSL_sign 0 lt {PSL_LH} {PSL_AH1} ifelse add PSL_sign mul def
/PSL_x 0 def
PSL_x PSL_A0_y M
currentpoint /PSL_save_y exch def /PSL_save_x exch def
0 0 M 67 F0 (5) E /PSL_dimx exch def bby /PSL_dimy exch def
PSL_save_x PSL_save_y m
V -90 R PSL_dimx neg PSL_dimy 2 div neg G 67 F0 (5) Z U
/PSL_x 90 def
PSL_x PSL_A0_y M
currentpoint /PSL_save_y exch def /PSL_save_x exch def
0 0 M 67 F0 (6) E /PSL_dimx exch def bby /PSL_dimy exch def
PSL_save_x PSL_save_y m
V -90 R PSL_dimx neg PSL_dimy 2 div neg G 67 F0 (6) Z U
/PSL_x 180 def
PSL_x PSL_A0_y M
currentpoint /PSL_save_y exch def /PSL_save_x exch def
0 0 M 67 F0 (7) E /PSL_dimx exch def bby /PSL_dimy exch def
PSL_save_x PSL_save_y m
V -90 R PSL_dimx neg PSL_dimy 2 div neg G 67 F0 (7) Z U
/PSL_x 270 def
PSL_x PSL_A0_y M
currentpoint /PSL_save_y exch def /PSL_save_x exch def
0 0 M 67 F0 (8) E /PSL_dimx exch def bby /PSL_dimy exch def
PSL_save_x PSL_save_y m
V -90 R PSL_dimx neg PSL_dimy 2 div neg G 67 F0 (8) Z U
/PSL_x 360 def
PSL_x PSL_A0_y M
currentpoint /PSL_save_y exch def /PSL_save_x exch def
0 0 M 67 F0 (9) E /PSL_dimx exch def bby /PSL_dimy exch def
PSL_save_x PSL_save_y m
V -90 R PSL_dimx neg PSL_dimy 2 div neg G 67 F0 (9) Z U
/PSL_x 450 def
PSL_x PSL_A0_y M
currentpoint /PSL_save_y exch def /PSL_save_x exch def
0 0 M 67 F0 (10) E /PSL_dimx exch def bby /PSL_dimy exch def
PSL_save_x PSL_save_y m
V -90 R PSL_dimx neg PSL_dimy 2 div neg G 67 F0 (10) Z U
/PSL_x 540 def
PSL_x PSL_A0_y M
currentpoint /PSL_save_y exch def /PSL_save_x exch def
0 0 M 67 F0 (11) E /PSL_dimx exch def bby /PSL_dimy exch def
PSL_save_x PSL_save_y m
V -90 R PSL_dimx neg PSL_dimy 2 div neg G 67 F0 (11) Z U
/PSL_x 630 def
PSL_x PSL_A0_y M
currentpoint /PSL_save_y exch def /PSL_save_x exch def
0 0 M 67 F0 (12) E /PSL_dimx exch def bby /PSL_dimy exch def
PSL_save_x PSL_save_y m
V -90 R PSL_dimx neg PSL_dimy 2 div neg G 67 F0 (12) Z U
/PSL_x 720 def
PSL_x PSL_A0_y M
currentpoint /PSL_save_y exch def /PSL_save_x exch def
0 0 M 67 F0 (13) E /PSL_dimx exch def bby /PSL_dimy exch def
PSL_save_x PSL_save_y m
V -90 R PSL_dimx neg PSL_dimy 2 div neg G 67 F0 (13) Z U
/PSL_x 810 def
PSL_x PSL_A0_y M
currentpoint /PSL_save_y exch def /PSL_save_x exch def
0 0 M 67 F0 (14) E /PSL_dimx exch def bby /PSL_dimy exch def
PSL_save_x PSL_save_y m
V -90 R PSL_dimx neg PSL_dimy 2 div neg G 67 F0 (14) Z U
/PSL_x 900 def
PSL_x PSL_A0_y M
currentpoint /PSL_save_y exch def /PSL_save_x exch def
0 0 M 67 F0 (15) E /PSL_dimx exch def bby /PSL_dimy exch def
PSL_save_x PSL_save_y m
V -90 R PSL_dimx neg PSL_dimy 2 div neg G 67 F0 (15) Z U
/PSL_x 450 def
0 0 M 67 F0 (depth \[m\]) E /PSL_dimx exch def bby /PSL_dimy exch def
PSL_x PSL_L_y M
currentpoint /PSL_save_y exch def /PSL_save_x exch def
0 0 M 67 F0 (depth \[m\]) E /PSL_dimx exch def bby /PSL_dimy exch def
PSL_save_x PSL_save_y m
PSL_dimx 2 div neg 0 G 67 F0 (depth \[m\]) Z
-90 R
1200 0 T 90 R
/PSL_sign -1 def
/PSL_do_annot 0 def
/PSL_do_label 1 def
/PSL_do_A1 0 def
/PSL_TL1 22 def
/PSL_AO0 22 def
/PSL_AO1 22 def
/PSL_LO 34 def
/PSL_AF0 67 def
/PSL_AF1 67 def
/PSL_LF 67 def
/PSL_AH0 0 def
/PSL_AH1 0 def
0 0 M 67 F0 (M) E /PSL_dimx exch def bby /PSL_LH exch def
S 5 W
S [] 0 B
0 0 M 900 0 D S
S 2 W
S [] 0 B
0 0 M 0 -22 D S
90 0 M 0 -22 D S
180 0 M 0 -22 D S
270 0 M 0 -22 D S
360 0 M 0 -22 D S
450 0 M 0 -22 D S
540 0 M 0 -22 D S
630 0 M 0 -22 D S
720 0 M 0 -22 D S
810 0 M 0 -22 D S
900 0 M 0 -22 D S
0 0 M 0 -11 D S
45 0 M 0 -11 D S
90 0 M 0 -11 D S
135 0 M 0 -11 D S
180 0 M 0 -11 D S
225 0 M 0 -11 D S
270 0 M 0 -11 D S
315 0 M 0 -11 D S
360 0 M 0 -11 D S
405 0 M 0 -11 D S
450 0 M 0 -11 D S
495 0 M 0 -11 D S
540 0 M 0 -11 D S
585 0 M 0 -11 D S
630 0 M 0 -11 D S
675 0 M 0 -11 D S
720 0 M 0 -11 D S
765 0 M 0 -11 D S
810 0 M 0 -11 D S
855 0 M 0 -11 D S
900 0 M 0 -11 D S
/PSL_A0_y PSL_AO0 PSL_TL1 PSL_AO0 mul 0 gt {PSL_TL1 add} if PSL_AO0 0 gt {PSL_sign 0 lt {PSL_AH0} {0} ifelse add} if PSL_sign mul def
/PSL_A1_y PSL_A0_y abs PSL_AO1 add PSL_sign 0 lt {PSL_AH1} {PSL_AH0} ifelse add PSL_sign mul def
/PSL_L_y PSL_A1_y abs PSL_LO add PSL_sign 0 lt {PSL_LH} {PSL_AH1} ifelse add PSL_sign mul def
-90 R -1200 0 T
/PSL_sign -1 def
/PSL_do_annot 1 def
/PSL_do_label 1 def
/PSL_do_A1 0 def
/PSL_TL1 22 def
/PSL_AO0 22 def
/PSL_AO1 22 def
/PSL_LO 34 def
/PSL_AF0 67 def
/PSL_AF1 67 def
/PSL_LF 67 def
/PSL_AH0 0 def
/PSL_AH1 0 def
0 0 M 67 F0 (M) E /PSL_dimx exch def bby /PSL_LH exch def
S 5 W
S [] 0 B
0 0 M 1200 0 D S
S 2 W
S [] 0 B
0 0 M 0 -22 D S
100 0 M 0 -22 D S
200 0 M 0 -22 D S
300 0 M 0 -22 D S
400 0 M 0 -22 D S
500 0 M 0 -22 D S
600 0 M 0 -22 D S
700 0 M 0 -22 D S
800 0 M 0 -22 D S
900 0 M 0 -22 D S
1000 0 M 0 -22 D S
1100 0 M 0 -22 D S
1200 0 M 0 -22 D S
0 0 M 67 F0 (0) E /PSL_dimx exch def bby /PSL_dimy exch def
PSL_dimy PSL_AH0 gt {/PSL_AH0 PSL_dimy def} if
0 0 M 67 F0 (2) E /PSL_dimx exch def bby /PSL_dimy exch def
PSL_dimy PSL_AH0 gt {/PSL_AH0 PSL_dimy def} if
0 0 M 67 F0 (4) E /PSL_dimx exch def bby /PSL_dimy exch def
PSL_dimy PSL_AH0 gt {/PSL_AH0 PSL_dimy def} if
0 0 M 67 F0 (6) E /PSL_dimx exch def bby /PSL_dimy exch def
PSL_dimy PSL_AH0 gt {/PSL_AH0 PSL_dimy def} if
0 0 M 67 F0 (8) E /PSL_dimx exch def bby /PSL_dimy exch def
PSL_dimy PSL_AH0 gt {/PSL_AH0 PSL_dimy def} if
0 0 M 67 F0 (10) E /PSL_dimx exch def bby /PSL_dimy exch def
PSL_dimy PSL_AH0 gt {/PSL_AH0 PSL_dimy def} if
0 0 M 67 F0 (12) E /PSL_dimx exch def bby /PSL_dimy exch def
PSL_dimy PSL_AH0 gt {/PSL_AH0 PSL_dimy def} if
0 0 M 67 F0 (14) E /PSL_dimx exch def bby /PSL_dimy exch def
PSL_dimy PSL_AH0 gt {/PSL_AH0 PSL_dimy def} if
0 0 M 67 F0 (16) E /PSL_dimx exch def bby /PSL_dimy exch def
PSL_dimy PSL_AH0 gt {/PSL_AH0 PSL_dimy def} if
0 0 M 67 F0 (18) E /PSL_dimx exch def bby /PSL_dimy exch def
PSL_dimy PSL_AH0 gt {/PSL_AH0 PSL_dimy def} if
0 0 M 67 F0 (20) E /PSL_dimx exch def bby /PSL_dimy exch def
PSL_dimy PSL_AH0 gt {/PSL_AH0 PSL_dimy def} if
0 0 M 67 F0 (22) E /PSL_dimx exch def bby /PSL_dimy exch def
PSL_dimy PSL_AH0 gt {/PSL_AH0 PSL_dimy def} if
0 0 M 67 F0 (24) E /PSL_dimx exch def bby /PSL_dimy exch def
PSL_dimy PSL_AH0 gt {/PSL_AH0 PSL_dimy def} if
0 0 M 0 -11 D S
50 0 M 0 -11 D S
100 0 M 0 -11 D S
150 0 M 0 -11 D S
200 0 M 0 -11 D S
250 0 M 0 -11 D S
300 0 M 0 -11 D S
350 0 M 0 -11 D S
400 0 M 0 -11 D S
450 0 M 0 -11 D S
500 0 M 0 -11 D S
550 0 M 0 -11 D S
600 0 M 0 -11 D S
650 0 M 0 -11 D S
700 0 M 0 -11 D S
750 0 M 0 -11 D S
800 0 M 0 -11 D S
850 0 M 0 -11 D S
900 0 M 0 -11 D S
950 0 M 0 -11 D S
1000 0 M 0 -11 D S
1050 0 M 0 -11 D S
1100 0 M 0 -11 D S
1150 0 M 0 -11 D S
1200 0 M 0 -11 D S
/PSL_A0_y PSL_AO0 PSL_TL1 PSL_AO0 mul 0 gt {PSL_TL1 add} if PSL_AO0 0 gt {PSL_sign 0 lt {PSL_AH0} {0} ifelse add} if PSL_sign mul def
/PSL_A1_y PSL_A0_y abs PSL_AO1 add PSL_sign 0 lt {PSL_AH1} {PSL_AH0} ifelse add PSL_sign mul def
/PSL_L_y PSL_A1_y abs PSL_LO add PSL_sign 0 lt {PSL_LH} {PSL_AH1} ifelse add PSL_sign mul def
/PSL_x 0 def
PSL_x PSL_A0_y M
currentpoint /PSL_save_y exch def /PSL_save_x exch def
0 0 M 67 F0 (0) E /PSL_dimx exch def bby /PSL_dimy exch def
PSL_save_x PSL_save_y m
PSL_dimx 2 div neg 0 G 67 F0 (0) Z
/PSL_x 100 def
PSL_x PSL_A0_y M
currentpoint /PSL_save_y exch def /PSL_save_x exch def
0 0 M 67 F0 (2) E /PSL_dimx exch def bby /PSL_dimy exch def
PSL_save_x PSL_save_y m
PSL_dimx 2 div neg 0 G 67 F0 (2) Z
/PSL_x 200 def
PSL_x PSL_A0_y M
currentpoint /PSL_save_y exch def /PSL_save_x exch def
0 0 M 67 F0 (4) E /PSL_dimx exch def bby /PSL_dimy exch def
PSL_save_x PSL_save_y m
PSL_dimx 2 div neg 0 G 67 F0 (4) Z
/PSL_x 300 def
PSL_x PSL_A0_y M
currentpoint /PSL_save_y exch def /PSL_save_x exch def
0 0 M 67 F0 (6) E /PSL_dimx exch def bby /PSL_dimy exch def
PSL_save_x PSL_save_y m
PSL_dimx 2 div neg 0 G 67 F0 (6) Z
/PSL_x 400 def
PSL_x PSL_A0_y M
currentpoint /PSL_save_y exch def /PSL_save_x exch def
0 0 M 67 F0 (8) E /PSL_dimx exch def bby /PSL_dimy exch def
PSL_save_x PSL_save_y m
PSL_dimx 2 div neg 0 G 67 F0 (8) Z
/PSL_x 500 def
PSL_x PSL_A0_y M
currentpoint /PSL_save_y exch def /PSL_save_x exch def
0 0 M 67 F0 (10) E /PSL_dimx exch def bby /PSL_dimy exch def
PSL_save_x PSL_save_y m
PSL_dimx 2 div neg 0 G 67 F0 (10) Z
/PSL_x 600 def
PSL_x PSL_A0_y M
currentpoint /PSL_save_y exch def /PSL_save_x exch def
0 0 M 67 F0 (12) E /PSL_dimx exch def bby /PSL_dimy exch def
PSL_save_x PSL_save_y m
PSL_dimx 2 div neg 0 G 67 F0 (12) Z
/PSL_x 700 def
PSL_x PSL_A0_y M
currentpoint /PSL_save_y exch def /PSL_save_x exch def
0 0 M 67 F0 (14) E /PSL_dimx exch def bby /PSL_dimy exch def
PSL_save_x PSL_save_y m
PSL_dimx 2 div neg 0 G 67 F0 (14) Z
/PSL_x 800 def
PSL_x PSL_A0_y M
currentpoint /PSL_save_y exch def /PSL_save_x exch def
0 0 M 67 F0 (16) E /PSL_dimx exch def bby /PSL_dimy exch def
PSL_save_x PSL_save_y m
PSL_dimx 2 div neg 0 G 67 F0 (16) Z
/PSL_x 900 def
PSL_x PSL_A0_y M
currentpoint /PSL_save_y exch def /PSL_save_x exch def
0 0 M 67 F0 (18) E /PSL_dimx exch def bby /PSL_dimy exch def
PSL_save_x PSL_save_y m
PSL_dimx 2 div neg 0 G 67 F0 (18) Z
/PSL_x 1000 def
PSL_x PSL_A0_y M
currentpoint /PSL_save_y exch def /PSL_save_x exch def
0 0 M 67 F0 (20) E /PSL_dimx exch def bby /PSL_dimy exch def
PSL_save_x PSL_save_y m
PSL_dimx 2 div neg 0 G 67 F0 (20) Z
/PSL_x 1100 def
PSL_x PSL_A0_y M
currentpoint /PSL_save_y exch def /PSL_save_x exch def
0 0 M 67 F0 (22) E /PSL_dimx exch def bby /PSL_dimy exch def
PSL_save_x PSL_save_y m
PSL_dimx 2 div neg 0 G 67 F0 (22) Z
/PSL_x 1200 def
PSL_x PSL_A0_y M
currentpoint /PSL_save_y exch def /PSL_save_x exch def
0 0 M 67 F0 (24) E /PSL_dimx exch def bby /PSL_dimy exch def
PSL_save_x PSL_save_y m
PSL_dimx 2 div neg 0 G 67 F0 (24) Z
/PSL_x 600 def
0 0 M 67 F0 (time \[hr\]) E /PSL_dimx exch def bby /PSL_dimy exch def
PSL_x PSL_L_y M
currentpoint /PSL_save_y exch def /PSL_save_x exch def
0 0 M 67 F0 (time \[hr\]) E /PSL_dimx exch def bby /PSL_dimy exch def
PSL_save_x PSL_save_y m
PSL_dimx 2 div neg 0 G 67 F0 (time \[hr\]) Z
0 900 T
/PSL_sign 1 def
/PSL_do_annot 0 def
/PSL_do_label 1 def
/PSL_do_A1 0 def
/PSL_TL1 22 def
/PSL_AO0 22 def
/PSL_AO1 22 def
/PSL_LO 34 def
/PSL_AF0 67 def
/PSL_AF1 67 def
/PSL_LF 67 def
/PSL_AH0 0 def
/PSL_AH1 0 def
0 0 M 67 F0 (M) E /PSL_dimx exch def bby /PSL_LH exch def
S 5 W
S [] 0 B
0 0 M 1200 0 D S
S 2 W
S [] 0 B
0 0 M 0 22 D S
100 0 M 0 22 D S
200 0 M 0 22 D S
300 0 M 0 22 D S
400 0 M 0 22 D S
500 0 M 0 22 D S
600 0 M 0 22 D S
700 0 M 0 22 D S
800 0 M 0 22 D S
900 0 M 0 22 D S
1000 0 M 0 22 D S
1100 0 M 0 22 D S
1200 0 M 0 22 D S
0 0 M 0 11 D S
50 0 M 0 11 D S
100 0 M 0 11 D S
150 0 M 0 11 D S
200 0 M 0 11 D S
250 0 M 0 11 D S
300 0 M 0 11 D S
350 0 M 0 11 D S
400 0 M 0 11 D S
450 0 M 0 11 D S
500 0 M 0 11 D S
550 0 M 0 11 D S
600 0 M 0 11 D S
650 0 M 0 11 D S
700 0 M 0 11 D S
750 0 M 0 11 D S
800 0 M 0 11 D S
850 0 M 0 11 D S
900 0 M 0 11 D S
950 0 M 0 11 D S
1000 0 M 0 11 D S
1050 0 M 0 11 D S
1100 0 M 0 11 D S
1150 0 M 0 11 D S
1200 0 M 0 11 D S
/PSL_A0_y PSL_AO0 PSL_TL1 PSL_AO0 mul 0 gt {PSL_TL1 add} if PSL_AO0 0 gt {PSL_sign 0 lt {PSL_AH0} {0} ifelse add} if PSL_sign mul def
/PSL_A1_y PSL_A0_y abs PSL_AO1 add PSL_sign 0 lt {PSL_AH1} {PSL_AH0} ifelse add PSL_sign mul def
/PSL_L_y PSL_A1_y abs PSL_LO add PSL_sign 0 lt {PSL_LH} {PSL_AH1} ifelse add PSL_sign mul def
0 -900 T
S [] 0 B
S [] 0 B
S 0 A
PSL_font_encode 0 get 0 eq {
	Standard+_Encoding /Helvetica /Helvetica PSL_reencode
	PSL_font_encode 0 1 put
} if
0 setlinecap
0 setlinejoin
10 setmiterlimit
%% PostScript produced by:
%%GMT:  psxy -JX4/3 -R0/24.0/5/15 -W3 -O -K 

S 3 W
S [] 0 B
S 0 A
300 576 M
17 -18 D
16 -27 D
17 18 D
17 -18 D
16 -27 D
17 -9 D
17 0 D
16 -9 D
17 -9 D
17 36 D
16 27 D
17 -9 D
17 45 D
16 54 D
17 9 D
17 0 D
16 -18 D
17 9 D
17 -36 D
16 36 D
17 -18 D
17 0 D
16 18 D
17 0 D
17 -9 D
16 -45 D
17 -36 D
17 -9 D
16 -18 D
17 -9 D
17 -18 D
16 -9 D
17 -9 D
17 -18 D
16 -18 D
34 -18 D
10 -18 D
6 -36 D
9 -18 D
8 -18 D
8 9 D
10 0 D
7 -9 D
17 0 D
8 9 D
17 0 D
16 9 D
17 9 D
17 27 D
16 9 D
17 45 D
17 0 D
16 18 D
17 27 D
17 18 D
16 18 D
17 27 D
 S
S [] 0 B
S 0 A
PSL_font_encode 0 get 0 eq {
	Standard+_Encoding /Helvetica /Helvetica PSL_reencode
	PSL_font_encode 0 1 put
} if
0 setlinecap
0 setlinejoin
10 setmiterlimit
0 2250 T
%% PostScript produced by:
%%GMT:  pstext -JX6/1 -R0/1/0/1 -N -y7.5 -O 

S 1 W
S [] 0 B
S 0 A
PSL_font_encode 1 get 0 eq {
	Standard+_Encoding /Helvetica-Bold /Helvetica-Bold PSL_reencode
	PSL_font_encode 1 1 put
} if
0 0 M 38 F1 (lg.sh) E /PSL_dimx exch def bby /PSL_dimy exch def
0 270 M 0 PSL_dimy 2 div neg G 38 F1 (lg.sh) Z
0 0 M 38 F1 (Wed Oct 10 18:11:19 JST 2007) E /PSL_dimx exch def bby /PSL_dimy exch def
0 225 M 0 PSL_dimy 2 div neg G 38 F1 (Wed Oct 10 18:11:19 JST 2007) Z
0 0 M 38 F1 (oceani17) E /PSL_dimx exch def bby /PSL_dimy exch def
0 180 M 0 PSL_dimy 2 div neg G 38 F1 (oceani17) Z
0 0 M 38 F1 (/work1/aym/08.Work07/01.Research/21.Ariake_Internal_Tide/06.TempSal070706-07/04.EstimateSealevel) E /PSL_dimx exch def bby /PSL_dimy exch def
0 135 M 0 PSL_dimy 2 div neg G 38 F1 (/work1/aym/08.Work07/01.Research/21.Ariake_Internal_Tide/06.TempSal070706-07/04.EstimateSealevel) Z
0 0 M 38 F1 (\ ) E /PSL_dimx exch def bby /PSL_dimy exch def
0 90 M 0 PSL_dimy 2 div neg G 38 F1 (\ ) Z
0 0 M 38 F1 (Rep_ts070707.txt) E /PSL_dimx exch def bby /PSL_dimy exch def
0 45 M 0 PSL_dimy 2 div neg G 38 F1 (Rep_ts070707.txt) Z
S [] 0 B
%%PageTrailer
S -0 -2250 T 4.16667 4.16667 scale 0 A
showpage

%%Trailer

end
%%EOF
