/work03/2021/nakamuro/32.12.RAIN/32.12.R1H_HISTOGRAM_DAILY/12.22.MERGE.P1H.DATA/OUT_MERGE
Tue, 10 Jan 2023 17:04:52 +0900
/work03/2021/nakamuro/32.12.RAIN/32.12.R1H_HISTOGRAM_DAILY/12.22.MERGE.P1H.DATA/OUT_MERGE
Tue, 10 Jan 2023 17:16:38 +0900
/work03/2021/nakamuro/32.12.RAIN/32.12.R1H_HISTOGRAM_DAILY/12.22.MERGE.P1H.DATA/OUT_MERGE
Thu, 12 Jan 2023 13:28:46 +0900
/work03/2021/nakamuro/32.12.RAIN/32.12.R1H_HISTOGRAM_DAILY/12.22.MERGE.P1H.DATA/OUT_MERGE
Thu, 12 Jan 2023 13:30:54 +0900
