netcdf LFM_SFC_HINTPL_FH00_VALID_2022-06-18_00 {
dimensions:
	time = UNLIMITED ; // (1 currently)
	lon = 281 ;
	lat = 316 ;
variables:
	double time(time) ;
		time:standard_name = "time" ;
		time:units = "hours since 2022-06-01 00:00:00" ;
		time:calendar = "standard" ;
		time:axis = "T" ;
	double lon(lon) ;
		lon:standard_name = "longitude" ;
		lon:long_name = "longitude" ;
		lon:units = "degree" ;
		lon:axis = "X" ;
	double lat(lat) ;
		lat:standard_name = "latitude" ;
		lat:long_name = "latitude" ;
		lat:units = "degree" ;
		lat:axis = "Y" ;
	float temp(time, lat, lon) ;
		temp:long_name = "Temperature" ;
		temp:units = "K" ;
		temp:_FillValue = 1.e+20f ;
		temp:missing_value = 1.e+20f ;
		temp:center = "Japanese Meteorological Agency - Tokyo (RSMC)" ;
		temp:production_status = "Operational products" ;
		temp:parameter_discipline_and_category = "Meteorological products, Temperature" ;
		temp:parameter_template_discipline_category_number = 0, 0, 0, 0 ;
		temp:level = 1.5f ;
		temp:forecast_time = 0 ;
		temp:forecast_time_units = "minutes" ;
		temp:initial_time = "06/18/2022 (00:00)" ;
	float rh(time, lat, lon) ;
		rh:long_name = "Relative humidity" ;
		rh:units = "%" ;
		rh:_FillValue = 1.e+20f ;
		rh:missing_value = 1.e+20f ;
		rh:center = "Japanese Meteorological Agency - Tokyo (RSMC)" ;
		rh:production_status = "Operational products" ;
		rh:parameter_discipline_and_category = "Meteorological products, Moisture" ;
		rh:parameter_template_discipline_category_number = 0, 0, 1, 1 ;
		rh:level = 1.5f ;
		rh:forecast_time = 0 ;
		rh:forecast_time_units = "minutes" ;
		rh:initial_time = "06/18/2022 (00:00)" ;
	float u(time, lat, lon) ;
		u:long_name = "U-component of wind" ;
		u:units = "m s-1" ;
		u:_FillValue = 1.e+20f ;
		u:missing_value = 1.e+20f ;
		u:center = "Japanese Meteorological Agency - Tokyo (RSMC)" ;
		u:production_status = "Operational products" ;
		u:parameter_discipline_and_category = "Meteorological products, Momentum" ;
		u:parameter_template_discipline_category_number = 0, 0, 2, 2 ;
		u:level = 10.f ;
		u:forecast_time = 0 ;
		u:forecast_time_units = "minutes" ;
		u:initial_time = "06/18/2022 (00:00)" ;
	float v(time, lat, lon) ;
		v:long_name = "V-component of wind" ;
		v:units = "m s-1" ;
		v:_FillValue = 1.e+20f ;
		v:missing_value = 1.e+20f ;
		v:center = "Japanese Meteorological Agency - Tokyo (RSMC)" ;
		v:production_status = "Operational products" ;
		v:parameter_discipline_and_category = "Meteorological products, Momentum" ;
		v:parameter_template_discipline_category_number = 0, 0, 2, 3 ;
		v:level = 10.f ;
		v:forecast_time = 0 ;
		v:forecast_time_units = "minutes" ;
		v:initial_time = "06/18/2022 (00:00)" ;
	float sp(time, lat, lon) ;
		sp:long_name = "Pressure" ;
		sp:units = "Pa" ;
		sp:_FillValue = 1.e+20f ;
		sp:missing_value = 1.e+20f ;
		sp:center = "Japanese Meteorological Agency - Tokyo (RSMC)" ;
		sp:production_status = "Operational products" ;
		sp:parameter_discipline_and_category = "Meteorological products, Mass" ;
		sp:parameter_template_discipline_category_number = 0, 0, 3, 0 ;
		sp:forecast_time = 0 ;
		sp:forecast_time_units = "minutes" ;
		sp:initial_time = "06/18/2022 (00:00)" ;
	float slp(time, lat, lon) ;
		slp:long_name = "Pressure reduced to MSL" ;
		slp:units = "Pa" ;
		slp:_FillValue = 1.e+20f ;
		slp:missing_value = 1.e+20f ;
		slp:center = "Japanese Meteorological Agency - Tokyo (RSMC)" ;
		slp:production_status = "Operational products" ;
		slp:parameter_discipline_and_category = "Meteorological products, Mass" ;
		slp:parameter_template_discipline_category_number = 0, 0, 3, 1 ;
		slp:forecast_time = 0 ;
		slp:forecast_time_units = "minutes" ;
		slp:initial_time = "06/18/2022 (00:00)" ;

// global attributes:
		:CDI = "Climate Data Interface version 1.9.10 (https://mpimet.mpg.de/cdi)" ;
		:Conventions = "CF-1.6" ;
		:script = "00.NCL.CUT.SFC" ;
		:directory = "/work03/am/2022.06.ECS.OBS/26.12.LFM.NCL/02.16.NCL.HCUT.PDEL" ;
		:creation_date = "Wed, 09 Nov 2022 19:52:12 +0900" ;
		:history = "Tue Dec 20 23:41:21 2022: cdo remapcon,MYGRID.TXT /work01/DATA/LFM_HCUT.PDEL/FH00/LFM_SFC_FH00_VALID_2022-06-18_00.nc /work01/DATA/LFM_HCUT.SFC.HINTPL/FH00/LFM_SFC_HINTPL_FH00_VALID_2022-06-18_00.nc" ;
		:CDO = "Climate Data Operators version 1.9.10 (https://mpimet.mpg.de/cdo)" ;
}
