# /work09/am/00.WORK/2022.RW3A/0JOS.FALL2023/22.12.SLP_TENDENCY/TSR_SLP_AAV
# $ cp SLP.CNTL.TXT SLP.TSR.CNTL.TXT
# Printing Grid -- 61 Values -- Undef = -9.99e+08
# TIME0=00Z12AUG2021 ;TIME1=12Z14AUG2021
2021/08/12 12:00, 1009.359 
2021/08/12 13:00, 1009.200 
2021/08/12 14:00, 1008.801 
2021/08/12 15:00, 1008.452 
2021/08/12 16:00, 1007.992 
2021/08/12 17:00, 1007.570 
2021/08/12 18:00, 1007.084 
2021/08/12 19:00, 1006.870 
2021/08/12 20:00, 1006.940 
2021/08/12 21:00, 1006.846 
2021/08/12 22:00, 1006.916 
2021/08/12 23:00, 1006.876 
2021/08/13 00:00, 1006.861 
2021/08/13 01:00, 1006.590 
2021/08/13 02:00, 1006.098 
2021/08/13 03:00, 1005.967 
2021/08/13 04:00, 1005.602 
2021/08/13 05:00, 1005.387 
2021/08/13 06:00, 1005.041 
2021/08/13 07:00, 1004.801 
2021/08/13 08:00, 1004.874 
2021/08/13 09:00, 1004.832 
2021/08/13 10:00, 1004.933 
2021/08/13 11:00, 1004.905 
2021/08/13 12:00, 1004.918 
2021/08/13 13:00, 1004.893 
2021/08/13 14:00, 1004.550 
2021/08/13 15:00, 1004.396 
2021/08/13 16:00, 1004.086 
2021/08/13 17:00, 1003.856 
2021/08/13 18:00, 1003.680 
2021/08/13 19:00, 1003.658 
2021/08/13 20:00, 1003.881 
2021/08/13 21:00, 1004.012 
2021/08/13 22:00, 1004.255 
2021/08/13 23:00, 1004.429 
2021/08/14 00:00, 1004.678 
2021/08/14 01:00, 1004.686 
2021/08/14 02:00, 1004.345 
2021/08/14 03:00, 1004.275 
2021/08/14 04:00, 1003.961 
2021/08/14 05:00, 1003.781 
2021/08/14 06:00, 1003.548 
2021/08/14 07:00, 1003.500 
2021/08/14 08:00, 1003.863 
2021/08/14 09:00, 1003.971 
2021/08/14 10:00, 1004.238 
2021/08/14 11:00, 1004.350 
2021/08/14 12:00, 1004.463 
2021/08/14 13:00, 1004.639 
2021/08/14 14:00, 1004.512 
2021/08/14 15:00, 1004.730 
2021/08/14 16:00, 1004.923 
2021/08/14 17:00, 1004.984 
2021/08/14 18:00, 1005.083 
2021/08/14 19:00, 1005.471 
2021/08/14 20:00, 1006.039 
2021/08/14 21:00, 1006.569 
2021/08/14 22:00, 1007.185 
2021/08/14 23:00, 1007.629 
2021/08/15 00:00, 1008.169 
