/work02/DATA/MSM.NC/MSM_CUT_125-133_29-35/OUT_ECAPE500m_NC4_RH/ECAPE_RH_125-133_29-35_2020-06-24_12_500m_0.0.nc \
/work02/DATA/MSM.NC/MSM_CUT_125-133_29-35/OUT_ECAPE500m_NC4_RH/ECAPE_RH_125-133_29-35_2020-06-24_15_500m_0.0.nc \
/work02/DATA/MSM.NC/MSM_CUT_125-133_29-35/OUT_ECAPE500m_NC4_RH/ECAPE_RH_125-133_29-35_2020-06-24_18_500m_0.0.nc \
/work02/DATA/MSM.NC/MSM_CUT_125-133_29-35/OUT_ECAPE500m_NC4_RH/ECAPE_RH_125-133_29-35_2020-06-25_00_500m_0.0.nc \
/work02/DATA/MSM.NC/MSM_CUT_125-133_29-35/OUT_ECAPE500m_NC4_RH/ECAPE_RH_125-133_29-35_2020-06-25_03_500m_0.0.nc \
/work02/DATA/MSM.NC/MSM_CUT_125-133_29-35/OUT_ECAPE500m_NC4_RH/ECAPE_RH_125-133_29-35_2020-06-25_06_500m_0.0.nc \
/work02/DATA/MSM.NC/MSM_CUT_125-133_29-35/OUT_ECAPE500m_NC4_RH/ECAPE_RH_125-133_29-35_2020-06-26_09_500m_0.0.nc \
/work02/DATA/MSM.NC/MSM_CUT_125-133_29-35/OUT_ECAPE500m_NC4_RH/ECAPE_RH_125-133_29-35_2020-06-26_12_500m_0.0.nc \
/work02/DATA/MSM.NC/MSM_CUT_125-133_29-35/OUT_ECAPE500m_NC4_RH/ECAPE_RH_125-133_29-35_2020-06-26_15_500m_0.0.nc \
/work02/DATA/MSM.NC/MSM_CUT_125-133_29-35/OUT_ECAPE500m_NC4_RH/ECAPE_RH_125-133_29-35_2020-06-26_18_500m_0.0.nc \
/work02/DATA/MSM.NC/MSM_CUT_125-133_29-35/OUT_ECAPE500m_NC4_RH/ECAPE_RH_125-133_29-35_2020-06-26_21_500m_0.0.nc \
/work02/DATA/MSM.NC/MSM_CUT_125-133_29-35/OUT_ECAPE500m_NC4_RH/ECAPE_RH_125-133_29-35_2020-06-27_00_500m_0.0.nc \
/work02/DATA/MSM.NC/MSM_CUT_125-133_29-35/OUT_ECAPE500m_NC4_RH/ECAPE_RH_125-133_29-35_2020-06-27_03_500m_0.0.nc \
/work02/DATA/MSM.NC/MSM_CUT_125-133_29-35/OUT_ECAPE500m_NC4_RH/ECAPE_RH_125-133_29-35_2020-06-27_06_500m_0.0.nc \
/work02/DATA/MSM.NC/MSM_CUT_125-133_29-35/OUT_ECAPE500m_NC4_RH/ECAPE_RH_125-133_29-35_2020-06-29_06_500m_0.0.nc \
/work02/DATA/MSM.NC/MSM_CUT_125-133_29-35/OUT_ECAPE500m_NC4_RH/ECAPE_RH_125-133_29-35_2020-06-29_09_500m_0.0.nc \
/work02/DATA/MSM.NC/MSM_CUT_125-133_29-35/OUT_ECAPE500m_NC4_RH/ECAPE_RH_125-133_29-35_2020-06-29_12_500m_0.0.nc \
/work02/DATA/MSM.NC/MSM_CUT_125-133_29-35/OUT_ECAPE500m_NC4_RH/ECAPE_RH_125-133_29-35_2020-06-29_15_500m_0.0.nc \
/work02/DATA/MSM.NC/MSM_CUT_125-133_29-35/OUT_ECAPE500m_NC4_RH/ECAPE_RH_125-133_29-35_2020-07-05_09_500m_0.0.nc \
/work02/DATA/MSM.NC/MSM_CUT_125-133_29-35/OUT_ECAPE500m_NC4_RH/ECAPE_RH_125-133_29-35_2020-07-05_12_500m_0.0.nc \
/work02/DATA/MSM.NC/MSM_CUT_125-133_29-35/OUT_ECAPE500m_NC4_RH/ECAPE_RH_125-133_29-35_2020-07-05_15_500m_0.0.nc \
/work02/DATA/MSM.NC/MSM_CUT_125-133_29-35/OUT_ECAPE500m_NC4_RH/ECAPE_RH_125-133_29-35_2020-07-05_18_500m_0.0.nc \
/work02/DATA/MSM.NC/MSM_CUT_125-133_29-35/OUT_ECAPE500m_NC4_RH/ECAPE_RH_125-133_29-35_2020-07-05_21_500m_0.0.nc \
/work02/DATA/MSM.NC/MSM_CUT_125-133_29-35/OUT_ECAPE500m_NC4_RH/ECAPE_RH_125-133_29-35_2020-07-06_00_500m_0.0.nc \
/work02/DATA/MSM.NC/MSM_CUT_125-133_29-35/OUT_ECAPE500m_NC4_RH/ECAPE_RH_125-133_29-35_2020-07-06_03_500m_0.0.nc \
/work02/DATA/MSM.NC/MSM_CUT_125-133_29-35/OUT_ECAPE500m_NC4_RH/ECAPE_RH_125-133_29-35_2020-07-06_06_500m_0.0.nc \
/work02/DATA/MSM.NC/MSM_CUT_125-133_29-35/OUT_ECAPE500m_NC4_RH/ECAPE_RH_125-133_29-35_2020-07-06_09_500m_0.0.nc \
/work02/DATA/MSM.NC/MSM_CUT_125-133_29-35/OUT_ECAPE500m_NC4_RH/ECAPE_RH_125-133_29-35_2020-07-06_12_500m_0.0.nc \
/work02/DATA/MSM.NC/MSM_CUT_125-133_29-35/OUT_ECAPE500m_NC4_RH/ECAPE_RH_125-133_29-35_2020-07-06_15_500m_0.0.nc \
/work02/DATA/MSM.NC/MSM_CUT_125-133_29-35/OUT_ECAPE500m_NC4_RH/ECAPE_RH_125-133_29-35_2020-07-06_18_500m_0.0.nc \
/work02/DATA/MSM.NC/MSM_CUT_125-133_29-35/OUT_ECAPE500m_NC4_RH/ECAPE_RH_125-133_29-35_2020-07-06_21_500m_0.0.nc \
/work02/DATA/MSM.NC/MSM_CUT_125-133_29-35/OUT_ECAPE500m_NC4_RH/ECAPE_RH_125-133_29-35_2020-07-07_00_500m_0.0.nc \
/work02/DATA/MSM.NC/MSM_CUT_125-133_29-35/OUT_ECAPE500m_NC4_RH/ECAPE_RH_125-133_29-35_2020-07-07_03_500m_0.0.nc \
/work02/DATA/MSM.NC/MSM_CUT_125-133_29-35/OUT_ECAPE500m_NC4_RH/ECAPE_RH_125-133_29-35_2020-07-07_06_500m_0.0.nc \
/work02/DATA/MSM.NC/MSM_CUT_125-133_29-35/OUT_ECAPE500m_NC4_RH/ECAPE_RH_125-133_29-35_2020-07-07_09_500m_0.0.nc \
/work02/DATA/MSM.NC/MSM_CUT_125-133_29-35/OUT_ECAPE500m_NC4_RH/ECAPE_RH_125-133_29-35_2020-07-08_12_500m_0.0.nc \
/work02/DATA/MSM.NC/MSM_CUT_125-133_29-35/OUT_ECAPE500m_NC4_RH/ECAPE_RH_125-133_29-35_2020-07-08_18_500m_0.0.nc \
/work02/DATA/MSM.NC/MSM_CUT_125-133_29-35/OUT_ECAPE500m_NC4_RH/ECAPE_RH_125-133_29-35_2020-07-09_00_500m_0.0.nc \
/work02/DATA/MSM.NC/MSM_CUT_125-133_29-35/OUT_ECAPE500m_NC4_RH/ECAPE_RH_125-133_29-35_2020-07-09_09_500m_0.0.nc \
/work02/DATA/MSM.NC/MSM_CUT_125-133_29-35/OUT_ECAPE500m_NC4_RH/ECAPE_RH_125-133_29-35_2020-07-09_12_500m_0.0.nc \
/work02/DATA/MSM.NC/MSM_CUT_125-133_29-35/OUT_ECAPE500m_NC4_RH/ECAPE_RH_125-133_29-35_2020-07-09_15_500m_0.0.nc \
/work02/DATA/MSM.NC/MSM_CUT_125-133_29-35/OUT_ECAPE500m_NC4_RH/ECAPE_RH_125-133_29-35_2020-07-09_21_500m_0.0.nc \
/work02/DATA/MSM.NC/MSM_CUT_125-133_29-35/OUT_ECAPE500m_NC4_RH/ECAPE_RH_125-133_29-35_2020-07-10_03_500m_0.0.nc \
/work02/DATA/MSM.NC/MSM_CUT_125-133_29-35/OUT_ECAPE500m_NC4_RH/ECAPE_RH_125-133_29-35_2020-07-10_06_500m_0.0.nc \
/work02/DATA/MSM.NC/MSM_CUT_125-133_29-35/OUT_ECAPE500m_NC4_RH/ECAPE_RH_125-133_29-35_2020-07-13_03_500m_0.0.nc \
/work02/DATA/MSM.NC/MSM_CUT_125-133_29-35/OUT_ECAPE500m_NC4_RH/ECAPE_RH_125-133_29-35_2020-07-13_06_500m_0.0.nc \
/work02/DATA/MSM.NC/MSM_CUT_125-133_29-35/OUT_ECAPE500m_NC4_RH/ECAPE_RH_125-133_29-35_2020-07-20_00_500m_0.0.nc \
/work02/DATA/MSM.NC/MSM_CUT_125-133_29-35/OUT_ECAPE500m_NC4_RH/ECAPE_RH_125-133_29-35_2020-07-21_00_500m_0.0.nc \
/work02/DATA/MSM.NC/MSM_CUT_125-133_29-35/OUT_ECAPE500m_NC4_RH/ECAPE_RH_125-133_29-35_2020-07-22_21_500m_0.0.nc \
/work02/DATA/MSM.NC/MSM_CUT_125-133_29-35/OUT_ECAPE500m_NC4_RH/ECAPE_RH_125-133_29-35_2020-07-23_21_500m_0.0.nc \
/work02/DATA/MSM.NC/MSM_CUT_125-133_29-35/OUT_ECAPE500m_NC4_RH/ECAPE_RH_125-133_29-35_2020-07-24_03_500m_0.0.nc \
/work02/DATA/MSM.NC/MSM_CUT_125-133_29-35/OUT_ECAPE500m_NC4_RH/ECAPE_RH_125-133_29-35_2020-07-26_09_500m_0.0.nc \
/work02/DATA/MSM.NC/MSM_CUT_125-133_29-35/OUT_ECAPE500m_NC4_RH/ECAPE_RH_125-133_29-35_2020-07-26_12_500m_0.0.nc \
/work02/DATA/MSM.NC/MSM_CUT_125-133_29-35/OUT_ECAPE500m_NC4_RH/ECAPE_RH_125-133_29-35_2020-07-27_06_500m_0.0.nc \
/work02/DATA/MSM.NC/MSM_CUT_125-133_29-35/OUT_ECAPE500m_NC4_RH/ECAPE_RH_125-133_29-35_2020-07-27_18_500m_0.0.nc \
/work02/DATA/MSM.NC/MSM_CUT_125-133_29-35/OUT_ECAPE500m_NC4_RH/ECAPE_RH_125-133_29-35_2020-07-28_00_500m_0.0.nc \
/work02/DATA/MSM.NC/MSM_CUT_125-133_29-35/OUT_ECAPE500m_NC4_RH/ECAPE_RH_125-133_29-35_2020-08-06_12_500m_0.0.nc \
/work02/DATA/MSM.NC/MSM_CUT_125-133_29-35/OUT_ECAPE500m_NC4_RH/ECAPE_RH_125-133_29-35_2020-08-06_15_500m_0.0.nc \
/work02/DATA/MSM.NC/MSM_CUT_125-133_29-35/OUT_ECAPE500m_NC4_RH/ECAPE_RH_125-133_29-35_2020-08-06_18_500m_0.0.nc \
/work02/DATA/MSM.NC/MSM_CUT_125-133_29-35/OUT_ECAPE500m_NC4_RH/ECAPE_RH_125-133_29-35_2020-08-07_00_500m_0.0.nc \
/work02/DATA/MSM.NC/MSM_CUT_125-133_29-35/OUT_ECAPE500m_NC4_RH/ECAPE_RH_125-133_29-35_2020-08-07_03_500m_0.0.nc \
/work02/DATA/MSM.NC/MSM_CUT_125-133_29-35/OUT_ECAPE500m_NC4_RH/ECAPE_RH_125-133_29-35_2020-08-07_12_500m_0.0.nc \
/work02/DATA/MSM.NC/MSM_CUT_125-133_29-35/OUT_ECAPE500m_NC4_RH/ECAPE_RH_125-133_29-35_2020-08-07_15_500m_0.0.nc \
/work02/DATA/MSM.NC/MSM_CUT_125-133_29-35/OUT_ECAPE500m_NC4_RH/ECAPE_RH_125-133_29-35_2020-08-07_18_500m_0.0.nc \
/work02/DATA/MSM.NC/MSM_CUT_125-133_29-35/OUT_ECAPE500m_NC4_RH/ECAPE_RH_125-133_29-35_2020-08-07_21_500m_0.0.nc \
/work02/DATA/MSM.NC/MSM_CUT_125-133_29-35/OUT_ECAPE500m_NC4_RH/ECAPE_RH_125-133_29-35_2020-08-08_00_500m_0.0.nc \
/work02/DATA/MSM.NC/MSM_CUT_125-133_29-35/OUT_ECAPE500m_NC4_RH/ECAPE_RH_125-133_29-35_2020-08-09_00_500m_0.0.nc \
/work02/DATA/MSM.NC/MSM_CUT_125-133_29-35/OUT_ECAPE500m_NC4_RH/ECAPE_RH_125-133_29-35_2020-08-09_21_500m_0.0.nc \
/work02/DATA/MSM.NC/MSM_CUT_125-133_29-35/OUT_ECAPE500m_NC4_RH/ECAPE_RH_125-133_29-35_2020-08-10_00_500m_0.0.nc \
/work02/DATA/MSM.NC/MSM_CUT_125-133_29-35/OUT_ECAPE500m_NC4_RH/ECAPE_RH_125-133_29-35_2020-08-10_15_500m_0.0.nc \
/work02/DATA/MSM.NC/MSM_CUT_125-133_29-35/OUT_ECAPE500m_NC4_RH/ECAPE_RH_125-133_29-35_2020-08-10_18_500m_0.0.nc \
/work02/DATA/MSM.NC/MSM_CUT_125-133_29-35/OUT_ECAPE500m_NC4_RH/ECAPE_RH_125-133_29-35_2020-08-10_21_500m_0.0.nc \
/work02/DATA/MSM.NC/MSM_CUT_125-133_29-35/OUT_ECAPE500m_NC4_RH/ECAPE_RH_125-133_29-35_2020-08-11_00_500m_0.0.nc \
/work02/DATA/MSM.NC/MSM_CUT_125-133_29-35/OUT_ECAPE500m_NC4_RH/ECAPE_RH_125-133_29-35_2020-08-11_21_500m_0.0.nc \
/work02/DATA/MSM.NC/MSM_CUT_125-133_29-35/OUT_ECAPE500m_NC4_RH/ECAPE_RH_125-133_29-35_2020-08-26_12_500m_0.0.nc \
/work02/DATA/MSM.NC/MSM_CUT_125-133_29-35/OUT_ECAPE500m_NC4_RH/ECAPE_RH_125-133_29-35_2020-08-26_15_500m_0.0.nc \
/work02/DATA/MSM.NC/MSM_CUT_125-133_29-35/OUT_ECAPE500m_NC4_RH/ECAPE_RH_125-133_29-35_2020-08-26_18_500m_0.0.nc \
/work02/DATA/MSM.NC/MSM_CUT_125-133_29-35/OUT_ECAPE500m_NC4_RH/ECAPE_RH_125-133_29-35_2021-06-03_00_500m_0.0.nc \
/work02/DATA/MSM.NC/MSM_CUT_125-133_29-35/OUT_ECAPE500m_NC4_RH/ECAPE_RH_125-133_29-35_2021-06-03_03_500m_0.0.nc \
/work02/DATA/MSM.NC/MSM_CUT_125-133_29-35/OUT_ECAPE500m_NC4_RH/ECAPE_RH_125-133_29-35_2021-06-03_06_500m_0.0.nc \
/work02/DATA/MSM.NC/MSM_CUT_125-133_29-35/OUT_ECAPE500m_NC4_RH/ECAPE_RH_125-133_29-35_2021-06-17_18_500m_0.0.nc \
/work02/DATA/MSM.NC/MSM_CUT_125-133_29-35/OUT_ECAPE500m_NC4_RH/ECAPE_RH_125-133_29-35_2021-07-02_18_500m_0.0.nc \
/work02/DATA/MSM.NC/MSM_CUT_125-133_29-35/OUT_ECAPE500m_NC4_RH/ECAPE_RH_125-133_29-35_2021-07-02_21_500m_0.0.nc \
/work02/DATA/MSM.NC/MSM_CUT_125-133_29-35/OUT_ECAPE500m_NC4_RH/ECAPE_RH_125-133_29-35_2021-07-07_00_500m_0.0.nc \
/work02/DATA/MSM.NC/MSM_CUT_125-133_29-35/OUT_ECAPE500m_NC4_RH/ECAPE_RH_125-133_29-35_2021-07-07_15_500m_0.0.nc \
/work02/DATA/MSM.NC/MSM_CUT_125-133_29-35/OUT_ECAPE500m_NC4_RH/ECAPE_RH_125-133_29-35_2021-07-07_18_500m_0.0.nc \
/work02/DATA/MSM.NC/MSM_CUT_125-133_29-35/OUT_ECAPE500m_NC4_RH/ECAPE_RH_125-133_29-35_2021-07-08_06_500m_0.0.nc \
/work02/DATA/MSM.NC/MSM_CUT_125-133_29-35/OUT_ECAPE500m_NC4_RH/ECAPE_RH_125-133_29-35_2021-07-08_09_500m_0.0.nc \
/work02/DATA/MSM.NC/MSM_CUT_125-133_29-35/OUT_ECAPE500m_NC4_RH/ECAPE_RH_125-133_29-35_2021-07-08_12_500m_0.0.nc \
/work02/DATA/MSM.NC/MSM_CUT_125-133_29-35/OUT_ECAPE500m_NC4_RH/ECAPE_RH_125-133_29-35_2021-07-08_15_500m_0.0.nc \
/work02/DATA/MSM.NC/MSM_CUT_125-133_29-35/OUT_ECAPE500m_NC4_RH/ECAPE_RH_125-133_29-35_2021-07-08_18_500m_0.0.nc \
/work02/DATA/MSM.NC/MSM_CUT_125-133_29-35/OUT_ECAPE500m_NC4_RH/ECAPE_RH_125-133_29-35_2021-07-10_21_500m_0.0.nc \
/work02/DATA/MSM.NC/MSM_CUT_125-133_29-35/OUT_ECAPE500m_NC4_RH/ECAPE_RH_125-133_29-35_2021-07-11_00_500m_0.0.nc \
/work02/DATA/MSM.NC/MSM_CUT_125-133_29-35/OUT_ECAPE500m_NC4_RH/ECAPE_RH_125-133_29-35_2021-07-31_00_500m_0.0.nc \
/work02/DATA/MSM.NC/MSM_CUT_125-133_29-35/OUT_ECAPE500m_NC4_RH/ECAPE_RH_125-133_29-35_2021-08-11_00_500m_0.0.nc \
/work02/DATA/MSM.NC/MSM_CUT_125-133_29-35/OUT_ECAPE500m_NC4_RH/ECAPE_RH_125-133_29-35_2021-08-11_06_500m_0.0.nc \
/work02/DATA/MSM.NC/MSM_CUT_125-133_29-35/OUT_ECAPE500m_NC4_RH/ECAPE_RH_125-133_29-35_2021-08-11_12_500m_0.0.nc \
/work02/DATA/MSM.NC/MSM_CUT_125-133_29-35/OUT_ECAPE500m_NC4_RH/ECAPE_RH_125-133_29-35_2021-08-11_15_500m_0.0.nc \
/work02/DATA/MSM.NC/MSM_CUT_125-133_29-35/OUT_ECAPE500m_NC4_RH/ECAPE_RH_125-133_29-35_2021-08-11_18_500m_0.0.nc \
/work02/DATA/MSM.NC/MSM_CUT_125-133_29-35/OUT_ECAPE500m_NC4_RH/ECAPE_RH_125-133_29-35_2021-08-11_21_500m_0.0.nc \
/work02/DATA/MSM.NC/MSM_CUT_125-133_29-35/OUT_ECAPE500m_NC4_RH/ECAPE_RH_125-133_29-35_2021-08-12_00_500m_0.0.nc \
/work02/DATA/MSM.NC/MSM_CUT_125-133_29-35/OUT_ECAPE500m_NC4_RH/ECAPE_RH_125-133_29-35_2021-08-12_03_500m_0.0.nc \
/work02/DATA/MSM.NC/MSM_CUT_125-133_29-35/OUT_ECAPE500m_NC4_RH/ECAPE_RH_125-133_29-35_2021-08-12_06_500m_0.0.nc \
/work02/DATA/MSM.NC/MSM_CUT_125-133_29-35/OUT_ECAPE500m_NC4_RH/ECAPE_RH_125-133_29-35_2021-08-12_12_500m_0.0.nc \
/work02/DATA/MSM.NC/MSM_CUT_125-133_29-35/OUT_ECAPE500m_NC4_RH/ECAPE_RH_125-133_29-35_2021-08-12_18_500m_0.0.nc \
/work02/DATA/MSM.NC/MSM_CUT_125-133_29-35/OUT_ECAPE500m_NC4_RH/ECAPE_RH_125-133_29-35_2021-08-12_21_500m_0.0.nc \
/work02/DATA/MSM.NC/MSM_CUT_125-133_29-35/OUT_ECAPE500m_NC4_RH/ECAPE_RH_125-133_29-35_2021-08-13_00_500m_0.0.nc \
/work02/DATA/MSM.NC/MSM_CUT_125-133_29-35/OUT_ECAPE500m_NC4_RH/ECAPE_RH_125-133_29-35_2021-08-13_03_500m_0.0.nc \
/work02/DATA/MSM.NC/MSM_CUT_125-133_29-35/OUT_ECAPE500m_NC4_RH/ECAPE_RH_125-133_29-35_2021-08-13_06_500m_0.0.nc \
/work02/DATA/MSM.NC/MSM_CUT_125-133_29-35/OUT_ECAPE500m_NC4_RH/ECAPE_RH_125-133_29-35_2021-08-13_09_500m_0.0.nc \
/work02/DATA/MSM.NC/MSM_CUT_125-133_29-35/OUT_ECAPE500m_NC4_RH/ECAPE_RH_125-133_29-35_2021-08-13_12_500m_0.0.nc \
/work02/DATA/MSM.NC/MSM_CUT_125-133_29-35/OUT_ECAPE500m_NC4_RH/ECAPE_RH_125-133_29-35_2021-08-13_15_500m_0.0.nc \
/work02/DATA/MSM.NC/MSM_CUT_125-133_29-35/OUT_ECAPE500m_NC4_RH/ECAPE_RH_125-133_29-35_2021-08-13_18_500m_0.0.nc \
/work02/DATA/MSM.NC/MSM_CUT_125-133_29-35/OUT_ECAPE500m_NC4_RH/ECAPE_RH_125-133_29-35_2021-08-13_21_500m_0.0.nc \
/work02/DATA/MSM.NC/MSM_CUT_125-133_29-35/OUT_ECAPE500m_NC4_RH/ECAPE_RH_125-133_29-35_2021-08-14_00_500m_0.0.nc \
/work02/DATA/MSM.NC/MSM_CUT_125-133_29-35/OUT_ECAPE500m_NC4_RH/ECAPE_RH_125-133_29-35_2021-08-14_03_500m_0.0.nc \
/work02/DATA/MSM.NC/MSM_CUT_125-133_29-35/OUT_ECAPE500m_NC4_RH/ECAPE_RH_125-133_29-35_2021-08-14_06_500m_0.0.nc \
/work02/DATA/MSM.NC/MSM_CUT_125-133_29-35/OUT_ECAPE500m_NC4_RH/ECAPE_RH_125-133_29-35_2021-08-15_18_500m_0.0.nc \
/work02/DATA/MSM.NC/MSM_CUT_125-133_29-35/OUT_ECAPE500m_NC4_RH/ECAPE_RH_125-133_29-35_2021-08-15_21_500m_0.0.nc \
/work02/DATA/MSM.NC/MSM_CUT_125-133_29-35/OUT_ECAPE500m_NC4_RH/ECAPE_RH_125-133_29-35_2021-08-16_06_500m_0.0.nc \
/work02/DATA/MSM.NC/MSM_CUT_125-133_29-35/OUT_ECAPE500m_NC4_RH/ECAPE_RH_125-133_29-35_2021-08-16_09_500m_0.0.nc \
/work02/DATA/MSM.NC/MSM_CUT_125-133_29-35/OUT_ECAPE500m_NC4_RH/ECAPE_RH_125-133_29-35_2021-08-16_12_500m_0.0.nc \
/work02/DATA/MSM.NC/MSM_CUT_125-133_29-35/OUT_ECAPE500m_NC4_RH/ECAPE_RH_125-133_29-35_2021-08-16_15_500m_0.0.nc \
/work02/DATA/MSM.NC/MSM_CUT_125-133_29-35/OUT_ECAPE500m_NC4_RH/ECAPE_RH_125-133_29-35_2021-08-21_00_500m_0.0.nc \
/work02/DATA/MSM.NC/MSM_CUT_125-133_29-35/OUT_ECAPE500m_NC4_RH/ECAPE_RH_125-133_29-35_2021-08-21_03_500m_0.0.nc \
/work02/DATA/MSM.NC/MSM_CUT_125-133_29-35/OUT_ECAPE500m_NC4_RH/ECAPE_RH_125-133_29-35_2021-08-21_12_500m_0.0.nc \
/work02/DATA/MSM.NC/MSM_CUT_125-133_29-35/OUT_ECAPE500m_NC4_RH/ECAPE_RH_125-133_29-35_2021-08-21_15_500m_0.0.nc \
/work02/DATA/MSM.NC/MSM_CUT_125-133_29-35/OUT_ECAPE500m_NC4_RH/ECAPE_RH_125-133_29-35_2021-08-21_18_500m_0.0.nc \
/work02/DATA/MSM.NC/MSM_CUT_125-133_29-35/OUT_ECAPE500m_NC4_RH/ECAPE_RH_125-133_29-35_2021-08-21_21_500m_0.0.nc \
/work02/DATA/MSM.NC/MSM_CUT_125-133_29-35/OUT_ECAPE500m_NC4_RH/ECAPE_RH_125-133_29-35_2021-08-23_18_500m_0.0.nc \
/work02/DATA/MSM.NC/MSM_CUT_125-133_29-35/OUT_ECAPE500m_NC4_RH/ECAPE_RH_125-133_29-35_2021-08-24_03_500m_0.0.nc \
/work02/DATA/MSM.NC/MSM_CUT_125-133_29-35/OUT_ECAPE500m_NC4_RH/ECAPE_RH_125-133_29-35_2021-08-24_06_500m_0.0.nc \
/work02/DATA/MSM.NC/MSM_CUT_125-133_29-35/OUT_ECAPE500m_NC4_RH/ECAPE_RH_125-133_29-35_2021-08-24_09_500m_0.0.nc \
/work02/DATA/MSM.NC/MSM_CUT_125-133_29-35/OUT_ECAPE500m_NC4_RH/ECAPE_RH_125-133_29-35_2021-08-24_12_500m_0.0.nc \
/work02/DATA/MSM.NC/MSM_CUT_125-133_29-35/OUT_ECAPE500m_NC4_RH/ECAPE_RH_125-133_29-35_2021-08-24_15_500m_0.0.nc \
/work02/DATA/MSM.NC/MSM_CUT_125-133_29-35/OUT_ECAPE500m_NC4_RH/ECAPE_RH_125-133_29-35_2021-08-24_18_500m_0.0.nc \
/work02/DATA/MSM.NC/MSM_CUT_125-133_29-35/OUT_ECAPE500m_NC4_RH/ECAPE_RH_125-133_29-35_2021-08-25_12_500m_0.0.nc \
/work02/DATA/MSM.NC/MSM_CUT_125-133_29-35/OUT_ECAPE500m_NC4_RH/ECAPE_RH_125-133_29-35_2021-08-25_15_500m_0.0.nc \
/work02/DATA/MSM.NC/MSM_CUT_125-133_29-35/OUT_ECAPE500m_NC4_RH/ECAPE_RH_125-133_29-35_2021-08-25_18_500m_0.0.nc \
/work02/DATA/MSM.NC/MSM_CUT_125-133_29-35/OUT_ECAPE500m_NC4_RH/ECAPE_RH_125-133_29-35_2021-08-26_00_500m_0.0.nc \
/work02/DATA/MSM.NC/MSM_CUT_125-133_29-35/OUT_ECAPE500m_NC4_RH/ECAPE_RH_125-133_29-35_2022-06-20_12_500m_0.0.nc \
/work02/DATA/MSM.NC/MSM_CUT_125-133_29-35/OUT_ECAPE500m_NC4_RH/ECAPE_RH_125-133_29-35_2022-06-20_15_500m_0.0.nc \
/work02/DATA/MSM.NC/MSM_CUT_125-133_29-35/OUT_ECAPE500m_NC4_RH/ECAPE_RH_125-133_29-35_2022-06-23_18_500m_0.0.nc \
/work02/DATA/MSM.NC/MSM_CUT_125-133_29-35/OUT_ECAPE500m_NC4_RH/ECAPE_RH_125-133_29-35_2022-06-24_06_500m_0.0.nc \
/work02/DATA/MSM.NC/MSM_CUT_125-133_29-35/OUT_ECAPE500m_NC4_RH/ECAPE_RH_125-133_29-35_2022-06-24_18_500m_0.0.nc \
/work02/DATA/MSM.NC/MSM_CUT_125-133_29-35/OUT_ECAPE500m_NC4_RH/ECAPE_RH_125-133_29-35_2022-06-24_21_500m_0.0.nc \
/work02/DATA/MSM.NC/MSM_CUT_125-133_29-35/OUT_ECAPE500m_NC4_RH/ECAPE_RH_125-133_29-35_2022-06-25_00_500m_0.0.nc \
/work02/DATA/MSM.NC/MSM_CUT_125-133_29-35/OUT_ECAPE500m_NC4_RH/ECAPE_RH_125-133_29-35_2022-07-08_00_500m_0.0.nc \
/work02/DATA/MSM.NC/MSM_CUT_125-133_29-35/OUT_ECAPE500m_NC4_RH/ECAPE_RH_125-133_29-35_2022-07-14_03_500m_0.0.nc \
/work02/DATA/MSM.NC/MSM_CUT_125-133_29-35/OUT_ECAPE500m_NC4_RH/ECAPE_RH_125-133_29-35_2022-07-15_06_500m_0.0.nc \
/work02/DATA/MSM.NC/MSM_CUT_125-133_29-35/OUT_ECAPE500m_NC4_RH/ECAPE_RH_125-133_29-35_2022-07-15_09_500m_0.0.nc \
/work02/DATA/MSM.NC/MSM_CUT_125-133_29-35/OUT_ECAPE500m_NC4_RH/ECAPE_RH_125-133_29-35_2022-07-17_15_500m_0.0.nc \
/work02/DATA/MSM.NC/MSM_CUT_125-133_29-35/OUT_ECAPE500m_NC4_RH/ECAPE_RH_125-133_29-35_2022-07-17_18_500m_0.0.nc \
/work02/DATA/MSM.NC/MSM_CUT_125-133_29-35/OUT_ECAPE500m_NC4_RH/ECAPE_RH_125-133_29-35_2022-07-18_03_500m_0.0.nc \
/work02/DATA/MSM.NC/MSM_CUT_125-133_29-35/OUT_ECAPE500m_NC4_RH/ECAPE_RH_125-133_29-35_2022-07-18_06_500m_0.0.nc \
/work02/DATA/MSM.NC/MSM_CUT_125-133_29-35/OUT_ECAPE500m_NC4_RH/ECAPE_RH_125-133_29-35_2022-07-18_09_500m_0.0.nc \
/work02/DATA/MSM.NC/MSM_CUT_125-133_29-35/OUT_ECAPE500m_NC4_RH/ECAPE_RH_125-133_29-35_2022-07-18_12_500m_0.0.nc \
/work02/DATA/MSM.NC/MSM_CUT_125-133_29-35/OUT_ECAPE500m_NC4_RH/ECAPE_RH_125-133_29-35_2022-07-18_15_500m_0.0.nc \
/work02/DATA/MSM.NC/MSM_CUT_125-133_29-35/OUT_ECAPE500m_NC4_RH/ECAPE_RH_125-133_29-35_2022-07-18_21_500m_0.0.nc \
/work02/DATA/MSM.NC/MSM_CUT_125-133_29-35/OUT_ECAPE500m_NC4_RH/ECAPE_RH_125-133_29-35_2022-07-19_18_500m_0.0.nc \
/work02/DATA/MSM.NC/MSM_CUT_125-133_29-35/OUT_ECAPE500m_NC4_RH/ECAPE_RH_125-133_29-35_2022-08-07_00_500m_0.0.nc \
/work02/DATA/MSM.NC/MSM_CUT_125-133_29-35/OUT_ECAPE500m_NC4_RH/ECAPE_RH_125-133_29-35_2022-08-11_12_500m_0.0.nc \
/work02/DATA/MSM.NC/MSM_CUT_125-133_29-35/OUT_ECAPE500m_NC4_RH/ECAPE_RH_125-133_29-35_2022-08-13_00_500m_0.0.nc \
/work02/DATA/MSM.NC/MSM_CUT_125-133_29-35/OUT_ECAPE500m_NC4_RH/ECAPE_RH_125-133_29-35_2022-08-14_21_500m_0.0.nc \
/work02/DATA/MSM.NC/MSM_CUT_125-133_29-35/OUT_ECAPE500m_NC4_RH/ECAPE_RH_125-133_29-35_2022-08-15_00_500m_0.0.nc \
/work02/DATA/MSM.NC/MSM_CUT_125-133_29-35/OUT_ECAPE500m_NC4_RH/ECAPE_RH_125-133_29-35_2022-08-15_03_500m_0.0.nc \
/work02/DATA/MSM.NC/MSM_CUT_125-133_29-35/OUT_ECAPE500m_NC4_RH/ECAPE_RH_125-133_29-35_2022-08-15_09_500m_0.0.nc \
/work02/DATA/MSM.NC/MSM_CUT_125-133_29-35/OUT_ECAPE500m_NC4_RH/ECAPE_RH_125-133_29-35_2022-08-15_12_500m_0.0.nc \
/work02/DATA/MSM.NC/MSM_CUT_125-133_29-35/OUT_ECAPE500m_NC4_RH/ECAPE_RH_125-133_29-35_2022-08-15_15_500m_0.0.nc \
/work02/DATA/MSM.NC/MSM_CUT_125-133_29-35/OUT_ECAPE500m_NC4_RH/ECAPE_RH_125-133_29-35_2022-08-15_18_500m_0.0.nc \
/work02/DATA/MSM.NC/MSM_CUT_125-133_29-35/OUT_ECAPE500m_NC4_RH/ECAPE_RH_125-133_29-35_2022-08-15_21_500m_0.0.nc \
/work02/DATA/MSM.NC/MSM_CUT_125-133_29-35/OUT_ECAPE500m_NC4_RH/ECAPE_RH_125-133_29-35_2022-08-16_00_500m_0.0.nc \
/work02/DATA/MSM.NC/MSM_CUT_125-133_29-35/OUT_ECAPE500m_NC4_RH/ECAPE_RH_125-133_29-35_2022-08-16_03_500m_0.0.nc \
/work02/DATA/MSM.NC/MSM_CUT_125-133_29-35/OUT_ECAPE500m_NC4_RH/ECAPE_RH_125-133_29-35_2022-08-16_06_500m_0.0.nc \
/work02/DATA/MSM.NC/MSM_CUT_125-133_29-35/OUT_ECAPE500m_NC4_RH/ECAPE_RH_125-133_29-35_2022-08-16_09_500m_0.0.nc \
/work02/DATA/MSM.NC/MSM_CUT_125-133_29-35/OUT_ECAPE500m_NC4_RH/ECAPE_RH_125-133_29-35_2022-08-16_12_500m_0.0.nc \
/work02/DATA/MSM.NC/MSM_CUT_125-133_29-35/OUT_ECAPE500m_NC4_RH/ECAPE_RH_125-133_29-35_2022-08-16_15_500m_0.0.nc \
/work02/DATA/MSM.NC/MSM_CUT_125-133_29-35/OUT_ECAPE500m_NC4_RH/ECAPE_RH_125-133_29-35_2022-08-16_18_500m_0.0.nc \
/work02/DATA/MSM.NC/MSM_CUT_125-133_29-35/OUT_ECAPE500m_NC4_RH/ECAPE_RH_125-133_29-35_2022-08-16_21_500m_0.0.nc \
/work02/DATA/MSM.NC/MSM_CUT_125-133_29-35/OUT_ECAPE500m_NC4_RH/ECAPE_RH_125-133_29-35_2022-08-17_00_500m_0.0.nc \
/work02/DATA/MSM.NC/MSM_CUT_125-133_29-35/OUT_ECAPE500m_NC4_RH/ECAPE_RH_125-133_29-35_2022-08-17_03_500m_0.0.nc \
/work02/DATA/MSM.NC/MSM_CUT_125-133_29-35/OUT_ECAPE500m_NC4_RH/ECAPE_RH_125-133_29-35_2022-08-17_06_500m_0.0.nc \
/work02/DATA/MSM.NC/MSM_CUT_125-133_29-35/OUT_ECAPE500m_NC4_RH/ECAPE_RH_125-133_29-35_2022-08-17_09_500m_0.0.nc \
/work02/DATA/MSM.NC/MSM_CUT_125-133_29-35/OUT_ECAPE500m_NC4_RH/ECAPE_RH_125-133_29-35_2022-08-17_12_500m_0.0.nc \
/work02/DATA/MSM.NC/MSM_CUT_125-133_29-35/OUT_ECAPE500m_NC4_RH/ECAPE_RH_125-133_29-35_2022-08-20_00_500m_0.0.nc \
/work02/DATA/MSM.NC/MSM_CUT_125-133_29-35/OUT_ECAPE500m_NC4_RH/ECAPE_RH_125-133_29-35_2022-08-20_03_500m_0.0.nc \
/work02/DATA/MSM.NC/MSM_CUT_125-133_29-35/OUT_ECAPE500m_NC4_RH/ECAPE_RH_125-133_29-35_2022-08-20_06_500m_0.0.nc \
/work02/DATA/MSM.NC/MSM_CUT_125-133_29-35/OUT_ECAPE500m_NC4_RH/ECAPE_RH_125-133_29-35_2022-08-20_09_500m_0.0.nc \
/work02/DATA/MSM.NC/MSM_CUT_125-133_29-35/OUT_ECAPE500m_NC4_RH/ECAPE_RH_125-133_29-35_2023-06-26_12_500m_0.0.nc \
/work02/DATA/MSM.NC/MSM_CUT_125-133_29-35/OUT_ECAPE500m_NC4_RH/ECAPE_RH_125-133_29-35_2023-06-27_18_500m_0.0.nc \
/work02/DATA/MSM.NC/MSM_CUT_125-133_29-35/OUT_ECAPE500m_NC4_RH/ECAPE_RH_125-133_29-35_2023-06-27_21_500m_0.0.nc \
/work02/DATA/MSM.NC/MSM_CUT_125-133_29-35/OUT_ECAPE500m_NC4_RH/ECAPE_RH_125-133_29-35_2023-06-28_21_500m_0.0.nc \
/work02/DATA/MSM.NC/MSM_CUT_125-133_29-35/OUT_ECAPE500m_NC4_RH/ECAPE_RH_125-133_29-35_2023-06-29_00_500m_0.0.nc \
/work02/DATA/MSM.NC/MSM_CUT_125-133_29-35/OUT_ECAPE500m_NC4_RH/ECAPE_RH_125-133_29-35_2023-06-29_06_500m_0.0.nc \
/work02/DATA/MSM.NC/MSM_CUT_125-133_29-35/OUT_ECAPE500m_NC4_RH/ECAPE_RH_125-133_29-35_2023-06-29_09_500m_0.0.nc \
/work02/DATA/MSM.NC/MSM_CUT_125-133_29-35/OUT_ECAPE500m_NC4_RH/ECAPE_RH_125-133_29-35_2023-06-29_15_500m_0.0.nc \
/work02/DATA/MSM.NC/MSM_CUT_125-133_29-35/OUT_ECAPE500m_NC4_RH/ECAPE_RH_125-133_29-35_2023-06-29_18_500m_0.0.nc \
/work02/DATA/MSM.NC/MSM_CUT_125-133_29-35/OUT_ECAPE500m_NC4_RH/ECAPE_RH_125-133_29-35_2023-06-29_21_500m_0.0.nc \
/work02/DATA/MSM.NC/MSM_CUT_125-133_29-35/OUT_ECAPE500m_NC4_RH/ECAPE_RH_125-133_29-35_2023-06-30_00_500m_0.0.nc \
/work02/DATA/MSM.NC/MSM_CUT_125-133_29-35/OUT_ECAPE500m_NC4_RH/ECAPE_RH_125-133_29-35_2023-06-30_03_500m_0.0.nc \
/work02/DATA/MSM.NC/MSM_CUT_125-133_29-35/OUT_ECAPE500m_NC4_RH/ECAPE_RH_125-133_29-35_2023-06-30_06_500m_0.0.nc \
/work02/DATA/MSM.NC/MSM_CUT_125-133_29-35/OUT_ECAPE500m_NC4_RH/ECAPE_RH_125-133_29-35_2023-06-30_09_500m_0.0.nc \
/work02/DATA/MSM.NC/MSM_CUT_125-133_29-35/OUT_ECAPE500m_NC4_RH/ECAPE_RH_125-133_29-35_2023-06-30_12_500m_0.0.nc \
/work02/DATA/MSM.NC/MSM_CUT_125-133_29-35/OUT_ECAPE500m_NC4_RH/ECAPE_RH_125-133_29-35_2023-07-02_06_500m_0.0.nc \
/work02/DATA/MSM.NC/MSM_CUT_125-133_29-35/OUT_ECAPE500m_NC4_RH/ECAPE_RH_125-133_29-35_2023-07-02_09_500m_0.0.nc \
/work02/DATA/MSM.NC/MSM_CUT_125-133_29-35/OUT_ECAPE500m_NC4_RH/ECAPE_RH_125-133_29-35_2023-07-02_12_500m_0.0.nc \
/work02/DATA/MSM.NC/MSM_CUT_125-133_29-35/OUT_ECAPE500m_NC4_RH/ECAPE_RH_125-133_29-35_2023-07-02_15_500m_0.0.nc \
/work02/DATA/MSM.NC/MSM_CUT_125-133_29-35/OUT_ECAPE500m_NC4_RH/ECAPE_RH_125-133_29-35_2023-07-02_18_500m_0.0.nc \
/work02/DATA/MSM.NC/MSM_CUT_125-133_29-35/OUT_ECAPE500m_NC4_RH/ECAPE_RH_125-133_29-35_2023-07-02_21_500m_0.0.nc \
/work02/DATA/MSM.NC/MSM_CUT_125-133_29-35/OUT_ECAPE500m_NC4_RH/ECAPE_RH_125-133_29-35_2023-07-04_18_500m_0.0.nc \
/work02/DATA/MSM.NC/MSM_CUT_125-133_29-35/OUT_ECAPE500m_NC4_RH/ECAPE_RH_125-133_29-35_2023-07-06_15_500m_0.0.nc \
/work02/DATA/MSM.NC/MSM_CUT_125-133_29-35/OUT_ECAPE500m_NC4_RH/ECAPE_RH_125-133_29-35_2023-07-07_18_500m_0.0.nc \
/work02/DATA/MSM.NC/MSM_CUT_125-133_29-35/OUT_ECAPE500m_NC4_RH/ECAPE_RH_125-133_29-35_2023-07-07_21_500m_0.0.nc \
/work02/DATA/MSM.NC/MSM_CUT_125-133_29-35/OUT_ECAPE500m_NC4_RH/ECAPE_RH_125-133_29-35_2023-07-08_00_500m_0.0.nc \
/work02/DATA/MSM.NC/MSM_CUT_125-133_29-35/OUT_ECAPE500m_NC4_RH/ECAPE_RH_125-133_29-35_2023-07-08_03_500m_0.0.nc \
/work02/DATA/MSM.NC/MSM_CUT_125-133_29-35/OUT_ECAPE500m_NC4_RH/ECAPE_RH_125-133_29-35_2023-07-08_06_500m_0.0.nc \
/work02/DATA/MSM.NC/MSM_CUT_125-133_29-35/OUT_ECAPE500m_NC4_RH/ECAPE_RH_125-133_29-35_2023-07-08_09_500m_0.0.nc \
/work02/DATA/MSM.NC/MSM_CUT_125-133_29-35/OUT_ECAPE500m_NC4_RH/ECAPE_RH_125-133_29-35_2023-07-08_12_500m_0.0.nc \
/work02/DATA/MSM.NC/MSM_CUT_125-133_29-35/OUT_ECAPE500m_NC4_RH/ECAPE_RH_125-133_29-35_2023-07-08_15_500m_0.0.nc \
/work02/DATA/MSM.NC/MSM_CUT_125-133_29-35/OUT_ECAPE500m_NC4_RH/ECAPE_RH_125-133_29-35_2023-07-08_18_500m_0.0.nc \
/work02/DATA/MSM.NC/MSM_CUT_125-133_29-35/OUT_ECAPE500m_NC4_RH/ECAPE_RH_125-133_29-35_2023-07-08_21_500m_0.0.nc \
/work02/DATA/MSM.NC/MSM_CUT_125-133_29-35/OUT_ECAPE500m_NC4_RH/ECAPE_RH_125-133_29-35_2023-07-09_00_500m_0.0.nc \
/work02/DATA/MSM.NC/MSM_CUT_125-133_29-35/OUT_ECAPE500m_NC4_RH/ECAPE_RH_125-133_29-35_2023-07-09_03_500m_0.0.nc \
/work02/DATA/MSM.NC/MSM_CUT_125-133_29-35/OUT_ECAPE500m_NC4_RH/ECAPE_RH_125-133_29-35_2023-07-09_06_500m_0.0.nc \
/work02/DATA/MSM.NC/MSM_CUT_125-133_29-35/OUT_ECAPE500m_NC4_RH/ECAPE_RH_125-133_29-35_2023-07-09_09_500m_0.0.nc \
/work02/DATA/MSM.NC/MSM_CUT_125-133_29-35/OUT_ECAPE500m_NC4_RH/ECAPE_RH_125-133_29-35_2023-07-09_12_500m_0.0.nc \
/work02/DATA/MSM.NC/MSM_CUT_125-133_29-35/OUT_ECAPE500m_NC4_RH/ECAPE_RH_125-133_29-35_2023-07-09_15_500m_0.0.nc \
/work02/DATA/MSM.NC/MSM_CUT_125-133_29-35/OUT_ECAPE500m_NC4_RH/ECAPE_RH_125-133_29-35_2023-07-09_18_500m_0.0.nc \
/work02/DATA/MSM.NC/MSM_CUT_125-133_29-35/OUT_ECAPE500m_NC4_RH/ECAPE_RH_125-133_29-35_2023-07-09_21_500m_0.0.nc \
/work02/DATA/MSM.NC/MSM_CUT_125-133_29-35/OUT_ECAPE500m_NC4_RH/ECAPE_RH_125-133_29-35_2023-07-10_00_500m_0.0.nc \
/work02/DATA/MSM.NC/MSM_CUT_125-133_29-35/OUT_ECAPE500m_NC4_RH/ECAPE_RH_125-133_29-35_2023-07-11_15_500m_0.0.nc \
/work02/DATA/MSM.NC/MSM_CUT_125-133_29-35/OUT_ECAPE500m_NC4_RH/ECAPE_RH_125-133_29-35_2023-07-11_18_500m_0.0.nc \
/work02/DATA/MSM.NC/MSM_CUT_125-133_29-35/OUT_ECAPE500m_NC4_RH/ECAPE_RH_125-133_29-35_2023-07-11_21_500m_0.0.nc \
/work02/DATA/MSM.NC/MSM_CUT_125-133_29-35/OUT_ECAPE500m_NC4_RH/ECAPE_RH_125-133_29-35_2023-07-12_00_500m_0.0.nc \
/work02/DATA/MSM.NC/MSM_CUT_125-133_29-35/OUT_ECAPE500m_NC4_RH/ECAPE_RH_125-133_29-35_2023-07-18_06_500m_0.0.nc \
/work02/DATA/MSM.NC/MSM_CUT_125-133_29-35/OUT_ECAPE500m_NC4_RH/ECAPE_RH_125-133_29-35_2023-07-18_12_500m_0.0.nc \
/work02/DATA/MSM.NC/MSM_CUT_125-133_29-35/OUT_ECAPE500m_NC4_RH/ECAPE_RH_125-133_29-35_2023-07-22_21_500m_0.0.nc \
/work02/DATA/MSM.NC/MSM_CUT_125-133_29-35/OUT_ECAPE500m_NC4_RH/ECAPE_RH_125-133_29-35_2023-07-24_03_500m_0.0.nc \
/work02/DATA/MSM.NC/MSM_CUT_125-133_29-35/OUT_ECAPE500m_NC4_RH/ECAPE_RH_125-133_29-35_2023-08-09_18_500m_0.0.nc \
/work02/DATA/MSM.NC/MSM_CUT_125-133_29-35/OUT_ECAPE500m_NC4_RH/ECAPE_RH_125-133_29-35_2023-08-09_21_500m_0.0.nc \
/work02/DATA/MSM.NC/MSM_CUT_125-133_29-35/OUT_ECAPE500m_NC4_RH/ECAPE_RH_125-133_29-35_2023-08-18_06_500m_0.0.nc \
/work02/DATA/MSM.NC/MSM_CUT_125-133_29-35/OUT_ECAPE500m_NC4_RH/ECAPE_RH_125-133_29-35_2023-08-23_21_500m_0.0.nc \
/work02/DATA/MSM.NC/MSM_CUT_125-133_29-35/OUT_ECAPE500m_NC4_RH/ECAPE_RH_125-133_29-35_2023-08-24_00_500m_0.0.nc \
/work02/DATA/MSM.NC/MSM_CUT_125-133_29-35/OUT_ECAPE500m_NC4_RH/ECAPE_RH_125-133_29-35_2023-08-24_06_500m_0.0.nc \
/work02/DATA/MSM.NC/MSM_CUT_125-133_29-35/OUT_ECAPE500m_NC4_RH/ECAPE_RH_125-133_29-35_2023-08-24_09_500m_0.0.nc \
