%!PS-Adobe-3.0 EPSF-3.0
%%Creator: cairo 1.12.16 (http://cairographics.org)
%%CreationDate: Wed Jan 20 20:24:36 2021
%%Pages: 1
%%DocumentData: Clean7Bit
%%LanguageLevel: 2
%%BoundingBox: 0 0 612 792
%%EndComments
%%BeginProlog
save
50 dict begin
/q { gsave } bind def
/Q { grestore } bind def
/cm { 6 array astore concat } bind def
/w { setlinewidth } bind def
/J { setlinecap } bind def
/j { setlinejoin } bind def
/M { setmiterlimit } bind def
/d { setdash } bind def
/m { moveto } bind def
/l { lineto } bind def
/c { curveto } bind def
/h { closepath } bind def
/re { exch dup neg 3 1 roll 5 3 roll moveto 0 rlineto
      0 exch rlineto 0 rlineto closepath } bind def
/S { stroke } bind def
/f { fill } bind def
/f* { eofill } bind def
/n { newpath } bind def
/W { clip } bind def
/W* { eoclip } bind def
/BT { } bind def
/ET { } bind def
/pdfmark where { pop globaldict /?pdfmark /exec load put }
    { globaldict begin /?pdfmark /pop load def /pdfmark
    /cleartomark load def end } ifelse
/BDC { mark 3 1 roll /BDC pdfmark } bind def
/EMC { mark /EMC pdfmark } bind def
/cairo_store_point { /cairo_point_y exch def /cairo_point_x exch def } def
/Tj { show currentpoint cairo_store_point } bind def
/TJ {
  {
    dup
    type /stringtype eq
    { show } { -0.001 mul 0 cairo_font_matrix dtransform rmoveto } ifelse
  } forall
  currentpoint cairo_store_point
} bind def
/cairo_selectfont { cairo_font_matrix aload pop pop pop 0 0 6 array astore
    cairo_font exch selectfont cairo_point_x cairo_point_y moveto } bind def
/Tf { pop /cairo_font exch def /cairo_font_matrix where
      { pop cairo_selectfont } if } bind def
/Td { matrix translate cairo_font_matrix matrix concatmatrix dup
      /cairo_font_matrix exch def dup 4 get exch 5 get cairo_store_point
      /cairo_font where { pop cairo_selectfont } if } bind def
/Tm { 2 copy 8 2 roll 6 array astore /cairo_font_matrix exch def
      cairo_store_point /cairo_font where { pop cairo_selectfont } if } bind def
/g { setgray } bind def
/rg { setrgbcolor } bind def
/d1 { setcachedevice } bind def
%%EndProlog
%%Page: 1 1
%%BeginPageSetup
%%PageBoundingBox: 0 0 612 792
%%EndPageSetup
q 0 0 612 792 rectclip q
1 g
0 0 612 792 rectfill
0 g
1.5 w
1 J
1 j
[] 0.0 d
10 M 80.602 640.84 416.117 -209.863 re S
1.25 w
80.602 512.781 m 83.492 508.75 l 86.383 505.234 l 89.273 502.262 l 92.16
 499.766 l 95.051 497.734 l 97.941 496.18 l 100.832 494.977 l 103.719 493.988
 l 106.609 493.199 l 109.5 492.777 l 112.391 492.895 l 115.281 493.594 l
 118.168 494.797 l 121.059 496.375 l 123.949 498.219 l 126.84 500.164 l 
129.727 502.141 l 132.617 504.172 l 135.508 506.352 l 138.398 508.551 l 
141.285 510.43 l 144.176 511.738 l 147.066 512.551 l 149.957 513.207 l 152.844
 513.832 l 155.734 514.23 l 158.625 514.145 l 161.516 513.727 l 164.406 
513.391 l 167.293 513.469 l 170.184 513.934 l 173.074 514.574 l 175.965 
515.305 l 178.852 516.062 l 181.742 516.438 l 184.633 515.918 l 187.523 
514.367 l 190.41 512.242 l 193.301 510.23 l 196.191 508.613 l 199.082 507.211
 l 201.969 505.895 l 204.859 504.77 l 207.75 504.094 l 210.641 503.969 l
 213.531 504.332 l 216.418 505.203 l 219.309 506.664 l 222.199 508.734 l
 225.09 511.176 l 227.977 513.812 l 230.867 516.711 l 233.758 520.039 l 
236.648 523.805 l 239.535 527.766 l 242.426 531.609 l 245.316 535.223 l 
248.207 538.691 l 251.094 542.008 l 253.984 545.078 l 256.875 547.734 l 
259.766 549.941 l 262.656 551.719 l 265.543 553.141 l 268.434 554.223 l 
271.324 554.977 l 274.215 555.414 l 277.102 555.535 l 279.992 555.332 l 
282.883 554.836 l 285.773 554.086 l 288.66 553.148 l 291.551 552.055 l 294.441
 550.855 l 297.332 549.66 l 300.219 548.543 l 303.109 547.66 l 306 547.102
 l 308.891 546.992 l 311.781 547.359 l 314.668 548.078 l 317.559 548.957
 l 320.449 549.887 l 323.34 550.867 l 326.227 551.906 l 329.117 552.836 
l 332.008 553.5 l 334.898 553.844 l 337.785 553.918 l 340.676 553.746 l 
343.566 553.129 l 346.457 551.863 l 349.344 549.945 l 352.234 547.512 l 
355.125 544.703 l 358.016 541.523 l 360.906 538.238 l 363.793 535.531 l 
366.684 534.234 l 369.574 534.645 l 372.465 536.227 l 375.352 538.207 l 
378.242 540.281 l 381.133 542.875 l 384.023 546.461 l 386.91 550.832 l 389.801
 555.203 l 392.691 558.898 l 395.582 561.906 l 398.469 564.754 l 401.359
 567.816 l 404.25 570.934 l 407.141 573.676 l 410.031 575.887 l 412.918 
577.75 l 415.809 579.5 l 418.699 581.105 l 421.59 582.348 l 424.477 583.102
 l 427.367 583.449 l 430.258 583.543 l 433.148 583.359 l 436.035 582.707
 l 438.926 581.504 l 441.816 579.801 l 444.707 577.746 l 447.594 575.312
 l 450.484 572.422 l 453.375 569.086 l 456.266 565.445 l 459.156 561.605
 l 462.043 557.523 l 464.934 553.141 l 467.824 548.57 l 470.715 544.133 
l 473.602 540.129 l 476.492 536.602 l 479.383 533.441 l 482.273 530.496 
l 485.16 527.625 l 488.051 524.578 l 490.941 521.074 l 493.832 517.043 l
 496.719 512.781 l S
1 w
80.602 430.977 m 80.602 425.941 l S
80.129 421.727 m 78.699 421.156 l 77.75 419.438 l 77.273 416.578 l 77.273
 414.859 l 77.75 411.996 l 78.699 410.281 l 80.129 409.707 l 81.078 409.707
 l 82.504 410.281 l 83.457 411.996 l 83.934 414.859 l 83.934 416.578 l 83.457
 419.438 l 82.504 421.156 l 81.078 421.727 l 80.129 421.727 l S
149.957 430.977 m 149.957 425.941 l S
143.07 420.012 m 142.598 421.156 l 141.168 421.727 l 140.219 421.727 l 
138.793 421.156 l 137.84 419.438 l 137.367 416.578 l 137.367 413.715 l 137.84
 411.426 l 138.793 410.281 l 140.219 409.707 l 140.695 409.707 l 142.121
 410.281 l 143.07 411.426 l 143.547 413.145 l 143.547 413.715 l 143.07 415.434
 l 142.121 416.578 l 140.695 417.148 l 140.219 417.148 l 138.793 416.578
 l 137.84 415.434 l 137.367 413.715 l S
149.73 421.727 m 148.305 421.156 l 147.352 419.438 l 146.875 416.578 l 
146.875 414.859 l 147.352 411.996 l 148.305 410.281 l 149.73 409.707 l 150.68
 409.707 l 152.109 410.281 l 153.059 411.996 l 153.535 414.859 l 153.535
 416.578 l 153.059 419.438 l 152.109 421.156 l 150.68 421.727 l 149.73 421.727
 l S
157.09 421.727 m 157.09 409.707 l S
157.09 421.727 m 163.273 421.727 l S
157.09 416.004 m 160.895 416.004 l S
157.09 409.707 m 163.273 409.707 l S
219.309 430.977 m 219.309 425.941 l S
202.676 419.438 m 203.629 420.012 l 205.055 421.727 l 205.055 409.707 l
 S
211.711 418.867 m 211.711 419.438 l 212.188 420.582 l 212.664 421.156 l
 213.613 421.727 l 215.516 421.727 l 216.469 421.156 l 216.941 420.582 l
 217.418 419.438 l 217.418 418.293 l 216.941 417.148 l 215.992 415.434 l
 211.234 409.707 l 217.895 409.707 l S
224.078 421.727 m 222.648 421.156 l 221.699 419.438 l 221.223 416.578 l
 221.223 414.859 l 221.699 411.996 l 222.648 410.281 l 224.078 409.707 l
 225.027 409.707 l 226.453 410.281 l 227.406 411.996 l 227.879 414.859 l
 227.879 416.578 l 227.406 419.438 l 226.453 421.156 l 225.027 421.727 l
 224.078 421.727 l S
231.438 421.727 m 231.438 409.707 l S
231.438 421.727 m 237.617 421.727 l S
231.438 416.004 m 235.238 416.004 l S
231.438 409.707 m 237.617 409.707 l S
288.66 430.977 m 288.66 425.941 l S
276.773 419.438 m 277.723 420.012 l 279.152 421.727 l 279.152 409.707 l
 S
287.711 421.727 m 286.285 421.156 l 285.809 420.012 l 285.809 418.867 l
 286.285 417.723 l 287.234 417.148 l 289.137 416.578 l 290.562 416.004 l
 291.516 414.859 l 291.992 413.715 l 291.992 411.996 l 291.516 410.852 l
 291.039 410.281 l 289.613 409.707 l 287.711 409.707 l 286.285 410.281 l
 285.809 410.852 l 285.332 411.996 l 285.332 413.715 l 285.809 414.859 l
 286.758 416.004 l 288.188 416.578 l 290.09 417.148 l 291.039 417.723 l 
291.516 418.867 l 291.516 420.012 l 291.039 421.156 l 289.613 421.727 l 
287.711 421.727 l S
298.172 421.727 m 296.746 421.156 l 295.797 419.438 l 295.32 416.578 l 
295.32 414.859 l 295.797 411.996 l 296.746 410.281 l 298.172 409.707 l 299.125
 409.707 l 300.551 410.281 l 301.504 411.996 l 301.977 414.859 l 301.977
 416.578 l 301.504 419.438 l 300.551 421.156 l 299.125 421.727 l 298.172
 421.727 l S
358.016 430.977 m 358.016 425.941 l S
340.133 419.438 m 341.086 420.012 l 342.512 421.727 l 342.512 409.707 l
 S
349.168 418.867 m 349.168 419.438 l 349.645 420.582 l 350.121 421.156 l
 351.07 421.727 l 352.973 421.727 l 353.926 421.156 l 354.402 420.582 l 
354.875 419.438 l 354.875 418.293 l 354.402 417.148 l 353.449 415.434 l 
348.695 409.707 l 355.352 409.707 l S
361.535 421.727 m 360.105 421.156 l 359.156 419.438 l 358.68 416.578 l 
358.68 414.859 l 359.156 411.996 l 360.105 410.281 l 361.535 409.707 l 362.484
 409.707 l 363.91 410.281 l 364.863 411.996 l 365.34 414.859 l 365.34 416.578
 l 364.863 419.438 l 363.91 421.156 l 362.484 421.727 l 361.535 421.727 
l S
368.238 421.727 m 370.617 409.707 l S
372.996 421.727 m 370.617 409.707 l S
372.996 421.727 m 375.371 409.707 l S
377.75 421.727 m 375.371 409.707 l S
427.367 430.977 m 427.367 425.941 l S
419.234 420.012 m 418.762 421.156 l 417.332 421.727 l 416.383 421.727 l
 414.957 421.156 l 414.004 419.438 l 413.527 416.578 l 413.527 413.715 l
 414.004 411.426 l 414.957 410.281 l 416.383 409.707 l 416.859 409.707 l
 418.285 410.281 l 419.234 411.426 l 419.711 413.145 l 419.711 413.715 l
 419.234 415.434 l 418.285 416.578 l 416.859 417.148 l 416.383 417.148 l
 414.957 416.578 l 414.004 415.434 l 413.527 413.715 l S
425.895 421.727 m 424.465 421.156 l 423.516 419.438 l 423.039 416.578 l
 423.039 414.859 l 423.516 411.996 l 424.465 410.281 l 425.895 409.707 l
 426.844 409.707 l 428.27 410.281 l 429.223 411.996 l 429.699 414.859 l 
429.699 416.578 l 429.223 419.438 l 428.27 421.156 l 426.844 421.727 l 425.895
 421.727 l S
432.598 421.727 m 434.977 409.707 l S
437.355 421.727 m 434.977 409.707 l S
437.355 421.727 m 439.73 409.707 l S
442.109 421.727 m 439.73 409.707 l S
496.719 430.977 m 496.719 425.941 l S
496.246 421.727 m 494.816 421.156 l 493.867 419.438 l 493.391 416.578 l
 493.391 414.859 l 493.867 411.996 l 494.816 410.281 l 496.246 409.707 l
 497.195 409.707 l 498.621 410.281 l 499.574 411.996 l 500.051 414.859 l
 500.051 416.578 l 499.574 419.438 l 498.621 421.156 l 497.195 421.727 l
 496.246 421.727 l S
80.602 430.977 m 75.609 430.977 l S
53.496 432.832 m 53.02 431.113 l 52.07 429.969 l 50.641 429.398 l 50.168
 429.398 l 48.738 429.969 l 47.789 431.113 l 47.312 432.832 l 47.312 433.402
 l 47.789 435.121 l 48.738 436.266 l 50.168 436.84 l 50.641 436.84 l 52.07
 436.266 l 53.02 435.121 l 53.496 432.832 l 53.496 429.969 l 53.02 427.109
 l 52.07 425.391 l 50.641 424.82 l 49.691 424.82 l 48.266 425.391 l 47.789
 426.535 l S
58.133 425.965 m 57.656 425.391 l 58.133 424.82 l 58.609 425.391 l 58.133
 425.965 l S
62.77 433.977 m 62.77 434.547 l 63.246 435.695 l 63.719 436.266 l 64.672
 436.84 l 66.574 436.84 l 67.523 436.266 l 68 435.695 l 68.477 434.547 l
 68.477 433.402 l 68 432.258 l 67.051 430.543 l 62.293 424.82 l 68.953 424.82
 l S
80.602 483.441 m 75.609 483.441 l S
53.496 485.297 m 53.02 483.582 l 52.07 482.438 l 50.641 481.863 l 50.168
 481.863 l 48.738 482.438 l 47.789 483.582 l 47.312 485.297 l 47.312 485.871
 l 47.789 487.586 l 48.738 488.73 l 50.168 489.305 l 50.641 489.305 l 52.07
 488.73 l 53.02 487.586 l 53.496 485.297 l 53.496 482.438 l 53.02 479.574
 l 52.07 477.855 l 50.641 477.285 l 49.691 477.285 l 48.266 477.855 l 47.789
 479 l S
58.133 478.43 m 57.656 477.855 l 58.133 477.285 l 58.609 477.855 l 58.133
 478.43 l S
63.246 489.305 m 68.477 489.305 l 65.621 484.727 l 67.051 484.727 l 68 
484.152 l 68.477 483.582 l 68.953 481.863 l 68.953 480.719 l 68.477 479 
l 67.523 477.855 l 66.098 477.285 l 64.672 477.285 l 63.246 477.855 l 62.77
 478.43 l 62.293 479.574 l S
80.602 535.91 m 75.609 535.91 l S
53.496 537.762 m 53.02 536.047 l 52.07 534.902 l 50.641 534.328 l 50.168
 534.328 l 48.738 534.902 l 47.789 536.047 l 47.312 537.762 l 47.312 538.336
 l 47.789 540.055 l 48.738 541.199 l 50.168 541.77 l 50.641 541.77 l 52.07
 541.199 l 53.02 540.055 l 53.496 537.762 l 53.496 534.902 l 53.02 532.039
 l 52.07 530.324 l 50.641 529.75 l 49.691 529.75 l 48.266 530.324 l 47.789
 531.469 l S
58.133 530.895 m 57.656 530.324 l 58.133 529.75 l 58.609 530.324 l 58.133
 530.895 l S
67.051 541.77 m 62.293 533.758 l 69.426 533.758 l S
67.051 541.77 m 67.051 529.75 l S
80.602 588.375 m 75.609 588.375 l S
53.496 590.23 m 53.02 588.512 l 52.07 587.367 l 50.641 586.797 l 50.168
 586.797 l 48.738 587.367 l 47.789 588.512 l 47.312 590.23 l 47.312 590.801
 l 47.789 592.52 l 48.738 593.664 l 50.168 594.234 l 50.641 594.234 l 52.07
 593.664 l 53.02 592.52 l 53.496 590.23 l 53.496 587.367 l 53.02 584.508
 l 52.07 582.789 l 50.641 582.215 l 49.691 582.215 l 48.266 582.789 l 47.789
 583.934 l S
58.133 583.359 m 57.656 582.789 l 58.133 582.215 l 58.609 582.789 l 58.133
 583.359 l S
68 594.234 m 63.246 594.234 l 62.77 589.086 l 63.246 589.656 l 64.672 590.23
 l 66.098 590.23 l 67.523 589.656 l 68.477 588.512 l 68.953 586.797 l 68.953
 585.652 l 68.477 583.934 l 67.523 582.789 l 66.098 582.215 l 64.672 582.215
 l 63.246 582.789 l 62.77 583.359 l 62.293 584.508 l S
1.25 w
20.371 19.91 m 20.074 20.547 l 19.48 21.184 l 18.887 21.5 l 17.699 21.5
 l 17.102 21.184 l 16.508 20.547 l 16.211 19.91 l 15.914 18.957 l 15.914
 17.367 l 16.211 16.414 l 16.508 15.777 l 17.102 15.141 l 17.699 14.824 
l 18.887 14.824 l 19.48 15.141 l 20.074 15.777 l 20.371 16.414 l 20.371 
17.367 l S
18.887 17.367 m 20.371 17.367 l S
22.41 19.277 m 22.41 14.824 l S
22.41 17.367 m 22.707 18.32 l 23.301 18.957 l 23.895 19.277 l 24.785 19.277
 l S
28.137 21.5 m 25.758 14.824 l S
28.137 21.5 m 30.516 14.824 l S
26.652 17.051 m 29.625 17.051 l S
32.141 21.5 m 32.141 14.824 l S
32.141 21.5 m 34.223 21.5 l 35.113 21.184 l 35.711 20.547 l 36.008 19.91
 l 36.305 18.957 l 36.305 17.367 l 36.008 16.414 l 35.711 15.777 l 35.113
 15.141 l 34.223 14.824 l 32.141 14.824 l S
42.703 20.547 m 42.105 21.184 l 41.215 21.5 l 40.027 21.5 l 39.137 21.184
 l 38.539 20.547 l 38.539 19.91 l 38.836 19.277 l 39.137 18.957 l 39.73 
18.641 l 41.512 18.004 l 42.105 17.688 l 42.406 17.367 l 42.703 16.73 l 
42.703 15.777 l 42.105 15.141 l 41.215 14.824 l 40.027 14.824 l 39.137 15.141
 l 38.539 15.777 l S
49.852 22.773 m 44.5 12.598 l S
56.262 19.91 m 55.965 20.547 l 55.371 21.184 l 54.777 21.5 l 53.586 21.5
 l 52.992 21.184 l 52.398 20.547 l 52.102 19.91 l 51.805 18.957 l 51.805
 17.367 l 52.102 16.414 l 52.398 15.777 l 52.992 15.141 l 53.586 14.824 
l 54.777 14.824 l 55.371 15.141 l 55.965 15.777 l 56.262 16.414 l S
60 21.5 m 59.406 21.184 l 58.812 20.547 l 58.516 19.91 l 58.219 18.957 
l 58.219 17.367 l 58.516 16.414 l 58.812 15.777 l 59.406 15.141 l 60 14.824
 l 61.188 14.824 l 61.785 15.141 l 62.379 15.777 l 62.676 16.414 l 62.973
 17.367 l 62.973 18.957 l 62.676 19.91 l 62.379 20.547 l 61.785 21.184 l
 61.188 21.5 l 60 21.5 l S
64.898 21.5 m 64.898 14.824 l S
64.898 14.824 m 68.465 14.824 l S
72.141 21.5 m 69.766 14.824 l S
72.141 21.5 m 74.52 14.824 l S
70.656 17.051 m 73.629 17.051 l S
484.188 19.91 m 484.188 20.23 l 484.484 20.867 l 484.781 21.184 l 485.375
 21.5 l 486.566 21.5 l 487.16 21.184 l 487.457 20.867 l 487.754 20.23 l 
487.754 19.594 l 487.457 18.957 l 486.863 18.004 l 483.891 14.824 l 488.051
 14.824 l S
491.914 21.5 m 491.023 21.184 l 490.43 20.23 l 490.133 18.641 l 490.133
 17.688 l 490.43 16.098 l 491.023 15.141 l 491.914 14.824 l 492.512 14.824
 l 493.402 15.141 l 493.996 16.098 l 494.293 17.688 l 494.293 18.641 l 493.996
 20.23 l 493.402 21.184 l 492.512 21.5 l 491.914 21.5 l S
496.672 19.91 m 496.672 20.23 l 496.969 20.867 l 497.266 21.184 l 497.859
 21.5 l 499.051 21.5 l 499.645 21.184 l 499.941 20.867 l 500.238 20.23 l
 500.238 19.594 l 499.941 18.957 l 499.348 18.004 l 496.375 14.824 l 500.535
 14.824 l S
503.508 20.23 m 504.102 20.547 l 504.992 21.5 l 504.992 14.824 l S
509.199 17.688 m 514.551 17.688 l S
518.754 21.5 m 517.863 21.184 l 517.27 20.23 l 516.973 18.641 l 516.973
 17.688 l 517.27 16.098 l 517.863 15.141 l 518.754 14.824 l 519.348 14.824
 l 520.242 15.141 l 520.836 16.098 l 521.133 17.688 l 521.133 18.641 l 520.836
 20.23 l 520.242 21.184 l 519.348 21.5 l 518.754 21.5 l S
524.105 20.23 m 524.699 20.547 l 525.59 21.5 l 525.59 14.824 l S
529.797 17.688 m 535.148 17.688 l S
537.867 19.91 m 537.867 20.23 l 538.164 20.867 l 538.461 21.184 l 539.055
 21.5 l 540.246 21.5 l 540.84 21.184 l 541.137 20.867 l 541.434 20.23 l 
541.434 19.594 l 541.137 18.957 l 540.543 18.004 l 537.57 14.824 l 541.73
 14.824 l S
545.594 21.5 m 544.703 21.184 l 544.109 20.23 l 543.812 18.641 l 543.812
 17.688 l 544.109 16.098 l 544.703 15.141 l 545.594 14.824 l 546.188 14.824
 l 547.082 15.141 l 547.676 16.098 l 547.973 17.688 l 547.973 18.641 l 547.676
 20.23 l 547.082 21.184 l 546.188 21.5 l 545.594 21.5 l S
550.395 17.688 m 555.746 17.688 l S
558.465 19.91 m 558.465 20.23 l 558.762 20.867 l 559.059 21.184 l 559.652
 21.5 l 560.844 21.5 l 561.438 21.184 l 561.734 20.867 l 562.031 20.23 l
 562.031 19.594 l 561.734 18.957 l 561.141 18.004 l 558.168 14.824 l 562.328
 14.824 l S
566.191 21.5 m 565.301 21.184 l 564.707 20.23 l 564.41 18.641 l 564.41 
17.688 l 564.707 16.098 l 565.301 15.141 l 566.191 14.824 l 566.785 14.824
 l 567.68 15.141 l 568.273 16.098 l 568.57 17.688 l 568.57 18.641 l 568.273
 20.23 l 567.68 21.184 l 566.785 21.5 l 566.191 21.5 l S
571.172 19.277 m 570.875 18.957 l 571.172 18.641 l 571.469 18.957 l 571.172
 19.277 l S
571.172 15.461 m 570.875 15.141 l 571.172 14.824 l 571.469 15.141 l 571.172
 15.461 l S
574.07 19.91 m 574.07 20.23 l 574.367 20.867 l 574.664 21.184 l 575.258
 21.5 l 576.445 21.5 l 577.043 21.184 l 577.34 20.867 l 577.637 20.23 l 
577.637 19.594 l 577.34 18.957 l 576.742 18.004 l 573.773 14.824 l 577.934
 14.824 l S
582.984 21.5 m 580.012 17.051 l 584.473 17.051 l S
582.984 21.5 m 582.984 14.824 l S
1 w
25.602 512.223 m 38.84 504.297 l S
25.602 504.297 m 25.602 512.223 l S
38.84 504.297 m 38.84 512.223 l S
23.078 527.371 m 43.254 527.371 l S
23.078 527.371 m 23.078 531.336 l S
43.254 527.371 m 43.254 531.336 l S
25.602 535.457 m 38.84 535.457 l S
30.012 541.117 m 36.316 535.457 l S
33.797 537.723 m 38.84 541.684 l S
30.012 546.031 m 38.84 546.031 l S
32.535 546.031 m 30.645 547.73 l 30.012 548.863 l 30.012 550.562 l 30.645
 551.695 l 32.535 552.262 l 38.84 552.262 l S
32.535 552.262 m 30.645 553.961 l 30.012 555.094 l 30.012 556.793 l 30.645
 557.926 l 32.535 558.492 l 38.84 558.492 l S
23.078 567.043 m 43.254 567.043 l S
23.078 563.078 m 23.078 567.043 l S
43.254 563.078 m 43.254 567.043 l S
130.871 661.344 m 130.871 647.988 l S
130.871 661.344 m 134.801 661.344 l 136.488 660.707 l 137.609 659.438 l
 138.172 658.164 l 138.73 656.258 l 138.73 653.078 l 138.172 651.168 l 137.609
 649.898 l 136.488 648.625 l 134.801 647.988 l 130.871 647.988 l S
147.953 661.344 m 147.953 651.168 l 147.391 649.262 l 146.832 648.625 l
 145.707 647.988 l 144.586 647.988 l 143.461 648.625 l 142.902 649.262 l
 142.34 651.168 l 142.34 652.441 l S
152.359 661.344 m 152.359 647.988 l S
152.359 661.344 m 159.66 661.344 l S
152.359 654.984 m 156.852 654.984 l S
181.473 661.344 m 173.609 647.988 l S
173.609 661.344 m 181.473 661.344 l S
173.609 647.988 m 181.473 647.988 l S
186.523 661.344 m 192.699 661.344 l 189.332 656.258 l 191.016 656.258 l
 192.137 655.621 l 192.699 654.984 l 193.262 653.078 l 193.262 651.805 l
 192.699 649.898 l 191.578 648.625 l 189.891 647.988 l 188.207 647.988 l
 186.523 648.625 l 185.961 649.262 l 185.402 650.531 l S
200.559 661.344 m 198.875 660.707 l 197.754 658.801 l 197.191 655.621 l
 197.191 653.711 l 197.754 650.531 l 198.875 648.625 l 200.559 647.988 l
 201.684 647.988 l 203.367 648.625 l 204.488 650.531 l 205.051 653.711 l
 205.051 655.621 l 204.488 658.801 l 203.367 660.707 l 201.684 661.344 l
 200.559 661.344 l S
212.352 661.344 m 210.664 660.707 l 209.543 658.801 l 208.98 655.621 l 
208.98 653.711 l 209.543 650.531 l 210.664 648.625 l 212.352 647.988 l 213.473
 647.988 l 215.156 648.625 l 216.281 650.531 l 216.84 653.711 l 216.84 655.621
 l 216.281 658.801 l 215.156 660.707 l 213.473 661.344 l 212.352 661.344
 l S
231.859 663.887 m 231.859 643.539 l S
231.859 663.887 m 235.789 663.887 l S
231.859 643.539 m 235.789 643.539 l S
239.875 661.344 m 239.875 647.988 l S
245.488 656.891 m 239.875 650.531 l S
242.121 653.078 m 246.051 647.988 l S
250.359 656.891 m 250.359 647.988 l S
250.359 654.348 m 252.043 656.258 l 253.164 656.891 l 254.852 656.891 l
 255.973 656.258 l 256.535 654.348 l 256.535 647.988 l S
256.535 654.348 m 258.219 656.258 l 259.34 656.891 l 261.027 656.891 l 
262.148 656.258 l 262.711 654.348 l 262.711 647.988 l S
271.188 663.887 m 271.188 643.539 l S
267.258 663.887 m 271.188 663.887 l S
267.258 643.539 m 271.188 643.539 l S
289.547 661.344 m 285.055 647.988 l S
289.547 661.344 m 294.039 647.988 l S
286.738 652.441 m 292.352 652.441 l S
295.664 661.344 m 300.156 647.988 l S
304.648 661.344 m 300.156 647.988 l S
316.145 658.164 m 315.582 659.438 l 314.461 660.707 l 313.336 661.344 l
 311.09 661.344 l 309.969 660.707 l 308.844 659.438 l 308.285 658.164 l 
307.723 656.258 l 307.723 653.078 l 308.285 651.168 l 308.844 649.898 l 
309.969 648.625 l 311.09 647.988 l 313.336 647.988 l 314.461 648.625 l 315.582
 649.898 l 316.145 651.168 l 316.145 653.078 l S
313.336 653.078 m 316.145 653.078 l S
333.816 661.344 m 332.691 660.707 l 331.57 659.438 l 331.008 658.164 l 
330.445 656.258 l 330.445 653.078 l 331.008 651.168 l 331.57 649.898 l 332.691
 648.625 l 333.816 647.988 l 336.059 647.988 l 337.184 648.625 l 338.305
 649.898 l 338.867 651.168 l 339.43 653.078 l 339.43 656.258 l 338.867 658.164
 l 338.305 659.438 l 337.184 660.707 l 336.059 661.344 l 333.816 661.344
 l S
342.234 661.344 m 346.727 647.988 l S
351.219 661.344 m 346.727 647.988 l S
354.266 661.344 m 354.266 647.988 l S
354.266 661.344 m 361.562 661.344 l S
354.266 654.984 m 358.758 654.984 l S
354.266 647.988 m 361.562 647.988 l S
365.492 661.344 m 365.492 647.988 l S
365.492 661.344 m 370.547 661.344 l 372.23 660.707 l 372.793 660.07 l 373.352
 658.801 l 373.352 657.527 l 372.793 656.258 l 372.23 655.621 l 370.547 
654.984 l 365.492 654.984 l S
369.422 654.984 m 373.352 647.988 l S
389.312 661.344 m 395.488 661.344 l 392.117 656.258 l 393.805 656.258 l
 394.926 655.621 l 395.488 654.984 l 396.051 653.078 l 396.051 651.805 l
 395.488 649.898 l 394.363 648.625 l 392.68 647.988 l 390.996 647.988 l 
389.312 648.625 l 388.75 649.262 l 388.188 650.531 l S
403.348 661.344 m 401.664 660.707 l 400.539 658.801 l 399.98 655.621 l 
399.98 653.711 l 400.539 650.531 l 401.664 648.625 l 403.348 647.988 l 404.469
 647.988 l 406.156 648.625 l 407.277 650.531 l 407.84 653.711 l 407.84 655.621
 l 407.277 658.801 l 406.156 660.707 l 404.469 661.344 l 403.348 661.344
 l S
412.414 653.711 m 422.52 653.711 l S
428.219 661.344 m 434.395 661.344 l 431.027 656.258 l 432.711 656.258 l
 433.832 655.621 l 434.395 654.984 l 434.957 653.078 l 434.957 651.805 l
 434.395 649.898 l 433.273 648.625 l 431.586 647.988 l 429.902 647.988 l
 428.219 648.625 l 427.656 649.262 l 427.098 650.531 l S
445.625 661.344 m 440.008 661.344 l 439.449 655.621 l 440.008 656.258 l
 441.691 656.891 l 443.379 656.891 l 445.062 656.258 l 446.184 654.984 l
 446.746 653.078 l 446.746 651.805 l 446.184 649.898 l 445.062 648.625 l
 443.379 647.988 l 441.691 647.988 l 440.008 648.625 l 439.449 649.262 l
 438.887 650.531 l S
0.8 w
81.805 686.07 m 81.805 679.391 l S
81.805 686.07 m 85.504 679.391 l S
85.504 686.07 m 85.504 679.391 l S
91.734 684.48 m 91.469 685.117 l 90.941 685.75 l 90.41 686.07 l 89.355 
686.07 l 88.828 685.75 l 88.297 685.117 l 88.035 684.48 l 87.77 683.527 
l 87.77 681.938 l 88.035 680.98 l 88.297 680.348 l 88.828 679.711 l 89.355
 679.391 l 90.41 679.391 l 90.941 679.711 l 91.469 680.348 l 91.734 680.98
 l S
93.582 686.07 m 93.582 679.391 l S
93.582 686.07 m 97.016 686.07 l S
93.582 682.891 m 95.695 682.891 l S
93.582 679.391 m 97.016 679.391 l S
98.867 686.07 m 98.867 679.391 l S
98.867 686.07 m 101.242 686.07 l 102.035 685.75 l 102.301 685.434 l 102.566
 684.797 l 102.566 683.844 l 102.301 683.207 l 102.035 682.891 l 101.242
 682.57 l 98.867 682.57 l S
105.344 684.797 m 105.875 685.117 l 106.668 686.07 l 106.668 679.391 l S
110.562 680.027 m 110.301 679.711 l 110.562 679.391 l 110.828 679.711 l
 110.562 680.027 l S
113.016 686.07 m 113.016 679.391 l S
113.016 686.07 m 114.863 686.07 l 115.656 685.75 l 116.184 685.117 l 116.449
 684.48 l 116.711 683.527 l 116.711 681.938 l 116.449 680.98 l 116.184 680.348
 l 115.656 679.711 l 114.863 679.391 l 113.016 679.391 l S
121.051 686.07 m 121.051 680.98 l 120.789 680.027 l 120.523 679.711 l 119.996
 679.391 l 119.469 679.391 l 118.938 679.711 l 118.676 680.027 l 118.41 
680.98 l 118.41 681.617 l S
123.125 686.07 m 123.125 679.391 l S
123.125 686.07 m 126.562 686.07 l S
123.125 682.891 m 125.238 682.891 l S
128.594 680.027 m 128.332 679.711 l 128.594 679.391 l 128.859 679.711 l
 128.594 680.027 l S
130.754 686.07 m 130.754 679.391 l S
130.754 679.391 m 133.926 679.391 l S
137.223 686.07 m 136.691 685.75 l 136.164 685.117 l 135.898 684.48 l 135.637
 683.527 l 135.637 681.938 l 135.898 680.98 l 136.164 680.348 l 136.691 
679.711 l 137.223 679.391 l 138.277 679.391 l 138.805 679.711 l 139.336 
680.348 l 139.598 680.98 l 139.863 681.938 l 139.863 683.527 l 139.598 684.48
 l 139.336 685.117 l 138.805 685.75 l 138.277 686.07 l 137.223 686.07 l S
142.004 686.07 m 142.004 679.391 l S
142.004 686.07 m 145.703 679.391 l S
145.703 686.07 m 145.703 679.391 l S
148.293 680.027 m 148.027 679.711 l 148.293 679.391 l 148.555 679.711 l
 148.293 680.027 l S
154.301 686.07 m 150.602 679.391 l S
150.602 686.07 m 154.301 686.07 l S
150.602 679.391 m 154.301 679.391 l S
155.094 677.168 m 160.379 677.168 l S
161.84 686.07 m 161.84 679.391 l S
161.84 686.07 m 163.688 686.07 l 164.48 685.75 l 165.008 685.117 l 165.273
 684.48 l 165.539 683.527 l 165.539 681.938 l 165.273 680.98 l 165.008 680.348
 l 164.48 679.711 l 163.688 679.391 l 161.84 679.391 l S
169.875 686.07 m 169.875 680.98 l 169.613 680.027 l 169.348 679.711 l 168.82
 679.391 l 168.293 679.391 l 167.762 679.711 l 167.5 680.027 l 167.234 680.98
 l 167.234 681.617 l S
171.949 686.07 m 171.949 679.391 l S
171.949 686.07 m 175.387 686.07 l S
171.949 682.891 m 174.062 682.891 l S
175.902 677.168 m 181.184 677.168 l S
182.895 686.07 m 182.895 679.391 l S
182.895 682.57 m 183.688 683.527 l 184.215 683.844 l 185.008 683.844 l 
185.539 683.527 l 185.801 682.57 l 185.801 679.391 l S
191.074 683.844 m 191.074 678.758 l 190.809 677.801 l 190.543 677.484 l
 190.016 677.168 l 189.223 677.168 l 188.695 677.484 l S
191.074 682.891 m 190.543 683.527 l 190.016 683.844 l 189.223 683.844 l
 188.695 683.527 l 188.168 682.891 l 187.902 681.938 l 187.902 681.301 l
 188.168 680.348 l 188.695 679.711 l 189.223 679.391 l 190.016 679.391 l
 190.543 679.711 l 191.074 680.348 l S
193.785 686.07 m 193.785 680.664 l 194.051 679.711 l 194.578 679.391 l 
195.109 679.391 l S
192.996 683.844 m 194.844 683.844 l S
196.906 686.07 m 199.812 686.07 l 198.227 683.527 l 199.02 683.527 l 199.547
 683.207 l 199.812 682.891 l 200.074 681.938 l 200.074 681.301 l 199.812
 680.348 l 199.281 679.711 l 198.488 679.391 l 197.695 679.391 l 196.906
 679.711 l 196.641 680.027 l 196.375 680.664 l S
203.508 686.07 m 202.719 685.75 l 202.188 684.797 l 201.926 683.207 l 201.926
 682.254 l 202.188 680.664 l 202.719 679.711 l 203.508 679.391 l 204.039
 679.391 l 204.832 679.711 l 205.359 680.664 l 205.625 682.254 l 205.625
 683.207 l 205.359 684.797 l 204.832 685.75 l 204.039 686.07 l 203.508 686.07
 l S
209.059 686.07 m 208.266 685.75 l 207.738 684.797 l 207.473 683.207 l 207.473
 682.254 l 207.738 680.664 l 208.266 679.711 l 209.059 679.391 l 209.586
 679.391 l 210.379 679.711 l 210.906 680.664 l 211.172 682.254 l 211.172
 683.207 l 210.906 684.797 l 210.379 685.75 l 209.586 686.07 l 209.059 686.07
 l S
211.965 677.168 m 217.25 677.168 l S
219.098 686.07 m 222.004 686.07 l 220.418 683.527 l 221.211 683.527 l 221.738
 683.207 l 222.004 682.891 l 222.27 681.938 l 222.27 681.301 l 222.004 680.348
 l 221.477 679.711 l 220.684 679.391 l 219.891 679.391 l 219.098 679.711
 l 218.832 680.027 l 218.57 680.664 l S
225.703 686.07 m 224.91 685.75 l 224.383 684.797 l 224.117 683.207 l 224.117
 682.254 l 224.383 680.664 l 224.91 679.711 l 225.703 679.391 l 226.23 679.391
 l 227.023 679.711 l 227.551 680.664 l 227.816 682.254 l 227.816 683.207
 l 227.551 684.797 l 227.023 685.75 l 226.23 686.07 l 225.703 686.07 l S
229.969 682.254 m 234.727 682.254 l S
237.406 686.07 m 240.312 686.07 l 238.727 683.527 l 239.52 683.527 l 240.047
 683.207 l 240.312 682.891 l 240.578 681.938 l 240.578 681.301 l 240.312
 680.348 l 239.785 679.711 l 238.992 679.391 l 238.199 679.391 l 237.406
 679.711 l 237.141 680.027 l 236.879 680.664 l S
245.598 686.07 m 242.953 686.07 l 242.691 683.207 l 242.953 683.527 l 243.746
 683.844 l 244.539 683.844 l 245.332 683.527 l 245.859 682.891 l 246.125
 681.938 l 246.125 681.301 l 245.859 680.348 l 245.332 679.711 l 244.539
 679.391 l 243.746 679.391 l 242.953 679.711 l 242.691 680.027 l 242.426
 680.664 l S
248.438 680.027 m 248.172 679.711 l 248.438 679.391 l 248.703 679.711 l
 248.438 680.027 l S
250.734 681.938 m 253.906 681.938 l 253.906 682.57 l 253.641 683.207 l 
253.379 683.527 l 252.848 683.844 l 252.055 683.844 l 251.527 683.527 l 
251 682.891 l 250.734 681.938 l 250.734 681.301 l 251 680.348 l 251.527 
679.711 l 252.055 679.391 l 252.848 679.391 l 253.379 679.711 l 253.906 
680.348 l S
255.867 683.844 m 255.867 677.168 l S
255.867 682.891 m 256.395 683.527 l 256.926 683.844 l 257.719 683.844 l
 258.246 683.527 l 258.773 682.891 l 259.039 681.938 l 259.039 681.301 l
 258.773 680.348 l 258.246 679.711 l 257.719 679.391 l 256.926 679.391 l
 256.395 679.711 l 255.867 680.348 l S
264.031 682.891 m 263.766 683.527 l 262.977 683.844 l 262.184 683.844 l
 261.391 683.527 l 261.125 682.891 l 261.391 682.254 l 261.918 681.938 l
 263.238 681.617 l 263.766 681.301 l 264.031 680.664 l 264.031 680.348 l
 263.766 679.711 l 262.977 679.391 l 262.184 679.391 l 261.391 679.711 l
 261.125 680.348 l S
86.031 699.234 m 81.277 689.059 l S
87.645 695.734 m 88.699 691.285 l S
89.758 695.734 m 88.699 691.285 l S
89.758 695.734 m 90.812 691.285 l S
91.871 695.734 m 90.812 691.285 l S
95.18 695.734 m 94.652 695.418 l 94.125 694.781 l 93.859 693.828 l 93.859
 693.191 l 94.125 692.238 l 94.652 691.602 l 95.18 691.285 l 95.973 691.285
 l 96.5 691.602 l 97.031 692.238 l 97.293 693.191 l 97.293 693.828 l 97.031
 694.781 l 96.5 695.418 l 95.973 695.734 l 95.18 695.734 l S
99.09 695.734 m 99.09 691.285 l S
99.09 693.828 m 99.355 694.781 l 99.883 695.418 l 100.41 695.734 l 101.203
 695.734 l S
102.723 697.961 m 102.723 691.285 l S
105.367 695.734 m 102.723 692.555 l S
103.781 693.828 m 105.629 691.285 l S
108.914 697.961 m 108.121 697.645 l 107.59 696.691 l 107.328 695.102 l 
107.328 694.145 l 107.59 692.555 l 108.121 691.602 l 108.914 691.285 l 109.441
 691.285 l 110.234 691.602 l 110.762 692.555 l 111.027 694.145 l 111.027
 695.102 l 110.762 696.691 l 110.234 697.645 l 109.441 697.961 l 108.914
 697.961 l S
116.047 697.961 m 113.402 697.961 l 113.141 695.102 l 113.402 695.418 l
 114.195 695.734 l 114.988 695.734 l 115.781 695.418 l 116.309 694.781 l
 116.574 693.828 l 116.574 693.191 l 116.309 692.238 l 115.781 691.602 l
 114.988 691.285 l 114.195 691.285 l 113.402 691.602 l 113.141 691.922 l
 112.875 692.555 l S
122.93 699.234 m 118.172 689.059 l S
124.855 695.734 m 124.855 691.285 l S
124.855 694.465 m 125.648 695.418 l 126.18 695.734 l 126.969 695.734 l 
127.5 695.418 l 127.762 694.465 l 127.762 691.285 l S
127.762 694.465 m 128.555 695.418 l 129.082 695.734 l 129.875 695.734 l
 130.406 695.418 l 130.668 694.465 l 130.668 691.285 l S
136.145 695.734 m 136.145 691.285 l S
136.145 694.781 m 135.617 695.418 l 135.09 695.734 l 134.297 695.734 l 
133.766 695.418 l 133.238 694.781 l 132.973 693.828 l 132.973 693.191 l 
133.238 692.238 l 133.766 691.602 l 134.297 691.285 l 135.09 691.285 l 135.617
 691.602 l 136.145 692.238 l S
138.508 695.734 m 138.508 691.285 l S
138.508 694.465 m 139.301 695.418 l 139.832 695.734 l 140.621 695.734 l
 141.152 695.418 l 141.414 694.465 l 141.414 691.285 l S
146.688 697.961 m 146.688 691.285 l S
146.688 694.781 m 146.156 695.418 l 145.629 695.734 l 144.836 695.734 l
 144.309 695.418 l 143.781 694.781 l 143.516 693.828 l 143.516 693.191 l
 143.781 692.238 l 144.309 691.602 l 144.836 691.285 l 145.629 691.285 l
 146.156 691.602 l 146.688 692.238 l S
151.957 695.734 m 151.957 691.285 l S
151.957 694.781 m 151.43 695.418 l 150.902 695.734 l 150.109 695.734 l 
149.578 695.418 l 149.051 694.781 l 148.785 693.828 l 148.785 693.191 l 
149.051 692.238 l 149.578 691.602 l 150.109 691.285 l 150.902 691.285 l 
151.43 691.602 l 151.957 692.238 l S
158.438 699.234 m 153.68 689.059 l S
161.328 697.961 m 161.328 691.285 l S
159.48 697.961 m 163.18 697.961 l S
164.598 697.961 m 164.598 691.285 l S
164.598 697.961 m 168.035 697.961 l S
164.598 694.781 m 166.715 694.781 l S
164.598 691.285 m 168.035 691.285 l S
171.316 697.961 m 169.203 691.285 l S
171.316 697.961 m 173.43 691.285 l S
169.996 693.512 m 172.637 693.512 l S
178.84 696.371 m 178.574 697.008 l 178.047 697.645 l 177.52 697.961 l 176.461
 697.961 l 175.934 697.645 l 175.406 697.008 l 175.141 696.371 l 174.875
 695.418 l 174.875 693.828 l 175.141 692.875 l 175.406 692.238 l 175.934
 691.602 l 176.461 691.285 l 177.52 691.285 l 178.047 691.602 l 178.574 
692.238 l 178.84 692.875 l S
180.84 697.961 m 180.84 691.285 l S
184.539 697.961 m 184.539 691.285 l S
180.84 694.781 m 184.539 694.781 l S
186.852 697.961 m 186.852 691.285 l S
189.164 697.961 m 189.164 691.285 l S
189.164 697.961 m 192.863 691.285 l S
192.863 697.961 m 192.863 691.285 l S
199.09 696.371 m 198.828 697.008 l 198.297 697.645 l 197.77 697.961 l 196.715
 697.961 l 196.184 697.645 l 195.656 697.008 l 195.391 696.371 l 195.129
 695.418 l 195.129 693.828 l 195.391 692.875 l 195.656 692.238 l 196.184
 691.602 l 196.715 691.285 l 197.77 691.285 l 198.297 691.602 l 198.828 
692.238 l 199.09 692.875 l 199.09 693.828 l S
197.77 693.828 m 199.09 693.828 l S
205.32 699.234 m 200.562 689.059 l S
207.184 696.371 m 207.184 696.691 l 207.445 697.324 l 207.711 697.645 l
 208.238 697.961 l 209.297 697.961 l 209.824 697.645 l 210.09 697.324 l 
210.352 696.691 l 210.352 696.055 l 210.09 695.418 l 209.559 694.465 l 206.918
 691.285 l 210.617 691.285 l S
214.051 697.961 m 213.258 697.645 l 212.73 696.691 l 212.465 695.102 l 
212.465 694.145 l 212.73 692.555 l 213.258 691.602 l 214.051 691.285 l 214.578
 691.285 l 215.371 691.602 l 215.902 692.555 l 216.164 694.145 l 216.164
 695.102 l 215.902 696.691 l 215.371 697.645 l 214.578 697.961 l 214.051
 697.961 l S
218.277 696.371 m 218.277 696.691 l 218.543 697.324 l 218.809 697.645 l
 219.336 697.961 l 220.391 697.961 l 220.922 697.645 l 221.184 697.324 l
 221.449 696.691 l 221.449 696.055 l 221.184 695.418 l 220.656 694.465 l
 218.016 691.285 l 221.715 691.285 l S
225.148 697.961 m 224.355 697.645 l 223.828 696.691 l 223.562 695.102 l
 223.562 694.145 l 223.828 692.555 l 224.355 691.602 l 225.148 691.285 l
 225.676 691.285 l 226.469 691.602 l 226.996 692.555 l 227.262 694.145 l
 227.262 695.102 l 226.996 696.691 l 226.469 697.645 l 225.676 697.961 l
 225.148 697.961 l S
228.055 689.059 m 233.34 689.059 l S
234.797 697.961 m 234.797 691.285 l S
238.496 697.961 m 234.797 693.512 l S
236.117 695.102 m 238.496 691.285 l S
242.055 697.961 m 239.941 691.285 l S
242.055 697.961 m 244.172 691.285 l S
240.734 693.512 m 243.379 693.512 l S
245.754 697.961 m 245.754 691.285 l S
245.754 697.961 m 249.453 691.285 l S
249.453 697.961 m 249.453 691.285 l S
251.719 697.961 m 251.719 691.285 l S
255.418 697.961 m 251.719 693.512 l S
253.039 695.102 m 255.418 691.285 l S
256.863 697.961 m 258.98 694.781 l 258.98 691.285 l S
261.094 697.961 m 258.98 694.781 l S
264 697.961 m 263.469 697.645 l 262.941 697.008 l 262.676 696.371 l 262.414
 695.418 l 262.414 693.828 l 262.676 692.875 l 262.941 692.238 l 263.469
 691.602 l 264 691.285 l 265.055 691.285 l 265.582 691.602 l 266.113 692.238
 l 266.375 692.875 l 266.641 693.828 l 266.641 695.418 l 266.375 696.371
 l 266.113 697.008 l 265.582 697.645 l 265.055 697.961 l 264 697.961 l S
267.445 689.059 m 272.73 689.059 l S
274.191 697.961 m 274.191 691.285 l S
277.891 697.961 m 274.191 693.512 l S
275.512 695.102 m 277.891 691.285 l S
281.449 697.961 m 279.336 691.285 l S
281.449 697.961 m 283.562 691.285 l S
280.129 693.512 m 282.77 693.512 l S
285.055 697.961 m 285.055 691.285 l S
290.789 697.008 m 290.262 697.645 l 289.469 697.961 l 288.41 697.961 l 
287.617 697.645 l 287.09 697.008 l 287.09 696.371 l 287.355 695.734 l 287.617
 695.418 l 288.148 695.102 l 289.73 694.465 l 290.262 694.145 l 290.523 
693.828 l 290.789 693.191 l 290.789 692.238 l 290.262 691.602 l 289.469 
691.285 l 288.41 691.285 l 287.617 691.602 l 287.09 692.238 l S
292.762 697.961 m 292.762 691.285 l S
292.762 697.961 m 296.199 697.961 l S
292.762 694.781 m 294.879 694.781 l S
292.762 691.285 m 296.199 691.285 l S
298.047 697.961 m 298.047 691.285 l S
301.746 697.961 m 298.047 693.512 l S
299.367 695.102 m 301.746 691.285 l S
303.918 697.961 m 303.918 691.285 l S
310.457 699.234 m 305.703 689.059 l S
313.641 697.961 m 312.848 697.645 l 312.32 696.691 l 312.059 695.102 l 
312.059 694.145 l 312.32 692.555 l 312.848 691.602 l 313.641 691.285 l 314.172
 691.285 l 314.965 691.602 l 315.492 692.555 l 315.754 694.145 l 315.754
 695.102 l 315.492 696.691 l 314.965 697.645 l 314.172 697.961 l 313.641
 697.961 l S
321.305 697.961 m 318.66 691.285 l S
317.605 697.961 m 321.305 697.961 l S
323.457 694.145 m 328.211 694.145 l S
331.953 697.961 m 331.16 697.645 l 330.629 696.691 l 330.367 695.102 l 
330.367 694.145 l 330.629 692.555 l 331.16 691.602 l 331.953 691.285 l 332.48
 691.285 l 333.273 691.602 l 333.801 692.555 l 334.066 694.145 l 334.066
 695.102 l 333.801 696.691 l 333.273 697.645 l 332.48 697.961 l 331.953 
697.961 l S
336.707 696.691 m 337.234 697.008 l 338.027 697.961 l 338.027 691.285 l
 S
341.926 691.922 m 341.66 691.602 l 341.926 691.285 l 342.188 691.602 l 
341.926 691.922 l S
344.375 697.961 m 344.375 691.285 l S
344.375 697.961 m 346.754 697.961 l 347.547 697.645 l 347.809 697.324 l
 348.074 696.691 l 348.074 696.055 l 347.809 695.418 l 347.547 695.102 l
 346.754 694.781 l 344.375 694.781 l S
346.227 694.781 m 348.074 691.285 l S
351.66 697.961 m 351.133 697.645 l 350.605 697.008 l 350.34 696.371 l 350.074
 695.418 l 350.074 693.828 l 350.34 692.875 l 350.605 692.238 l 351.133 
691.602 l 351.66 691.285 l 352.719 691.285 l 353.246 691.602 l 353.773 692.238
 l 354.039 692.875 l 354.301 693.828 l 354.301 695.418 l 354.039 696.371
 l 353.773 697.008 l 353.246 697.645 l 352.719 697.961 l 351.66 697.961 
l S
359.863 697.008 m 359.336 697.645 l 358.543 697.961 l 357.484 697.961 l
 356.695 697.645 l 356.164 697.008 l 356.164 696.371 l 356.43 695.734 l 
356.695 695.418 l 357.223 695.102 l 358.809 694.465 l 359.336 694.145 l 
359.602 693.828 l 359.863 693.191 l 359.863 692.238 l 359.336 691.602 l 
358.543 691.285 l 357.484 691.285 l 356.695 691.602 l 356.164 692.238 l S
365.414 697.008 m 364.883 697.645 l 364.09 697.961 l 363.035 697.961 l 
362.242 697.645 l 361.715 697.008 l 361.715 696.371 l 361.977 695.734 l 
362.242 695.418 l 362.77 695.102 l 364.355 694.465 l 364.883 694.145 l 365.148
 693.828 l 365.414 693.191 l 365.414 692.238 l 364.883 691.602 l 364.09 
691.285 l 363.035 691.285 l 362.242 691.602 l 361.715 692.238 l S
367.402 697.961 m 367.402 691.285 l S
367.402 697.961 m 369.777 697.961 l 370.57 697.645 l 370.836 697.324 l 
371.098 696.691 l 371.098 696.055 l 370.836 695.418 l 370.57 695.102 l 369.777
 694.781 l S
367.402 694.781 m 369.777 694.781 l 370.57 694.465 l 370.836 694.145 l 
371.098 693.512 l 371.098 692.555 l 370.836 691.922 l 370.57 691.602 l 369.777
 691.285 l 367.402 691.285 l S
372.547 697.961 m 374.66 694.781 l 374.66 691.285 l S
376.773 697.961 m 374.66 694.781 l S
377.023 689.059 m 382.309 689.059 l S
387.328 697.008 m 386.801 697.645 l 386.008 697.961 l 384.949 697.961 l
 384.156 697.645 l 383.629 697.008 l 383.629 696.371 l 383.895 695.734 l
 384.156 695.418 l 384.688 695.102 l 386.27 694.465 l 386.801 694.145 l 
387.062 693.828 l 387.328 693.191 l 387.328 692.238 l 386.801 691.602 l 
386.008 691.285 l 384.949 691.285 l 384.156 691.602 l 383.629 692.238 l S
390.473 697.961 m 390.473 691.285 l S
388.621 697.961 m 392.32 697.961 l S
395.188 697.961 m 393.074 691.285 l S
395.188 697.961 m 397.301 691.285 l S
393.867 693.512 m 396.508 693.512 l S
399.902 697.961 m 399.902 691.285 l S
398.055 697.961 m 401.754 697.961 l S
403.234 697.961 m 403.234 691.285 l S
406.867 697.961 m 406.336 697.645 l 405.809 697.008 l 405.543 696.371 l
 405.281 695.418 l 405.281 693.828 l 405.543 692.875 l 405.809 692.238 l
 406.336 691.602 l 406.867 691.285 l 407.922 691.285 l 408.449 691.602 l
 408.98 692.238 l 409.242 692.875 l 409.508 693.828 l 409.508 695.418 l 
409.242 696.371 l 408.98 697.008 l 408.449 697.645 l 407.922 697.961 l 406.867
 697.961 l S
411.648 697.961 m 411.648 691.285 l S
411.648 697.961 m 415.348 691.285 l S
415.348 697.961 m 415.348 691.285 l S
419.047 697.961 m 416.934 691.285 l S
419.047 697.961 m 421.16 691.285 l S
417.723 693.512 m 420.367 693.512 l S
422.605 697.961 m 422.605 691.285 l S
422.605 697.961 m 424.984 697.961 l 425.777 697.645 l 426.039 697.324 l
 426.305 696.691 l 426.305 696.055 l 426.039 695.418 l 425.777 695.102 l
 424.984 694.781 l 422.605 694.781 l S
424.453 694.781 m 426.305 691.285 l S
427.75 697.961 m 429.863 694.781 l 429.863 691.285 l S
431.977 697.961 m 429.863 694.781 l S
438.742 691.922 m 438.477 691.602 l 438.742 691.285 l 439.004 691.602 l
 438.742 691.922 l S
445.559 699.234 m 440.801 689.059 l S
447.434 697.961 m 447.434 691.285 l S
447.434 697.961 m 451.133 691.285 l S
451.133 697.961 m 451.133 691.285 l S
457.359 696.371 m 457.098 697.008 l 456.57 697.645 l 456.039 697.961 l 
454.984 697.961 l 454.453 697.645 l 453.926 697.008 l 453.664 696.371 l 
453.398 695.418 l 453.398 693.828 l 453.664 692.875 l 453.926 692.238 l 
454.453 691.602 l 454.984 691.285 l 456.039 691.285 l 456.57 691.602 l 457.098
 692.238 l 457.359 692.875 l S
459.211 697.961 m 459.211 691.285 l S
459.211 697.961 m 462.645 697.961 l S
459.211 694.781 m 461.324 694.781 l S
459.211 691.285 m 462.645 691.285 l S
464.496 697.961 m 464.496 691.285 l S
464.496 697.961 m 466.871 697.961 l 467.664 697.645 l 467.93 697.324 l 
468.195 696.691 l 468.195 695.734 l 467.93 695.102 l 467.664 694.781 l 466.871
 694.465 l 464.496 694.465 l S
470.973 696.691 m 471.504 697.008 l 472.297 697.961 l 472.297 691.285 l
 S
476.191 691.922 m 475.93 691.602 l 476.191 691.285 l 476.457 691.602 l 
476.191 691.922 l S
478.645 697.961 m 478.645 691.285 l S
478.645 697.961 m 480.492 697.961 l 481.285 697.645 l 481.812 697.008 l
 482.078 696.371 l 482.34 695.418 l 482.34 693.828 l 482.078 692.875 l 481.812
 692.238 l 481.285 691.602 l 480.492 691.285 l 478.645 691.285 l S
486.68 697.961 m 486.68 692.875 l 486.418 691.922 l 486.152 691.602 l 485.625
 691.285 l 485.098 691.285 l 484.566 691.602 l 484.305 691.922 l 484.039
 692.875 l 484.039 693.512 l S
488.754 697.961 m 488.754 691.285 l S
488.754 697.961 m 492.191 697.961 l S
488.754 694.781 m 490.867 694.781 l S
494.223 691.922 m 493.961 691.602 l 494.223 691.285 l 494.488 691.602 l
 494.223 691.922 l S
496.383 697.961 m 496.383 691.285 l S
496.383 691.285 m 499.555 691.285 l S
502.852 697.961 m 502.32 697.645 l 501.793 697.008 l 501.527 696.371 l 
501.266 695.418 l 501.266 693.828 l 501.527 692.875 l 501.793 692.238 l 
502.32 691.602 l 502.852 691.285 l 503.906 691.285 l 504.434 691.602 l 504.965
 692.238 l 505.227 692.875 l 505.492 693.828 l 505.492 695.418 l 505.227
 696.371 l 504.965 697.008 l 504.434 697.645 l 503.906 697.961 l 502.852
 697.961 l S
507.633 697.961 m 507.633 691.285 l S
507.633 697.961 m 511.332 691.285 l S
511.332 697.961 m 511.332 691.285 l S
513.922 691.922 m 513.656 691.602 l 513.922 691.285 l 514.184 691.602 l
 513.922 691.922 l S
519.93 697.961 m 516.23 691.285 l S
516.23 697.961 m 519.93 697.961 l S
516.23 691.285 m 519.93 691.285 l S
522.242 691.922 m 521.977 691.602 l 522.242 691.285 l 522.508 691.602 l
 522.242 691.922 l S
527.574 694.781 m 527.309 695.418 l 526.516 695.734 l 525.723 695.734 l
 524.93 695.418 l 524.668 694.781 l 524.93 694.145 l 525.461 693.828 l 526.781
 693.512 l 527.309 693.191 l 527.574 692.555 l 527.574 692.238 l 527.309
 691.602 l 526.516 691.285 l 525.723 691.285 l 524.93 691.602 l 524.668 
692.238 l S
529.66 697.961 m 529.66 691.285 l S
529.66 694.465 m 530.453 695.418 l 530.98 695.734 l 531.773 695.734 l 532.301
 695.418 l 532.566 694.465 l 532.566 691.285 l S
81.805 709.855 m 81.805 703.176 l S
81.805 709.855 m 85.504 703.176 l S
85.504 709.855 m 85.504 703.176 l S
91.734 708.266 m 91.469 708.898 l 90.941 709.535 l 90.41 709.855 l 89.355
 709.855 l 88.828 709.535 l 88.297 708.898 l 88.035 708.266 l 87.77 707.309
 l 87.77 705.719 l 88.035 704.766 l 88.297 704.129 l 88.828 703.496 l 89.355
 703.176 l 90.41 703.176 l 90.941 703.496 l 91.469 704.129 l 91.734 704.766
 l S
93.582 709.855 m 93.582 703.176 l S
93.582 709.855 m 97.016 709.855 l S
93.582 706.676 m 95.695 706.676 l S
93.582 703.176 m 97.016 703.176 l S
98.867 709.855 m 98.867 703.176 l S
98.867 709.855 m 101.242 709.855 l 102.035 709.535 l 102.301 709.219 l 
102.566 708.582 l 102.566 707.629 l 102.301 706.992 l 102.035 706.676 l 
101.242 706.355 l 98.867 706.355 l S
105.344 708.582 m 105.875 708.898 l 106.668 709.855 l 106.668 703.176 l
 S
110.562 703.812 m 110.301 703.496 l 110.562 703.176 l 110.828 703.496 l
 110.562 703.812 l S
113.016 709.855 m 113.016 703.176 l S
113.016 709.855 m 114.863 709.855 l 115.656 709.535 l 116.184 708.898 l
 116.449 708.266 l 116.711 707.309 l 116.711 705.719 l 116.449 704.766 l
 116.184 704.129 l 115.656 703.496 l 114.863 703.176 l 113.016 703.176 l
 S
121.051 709.855 m 121.051 704.766 l 120.789 703.812 l 120.523 703.496 l
 119.996 703.176 l 119.469 703.176 l 118.938 703.496 l 118.676 703.812 l
 118.41 704.766 l 118.41 705.402 l S
123.125 709.855 m 123.125 703.176 l S
123.125 709.855 m 126.562 709.855 l S
123.125 706.676 m 125.238 706.676 l S
128.594 703.812 m 128.332 703.496 l 128.594 703.176 l 128.859 703.496 l
 128.594 703.812 l S
130.754 709.855 m 130.754 703.176 l S
130.754 703.176 m 133.926 703.176 l S
137.223 709.855 m 136.691 709.535 l 136.164 708.898 l 135.898 708.266 l
 135.637 707.309 l 135.637 705.719 l 135.898 704.766 l 136.164 704.129 l
 136.691 703.496 l 137.223 703.176 l 138.277 703.176 l 138.805 703.496 l
 139.336 704.129 l 139.598 704.766 l 139.863 705.719 l 139.863 707.309 l
 139.598 708.266 l 139.336 708.898 l 138.805 709.535 l 138.277 709.855 l
 137.223 709.855 l S
142.004 709.855 m 142.004 703.176 l S
142.004 709.855 m 145.703 703.176 l S
145.703 709.855 m 145.703 703.176 l S
148.293 703.812 m 148.027 703.496 l 148.293 703.176 l 148.555 703.496 l
 148.293 703.812 l S
154.301 709.855 m 150.602 703.176 l S
150.602 709.855 m 154.301 709.855 l S
150.602 703.176 m 154.301 703.176 l S
156.613 703.812 m 156.348 703.496 l 156.613 703.176 l 156.879 703.496 l
 156.613 703.812 l S
163.027 708.266 m 162.762 708.898 l 162.234 709.535 l 161.707 709.855 l
 160.648 709.855 l 160.121 709.535 l 159.594 708.898 l 159.328 708.266 l
 159.062 707.309 l 159.062 705.719 l 159.328 704.766 l 159.594 704.129 l
 160.121 703.496 l 160.648 703.176 l 161.707 703.176 l 162.234 703.496 l
 162.762 704.129 l 163.027 704.766 l 163.027 705.719 l S
161.707 705.719 m 163.027 705.719 l S
168.449 708.898 m 167.922 709.535 l 167.129 709.855 l 166.07 709.855 l 
165.281 709.535 l 164.75 708.898 l 164.75 708.266 l 165.016 707.629 l 165.281
 707.309 l 165.809 706.992 l 167.395 706.355 l 167.922 706.039 l 168.188
 705.719 l 168.449 705.086 l 168.449 704.129 l 167.922 703.496 l 167.129
 703.176 l 166.07 703.176 l 165.281 703.496 l 164.75 704.129 l S
81.289 721.746 m 82.609 715.07 l S
83.934 721.746 m 82.609 715.07 l S
83.934 721.746 m 85.254 715.07 l S
86.574 721.746 m 85.254 715.07 l S
88.172 717.613 m 91.344 717.613 l 91.344 718.25 l 91.078 718.887 l 90.812
 719.203 l 90.285 719.52 l 89.492 719.52 l 88.965 719.203 l 88.438 718.566
 l 88.172 717.613 l 88.172 716.977 l 88.438 716.023 l 88.965 715.387 l 89.492
 715.07 l 90.285 715.07 l 90.812 715.387 l 91.344 716.023 l S
96.477 721.746 m 96.477 715.07 l S
96.477 718.566 m 95.945 719.203 l 95.418 719.52 l 94.625 719.52 l 94.098
 719.203 l 93.57 718.566 l 93.305 717.613 l 93.305 716.977 l 93.57 716.023
 l 94.098 715.387 l 94.625 715.07 l 95.418 715.07 l 95.945 715.387 l 96.477
 716.023 l S
99.176 715.387 m 98.914 715.07 l 98.648 715.387 l 98.914 715.703 l 99.176
 715.387 l 99.176 714.75 l 98.914 714.113 l 98.648 713.797 l S
106.48 720.156 m 106.48 720.477 l 106.746 721.109 l 107.012 721.43 l 107.539
 721.746 l 108.594 721.746 l 109.125 721.43 l 109.387 721.109 l 109.652 
720.477 l 109.652 719.84 l 109.387 719.203 l 108.859 718.25 l 106.219 715.07
 l 109.918 715.07 l S
113.352 721.746 m 112.559 721.43 l 112.031 720.477 l 111.766 718.887 l 
111.766 717.93 l 112.031 716.34 l 112.559 715.387 l 113.352 715.07 l 113.879
 715.07 l 114.672 715.387 l 115.199 716.34 l 115.465 717.93 l 115.465 718.887
 l 115.199 720.477 l 114.672 721.43 l 113.879 721.746 l 113.352 721.746 
l S
124.66 721.746 m 124.66 716.66 l 124.395 715.703 l 124.129 715.387 l 123.602
 715.07 l 123.074 715.07 l 122.547 715.387 l 122.281 715.703 l 122.016 716.66
 l 122.016 717.293 l S
130.043 719.52 m 130.043 715.07 l S
130.043 718.566 m 129.512 719.203 l 128.984 719.52 l 128.191 719.52 l 127.664
 719.203 l 127.137 718.566 l 126.871 717.613 l 126.871 716.977 l 127.137
 716.023 l 127.664 715.387 l 128.191 715.07 l 128.984 715.07 l 129.512 715.387
 l 130.043 716.023 l S
132.406 719.52 m 132.406 715.07 l S
132.406 718.25 m 133.199 719.203 l 133.727 719.52 l 134.52 719.52 l 135.047
 719.203 l 135.312 718.25 l 135.312 715.07 l S
142.547 720.156 m 142.547 720.477 l 142.809 721.109 l 143.074 721.43 l 
143.602 721.746 l 144.66 721.746 l 145.188 721.43 l 145.453 721.109 l 145.715
 720.477 l 145.715 719.84 l 145.453 719.203 l 144.922 718.25 l 142.281 715.07
 l 145.98 715.07 l S
149.414 721.746 m 148.621 721.43 l 148.094 720.477 l 147.828 718.887 l 
147.828 717.93 l 148.094 716.34 l 148.621 715.387 l 149.414 715.07 l 149.941
 715.07 l 150.734 715.387 l 151.266 716.34 l 151.527 717.93 l 151.527 718.887
 l 151.266 720.477 l 150.734 721.43 l 149.941 721.746 l 149.414 721.746 
l S
153.641 720.156 m 153.641 720.477 l 153.906 721.109 l 154.168 721.43 l 
154.699 721.746 l 155.754 721.746 l 156.285 721.43 l 156.547 721.109 l 156.812
 720.477 l 156.812 719.84 l 156.547 719.203 l 156.02 718.25 l 153.379 715.07
 l 157.074 715.07 l S
159.719 720.477 m 160.246 720.793 l 161.039 721.746 l 161.039 715.07 l S
169.73 720.156 m 169.73 720.477 l 169.996 721.109 l 170.262 721.43 l 170.789
 721.746 l 171.844 721.746 l 172.375 721.43 l 172.637 721.109 l 172.902 
720.477 l 172.902 719.84 l 172.637 719.203 l 172.109 718.25 l 169.469 715.07
 l 173.168 715.07 l S
176.602 721.746 m 175.809 721.43 l 175.281 720.477 l 175.016 718.887 l 
175.016 717.93 l 175.281 716.34 l 175.809 715.387 l 176.602 715.07 l 177.129
 715.07 l 177.922 715.387 l 178.449 716.34 l 178.715 717.93 l 178.715 718.887
 l 178.449 720.477 l 177.922 721.43 l 177.129 721.746 l 176.602 721.746 
l S
181.027 719.52 m 180.762 719.203 l 181.027 718.887 l 181.289 719.203 l 
181.027 719.52 l S
181.027 715.703 m 180.762 715.387 l 181.027 715.07 l 181.289 715.387 l 
181.027 715.703 l S
183.602 720.156 m 183.602 720.477 l 183.867 721.109 l 184.129 721.43 l 
184.66 721.746 l 185.715 721.746 l 186.242 721.43 l 186.508 721.109 l 186.773
 720.477 l 186.773 719.84 l 186.508 719.203 l 185.98 718.25 l 183.336 715.07
 l 187.035 715.07 l S
191.527 721.746 m 188.887 717.293 l 192.848 717.293 l S
191.527 721.746 m 191.527 715.07 l S
194.898 719.52 m 194.633 719.203 l 194.898 718.887 l 195.16 719.203 l 194.898
 719.52 l S
194.898 715.703 m 194.633 715.387 l 194.898 715.07 l 195.16 715.387 l 194.898
 715.703 l S
197.738 721.746 m 200.645 721.746 l 199.059 719.203 l 199.852 719.203 l
 200.379 718.887 l 200.645 718.566 l 200.906 717.613 l 200.906 716.977 l
 200.645 716.023 l 200.113 715.387 l 199.32 715.07 l 198.531 715.07 l 197.738
 715.387 l 197.473 715.703 l 197.207 716.34 l S
205.926 721.746 m 203.285 721.746 l 203.02 718.887 l 203.285 719.203 l 
204.078 719.52 l 204.871 719.52 l 205.664 719.203 l 206.191 718.566 l 206.457
 717.613 l 206.457 716.977 l 206.191 716.023 l 205.664 715.387 l 204.871
 715.07 l 204.078 715.07 l 203.285 715.387 l 203.02 715.703 l 202.758 716.34
 l S
215.98 720.793 m 215.98 715.07 l S
213.602 717.93 m 218.359 717.93 l S
222.098 721.746 m 221.305 721.43 l 220.773 720.477 l 220.512 718.887 l 
220.512 717.93 l 220.773 716.34 l 221.305 715.387 l 222.098 715.07 l 222.625
 715.07 l 223.418 715.387 l 223.945 716.34 l 224.211 717.93 l 224.211 718.887
 l 223.945 720.477 l 223.418 721.43 l 222.625 721.746 l 222.098 721.746 
l S
229.492 719.52 m 229.23 718.566 l 228.703 717.93 l 227.91 717.613 l 227.645
 717.613 l 226.852 717.93 l 226.324 718.566 l 226.059 719.52 l 226.059 719.84
 l 226.324 720.793 l 226.852 721.43 l 227.645 721.746 l 227.91 721.746 l
 228.703 721.43 l 229.23 720.793 l 229.492 719.52 l 229.492 717.93 l 229.23
 716.34 l 228.703 715.387 l 227.91 715.07 l 227.379 715.07 l 226.586 715.387
 l 226.324 716.023 l S
233.191 721.746 m 232.398 721.43 l 231.871 720.477 l 231.609 718.887 l 
231.609 717.93 l 231.871 716.34 l 232.398 715.387 l 233.191 715.07 l 233.723
 715.07 l 234.512 715.387 l 235.043 716.34 l 235.305 717.93 l 235.305 718.887
 l 235.043 720.477 l 234.512 721.43 l 233.723 721.746 l 233.191 721.746 
l S
238.742 721.746 m 237.949 721.43 l 237.418 720.477 l 237.156 718.887 l 
237.156 717.93 l 237.418 716.34 l 237.949 715.387 l 238.742 715.07 l 239.27
 715.07 l 240.062 715.387 l 240.59 716.34 l 240.855 717.93 l 240.855 718.887
 l 240.59 720.477 l 240.062 721.43 l 239.27 721.746 l 238.742 721.746 l S
250.855 718.566 m 250.324 719.203 l 249.797 719.52 l 249.004 719.52 l 248.477
 719.203 l 247.949 718.566 l 247.684 717.613 l 247.684 716.977 l 247.949
 716.023 l 248.477 715.387 l 249.004 715.07 l 249.797 715.07 l 250.324 715.387
 l 250.855 716.023 l S
255.988 719.52 m 255.988 715.07 l S
255.988 718.566 m 255.457 719.203 l 254.93 719.52 l 254.137 719.52 l 253.609
 719.203 l 253.082 718.566 l 252.816 717.613 l 252.816 716.977 l 253.082
 716.023 l 253.609 715.387 l 254.137 715.07 l 254.93 715.07 l 255.457 715.387
 l 255.988 716.023 l S
258.145 721.746 m 258.145 715.07 l S
259.891 719.52 m 261.477 715.07 l S
263.062 719.52 m 261.477 715.07 l 260.945 713.797 l 260.418 713.16 l 259.891
 712.844 l 259.625 712.844 l S
264.746 719.52 m 264.746 712.844 l S
264.746 718.566 m 265.273 719.203 l 265.801 719.52 l 266.594 719.52 l 267.121
 719.203 l 267.652 718.566 l 267.914 717.613 l 267.914 716.977 l 267.652
 716.023 l 267.121 715.387 l 266.594 715.07 l 265.801 715.07 l 265.273 715.387
 l 264.746 716.023 l S
272.91 718.566 m 272.645 719.203 l 271.852 719.52 l 271.059 719.52 l 270.266
 719.203 l 270.004 718.566 l 270.266 717.93 l 270.797 717.613 l 272.117 
717.293 l 272.645 716.977 l 272.91 716.34 l 272.91 716.023 l 272.645 715.387
 l 271.852 715.07 l 271.059 715.07 l 270.266 715.387 l 270.004 716.023 l
 S
276.055 719.52 m 275.523 719.203 l 274.996 718.566 l 274.73 717.613 l 274.73
 716.977 l 274.996 716.023 l 275.523 715.387 l 276.055 715.07 l 276.844 
715.07 l 277.375 715.387 l 277.902 716.023 l 278.168 716.977 l 278.168 717.613
 l 277.902 718.566 l 277.375 719.203 l 276.844 719.52 l 276.055 719.52 l
 S
280.34 715.703 m 280.074 715.387 l 280.34 715.07 l 280.605 715.387 l 280.34
 715.703 l S
282.777 721.746 m 282.777 715.07 l S
282.777 718.566 m 283.305 719.203 l 283.832 719.52 l 284.625 719.52 l 285.156
 719.203 l 285.684 718.566 l 285.945 717.613 l 285.945 716.977 l 285.684
 716.023 l 285.156 715.387 l 284.625 715.07 l 283.832 715.07 l 283.305 715.387
 l 282.777 716.023 l S
289.367 719.52 m 288.84 719.203 l 288.312 718.566 l 288.047 717.613 l 288.047
 716.977 l 288.312 716.023 l 288.84 715.387 l 289.367 715.07 l 290.16 715.07
 l 290.691 715.387 l 291.219 716.023 l 291.48 716.977 l 291.48 717.613 l
 291.219 718.566 l 290.691 719.203 l 290.16 719.52 l 289.367 719.52 l S
296.211 718.566 m 295.945 719.203 l 295.156 719.52 l 294.363 719.52 l 293.57
 719.203 l 293.305 718.566 l 293.57 717.93 l 294.098 717.613 l 295.418 717.293
 l 295.945 716.977 l 296.211 716.34 l 296.211 716.023 l 295.945 715.387 
l 295.156 715.07 l 294.363 715.07 l 293.57 715.387 l 293.305 716.023 l S
301.203 719.52 m 301.203 715.07 l S
301.203 718.566 m 300.676 719.203 l 300.148 719.52 l 299.355 719.52 l 298.828
 719.203 l 298.297 718.566 l 298.035 717.613 l 298.035 716.977 l 298.297
 716.023 l 298.828 715.387 l 299.355 715.07 l 300.148 715.07 l 300.676 715.387
 l 301.203 716.023 l S
303.102 721.746 m 303.363 721.43 l 303.629 721.746 l 303.363 722.066 l 
303.102 721.746 l S
303.363 719.52 m 303.363 715.07 l S
305.859 715.703 m 305.598 715.387 l 305.859 715.07 l 306.125 715.387 l 
305.859 715.703 l S
311.469 719.52 m 311.469 714.434 l 311.203 713.48 l 310.941 713.16 l 310.414
 712.844 l 309.621 712.844 l 309.09 713.16 l S
311.469 718.566 m 310.941 719.203 l 310.414 719.52 l 309.621 719.52 l 309.09
 719.203 l 308.562 718.566 l 308.297 717.613 l 308.297 716.977 l 308.562
 716.023 l 309.09 715.387 l 309.621 715.07 l 310.414 715.07 l 310.941 715.387
 l 311.469 716.023 l S
314.891 719.52 m 314.363 719.203 l 313.832 718.566 l 313.57 717.613 l 313.57
 716.977 l 313.832 716.023 l 314.363 715.387 l 314.891 715.07 l 315.684 
715.07 l 316.211 715.387 l 316.738 716.023 l 317.004 716.977 l 317.004 717.613
 l 316.738 718.566 l 316.211 719.203 l 315.684 719.52 l 314.891 719.52 l
 S
319.176 715.703 m 318.914 715.387 l 319.176 715.07 l 319.441 715.387 l 
319.176 715.703 l S
321.953 721.746 m 322.215 721.43 l 322.48 721.746 l 322.215 722.066 l 321.953
 721.746 l S
322.215 719.52 m 322.215 714.113 l 321.953 713.16 l 321.422 712.844 l 320.895
 712.844 l S
324.387 719.52 m 324.387 712.844 l S
324.387 718.566 m 324.918 719.203 l 325.445 719.52 l 326.238 719.52 l 326.766
 719.203 l 327.293 718.566 l 327.559 717.613 l 327.559 716.977 l 327.293
 716.023 l 326.766 715.387 l 326.238 715.07 l 325.445 715.07 l 324.918 715.387
 l 324.387 716.023 l S
Q Q
showpage
%%Trailer
end restore
%%EOF
