-0.74283 29.9973 361.105
-0.67328 29.9285 361.648
-0.61529 29.8604 361.471
-0.55371 29.7938 361.180
-0.55688 29.7284 360.931
-0.56472 29.6649 360.778
-0.58234 29.6027 360.740
-0.56591 29.5410 360.768
-0.58926 29.4796 360.849
-0.60859 29.4184 360.828
-0.57329 29.3570 360.794
-0.5395 29.2952 360.767
-0.53017 29.2335 360.739
-0.50037 29.1704 360.689
-0.47657 29.1057 360.621
-0.5242 29.0418 360.579
-0.46461 29.9730 358.078
-0.49598 29.9001 358.630
-0.49983 29.8254 359.178
-0.5507 29.7497 359.985
-0.58922 29.6750 360.760
-0.67029 29.6041 361.501
-0.64405 29.5371 361.553
-0.62095 29.4730 361.503
-0.55867 29.4116 361.381
-0.53283 29.3517 361.396
-0.5358 29.2908 361.447
-0.51639 29.2279 361.444
-0.49381 29.1647 361.362
-0.4542 29.1016 361.262
-0.42913 29.0386 361.158
-0.21116 29.9660 354.291
-0.18514 29.8859 353.729
-0.1321 29.8049 353.361
-0.07867 29.7248 353.288
-0.02321 29.6456 353.440
0.03956 29.5670 353.658
0.08459 29.4872 353.527
0.1554 29.4053 353.206
0.21649 29.3176 353.075
0.309 29.2291 352.610
0.32891 29.1376 352.217
0.31437 29.0423 351.813
-0.22884 29.9325 353.394
-0.20346 29.8565 352.064
-0.16401 29.7773 350.948
-0.07068 29.6975 351.198
0.08228 29.6184 351.149
0.23995 29.5406 351.319
0.31893 29.4635 351.559
0.31625 29.3857 351.899
0.37237 29.3053 351.015
0.34571 29.2245 351.422
0.32638 29.1400 352.210
0.2817 29.0530 352.641
-0.48217 29.9615 360.438
-0.4674 29.9021 360.411
-0.46205 29.8435 360.374
-0.45834 29.7842 360.244
-0.46204 29.7247 360.026
-0.47478 29.6651 359.827
-0.47645 29.6044 359.763
-0.43429 29.5418 359.716
-0.39031 29.4796 359.582
-0.37674 29.4212 359.449
-0.38167 29.3668 359.494
-0.37292 29.3130 359.618
-0.37638 29.2576 359.784
-0.3717 29.1995 360.041
-0.34618 29.1393 360.143
-0.36189 29.0790 360.023
-0.43759 29.0229 360.029
-0.59948 29.9539 359.901
-0.63847 29.8838 359.778
-0.62717 29.8139 359.656
-0.60845 29.7453 359.549
-0.52348 29.6772 359.446
-0.58675 29.6087 359.379
-0.61109 29.5390 359.230
-0.60946 29.4693 359.077
-0.60259 29.3997 358.938
-0.60751 29.3306 358.809
-0.58569 29.2627 358.754
-0.55039 29.1947 358.707
-0.57744 29.1271 358.675
-0.54886 29.0602 358.626
-0.47877 29.9588 361.029
-0.48246 29.8911 360.631
-0.4608 29.8233 360.175
-0.44142 29.7564 359.576
-0.44081 29.6920 358.919
-0.43884 29.6287 358.117
-0.41199 29.5663 357.120
-0.3611 29.5041 356.173
-0.28983 29.4430 355.325
-0.24822 29.3797 354.529
-0.1912 29.3113 354.032
-0.12805 29.2412 353.928
-0.05783 29.1662 354.124
-0.00361 29.0859 354.338
0.05817 29.0016 354.253
-0.15667 29.9626 353.475
-0.15199 29.8836 353.165
-0.12911 29.8042 352.661
-0.08427 29.7237 352.028
-0.04838 29.6421 351.469
-0.02557 29.5581 351.118
-0.00584 29.4725 351.187
0.01428 29.3878 351.220
0.03279 29.3038 351.258
0.04632 29.2192 351.382
0.06952 29.1340 351.461
0.08683 29.0457 351.524
-0.21893 29.9418 353.065
-0.16199 29.8530 352.745
-0.09313 29.7657 352.385
0.03317 29.6754 352.615
0.09495 29.5817 353.036
0.03155 29.4876 353.949
-0.02316 29.3943 354.058
-0.08521 29.3014 354.074
-0.09859 29.2084 354.041
-0.0949 29.1164 353.873
-0.08631 29.0222 353.795
-0.12651 29.9577 352.546
-0.04654 29.8664 350.875
0.01825 29.7756 350.240
0.1587 29.6813 349.743
0.33817 29.5826 349.266
0.34289 29.4837 349.865
0.28635 29.3862 349.877
0.2737 29.2893 350.104
0.24188 29.1931 350.063
0.24236 29.0981 350.305
0.23744 29.0019 350.144
-0.1238 29.9929 355.477
-0.09586 29.9160 355.011
-0.06109 29.8395 354.597
-0.04676 29.7624 354.538
-0.0252 29.6853 354.477
0.00724 29.6089 354.491
0.04314 29.5330 354.510
0.06076 29.4563 354.510
0.05363 29.3758 354.590
0.05901 29.2930 354.649
0.07639 29.2097 354.740
0.10886 29.1260 354.792
0.13384 29.0410 354.902
-0.13877 29.9972 355.810
-0.11126 29.9207 355.264
-0.07752 29.8445 354.751
-0.06338 29.7676 354.664
-0.04224 29.6906 354.599
-0.00974 29.6141 354.608
0.02734 29.5382 354.602
0.05136 29.4614 354.591
0.04898 29.3809 354.653
0.05305 29.2980 354.697
0.06624 29.2147 354.803
0.09543 29.1310 354.840
0.11748 29.0457 354.956
-0.35124 29.9972 358.938
-0.34269 29.9267 358.944
-0.33698 29.8556 358.961
-0.32344 29.7843 358.873
-0.31813 29.7133 359.002
-0.31338 29.6430 359.086
-0.29291 29.5744 359.161
-0.26398 29.5056 359.008
-0.24901 29.4356 358.851
-0.2549 29.3664 358.677
-0.26148 29.2974 358.460
-0.2515 29.2272 358.157
-0.2316 29.1556 357.822
-0.22509 29.0832 357.605
-0.20455 29.0104 357.592
-0.32333 29.9570 357.732
-0.29332 29.8815 357.245
-0.25432 29.8048 356.882
-0.21634 29.7285 356.791
-0.18285 29.6522 356.838
-0.1559 29.5757 356.919
-0.12853 29.4994 356.941
-0.12154 29.4236 356.885
-0.12639 29.3454 356.854
-0.12041 29.2663 356.845
-0.13028 29.1868 356.820
-0.12719 29.1044 356.672
-0.13837 29.0195 356.723
-0.13005 29.9717 355.217
-0.08696 29.8871 354.974
-0.02962 29.8031 355.041
-0.01766 29.7201 354.928
-0.00541 29.6350 354.695
-0.0727 29.5499 355.004
-0.08403 29.4658 354.956
-0.05862 29.3819 354.883
-0.01134 29.2967 354.834
0.00154 29.2095 354.971
0.02204 29.1187 354.709
0.03418 29.0259 354.639
-0.30895 29.9469 354.902
-0.2615 29.8742 354.250
-0.2309 29.8008 353.674
-0.21321 29.7274 353.419
-0.18705 29.6533 352.649
-0.14835 29.5776 351.482
-0.11589 29.4992 350.658
-0.0758 29.4211 350.584
-0.02745 29.3415 350.301
0.00943 29.2617 350.127
0.03341 29.1791 349.969
0.05786 29.0934 349.932
0.08368 29.0071 350.021
-0.48424 29.9754 360.168
-0.47503 29.9045 360.122
-0.45495 29.8332 359.969
-0.43429 29.7598 359.798
-0.4289 29.6860 359.603
-0.43364 29.6117 359.358
-0.44185 29.5369 359.061
-0.44009 29.4622 358.852
-0.41482 29.3873 358.586
-0.38181 29.3125 358.365
-0.36179 29.2371 358.144
-0.36035 29.1607 357.845
-0.35647 29.0842 357.526
-0.32746 29.0098 357.617
-0.61156 29.9652 360.502
-0.62485 29.8946 360.495
-0.63156 29.8235 360.464
-0.62513 29.7541 360.823
-0.57407 29.6851 361.014
-0.5881 29.6180 361.085
-0.59808 29.5522 361.054
-0.57762 29.4846 360.941
-0.51275 29.4217 360.783
-0.44787 29.3628 360.540
-0.52869 29.3042 360.355
-0.56193 29.2409 360.087
-0.61251 29.1750 359.887
-0.63577 29.1097 359.743
-0.59352 29.0444 359.591
-0.21058 29.9170 352.027
-0.18029 29.8315 352.092
-0.1104 29.7466 351.164
-0.00686 29.6586 352.234
0.04257 29.5675 353.391
-0.02856 29.4761 354.433
-0.0814 29.3846 354.408
-0.12039 29.2932 354.381
-0.11788 29.2014 354.415
-0.11651 29.1101 354.383
-0.1118 29.0162 354.325
-0.13239 29.9444 351.852
-0.06738 29.8534 350.617
0.01107 29.7631 349.544
0.14396 29.6697 348.726
0.34317 29.5723 348.821
0.34342 29.4747 349.409
0.29931 29.3781 349.932
0.28939 29.2817 350.034
0.26968 29.1858 349.998
0.26297 29.0909 349.969
0.05349 29.9983 353.380
0.07 29.9197 353.471
0.07915 29.8421 353.537
0.09107 29.7641 353.589
0.09711 29.6862 353.596
0.11231 29.6093 353.237
0.11178 29.5340 353.258
0.11986 29.4604 353.125
0.11111 29.3854 353.088
0.121 29.3072 353.137
0.15676 29.2281 353.115
0.19682 29.1484 353.173
0.24329 29.0682 353.306
-0.15925 29.9461 357.070
-0.14396 29.8618 356.940
-0.12887 29.7772 356.816
-0.13128 29.6932 356.784
-0.124 29.6089 356.672
-0.14655 29.5252 356.521
-0.14768 29.4433 356.276
-0.13069 29.3611 355.990
-0.10727 29.2770 356.102
-0.10468 29.1914 356.014
-0.11175 29.1029 355.872
-0.06655 29.0131 355.826
-0.22655 29.9325 356.274
-0.30045 29.8544 357.020
-0.34928 29.7768 358.167
-0.44102 29.6991 358.340
-0.40409 29.6223 358.136
-0.34477 29.5446 357.844
-0.36999 29.4675 357.647
-0.37654 29.3905 357.426
-0.35722 29.3122 357.135
-0.36432 29.2331 356.904
-0.36291 29.1537 356.797
-0.3421 29.0743 356.633
-0.00354 29.9824 356.528
0.01639 29.8987 356.492
0.01546 29.8161 356.430
0.0236 29.7350 356.209
0.04044 29.6564 355.932
-0.04856 29.5803 356.660
-0.16844 29.5032 356.515
-0.2304 29.4265 356.397
-0.2937 29.3510 356.369
-0.3482 29.2740 356.508
-0.3496 29.1964 356.639
-0.29314 29.1193 356.152
-0.33463 29.0434 356.725
-0.45745 29.9566 359.924
-0.45612 29.8842 359.871
-0.44474 29.8115 359.793
-0.42792 29.7372 359.618
-0.40598 29.6630 359.411
-0.39296 29.5892 359.167
-0.3836 29.5151 358.885
-0.37215 29.4404 358.551
-0.33911 29.3652 358.214
-0.30611 29.2900 357.741
-0.26201 29.2148 357.232
-0.22248 29.1391 356.703
-0.20945 29.0632 356.400
-0.49094 29.9720 360.614
-0.47871 29.9053 360.228
-0.44887 29.8390 359.706
-0.42545 29.7738 359.007
-0.40892 29.7108 358.197
-0.36081 29.6484 357.082
-0.31082 29.5859 355.802
-0.25706 29.5225 354.628
-0.22243 29.4585 354.112
-0.17445 29.3904 353.981
-0.11329 29.3158 354.128
-0.03765 29.2387 354.244
0.00528 29.1580 354.584
0.05642 29.0728 354.578
-0.51198 29.9634 360.962
-0.47626 29.8982 360.462
-0.44009 29.8340 359.778
-0.39906 29.7720 358.855
-0.36107 29.7121 357.616
-0.29802 29.6516 356.247
-0.24719 29.5898 355.093
-0.19404 29.5256 354.739
-0.15641 29.4594 354.711
-0.11123 29.3899 354.354
-0.0982 29.3152 354.443
-0.06429 29.2389 354.191
-0.04119 29.1593 354.463
-0.01207 29.0757 354.606
-0.55029 29.9679 360.614
-0.51 29.8943 360.532
-0.44754 29.8184 360.362
-0.41609 29.7438 360.265
-0.45699 29.6701 360.399
-0.49954 29.5979 360.286
-0.51214 29.5264 360.365
-0.61235 29.4540 360.154
-0.67514 29.3858 359.894
-0.59981 29.3226 359.790
-0.56345 29.2589 359.717
-0.60826 29.1940 359.582
-0.60385 29.1295 359.440
-0.58494 29.0647 359.323
-0.16015 29.9410 355.841
-0.12503 29.8604 355.236
-0.1089 29.7821 354.746
-0.13281 29.7057 355.135
-0.14373 29.6299 355.262
-0.13353 29.5553 355.268
-0.12112 29.4820 355.419
-0.12327 29.4089 355.548
-0.09814 29.3360 354.696
-0.093 29.2640 353.921
-0.10973 29.1938 353.555
-0.1157 29.1210 353.038
-0.09981 29.0440 352.174
-0.28986 29.9980 354.277
-0.25753 29.9140 353.306
-0.23828 29.8310 353.444
-0.17745 29.7488 353.450
-0.11052 29.6635 354.969
-0.17197 29.5761 356.024
-0.24658 29.4886 355.682
-0.24971 29.4010 355.555
-0.29818 29.3141 355.637
-0.27417 29.2262 355.824
-0.24951 29.1390 355.861
-0.23522 29.0508 355.841
-0.44793 29.9260 359.886
-0.41849 29.8476 359.868
-0.44961 29.7707 359.969
-0.53279 29.6953 360.232
-0.57514 29.6211 360.133
-0.57671 29.5492 360.161
-0.64431 29.4763 359.996
-0.62656 29.4073 359.797
-0.59383 29.3433 359.675
-0.57948 29.2795 359.623
-0.58553 29.2127 359.476
-0.59401 29.1460 359.321
-0.58378 29.0794 359.197
-0.55466 29.0117 359.058
-0.4224 29.9695 356.932
-0.42368 29.8971 357.205
-0.41306 29.8243 357.446
-0.42167 29.7525 358.025
-0.41173 29.6820 358.465
-0.37462 29.6127 358.639
-0.37047 29.5406 358.829
-0.39213 29.4680 358.969
-0.41971 29.3973 358.811
-0.4687 29.3280 358.777
-0.4504 29.2617 358.532
-0.29622 29.1948 357.976
-0.20015 29.1278 357.449
-0.13821 29.0612 357.545
-0.31074 29.9390 354.846
-0.26618 29.8663 354.261
-0.23354 29.7930 353.541
-0.21982 29.7193 353.031
-0.19478 29.6446 352.341
-0.15932 29.5679 351.305
-0.11671 29.4891 350.336
-0.06629 29.4103 349.856
-0.01456 29.3299 349.508
0.01292 29.2490 349.363
0.03308 29.1649 349.244
0.05715 29.0778 349.239
-0.21735 29.9921 357.373
-0.21356 29.9113 357.103
-0.21457 29.8301 356.754
-0.21265 29.7503 356.312
-0.21015 29.6697 355.942
-0.2149 29.5886 355.407
-0.19923 29.5076 354.852
-0.17932 29.4265 354.362
-0.16284 29.3451 354.004
-0.12068 29.2622 353.443
-0.08043 29.1771 353.292
-0.04143 29.0920 353.200
-0.00657 29.0048 352.844
-0.49898 29.9523 360.952
-0.49291 29.8852 360.761
-0.46911 29.8185 360.334
-0.4472 29.7541 359.660
-0.42907 29.6930 358.880
-0.40543 29.6332 357.883
-0.34354 29.5741 356.570
-0.29146 29.5142 355.082
-0.24496 29.4535 354.172
-0.20008 29.3889 353.828
-0.14327 29.3172 353.590
-0.0681 29.2425 353.628
-0.01856 29.1638 354.072
0.0399 29.0805 353.975
-0.55604 29.9694 360.647
-0.51809 29.8960 360.587
-0.45919 29.8202 360.424
-0.42417 29.7459 360.365
-0.46983 29.6725 360.502
-0.50946 29.6004 360.387
-0.52789 29.5294 360.445
-0.62285 29.4575 360.232
-0.67923 29.3898 359.995
-0.60919 29.3274 359.887
-0.57544 29.2645 359.815
-0.61323 29.2003 359.686
-0.61015 29.1363 359.543
-0.59513 29.0724 359.416
-0.57185 29.0076 359.269
-0.1321 29.9539 353.391
-0.12797 29.8748 353.198
-0.10604 29.7952 352.846
-0.0596 29.7142 352.399
-0.02579 29.6321 352.000
-0.00744 29.5475 351.780
0.01227 29.4614 351.848
0.03345 29.3762 351.870
0.04943 29.2918 351.883
0.06236 29.2072 351.993
0.08119 29.1221 352.127
0.10042 29.0343 352.167
-0.19238 29.9498 354.276
-0.18962 29.8727 353.915
-0.17357 29.7951 353.428
-0.13673 29.7164 352.837
-0.09731 29.6366 352.203
-0.06992 29.5545 351.910
-0.05117 29.4708 351.699
-0.03283 29.3877 351.647
-0.01371 29.3052 351.663
-0.00036 29.2222 351.772
0.02205 29.1383 351.784
0.04062 29.0513 351.782
-0.37893 29.9670 358.507
-0.33889 29.8848 358.248
-0.27376 29.7996 357.573
-0.24072 29.7169 357.089
-0.23134 29.6363 356.727
-0.20181 29.5572 356.194
-0.18163 29.4778 356.407
-0.20614 29.3991 357.009
-0.348 29.3209 357.534
-0.33617 29.2421 357.540
-0.31502 29.1640 357.514
-0.30346 29.0842 357.404
-0.36306 29.0024 357.594
-0.12154 29.9490 355.897
-0.12318 29.8685 355.532
-0.18563 29.7897 356.744
-0.17198 29.7119 358.355
-0.18998 29.6376 359.771
-0.36674 29.5663 359.795
-0.55069 29.4934 359.556
-0.53242 29.4196 359.646
-0.52689 29.3466 359.628
-0.53725 29.2742 359.601
-0.55403 29.2021 359.591
-0.5491 29.1297 359.513
-0.52982 29.0572 359.456
-0.21699 29.9960 357.575
-0.21782 29.9158 357.374
-0.22187 29.8352 356.973
-0.22583 29.7560 356.436
-0.21924 29.6760 355.951
-0.22938 29.5955 355.526
-0.20305 29.5152 354.971
-0.17118 29.4349 354.520
-0.15462 29.3544 354.496
-0.11033 29.2732 354.166
-0.06759 29.1904 353.994
-0.03628 29.1074 353.849
-0.02053 29.0230 353.603
-0.43975 29.9539 358.899
-0.40711 29.8873 358.257
-0.35644 29.8199 357.246
-0.31036 29.7525 356.001
-0.26129 29.6851 354.853
-0.23055 29.6170 353.913
-0.19701 29.5477 353.679
-0.13853 29.4761 353.857
-0.07386 29.4003 354.516
0.01362 29.3183 354.706
0.10195 29.2343 354.801
0.13731 29.1468 354.933
0.14946 29.0552 354.851
-0.05866 29.9922 357.199
-0.06588 29.9174 357.419
-0.14861 29.8447 357.901
-0.23212 29.7729 357.691
-0.3007 29.7009 357.430
-0.42476 29.6296 357.674
-0.46763 29.5579 357.705
-0.42885 29.4845 357.465
-0.46421 29.4097 357.450
-0.50416 29.3345 357.562
-0.48028 29.2586 357.641
-0.43275 29.1815 357.590
-0.42117 29.1028 357.531
-0.47768 29.0236 358.022
-0.42825 29.9833 358.102
-0.39254 29.9164 357.392
-0.33412 29.8487 356.279
-0.29074 29.7806 355.079
-0.25098 29.7127 353.561
-0.21115 29.6439 352.488
-0.16054 29.5727 352.282
-0.06973 29.4978 352.946
0.04396 29.4191 353.199
0.17066 29.3340 353.152
0.29243 29.2466 352.762
0.35695 29.1571 352.331
0.38306 29.0637 352.046
-0.34815 29.9433 358.416
-0.36199 29.8652 358.276
-0.37729 29.7878 358.135
-0.36976 29.7112 358.048
-0.35599 29.6344 357.901
-0.33842 29.5583 357.683
-0.33204 29.4835 357.506
-0.33942 29.4100 357.422
-0.32263 29.3370 357.435
-0.30873 29.2629 357.236
-0.29882 29.1878 357.208
-0.2563 29.1119 356.837
-0.22004 29.0313 356.236
-0.30745 29.9626 358.383
-0.31975 29.8843 358.289
-0.3341 29.8062 358.184
-0.32696 29.7292 358.054
-0.31125 29.6518 357.828
-0.30004 29.5749 357.583
-0.30914 29.4994 357.353
-0.31403 29.4249 357.156
-0.30448 29.3510 357.062
-0.29494 29.2763 356.898
-0.28833 29.2011 356.874
-0.25971 29.1253 356.705
-0.21607 29.0449 356.022
-0.30553 29.9276 358.196
-0.29421 29.8493 358.005
-0.2714 29.7724 357.743
-0.2481 29.6943 357.430
-0.24992 29.6161 357.311
-0.26711 29.5390 357.211
-0.27442 29.4625 357.049
-0.27142 29.3861 357.024
-0.26458 29.3089 356.760
-0.25506 29.2311 356.569
-0.23646 29.1531 356.420
-0.19212 29.0726 356.206
-0.30968 29.9296 358.218
-0.29674 29.8517 358.014
-0.27285 29.7749 357.752
-0.24885 29.6968 357.436
-0.24977 29.6187 357.316
-0.2654 29.5415 357.217
-0.2724 29.4650 357.066
-0.26711 29.3885 357.051
-0.26118 29.3113 356.796
-0.25507 29.2335 356.623
-0.23916 29.1556 356.472
-0.19444 29.0752 356.278
-0.33553 29.9517 358.518
-0.35089 29.8740 358.383
-0.36603 29.7965 358.233
-0.35841 29.7199 358.118
-0.34236 29.6428 357.950
-0.32779 29.5666 357.678
-0.32224 29.4918 357.438
-0.32156 29.4181 357.306
-0.30986 29.3445 357.162
-0.3089 29.2708 357.006
-0.3121 29.1972 356.982
-0.28632 29.1230 356.795
-0.24817 29.0443 356.224
-0.37965 29.9321 358.476
-0.39411 29.8544 358.332
-0.40696 29.7777 358.182
-0.40181 29.7013 358.100
-0.38897 29.6250 357.970
-0.36557 29.5495 357.810
-0.35565 29.4755 357.682
-0.35697 29.4027 357.612
-0.33655 29.3305 357.514
-0.32883 29.2571 357.348
-0.32535 29.1835 357.273
-0.28894 29.1091 357.011
-0.24895 29.0303 356.619
-0.07939 29.9394 355.319
-0.06944 29.8598 355.138
-0.08178 29.7786 355.145
-0.07838 29.6978 355.147
-0.06774 29.6168 354.971
-0.06402 29.5361 354.830
-0.05055 29.4545 354.588
-0.03874 29.3721 354.392
-0.02593 29.2880 353.868
0.01125 29.2034 353.442
0.01859 29.1202 353.291
0.02198 29.0361 353.229
-0.10915 29.9586 355.717
-0.11664 29.8817 355.822
-0.12883 29.8030 355.874
-0.12662 29.7246 356.036
-0.12617 29.6465 355.379
-0.11088 29.5687 354.622
-0.08033 29.4906 353.831
-0.06747 29.4120 353.682
-0.05882 29.3327 353.610
-0.0437 29.2516 353.503
-0.03086 29.1710 353.500
-0.02192 29.0905 353.489
-0.00619 29.0068 353.308
-0.11535 29.9622 355.902
-0.12719 29.8858 356.050
-0.13982 29.8076 356.152
-0.13294 29.7295 356.341
-0.13205 29.6519 355.599
-0.12309 29.5747 354.972
-0.10295 29.4973 354.335
-0.09322 29.4195 354.133
-0.08268 29.3411 354.064
-0.06382 29.2609 353.923
-0.04642 29.1808 353.916
-0.04796 29.1011 354.099
-0.03211 29.0184 353.988
-0.05397 29.9348 355.001
-0.05636 29.8569 354.922
-0.06598 29.7776 354.909
-0.06671 29.6984 354.868
-0.06301 29.6193 354.504
-0.05207 29.5402 354.278
-0.02848 29.4606 354.099
-0.02207 29.3803 353.927
-0.01572 29.2982 353.253
0.00607 29.2154 353.029
0.02652 29.1345 352.778
0.04359 29.0525 352.532
-0.04578 29.9297 354.912
-0.04623 29.8513 354.817
-0.05287 29.7720 354.803
-0.0536 29.6925 354.734
-0.05038 29.6132 354.462
-0.04355 29.5341 354.337
-0.0243 29.4543 354.228
-0.01613 29.3736 354.039
-0.0107 29.2911 353.424
0.01325 29.2084 353.139
0.03026 29.1273 352.860
0.0433 29.0450 352.646
-0.03821 29.9985 355.071
-0.03629 29.9202 354.962
-0.03143 29.8410 354.771
-0.03284 29.7611 354.706
-0.03152 29.6810 354.610
-0.02991 29.6012 354.508
-0.03279 29.5214 354.566
-0.02385 29.4409 354.574
-0.00999 29.3593 354.297
-0.00049 29.2759 353.715
0.02542 29.1928 353.300
0.03356 29.1114 353.087
0.03886 29.0283 352.967
-0.17018 29.9387 356.670
-0.15536 29.8583 356.375
-0.15952 29.7763 356.215
-0.14903 29.6943 356.094
-0.13383 29.6118 356.111
-0.12209 29.5290 356.040
-0.11464 29.4458 355.913
-0.10684 29.3616 355.746
-0.0814 29.2758 355.384
-0.04598 29.1899 355.155
-0.03358 29.1054 355.154
-0.0355 29.0193 355.117
-0.22686 29.9299 358.045
-0.23145 29.8506 357.829
-0.24308 29.7726 357.410
-0.2452 29.6939 357.126
-0.25387 29.6144 356.931
-0.23945 29.5354 356.532
-0.20795 29.4568 355.974
-0.19585 29.3780 355.982
-0.1512 29.2988 355.677
-0.10943 29.2184 355.390
-0.07265 29.1373 355.098
-0.06946 29.0555 355.017
-0.10851 29.9463 352.403
-0.07809 29.8648 352.361
-0.03425 29.7826 352.309
0.02524 29.7010 352.296
0.12363 29.6190 352.493
0.21054 29.5372 352.918
0.26403 29.4554 353.006
0.21284 29.3722 353.040
0.18 29.2860 353.115
0.16825 29.1988 353.181
0.17577 29.1080 353.435
0.18897 29.0141 353.376
0.1093 29.9399 355.017
0.17254 29.8493 354.933
0.14425 29.7601 355.128
0.09854 29.6710 355.246
0.09662 29.5817 355.315
0.14 29.4925 355.809
0.17036 29.4051 356.095
0.12254 29.3167 356.479
0.06963 29.2277 357.079
0.06413 29.1357 356.821
0.0224 29.0427 356.961
-0.1351 29.9817 355.952
-0.13334 29.9026 355.769
-0.14439 29.8212 355.748
-0.15295 29.7404 355.844
-0.14586 29.6597 355.664
-0.12977 29.5790 355.095
-0.10232 29.4978 354.407
-0.08372 29.4163 353.905
-0.06521 29.3343 353.575
-0.04195 29.2508 353.402
-0.01235 29.1671 353.194
0.00099 29.0836 352.887
-0.17997 29.9888 356.680
-0.19243 29.9131 357.094
-0.18721 29.8357 357.422
-0.18273 29.7584 357.400
-0.18722 29.6823 357.078
-0.19475 29.6065 356.759
-0.20633 29.5305 356.511
-0.21632 29.4540 356.378
-0.21485 29.3780 356.256
-0.19628 29.3008 356.040
-0.16616 29.2229 355.772
-0.14602 29.1455 355.683
-0.1288 29.0665 355.833
0.3258 29.9932 352.950
0.31196 29.9242 353.055
0.31673 29.8539 353.069
0.32531 29.7831 353.008
0.34048 29.7118 352.908
0.35597 29.6411 352.963
0.37779 29.5706 353.104
0.41057 29.4995 353.026
0.44278 29.4283 353.020
0.44805 29.3579 353.041
0.46011 29.2879 352.841
0.44469 29.2173 352.098
0.43666 29.1449 351.927
0.45085 29.0722 351.480
0.58226 29.9905 349.032
0.60082 29.9247 348.876
0.6085 29.8600 348.877
0.62925 29.7950 348.883
0.64188 29.7304 348.831
0.628 29.6646 348.914
0.6277 29.5978 348.821
0.63009 29.5317 348.787
0.59507 29.4670 348.889
0.54802 29.4024 348.892
0.53158 29.3363 348.866
0.55685 29.2693 348.820
0.57727 29.2025 348.845
0.56217 29.1358 349.037
0.59351 29.0691 348.922
0.63179 29.0026 349.012
0.75295 29.9717 347.647
0.80392 29.9093 347.424
0.81272 29.8467 347.376
0.81174 29.7850 347.337
0.7652 29.7233 347.367
0.75814 29.6622 347.263
0.76617 29.6025 347.092
0.74474 29.5437 347.224
0.76244 29.4836 347.106
0.78543 29.4216 347.089
0.8149 29.3586 347.218
0.83045 29.2954 347.051
0.86051 29.2320 346.925
0.88122 29.1695 347.018
0.92604 29.1080 346.870
0.9585 29.0473 346.998
1.04816 29.9598 346.189
1.02206 29.9005 346.280
1.03834 29.8414 346.243
1.04894 29.7829 346.174
1.01049 29.7258 346.184
0.99096 29.6697 346.230
1.02871 29.6139 346.216
1.04923 29.5572 346.317
1.06237 29.4992 346.324
1.07684 29.4399 346.255
1.09109 29.3805 346.184
1.08873 29.3213 346.293
1.10317 29.2630 346.257
1.10468 29.2061 346.203
1.139 29.1500 346.162
1.15266 29.0940 346.201
1.15542 29.0385 346.195
0.70664 29.9393 347.928
0.75248 29.8762 347.812
0.78288 29.8123 347.842
0.77307 29.7487 347.779
0.73574 29.6852 347.761
0.71257 29.6224 347.812
0.70673 29.5617 347.638
0.68351 29.5019 347.529
0.67495 29.4405 347.699
0.69927 29.3770 347.725
0.72492 29.3132 347.792
0.75813 29.2493 347.795
0.78579 29.1859 347.621
0.80063 29.1228 347.633
0.84322 29.0602 347.459
0.15817 29.9604 352.436
0.15844 29.8854 352.459
0.1533 29.8097 352.528
0.1491 29.7342 352.635
0.15114 29.6592 352.727
0.15584 29.5847 352.624
0.16301 29.5105 352.357
0.16854 29.4363 352.090
0.17206 29.3610 352.037
0.17029 29.2852 352.076
0.17137 29.2105 351.787
0.16855 29.1368 351.308
0.16684 29.0609 350.963
-0.16322 29.9525 356.259
-0.15362 29.8726 356.041
-0.16151 29.7907 355.965
-0.1587 29.7091 356.040
-0.14305 29.6273 356.192
-0.13136 29.5453 356.080
-0.10804 29.4628 355.774
-0.09774 29.3798 355.439
-0.08272 29.2955 355.013
-0.04115 29.2106 354.509
-0.01874 29.1267 354.270
-0.02218 29.0419 354.237
-0.46571 29.9337 359.537
-0.44011 29.8676 359.049
-0.42742 29.8010 358.468
-0.41777 29.7346 357.716
-0.38516 29.6686 356.785
-0.31138 29.6033 355.673
-0.26648 29.5385 354.612
-0.22467 29.4733 353.763
-0.17367 29.4051 353.444
-0.0983 29.3289 353.809
-0.00425 29.2501 354.085
0.07277 29.1674 354.202
0.1198 29.0794 354.187
0.08835 29.9712 354.572
0.06595 29.8941 354.701
0.04945 29.8174 354.634
0.03804 29.7409 354.338
0.04625 29.6644 353.752
0.05961 29.5892 353.463
0.07149 29.5159 353.255
0.06777 29.4446 353.263
0.06831 29.3715 353.355
0.09302 29.2951 353.339
0.12867 29.2179 353.323
0.16087 29.1406 353.399
0.20167 29.0628 353.600
-0.18714 29.9413 357.185
-0.17548 29.8637 357.262
-0.17423 29.7861 356.963
-0.17498 29.7099 356.661
-0.18197 29.6337 356.484
-0.1984 29.5573 356.550
-0.20778 29.4806 356.567
-0.21105 29.4043 356.567
-0.2109 29.3276 356.563
-0.1865 29.2500 356.339
-0.16584 29.1726 356.128
-0.14535 29.0948 355.998
-0.12691 29.0148 355.792
0.15946 29.9781 352.255
0.16233 29.9039 352.319
0.16562 29.8289 352.297
0.1762 29.7548 352.264
0.17507 29.6806 352.301
0.18434 29.6066 352.163
0.18494 29.5334 351.815
0.18842 29.4599 351.547
0.19327 29.3850 351.647
0.20773 29.3091 351.702
0.21724 29.2339 351.541
0.18366 29.1600 351.388
0.17936 29.0846 350.958
0.19457 29.0082 350.805
0.58478 29.9965 348.973
0.59913 29.9307 348.830
0.61253 29.8659 348.831
0.63335 29.8009 348.845
0.65053 29.7359 348.789
0.63876 29.6700 348.867
0.63494 29.6032 348.786
0.63596 29.5370 348.755
0.6022 29.4723 348.849
0.55847 29.4078 348.833
0.53976 29.3418 348.826
0.56219 29.2748 348.785
0.58574 29.2081 348.784
0.57323 29.1416 348.991
0.59834 29.0749 348.859
0.63606 29.0084 348.951
1.16941 29.9533 345.222
1.14193 29.8963 345.160
1.12376 29.8398 345.238
1.1289 29.7837 345.209
1.17367 29.7283 345.103
1.18661 29.6736 345.252
1.19808 29.6192 345.264
1.20071 29.5640 345.187
1.1831 29.5079 345.221
1.16603 29.4522 345.260
1.18457 29.3972 345.187
1.19192 29.3428 345.179
1.20103 29.2883 345.190
1.18823 29.2348 345.233
1.18628 29.1821 345.151
1.14851 29.1304 345.273
1.15557 29.0802 345.174
1.18631 29.0317 345.249
1.85207 29.9556 341.706
1.83186 29.9068 341.656
1.85107 29.8590 341.574
1.8562 29.8111 341.553
1.85485 29.7629 341.546
1.85823 29.7157 341.523
1.8343 29.6690 341.432
1.84364 29.6220 341.396
1.84074 29.5754 341.431
1.83205 29.5291 341.381
1.82416 29.4832 341.440
1.81411 29.4381 341.423
1.8148 29.3940 341.316
1.86001 29.3504 341.314
1.88871 29.3073 341.329
1.88614 29.2638 341.241
1.81653 29.2195 341.272
1.7618 29.1756 341.252
1.76709 29.1331 341.264
1.79183 29.0920 341.279
1.77336 29.0505 341.280
1.80273 29.0075 341.316
1.90543 29.9937 342.099
1.90692 29.9462 342.064
1.93695 29.8999 342.041
1.94194 29.8554 342.065
1.92836 29.8112 342.031
1.89743 29.7660 342.007
1.90191 29.7202 342.018
1.91607 29.6746 341.999
1.93608 29.6297 341.976
1.90085 29.5861 341.974
1.87727 29.5440 341.923
1.88636 29.5026 341.889
1.92257 29.4605 341.929
1.95276 29.4175 341.925
1.93252 29.3740 341.893
1.85554 29.3314 341.911
1.80973 29.2901 341.880
1.81421 29.2491 341.893
1.83277 29.2082 341.873
1.88334 29.1679 341.809
1.96024 29.1266 341.830
1.98568 29.0836 341.802
1.96482 29.0401 341.827
1.42046 29.9897 342.922
1.36785 29.9350 342.799
1.37014 29.8802 342.786
1.43757 29.8260 342.845
1.44652 29.7728 342.973
1.43407 29.7213 342.879
1.45205 29.6710 342.718
1.43712 29.6206 342.679
1.40498 29.5703 342.619
1.40595 29.5203 342.680
1.41082 29.4694 342.703
1.41971 29.4173 342.592
1.39827 29.3654 342.634
1.39485 29.3148 342.476
1.37728 29.2654 342.581
1.38377 29.2170 342.549
1.3731 29.1698 342.705
1.42816 29.1229 342.799
1.4841 29.0751 342.799
1.51575 29.0260 342.677
0.65382 29.9850 348.003
0.67917 29.9212 348.192
0.72197 29.8573 348.119
0.7569 29.7927 348.147
0.7501 29.7282 348.126
0.71559 29.6635 348.076
0.69535 29.5997 348.122
0.67307 29.5381 348.070
0.6507 29.4770 347.904
0.62572 29.4146 348.011
0.65715 29.3503 348.032
0.68407 29.2858 348.189
0.7167 29.2216 348.181
0.74528 29.1578 348.074
0.76026 29.0939 348.071
0.8027 29.0305 348.030
0.12866 29.9571 352.816
0.12732 29.8813 352.858
0.12132 29.8048 352.964
0.11906 29.7285 353.078
0.11829 29.6525 353.245
0.11693 29.5771 353.184
0.1209 29.5020 352.856
0.13165 29.4270 352.456
0.14307 29.3513 352.253
0.14241 29.2752 352.306
0.15666 29.2005 351.904
0.15987 29.1262 351.385
0.15159 29.0498 351.145
-0.29592 29.9290 358.567
-0.28789 29.8572 358.513
-0.27059 29.7852 358.391
-0.26437 29.7136 358.561
-0.2553 29.6423 358.739
-0.23228 29.5723 358.833
-0.20358 29.5015 358.543
-0.18627 29.4291 358.270
-0.1833 29.3572 358.309
-0.17795 29.2847 358.216
-0.16574 29.2105 358.005
-0.13996 29.1347 357.686
-0.12719 29.0583 357.451
0.07637 29.9937 353.860
0.07884 29.9159 353.582
0.0724 29.8399 353.308
0.08211 29.7638 352.628
0.09575 29.6872 352.277
0.10745 29.6116 352.098
0.11603 29.5373 351.916
0.11899 29.4650 351.996
0.12086 29.3913 352.039
0.13424 29.3140 352.044
0.15851 29.2361 352.090
0.18658 29.1585 352.086
0.22582 29.0805 352.072
0.26784 29.0026 351.998
-0.22532 29.9278 356.416
-0.18618 29.8515 355.162
-0.19255 29.7740 355.858
-0.16819 29.6954 357.619
-0.26895 29.6195 359.093
-0.43767 29.5436 359.441
-0.53022 29.4652 359.215
-0.52912 29.3873 359.171
-0.52116 29.3107 359.125
-0.51035 29.2354 359.087
-0.52495 29.1611 359.044
-0.53095 29.0876 358.996
-0.50757 29.0137 358.938
0.45828 29.9629 350.382
0.47835 29.8925 350.307
0.47014 29.8234 350.249
0.45709 29.7539 350.435
0.47007 29.6845 350.351
0.47314 29.6142 350.288
0.478 29.5436 350.259
0.49544 29.4736 350.177
0.49816 29.4034 350.013
0.47612 29.3310 349.840
0.45862 29.2573 349.887
0.45372 29.1847 349.977
0.45523 29.1134 350.021
0.48812 29.0421 349.864
0.72954 29.9837 348.169
0.77213 29.9202 348.038
0.7781 29.8569 347.998
0.7706 29.7945 347.920
0.72574 29.7322 347.922
0.72831 29.6704 347.891
0.74126 29.6100 347.763
0.72094 29.5507 347.768
0.72765 29.4902 347.752
0.74956 29.4275 347.727
0.76997 29.3637 347.694
0.78331 29.2995 347.663
0.80843 29.2351 347.408
0.82618 29.1713 347.278
0.86558 29.1086 347.395
0.89506 29.0468 347.195
1.2422 29.9735 344.544
1.19777 29.9173 344.464
1.1779 29.8612 344.528
1.22182 29.8056 344.420
1.26521 29.7508 344.399
1.25691 29.6971 344.469
1.27039 29.6440 344.405
1.26976 29.5906 344.348
1.23616 29.5365 344.370
1.22238 29.4830 344.397
1.24909 29.4295 344.354
1.26752 29.3757 344.263
1.24347 29.3225 344.322
1.22795 29.2700 344.285
1.22415 29.2185 344.286
1.2097 29.1681 344.277
1.20756 29.1189 344.333
1.24961 29.0711 344.258
1.29397 29.0232 344.349
1.9077 29.9900 341.991
1.90476 29.9423 341.916
1.93394 29.8958 341.905
1.94078 29.8508 341.916
1.9327 29.8060 341.852
1.90213 29.7605 341.842
1.89479 29.7146 341.839
1.9064 29.6687 341.789
1.93242 29.6235 341.799
1.90635 29.5795 341.792
1.86726 29.5370 341.712
1.87639 29.4954 341.716
1.90685 29.4530 341.717
1.95178 29.4100 341.698
1.93861 29.3663 341.704
1.86437 29.3237 341.683
1.80646 29.2821 341.635
1.81077 29.2406 341.670
1.82496 29.1996 341.634
1.85111 29.1593 341.610
1.93219 29.1180 341.602
1.96521 29.0746 341.580
1.94826 29.0305 341.567
2.05154 29.9893 342.947
2.05902 29.9453 343.055
2.01581 29.9034 343.151
1.99647 29.8623 343.253
2.04885 29.8202 343.269
2.05346 29.7770 343.290
1.96734 29.7335 343.340
1.98492 29.6912 343.305
1.9692 29.6500 343.317
1.97594 29.6091 343.348
2.03838 29.5676 343.375
2.08317 29.5259 343.358
2.04386 29.4833 343.383
1.98359 29.4403 343.353
1.95951 29.3979 343.329
1.96118 29.3568 343.340
2.05581 29.3166 343.265
2.09665 29.2767 343.266
2.15614 29.2366 343.254
2.13993 29.1958 343.252
2.12299 29.1543 343.253
2.12668 29.1124 343.270
2.23965 29.9778 343.736
2.16291 29.9425 343.873
2.23727 29.9066 343.925
2.26728 29.8702 343.962
2.23437 29.8327 343.857
2.20682 29.7940 343.933
2.22898 29.7545 343.810
2.23866 29.7143 343.755
2.2084 29.6740 343.780
2.13364 29.6337 343.715
2.13476 29.5941 343.572
2.23106 29.5555 343.585
2.28115 29.5177 343.579
2.31699 29.4792 343.505
2.33109 29.4392 343.529
2.32588 29.3988 343.293
2.38763 29.3589 343.488
2.4206 29.3194 343.203
2.37943 29.2805 343.271
2.35412 29.2418 343.106
2.06393 29.9938 343.238
2.05571 29.9506 343.338
2.0107 29.9094 343.410
2.02397 29.8689 343.518
2.07257 29.8277 343.600
2.01482 29.7854 343.576
1.98902 29.7425 343.587
2.00842 29.7005 343.627
1.97682 29.6597 343.677
1.97886 29.6189 343.685
2.04253 29.5773 343.735
2.05955 29.5355 343.742
2.01924 29.4934 343.726
1.96754 29.4512 343.767
1.95901 29.4094 343.682
1.99147 29.3687 343.698
2.08974 29.3291 343.652
2.14192 29.2896 343.641
2.17102 29.2498 343.691
2.14269 29.2096 343.640
2.14044 29.1689 343.682
2.13571 29.1275 343.644
-0.45652 29.9556 360.515
-0.45582 29.8930 360.497
-0.44454 29.8306 360.462
-0.44513 29.7676 360.429
-0.44478 29.7040 360.359
-0.43049 29.6392 360.185
-0.42878 29.5734 359.927
-0.45143 29.5080 359.631
-0.42165 29.4457 359.262
-0.35524 29.3867 358.903
-0.3081 29.3296 358.653
-0.28826 29.2718 358.245
-0.27248 29.2128 357.669
-0.24162 29.1528 356.897
-0.23468 29.0930 356.439
-0.24121 29.0346 356.383
-0.27236 29.9909 358.187
-0.25895 29.9195 358.074
-0.25123 29.8473 357.989
-0.23111 29.7745 357.775
-0.21799 29.7015 357.918
-0.20309 29.6289 358.131
-0.17503 29.5573 357.885
-0.14341 29.4839 357.398
-0.12021 29.4089 356.783
-0.10634 29.3341 356.677
-0.08579 29.2588 356.666
-0.07417 29.1822 356.609
-0.05391 29.1040 356.547
-0.03191 29.0253 356.632
0.08439 29.9724 353.644
0.08449 29.8957 353.520
0.084 29.8201 353.292
0.09585 29.7439 352.767
0.10916 29.6673 352.367
0.12104 29.5915 352.243
0.13281 29.5171 352.011
0.12779 29.4447 352.108
0.12595 29.3706 352.122
0.14503 29.2933 352.132
0.16916 29.2158 352.159
0.19652 29.1387 352.151
0.23591 29.0612 352.159
-0.47092 29.9667 360.167
-0.44357 29.9023 359.593
-0.38891 29.8399 359.038
-0.33028 29.7804 358.270
-0.29091 29.7213 357.333
-0.24975 29.6595 356.382
-0.20239 29.5964 355.993
-0.16904 29.5308 355.675
-0.17616 29.4650 355.679
-0.18369 29.3977 355.504
-0.20037 29.3266 355.270
-0.20152 29.2542 355.360
-0.18818 29.1794 355.440
-0.17601 29.1011 355.808
-0.18859 29.0218 356.615
0.78136 29.9996 348.331
0.80666 29.9360 348.224
0.81536 29.8734 348.185
0.81143 29.8114 348.184
0.76884 29.7499 348.170
0.76027 29.6885 348.077
0.77305 29.6282 348.013
0.75723 29.5691 348.121
0.77075 29.5087 347.934
0.79408 29.4461 347.905
0.8049 29.3824 348.054
0.81906 29.3182 347.822
0.84506 29.2536 347.596
0.8627 29.1897 347.706
0.88779 29.1269 347.493
0.91782 29.0650 347.520
0.95965 29.0040 347.317
1.25011 29.9804 344.532
1.20944 29.9241 344.438
1.18075 29.8678 344.511
1.22089 29.8119 344.418
1.27519 29.7568 344.397
1.27131 29.7029 344.469
1.27608 29.6498 344.439
1.27487 29.5963 344.361
1.24636 29.5420 344.374
1.22943 29.4883 344.403
1.25817 29.4347 344.367
1.28054 29.3810 344.293
1.25101 29.3273 344.348
1.22793 29.2745 344.323
1.22588 29.2227 344.294
1.2127 29.1721 344.298
1.2168 29.1226 344.341
1.2546 29.0744 344.279
1.29726 29.0265 344.401
1.66913 29.9793 342.175
1.6825 29.9259 342.109
1.66752 29.8741 342.159
1.67076 29.8232 342.203
1.69391 29.7722 342.177
1.69135 29.7210 342.152
1.67283 29.6714 342.221
1.68108 29.6224 342.228
1.6755 29.5733 342.227
1.64972 29.5237 342.263
1.64098 29.4725 342.297
1.6728 29.4209 342.309
1.65378 29.3705 342.383
1.63391 29.3218 342.436
1.63023 29.2752 342.501
1.65849 29.2295 342.435
1.69038 29.1835 342.401
1.6972 29.1367 342.381
1.65897 29.0886 342.404
1.62293 29.0411 342.373
1.7413 29.9924 342.060
1.74703 29.9393 342.005
1.71832 29.8882 342.030
1.72873 29.8383 342.046
1.75246 29.7877 342.042
1.74939 29.7367 342.032
1.73646 29.6873 342.097
1.7422 29.6390 342.124
1.73142 29.5903 342.124
1.7034 29.5412 342.150
1.69931 29.4907 342.205
1.72628 29.4399 342.190
1.71063 29.3900 342.266
1.69911 29.3418 342.296
1.69187 29.2957 342.322
1.73287 29.2507 342.241
1.7759 29.2050 342.140
1.763 29.1585 342.160
1.70473 29.1113 342.200
1.64193 29.0649 342.195
1.56229 29.0201 342.287
1.64543 29.9820 342.155
1.67636 29.9282 342.098
1.67236 29.8757 342.158
1.664 29.8244 342.206
1.68923 29.7736 342.157
1.69014 29.7225 342.115
1.67103 29.6727 342.142
1.68021 29.6237 342.161
1.67538 29.5747 342.175
1.64328 29.5248 342.162
1.61564 29.4736 342.194
1.65118 29.4219 342.185
1.6463 29.3710 342.251
1.61997 29.3220 342.291
1.61501 29.2750 342.309
1.63925 29.2289 342.329
1.67468 29.1829 342.314
1.68758 29.1359 342.310
1.67397 29.0874 342.317
1.6508 29.0393 342.281
1.65045 29.9838 342.153
1.68146 29.9300 342.096
1.67465 29.8776 342.155
1.6667 29.8263 342.201
1.69295 29.7755 342.155
1.69322 29.7244 342.116
1.67424 29.6746 342.145
1.68424 29.6256 342.167
1.67852 29.5766 342.180
1.64471 29.5268 342.169
1.61677 29.4755 342.205
1.65401 29.4238 342.195
1.64909 29.3730 342.266
1.62306 29.3239 342.302
1.61762 29.2769 342.324
1.64249 29.2309 342.345
1.67785 29.1849 342.321
1.6908 29.1379 342.314
1.67601 29.0894 342.326
1.65155 29.0414 342.288
