-0.31989 29.9895 359.049
-0.27936 29.9294 358.856
-0.26552 29.8705 358.758
-0.2444 29.8130 358.544
-0.23319 29.7576 358.505
-0.23101 29.7031 358.588
-0.22583 29.6477 358.554
-0.21629 29.5918 358.370
-0.22077 29.5346 358.223
-0.23279 29.4748 358.079
-0.23434 29.4119 357.871
-0.2272 29.3464 357.573
-0.19709 29.2805 357.264
-0.09009 29.9949 357.081
-0.05228 29.9354 357.529
-0.13198 29.8745 356.968
-0.19011 29.8111 356.664
-0.20043 29.7500 356.297
-0.178 29.6932 355.031
0.02085 29.9897 352.138
0.02622 29.9140 352.197
0.03649 29.8409 352.109
0.03049 29.7674 352.057
0.02418 29.6922 351.767
0.01295 29.6161 351.386
0.00343 29.5421 351.327
0.02431 29.4710 351.129
0.03773 29.4018 351.134
0.06081 29.3324 351.170
0.09646 29.2610 351.063
0.13907 29.1885 350.942
0.18713 29.1151 350.848
0.23385 29.0407 350.887
0.54586 29.9571 349.208
0.57071 29.8938 349.533
0.53844 29.8326 349.547
0.49049 29.7711 349.367
0.43987 29.7092 349.137
0.42168 29.6473 349.279
0.42992 29.5870 349.308
0.42701 29.5271 349.331
0.43723 29.4667 349.333
0.46231 29.4061 349.093
0.46223 29.3453 349.110
0.49581 29.2845 348.810
0.49549 29.2241 348.877
0.47387 29.1646 348.980
0.45119 29.1058 348.946
0.46876 29.0471 348.697
0.35815 29.9938 350.181
0.38813 29.9249 350.087
0.40875 29.8586 350.160
0.39831 29.7921 350.066
0.36432 29.7244 350.108
0.32194 29.6559 350.105
0.32083 29.5880 350.089
0.33455 29.5227 350.102
0.34708 29.4591 350.167
0.35926 29.3962 350.397
0.37873 29.3336 350.369
0.39751 29.2715 350.317
0.40799 29.2101 350.444
0.44086 29.1484 350.089
0.46288 29.0860 349.848
0.48697 29.0232 349.913
-0.25352 29.9973 353.834
-0.27208 29.9513 353.922
-0.25504 29.9031 353.420
-0.2357 29.8479 352.352
-0.22752 29.7929 351.728
-0.19614 29.7424 350.882
-0.15764 29.6914 350.303
-0.39709 29.9687 357.673
-0.3689 29.9323 357.358
-0.35649 29.8964 356.809
-0.3381 29.8577 356.655
-0.31918 29.8118 356.102
-0.30372 29.7612 355.420
-0.27564 29.7064 354.419
-0.17191 29.9404 356.726
-0.13835 29.8774 356.572
-0.12729 29.8160 356.489
-0.13835 29.7549 356.406
-0.13567 29.6930 356.295
-0.1267 29.6295 356.268
-0.11731 29.5629 356.119
-0.10114 29.4946 356.000
-0.08666 29.4257 355.875
-0.06923 29.3537 355.929
0.06785 29.9979 353.183
0.05273 29.9404 352.923
0.02326 29.8813 352.694
0.0124 29.8227 352.789
0.03038 29.7636 352.842
0.11543 29.6992 352.737
0.17887 29.6300 352.630
0.29189 29.5592 352.770
0.3386 29.4896 352.885
0.02511 29.9723 355.230
-0.02198 29.8958 355.315
-0.08513 29.8208 355.542
-0.12496 29.7486 355.610
-0.12815 29.6777 355.418
-0.13462 29.6082 355.059
-0.13951 29.5413 354.979
-0.14207 29.4776 354.591
-0.15328 29.4161 353.899
-0.14783 29.3532 353.435
-0.13662 29.2875 352.908
-0.09059 29.2178 352.693
-0.07427 29.1467 352.590
-0.03743 29.0774 352.461
0.00572 29.0112 352.563
0.20549 29.9890 351.305
0.21901 29.9170 351.315
0.22948 29.8475 351.385
0.22662 29.7777 351.478
0.21029 29.7065 351.791
0.18818 29.6336 352.011
0.19763 29.5621 351.960
0.2171 29.4931 352.061
0.23577 29.4257 352.144
0.25929 29.3586 352.320
0.29019 29.2909 352.590
0.32632 29.2243 352.694
0.35064 29.1591 352.713
0.35749 29.0942 352.835
0.33854 29.0288 352.898
-0.50974 29.9700 359.383
-0.51472 29.9103 359.329
-0.50842 29.8479 359.362
-0.50082 29.7850 359.432
-0.48752 29.7242 359.569
-0.44982 29.6651 359.488
-0.41688 29.6080 359.265
-0.39026 29.5554 359.389
-0.37225 29.5054 359.327
-0.36232 29.4549 359.123
-0.36076 29.4012 359.014
-0.37012 29.3439 359.004
-0.37624 29.2843 359.059
-0.35124 29.2224 358.930
-0.34092 29.1584 358.660
-0.34819 29.9864 358.737
-0.35701 29.9258 358.613
-0.35933 29.8623 358.446
-0.35802 29.7960 358.248
-0.35049 29.7296 358.019
-0.31805 29.6651 357.796
-0.30827 29.6008 357.670
-0.31118 29.5386 357.543
-0.28374 29.4799 357.489
-0.23955 29.4221 357.298
-0.23068 29.3634 357.114
-0.21262 29.3045 356.599
-0.19629 29.2475 356.061
-0.19541 29.1913 355.883
-0.17982 29.1309 355.235
-0.16099 29.0670 354.441
-0.2019 29.9744 353.456
-0.19477 29.9293 353.507
-0.21217 29.8825 354.070
-0.21859 29.8342 354.105
-0.20706 29.7878 353.441
-0.20531 29.7416 353.882
-0.18793 29.6949 353.873
0.53512 29.9625 349.522
0.57452 29.8984 349.695
0.54784 29.8364 349.743
0.49309 29.7743 349.591
0.43721 29.7117 349.330
0.41251 29.6492 349.405
0.41582 29.5885 349.487
0.40555 29.5280 349.514
0.41203 29.4667 349.476
0.4377 29.4054 349.158
0.44466 29.3440 349.099
0.46922 29.2827 348.838
0.4758 29.2214 348.912
0.46612 29.1606 349.090
0.46025 29.1007 349.046
0.45271 29.0408 348.923
-0.02019 29.9700 353.846
-0.00708 29.8969 353.539
0.00502 29.8221 353.360
0.02705 29.7485 353.239
0.036 29.6751 353.093
0.05057 29.6003 352.998
0.07412 29.5222 352.816
0.07936 29.4415 352.795
0.07875 29.3596 352.799
0.0817 29.2786 352.841
0.08141 29.1973 352.873
0.09026 29.1152 352.763
0.10281 29.0338 352.753
-0.24688 29.9597 356.856
-0.25243 29.8891 356.721
-0.26061 29.8179 356.566
-0.25251 29.7482 356.210
-0.24979 29.6787 356.017
-0.24461 29.6059 355.635
-0.2286 29.5288 355.295
-0.20639 29.4503 354.803
-0.16852 29.3733 354.147
-0.13153 29.2977 353.602
-0.11492 29.2230 353.269
-0.09926 29.1500 352.508
-0.1084 29.0791 351.576
-0.11594 29.0097 350.910
0.5473 29.9767 349.845
0.58052 29.9130 349.924
0.56191 29.8518 349.884
0.51815 29.7910 349.711
0.47083 29.7299 349.494
0.44071 29.6688 349.735
0.44962 29.6087 349.784
0.44657 29.5483 349.745
0.45164 29.4866 349.662
0.46936 29.4248 349.322
0.47689 29.3632 349.294
0.50109 29.3019 349.192
0.48872 29.2412 349.553
0.47754 29.1810 349.558
0.47806 29.1216 349.304
0.43666 29.0625 349.119
0.42429 29.0031 348.870
-0.38831 29.9839 357.367
-0.38093 29.9382 357.041
-0.37063 29.8863 356.669
-0.3577 29.8275 356.021
-0.31666 29.7712 354.780
-0.28519 29.7208 353.517
-0.25686 29.6752 352.482
-0.55271 29.9715 360.006
-0.51421 29.9208 359.783
-0.47023 29.8708 359.562
-0.43841 29.8216 359.438
-0.43326 29.7715 359.339
-0.44248 29.7180 359.142
-0.46615 29.6619 358.896
-0.47894 29.6065 358.655
-0.46428 29.5519 358.447
-0.44927 29.4965 358.133
-0.46996 29.4410 357.817
-0.49942 29.3866 357.501
1.46828 29.9808 343.106
1.45983 29.9277 343.158
1.40622 29.8753 343.234
1.36657 29.8230 343.126
1.37908 29.7732 343.123
1.44357 29.7267 343.036
1.4758 29.6815 343.012
1.52967 29.6366 343.015
1.5958 29.5916 343.004
1.60433 29.5461 343.107
1.5628 29.4995 342.994
1.47381 29.4519 342.821
0.75958 29.9677 346.804
0.70586 29.9173 346.618
0.6562 29.8648 346.553
0.63197 29.8104 346.587
0.62609 29.7560 346.478
0.60289 29.7025 346.193
0.58772 29.6485 346.363
0.61701 29.5949 346.291
0.63005 29.5419 346.236
0.62773 29.4884 346.336
0.64055 29.4338 346.383
0.68309 29.3790 345.895
0.66486 29.3238 346.328
0.65535 29.2674 346.639
0.68656 29.2100 346.490
0.72585 29.1522 346.268
0.65857 29.9498 349.342
0.65231 29.8918 348.870
0.6371 29.8348 348.664
0.60282 29.7774 348.968
0.58144 29.7188 349.336
0.6109 29.6597 349.194
0.61644 29.6005 349.062
0.61104 29.5404 348.970
0.61035 29.4808 349.022
0.59821 29.4221 349.251
0.59966 29.3641 349.350
0.57842 29.3081 349.273
0.54015 29.2522 349.222
0.51187 29.1959 349.295
0.47355 29.1384 349.556
0.48119 29.0796 349.393
0.49842 29.0196 348.981
0.22794 29.9973 351.245
0.21348 29.9272 351.171
0.21342 29.8580 351.403
0.23144 29.7907 351.424
0.25564 29.7225 351.349
0.26483 29.6515 351.328
0.24852 29.5780 351.592
0.21979 29.5059 351.632
0.22796 29.4353 351.499
0.2228 29.3667 351.459
0.23391 29.2988 351.463
0.27198 29.2305 351.592
0.32998 29.1631 351.763
0.38546 29.0966 351.843
0.41456 29.0298 351.868
0.63458 29.9603 349.536
0.62098 29.9066 349.788
0.57229 29.8518 349.455
0.55625 29.7948 348.596
0.54813 29.7365 348.743
0.50659 29.6787 349.037
0.47151 29.6208 348.910
0.45521 29.5638 348.923
0.45131 29.5077 348.657
0.42462 29.4518 348.723
0.42635 29.3951 348.656
0.44594 29.3387 348.495
0.4408 29.2797 348.871
0.46526 29.2199 348.532
0.48811 29.1574 348.141
0.50645 29.0935 348.393
0.49807 29.0285 348.602
0.62815 29.9695 349.405
0.62398 29.9120 349.067
0.60562 29.8556 349.203
0.57912 29.7982 349.608
0.57604 29.7393 349.757
0.60651 29.6795 349.479
0.60321 29.6199 349.437
0.58927 29.5597 349.351
0.57049 29.5006 349.480
0.54803 29.4425 349.671
0.53977 29.3849 349.677
0.52262 29.3290 349.384
0.48567 29.2732 349.356
0.47211 29.2164 349.327
0.43925 29.1584 349.638
0.46291 29.0990 349.242
0.49056 29.0380 348.911
0.23625 29.9987 351.205
0.21996 29.9292 351.155
0.22233 29.8602 351.352
0.24221 29.7932 351.373
0.26878 29.7254 351.305
0.27848 29.6547 351.291
0.25416 29.5817 351.601
0.23325 29.5097 351.643
0.24177 29.4396 351.510
0.2369 29.3713 351.486
0.24887 29.3036 351.475
0.28819 29.2358 351.678
0.34461 29.1687 351.881
0.3986 29.1028 351.946
0.42351 29.0369 352.009
0.25344 29.9362 351.133
0.26321 29.8696 350.990
0.26394 29.8047 351.209
0.27954 29.7416 351.193
0.29404 29.6773 351.178
0.29699 29.6088 351.108
0.26843 29.5376 351.355
0.25443 29.4671 351.441
0.26256 29.3980 351.413
0.25833 29.3310 351.418
0.25853 29.2647 351.439
0.29846 29.1984 351.471
0.34748 29.1341 351.581
0.39163 29.0709 351.718
0.41149 29.0073 351.798
0.25741 29.9512 351.088
0.26016 29.8840 350.990
0.26125 29.8184 351.210
0.28579 29.7546 351.148
0.30174 29.6897 351.114
0.30278 29.6208 351.025
0.27267 29.5491 351.325
0.24924 29.4782 351.450
0.25975 29.4089 351.405
0.25792 29.3415 351.393
0.26246 29.2750 351.404
0.30034 29.2085 351.500
0.35345 29.1435 351.577
0.40207 29.0797 351.705
0.42195 29.0155 351.763
-0.25979 29.9661 356.571
-0.25542 29.9207 356.439
-0.23481 29.8713 356.542
-0.24147 29.8169 356.283
-0.25493 29.7612 356.139
-0.23145 29.7049 355.292
0.54633 29.9718 348.303
0.54658 29.9193 348.284
0.51623 29.8657 348.245
0.49142 29.8113 348.216
0.48367 29.7568 348.290
0.49357 29.7021 348.014
0.47276 29.6459 348.119
0.47481 29.5906 348.210
0.49939 29.5355 347.907
0.52587 29.4800 348.007
0.51261 29.4260 348.306
0.52217 29.3729 348.313
0.52534 29.3180 348.066
0.51207 29.2604 347.971
0.47992 29.2024 348.155
1.60807 29.9888 342.951
1.60719 29.9328 342.926
1.63241 29.8759 342.926
1.60126 29.8202 342.862
1.52705 29.7666 342.866
1.53031 29.7169 342.829
1.58007 29.6708 342.705
1.63662 29.6261 342.684
1.70601 29.5810 342.731
1.78952 29.5354 342.570
1.87317 29.4903 342.691
1.88438 29.4442 342.664
1.81579 29.3966 342.720
1.93348 29.9999 341.942
1.91663 29.9401 341.939
1.89573 29.8809 341.886
1.83115 29.8230 341.900
1.81265 29.7678 341.775
1.86098 29.7163 341.664
1.92448 29.6678 341.656
1.97742 29.6203 341.553
2.06635 29.5734 341.566
2.15477 29.5264 341.555
2.25016 29.4791 341.549
2.2604 29.4310 341.541
2.18997 29.3824 341.578
1.91682 29.9453 342.023
1.9054 29.8856 342.010
1.84339 29.8270 341.959
1.80681 29.7708 341.896
1.84217 29.7188 341.825
1.92353 29.6699 341.722
1.98222 29.6222 341.666
2.05961 29.5746 341.561
2.14067 29.5268 341.559
2.22921 29.4790 341.470
2.24902 29.4305 341.483
2.19714 29.3814 341.397
0.84067 29.9884 345.988
0.83926 29.9394 345.986
0.84869 29.8898 345.929
0.84514 29.8399 345.997
0.85051 29.7881 345.955
0.82969 29.7352 346.194
0.83624 29.6829 345.878
0.83047 29.6326 346.073
0.8226 29.5839 346.372
0.84408 29.5358 346.132
0.83192 29.4862 346.388
0.83268 29.4357 346.039
0.79114 29.3835 346.324
0.78424 29.3296 346.554
0.43902 29.9341 349.844
0.47145 29.8685 349.910
0.45284 29.8034 349.903
0.40968 29.7370 349.690
0.35462 29.6698 349.692
0.338 29.6031 349.590
0.3475 29.5391 349.628
0.35492 29.4765 349.655
0.3655 29.4146 349.791
0.38656 29.3528 349.610
0.40306 29.2911 349.693
0.42104 29.2298 349.769
0.46423 29.1679 349.528
0.48463 29.1056 349.481
0.50462 29.0434 349.671
-0.22624 29.9587 356.586
-0.22832 29.9085 356.580
-0.22335 29.8506 356.371
-0.21875 29.7881 356.111
-0.21524 29.7263 355.917
-0.22705 29.6680 355.844
-0.25987 29.6151 355.053
0.31411 29.9984 350.556
0.34078 29.9283 350.536
0.35893 29.8607 350.601
0.34946 29.7930 350.553
0.31475 29.7241 350.669
0.27443 29.6539 350.773
0.27527 29.5847 350.750
0.28518 29.5180 350.821
0.30695 29.4530 350.931
0.32018 29.3884 351.219
0.34461 29.3239 351.274
0.37021 29.2603 351.111
0.37434 29.1978 351.332
0.38395 29.1352 351.079
0.39634 29.0715 350.797
0.42388 29.0078 350.625
0.29917 29.9604 350.560
0.31513 29.8920 350.427
0.33628 29.8257 350.495
0.36159 29.7584 350.465
0.35992 29.6899 350.568
0.32503 29.6196 350.774
0.33804 29.5501 350.740
0.34198 29.4829 350.788
0.35274 29.4175 350.729
0.36368 29.3529 350.876
0.39066 29.2884 350.986
0.42442 29.2251 350.778
0.43729 29.1636 350.946
0.43294 29.1021 351.011
0.43848 29.0392 350.814
0.28813 29.9470 350.587
0.30496 29.8792 350.521
0.33039 29.8133 350.551
0.37421 29.7465 350.467
0.36832 29.6784 350.557
0.33106 29.6083 350.772
0.33805 29.5387 350.705
0.34172 29.4713 350.740
0.34855 29.4059 350.678
0.36444 29.3413 350.783
0.39327 29.2768 350.895
0.42959 29.2136 350.768
0.44791 29.1523 350.911
0.44839 29.0911 350.997
0.44753 29.0285 350.856
-0.11729 29.9503 356.275
-0.10319 29.8791 355.952
-0.09051 29.8068 355.747
-0.07828 29.7359 355.630
-0.07087 29.6658 355.519
-0.06167 29.5955 355.357
-0.04358 29.5225 355.159
-0.03155 29.4467 355.102
-0.02156 29.3691 354.940
-0.01263 29.2924 354.606
0.00503 29.2169 354.076
0.00831 29.1415 353.850
0.00871 29.0674 353.809
-0.13263 29.9556 356.667
-0.12144 29.8845 356.371
-0.11169 29.8123 356.169
-0.10064 29.7409 355.967
-0.09386 29.6703 355.902
-0.08863 29.5993 355.795
-0.07135 29.5258 355.584
-0.06232 29.4490 355.435
-0.05429 29.3702 355.345
-0.0455 29.2922 355.106
-0.03073 29.2147 354.481
-0.01816 29.1368 353.995
-0.01743 29.0597 353.979
0.06001 29.9867 356.531
0.00049 29.9253 357.264
-0.03562 29.8628 357.254
-0.06198 29.7981 357.269
-0.07858 29.7330 357.347
-0.07909 29.6686 357.318
-0.09671 29.6053 357.392
-0.11383 29.5441 357.470
-0.144 29.4846 358.124
-0.15846 29.4250 358.590
-0.16299 29.3643 358.832
-0.16998 29.3021 359.009
-0.16719 29.2407 358.907
-0.15336 29.1801 358.556
-0.16415 29.1186 358.605
-0.18041 29.0547 358.640
1.75881 29.9865 342.470
1.74162 29.9287 342.454
1.75986 29.8704 342.383
1.69639 29.8134 342.332
1.65102 29.7593 342.318
1.66721 29.7091 342.194
1.73688 29.6622 342.106
1.78751 29.6166 342.062
1.85989 29.5710 341.938
1.94283 29.5252 341.968
2.04007 29.4795 341.866
2.0608 29.4329 341.913
1.99127 29.3851 341.882
1.86535 29.9885 342.036
1.84899 29.9294 342.029
1.83793 29.8706 341.993
1.77459 29.8134 341.941
1.75971 29.7592 341.824
1.79722 29.7087 341.689
1.85149 29.6612 341.718
1.90036 29.6149 341.646
1.98908 29.5687 341.613
2.0757 29.5224 341.638
2.17101 29.4757 341.630
2.17626 29.4284 341.653
2.11762 29.3803 341.644
1.85805 29.9932 342.313
1.84154 29.9340 342.287
1.85592 29.8745 342.246
1.80395 29.8163 342.191
1.74971 29.7610 342.161
1.76045 29.7097 342.080
1.82877 29.6619 342.045
1.88951 29.6156 341.972
1.95709 29.5690 341.910
2.02898 29.5218 341.860
2.10213 29.4747 341.767
2.13154 29.4272 341.749
2.10036 29.3787 341.523
0.83424 29.9859 347.277
0.82803 29.9362 346.915
0.76731 29.8861 346.487
0.72101 29.8338 346.128
0.68548 29.7801 346.162
0.67893 29.7265 346.094
0.66336 29.6734 345.804
0.65802 29.6197 345.864
0.67146 29.5670 345.779
0.68286 29.5149 345.592
0.69218 29.4625 345.599
0.70692 29.4091 345.858
0.73959 29.3552 345.336
0.7405 29.3001 345.446
0.71591 29.2440 346.034
0.73136 29.1872 346.055
0.78111 29.1307 345.777
-0.4467 29.9637 359.376
-0.41838 29.9103 359.184
-0.39707 29.8583 358.993
-0.38768 29.8073 358.792
-0.38543 29.7566 358.585
-0.38106 29.7056 358.305
-0.36734 29.6552 358.034
-0.3703 29.6048 357.778
-0.32778 29.5535 357.461
-0.29511 29.5007 357.194
-0.28348 29.4470 356.824
-0.26741 29.3964 356.394
-0.29851 29.9717 359.074
-0.26457 29.9112 358.915
-0.23738 29.8519 358.752
-0.22227 29.7935 358.598
-0.21595 29.7374 358.589
-0.21763 29.6823 358.681
-0.21484 29.6266 358.629
-0.20574 29.5705 358.460
-0.20744 29.5129 358.265
-0.20906 29.4525 358.073
-0.21512 29.3880 357.887
-0.20661 29.3207 357.638
-0.18174 29.2522 357.464
0.21992 29.9700 351.260
0.22025 29.9000 351.173
0.22727 29.8319 351.383
0.24544 29.7657 351.382
0.25472 29.6986 351.380
0.26615 29.6276 351.237
0.25987 29.5541 351.339
0.21441 29.4815 351.481
0.2107 29.4106 351.430
0.21465 29.3414 351.410
0.21676 29.2731 351.397
0.24697 29.2051 351.428
0.30556 29.1380 351.404
0.35995 29.0713 351.448
0.39235 29.0042 351.441
0.21178 29.9677 350.469
0.21728 29.9027 350.625
0.2301 29.8372 350.458
0.23451 29.7723 350.444
0.2355 29.7091 350.519
0.24712 29.6479 350.581
0.24741 29.5853 350.481
0.25877 29.5215 350.508
0.25577 29.4567 350.655
0.24307 29.3900 350.752
0.24745 29.3235 350.281
0.24749 29.2587 350.237
0.26347 29.1946 350.386
0.2953 29.1311 350.501
0.30818 29.0692 350.836
0.29556 29.0087 351.074
0.22018 29.9696 350.311
0.22579 29.9050 350.473
0.2379 29.8396 350.288
0.24152 29.7748 350.307
0.24189 29.7119 350.393
0.25353 29.6508 350.413
0.25334 29.5885 350.320
0.26392 29.5249 350.373
0.26018 29.4605 350.522
0.24809 29.3939 350.560
0.2519 29.3275 350.083
0.25301 29.2628 350.096
0.27027 29.1989 350.268
0.30477 29.1355 350.335
0.31509 29.0739 350.712
0.29998 29.0136 350.874
0.13492 29.9635 351.923
0.14622 29.8967 352.007
0.16109 29.8292 351.945
0.17582 29.7620 351.803
0.18262 29.6972 351.978
0.19336 29.6338 352.053
0.1951 29.5694 351.966
0.21418 29.5043 351.940
0.21882 29.4374 351.922
0.21021 29.3690 352.321
0.21762 29.3018 352.112
0.21221 29.2359 351.801
0.20749 29.1703 351.807
0.21823 29.1051 351.951
0.23491 29.0412 351.962
-0.33172 29.9296 357.154
-0.30329 29.8546 356.893
-0.29506 29.7812 356.764
-0.28538 29.7095 356.615
-0.26614 29.6364 356.621
-0.23555 29.5587 356.427
-0.19166 29.4790 355.899
-0.15896 29.4007 355.421
-0.13543 29.3246 355.091
-0.11927 29.2488 354.786
-0.10629 29.1737 354.460
-0.08897 29.1001 353.626
-0.08257 29.0285 352.930
0.20644 29.9982 351.628
0.22084 29.9335 351.542
0.21721 29.8676 351.404
0.22819 29.8022 351.499
0.24336 29.7385 351.515
0.26905 29.6739 351.439
0.26033 29.6062 351.524
0.22976 29.5360 351.623
0.22984 29.4661 351.632
0.22931 29.3976 351.683
0.23095 29.3313 351.734
0.23927 29.2654 351.786
0.27794 29.1994 351.796
0.3192 29.1358 352.050
0.35058 29.0737 352.264
0.38044 29.0111 352.307
1.49678 29.9780 344.875
1.45633 29.9268 344.957
1.42806 29.8735 344.838
1.44567 29.8209 344.664
1.45731 29.7691 344.535
1.49082 29.7165 344.406
1.47104 29.6666 344.394
1.40021 29.6218 344.539
1.40775 29.5791 344.555
1.45448 29.5359 344.616
1.49372 29.4914 344.438
1.49738 29.4465 344.224
1.4561 29.4012 344.465
1.42588 29.3550 343.897
1.64608 29.9790 342.800
1.64268 29.9227 342.770
1.66749 29.8653 342.688
1.60751 29.8094 342.684
1.55596 29.7561 342.636
1.56119 29.7066 342.515
1.62211 29.6606 342.454
1.67241 29.6162 342.328
1.74083 29.5712 342.293
1.82494 29.5260 342.286
1.92973 29.4810 342.113
1.94162 29.4351 342.266
1.87017 29.3877 342.192
0.3878 29.9986 350.009
0.42035 29.9303 349.968
0.44887 29.8645 350.023
0.43527 29.7988 349.988
0.39414 29.7317 349.853
0.34219 29.6636 349.877
0.33171 29.5962 349.808
0.34097 29.5315 349.844
0.35044 29.4683 349.876
0.36266 29.4058 350.065
0.3848 29.3435 349.971
0.40178 29.2816 350.005
0.41389 29.2204 350.137
0.45056 29.1586 349.804
0.47251 29.0960 349.662
0.50326 29.0333 349.745
0.58605 29.9645 351.061
0.58432 29.9043 351.089
0.56568 29.8455 350.956
0.53902 29.7861 350.962
0.51319 29.7261 351.210
0.50467 29.6662 351.083
0.50935 29.6060 350.816
0.50887 29.5456 350.850
0.51293 29.4861 350.823
0.51649 29.4282 351.159
0.52116 29.3717 351.124
0.52218 29.3147 350.911
0.51238 29.2563 351.067
0.50815 29.1965 351.009
0.50861 29.1378 350.946
0.48127 29.0793 351.097
0.47876 29.0209 350.746
0.6552 29.9886 345.778
0.64564 29.9382 345.890
0.6575 29.8871 345.694
0.67063 29.8341 345.580
0.70558 29.7789 345.426
0.73963 29.7234 345.616
0.76323 29.6707 345.665
0.76642 29.6197 345.885
0.75149 29.5684 346.033
0.73634 29.5149 345.902
0.72932 29.4607 345.640
0.74684 29.4038 345.801
0.7702 29.3461 345.823
0.23869 29.9585 350.245
0.23607 29.8942 350.380
0.25152 29.8292 350.255
0.25401 29.7649 350.130
0.25621 29.7021 350.264
0.2669 29.6410 350.326
0.26785 29.5786 350.255
0.27322 29.5149 350.241
0.26919 29.4502 350.424
0.25553 29.3837 350.510
0.2583 29.3174 350.034
0.2628 29.2528 349.966
0.28022 29.1888 350.246
0.31024 29.1255 350.334
0.31931 29.0638 350.620
0.29927 29.0033 350.849
0.25551 29.9585 349.998
0.25159 29.8946 350.115
0.26643 29.8300 349.996
0.26773 29.7659 349.886
0.26913 29.7035 350.018
0.28061 29.6430 350.053
0.28019 29.5809 350.009
0.28331 29.5175 350.016
0.27814 29.4532 350.196
0.26606 29.3871 350.210
0.26955 29.3210 349.740
0.27538 29.2567 349.730
0.29516 29.1932 350.032
0.32504 29.1303 350.097
0.32908 29.0690 350.365
0.30793 29.0091 350.442
0.26936 29.9574 349.815
0.26433 29.8939 349.927
0.27872 29.8297 349.807
0.2792 29.7661 349.719
0.28072 29.7039 349.825
0.29292 29.6436 349.858
0.29098 29.5818 349.820
0.29244 29.5187 349.844
0.28625 29.4546 350.020
0.27484 29.3887 349.998
0.27948 29.3228 349.530
0.28501 29.2587 349.614
0.30681 29.1955 349.869
0.33548 29.1329 349.925
0.33569 29.0718 350.168
0.31571 29.0119 350.137
0.3037 29.9784 349.068
0.30452 29.9160 349.193
0.31204 29.8532 349.085
0.30886 29.7910 349.169
0.30541 29.7299 349.238
0.32167 29.6709 349.130
0.31733 29.6109 349.173
0.31337 29.5488 349.316
0.31989 29.4863 349.286
0.30821 29.4221 349.052
0.30877 29.3571 348.906
0.32547 29.2941 349.120
0.35559 29.2325 349.174
0.37203 29.1715 349.243
0.36804 29.1116 349.164
0.36624 29.0522 348.798
-0.20933 29.9635 356.254
-0.19298 29.8901 355.918
-0.16925 29.8145 355.554
-0.15227 29.7406 355.308
-0.13349 29.6669 355.259
-0.10986 29.5905 355.049
-0.09039 29.5094 354.909
-0.0798 29.4266 354.816
-0.06936 29.3450 354.655
-0.05329 29.2650 354.348
-0.04169 29.1852 354.133
-0.03059 29.1055 353.876
-0.03144 29.0273 353.905
-0.44546 29.9589 358.758
-0.43545 29.8901 358.674
-0.43771 29.8256 358.598
-0.4092 29.7627 358.710
-0.3741 29.6999 358.423
-0.35191 29.6364 357.941
-0.33944 29.5745 357.727
-0.33615 29.5144 357.549
-0.34256 29.4540 357.248
-0.34044 29.3914 356.958
-0.32164 29.3260 356.827
-0.27875 29.2597 356.539
-0.25473 29.1932 356.124
-0.22926 29.1263 355.814
-0.20096 29.0592 354.968
0.87885 29.9870 346.924
0.91407 29.9361 347.014
0.90915 29.8866 347.222
0.86211 29.8368 346.981
0.80632 29.7856 346.538
0.73604 29.7331 346.475
0.71922 29.6809 346.228
0.69905 29.6289 346.046
0.68618 29.5766 346.186
0.68167 29.5257 346.210
0.69395 29.4758 345.764
0.68575 29.4256 345.754
0.6842 29.3749 346.183
0.73095 29.3230 345.696
0.73464 29.2699 345.641
0.71752 29.2153 346.021
0.72118 29.1602 346.151
0.70095 29.1051 345.756
1.58206 29.9570 343.044
1.59103 29.9012 343.076
1.56955 29.8460 343.074
1.51112 29.7919 343.031
1.50989 29.7417 343.095
1.55346 29.6950 343.087
1.60097 29.6498 343.038
1.66707 29.6042 343.128
1.7414 29.5586 343.141
1.78973 29.5132 343.229
1.78092 29.4669 343.291
1.71077 29.4189 343.225
0.08178 29.9931 351.348
0.10247 29.9197 351.389
0.11349 29.8475 351.332
0.11795 29.7741 351.246
0.11981 29.6986 351.231
0.10298 29.6226 351.225
0.07525 29.5490 351.081
0.06266 29.4786 351.002
0.06782 29.4104 351.038
0.07986 29.3426 350.944
0.11554 29.2730 350.865
0.15064 29.2022 350.813
0.18677 29.1297 350.841
0.23233 29.0559 350.752
0.14362 29.9939 354.263
0.12532 29.9280 354.315
0.0989 29.8614 354.608
0.09556 29.7953 354.408
0.09648 29.7323 353.792
0.0771 29.6712 353.785
0.07637 29.6112 353.658
0.08268 29.5511 353.553
0.08633 29.4892 353.566
0.09766 29.4257 353.547
0.10756 29.3597 353.691
0.13119 29.2912 353.504
0.15426 29.2215 353.425
0.13628 29.1503 353.405
0.22877 29.9507 350.523
0.22494 29.8860 350.686
0.23973 29.8207 350.583
0.24281 29.7559 350.397
0.24968 29.6927 350.569
0.25818 29.6313 350.650
0.26193 29.5682 350.555
0.26972 29.5041 350.542
0.26108 29.4387 350.685
0.24803 29.3716 350.876
0.25217 29.3051 350.446
0.25647 29.2403 350.185
0.26805 29.1761 350.509
0.29405 29.1123 350.643
0.30494 29.0501 350.906
0.23717 29.9487 350.441
0.23289 29.8842 350.615
0.24738 29.8189 350.500
0.2499 29.7542 350.336
0.25778 29.6911 350.474
0.26592 29.6299 350.565
0.26902 29.5668 350.477
0.2764 29.5028 350.457
0.2665 29.4376 350.596
0.2535 29.3706 350.790
0.25809 29.3042 350.364
0.26193 29.2394 350.124
0.27418 29.1752 350.430
0.29934 29.1115 350.567
0.30891 29.0494 350.828
0.23901 29.9434 350.537
0.23523 29.8788 350.717
0.24905 29.8136 350.596
0.25156 29.7488 350.443
0.26236 29.6857 350.526
0.26855 29.6243 350.651
0.27174 29.5610 350.597
0.2807 29.4969 350.526
0.26992 29.4313 350.647
0.25582 29.3642 350.900
0.26038 29.2978 350.497
0.26326 29.2330 350.237
0.2744 29.1686 350.461
0.29634 29.1048 350.640
0.30605 29.0425 350.882
0.25607 29.9449 350.229
0.25051 29.8809 350.426
0.26429 29.8162 350.270
0.26605 29.7520 350.144
0.27544 29.6893 350.219
0.28377 29.6282 350.331
0.28533 29.5654 350.243
0.29033 29.5016 350.235
0.27868 29.4365 350.386
0.26491 29.3698 350.565
0.27099 29.3036 350.135
0.27391 29.2390 349.969
0.2877 29.1749 350.251
0.3122 29.1115 350.366
0.31835 29.0496 350.632
0.31311 29.9740 348.980
0.31141 29.9119 349.090
0.3199 29.8491 348.955
0.31687 29.7871 349.036
0.31486 29.7262 349.105
0.33271 29.6673 348.988
0.32576 29.6074 349.040
0.31949 29.5453 349.194
0.32631 29.4829 349.172
0.31498 29.4187 348.944
0.31704 29.3537 348.789
0.33219 29.2910 349.059
0.36183 29.2294 349.068
0.37537 29.1685 349.143
0.3686 29.1086 349.029
0.36948 29.0492 348.683
-0.07916 29.9709 355.722
-0.07897 29.8993 355.590
-0.07235 29.8268 355.560
-0.06698 29.7546 355.589
-0.07088 29.6835 355.649
-0.05729 29.6123 355.532
-0.04415 29.5375 355.177
-0.04367 29.4591 355.092
-0.04363 29.3791 355.004
-0.04349 29.2997 354.835
-0.02914 29.2209 354.446
-0.01169 29.1417 353.783
-0.01208 29.0629 353.701
0.12763 29.9991 353.128
0.12883 29.9332 353.003
0.11807 29.8673 352.826
0.11197 29.8014 352.715
0.11983 29.7376 352.508
0.12143 29.6739 352.452
0.11732 29.6099 352.430
0.11469 29.5442 352.314
0.1204 29.4763 352.491
0.15037 29.4093 352.642
0.17348 29.3445 352.533
0.19793 29.2802 352.756
0.22686 29.2166 353.032
0.2642 29.1551 353.070
0.28226 29.0951 353.182
0.27528 29.0355 353.179
0.59488 29.9860 349.307
0.57993 29.9267 349.522
0.58226 29.8710 349.257
0.56565 29.8158 349.064
0.53439 29.7593 349.300
0.51794 29.7017 349.528
0.54144 29.6435 349.527
0.55546 29.5855 349.692
0.57072 29.5264 349.574
0.56956 29.4680 349.689
0.55391 29.4103 349.628
0.54322 29.3528 350.205
0.5233 29.2980 350.708
0.51477 29.2437 350.141
0.46495 29.1883 350.071
0.45429 29.1306 350.134
0.44993 29.0710 349.967
0.47187 29.0109 349.011
-0.20068 29.9690 352.994
-0.14179 29.9079 353.097
-0.04818 29.8446 352.744
-0.02299 29.7809 352.603
0.00824 29.7156 352.827
0.54947 29.9540 350.648
0.53342 29.8976 350.764
0.50801 29.8404 350.773
0.48751 29.7819 350.796
0.46179 29.7229 350.820
0.45205 29.6633 350.963
0.46356 29.6042 351.081
0.43605 29.5468 350.924
0.4177 29.4912 350.694
0.40538 29.4364 350.382
0.38188 29.3811 350.299
0.37622 29.3249 350.129
0.36654 29.2664 349.907
0.35594 29.2081 350.226
0.39392 29.1497 349.714
0.41625 29.0899 349.644
0.42873 29.0279 350.011
0.22807 29.9487 350.499
0.22152 29.8842 350.747
0.23618 29.8190 350.557
0.23974 29.7543 350.447
0.24916 29.6912 350.529
0.26057 29.6299 350.652
0.26277 29.5666 350.537
0.26626 29.5024 350.574
0.2559 29.4370 350.729
0.2429 29.3699 350.864
0.25009 29.3035 350.412
0.25335 29.2387 350.286
0.26801 29.1746 350.563
0.2938 29.1108 350.688
0.30012 29.0488 350.979
0.23138 29.9461 350.526
0.22536 29.8816 350.763
0.23975 29.8163 350.582
0.24302 29.7516 350.470
0.25356 29.6885 350.535
0.26357 29.6271 350.668
0.26607 29.5638 350.571
0.27111 29.4996 350.573
0.25947 29.4341 350.724
0.24652 29.3669 350.900
0.25318 29.3005 350.453
0.25582 29.2357 350.301
0.26955 29.1715 350.548
0.29399 29.1077 350.686
0.30132 29.0455 350.964
0.23416 29.9421 350.589
0.22873 29.8776 350.819
0.24269 29.8123 350.651
0.246 29.7475 350.527
0.25823 29.6844 350.562
0.26611 29.6229 350.722
0.26914 29.5595 350.650
0.27596 29.4951 350.604
0.26461 29.4295 350.740
0.24981 29.3622 350.974
0.25558 29.2958 350.562
0.25803 29.2309 350.353
0.2705 29.1666 350.554
0.29262 29.1028 350.724
0.30089 29.0405 350.981
0.23739 29.9386 350.626
0.23229 29.8740 350.856
0.2459 29.8088 350.706
0.24949 29.7439 350.560
0.2631 29.6808 350.564
0.26889 29.6193 350.760
0.27253 29.5557 350.704
0.28036 29.4913 350.623
0.26918 29.4255 350.747
0.25296 29.3581 351.023
0.25806 29.2917 350.649
0.26049 29.2268 350.387
0.27197 29.1623 350.557
0.29216 29.0984 350.746
0.30063 29.0360 350.994
0.25369 29.9409 350.313
0.24717 29.8769 350.549
0.26077 29.8122 350.361
0.26341 29.7479 350.253
0.27589 29.6852 350.271
0.28392 29.6240 350.424
0.28452 29.5610 350.359
0.28912 29.4972 350.323
0.27596 29.4320 350.480
0.26204 29.3651 350.670
0.26905 29.2989 350.217
0.27083 29.2342 350.102
0.28405 29.1701 350.362
0.30838 29.1065 350.449
0.31365 29.0446 350.720
0.31531 29.9683 349.001
0.31047 29.9062 349.107
0.32069 29.8434 348.919
0.31967 29.7813 349.011
0.31856 29.7205 349.065
0.33666 29.6615 348.962
0.32712 29.6014 348.993
0.32124 29.5392 349.162
0.32653 29.4766 349.157
0.31529 29.4122 348.914
0.31991 29.3473 348.771
0.33347 29.2845 349.047
0.36145 29.2230 349.052
0.37272 29.1620 349.115
0.36603 29.1019 349.014
0.36558 29.0424 348.694
-0.12199 29.9615 356.455
-0.11631 29.8905 356.209
-0.10711 29.8182 356.062
-0.10697 29.7462 356.066
-0.11441 29.6751 356.130
-0.10297 29.6032 356.093
-0.08719 29.5283 355.859
-0.0831 29.4504 355.815
-0.08182 29.3708 355.652
-0.08367 29.2914 355.453
-0.0741 29.2119 355.043
-0.05352 29.1313 354.307
-0.04733 29.0511 354.121
-0.03956 29.9496 354.872
-0.02564 29.8791 354.685
-0.01287 29.8077 354.593
0.00457 29.7387 354.708
0.01412 29.6714 354.645
0.02721 29.6042 354.581
0.04106 29.5355 354.341
0.04704 29.4638 354.228
0.05149 29.3908 354.098
0.06015 29.3189 353.932
0.06423 29.2490 353.900
0.0642 29.1802 353.763
0.06438 29.1127 353.610
0.0737 29.0471 353.628
0.08354 29.9779 356.198
0.09026 29.9202 356.216
0.04869 29.8621 356.696
0.02483 29.8017 356.810
0.01431 29.7405 356.844
0.00369 29.6790 357.101
-0.01488 29.6176 357.219
-0.04821 29.5573 357.467
-0.08014 29.4981 357.677
-0.11106 29.4401 357.818
-0.13043 29.3814 358.019
-0.14184 29.3207 358.560
-0.13181 29.2569 358.667
-0.14525 29.1930 358.748
-0.13711 29.1312 358.144
-0.13415 29.0695 357.685
-0.12111 29.0057 357.120
-0.20933 29.9969 358.590
-0.30666 29.9561 358.846
-0.33527 29.9113 358.825
-0.36422 29.8628 358.686
-0.37635 29.8085 358.529
-0.42083 29.7527 358.595
-0.41329 29.6970 358.424
-0.38459 29.6413 358.330
-0.38153 29.5896 358.241
0.22907 29.9499 350.408
0.22354 29.8856 350.655
0.23788 29.8207 350.456
0.24183 29.7564 350.344
0.25249 29.6934 350.462
0.26355 29.6322 350.559
0.26232 29.5691 350.451
0.26249 29.5049 350.528
0.25314 29.4397 350.691
0.24209 29.3729 350.728
0.25064 29.3065 350.250
0.25514 29.2419 350.220
0.27102 29.1779 350.556
0.2976 29.1146 350.633
0.29908 29.0527 350.957
0.23812 29.9495 350.297
0.23082 29.8854 350.559
0.24522 29.8207 350.356
0.2488 29.7564 350.249
0.25894 29.6936 350.352
0.27018 29.6324 350.452
0.26914 29.5695 350.338
0.26921 29.5055 350.415
0.26008 29.4404 350.575
0.24818 29.3737 350.623
0.25657 29.3074 350.146
0.26098 29.2428 350.109
0.27684 29.1789 350.455
0.30354 29.1157 350.525
0.30463 29.0539 350.843
0.24924 29.9505 350.129
0.24087 29.8866 350.387
0.25528 29.8220 350.185
0.25854 29.7579 350.082
0.26725 29.6952 350.182
0.27889 29.6344 350.273
0.27721 29.5718 350.169
0.27621 29.5079 350.248
0.26839 29.4432 350.402
0.25589 29.3766 350.431
0.26433 29.3104 349.967
0.26874 29.2460 349.959
0.28592 29.1825 350.299
0.31257 29.1193 350.360
0.31253 29.0578 350.643
0.25553 29.9486 350.085
0.2472 29.8847 350.342
0.26138 29.8203 350.138
0.2642 29.7562 350.040
0.27363 29.6937 350.122
0.28456 29.6329 350.218
0.283 29.5704 350.105
0.28241 29.5066 350.184
0.27337 29.4418 350.343
0.26068 29.3753 350.395
0.26902 29.3092 349.934
0.27338 29.2448 349.901
0.28957 29.1812 350.247
0.3159 29.1181 350.302
0.31595 29.0566 350.585
0.2634 29.9466 350.016
0.25503 29.8829 350.270
0.26889 29.8186 350.066
0.27128 29.7546 349.972
0.28158 29.6923 350.040
0.29163 29.6316 350.139
0.28946 29.5691 350.035
0.28902 29.5054 350.100
0.27892 29.4408 350.263
0.2664 29.3743 350.324
0.27482 29.3083 349.865
0.27929 29.2440 349.828
0.29474 29.1805 350.176
0.32042 29.1174 350.221
0.31993 29.0560 350.494
0.30559 29.9639 349.167
0.29893 29.9016 349.285
0.31062 29.8385 349.084
0.3108 29.7763 349.156
0.31114 29.7151 349.208
0.32746 29.6558 349.137
0.31793 29.5953 349.141
0.31393 29.5329 349.307
0.31559 29.4698 349.338
0.30541 29.4051 349.067
0.31179 29.3399 348.893
0.32362 29.2769 349.157
0.3501 29.2150 349.222
0.3632 29.1537 349.294
0.35599 29.0932 349.246
0.35193 29.0334 348.929
0.07723 29.9673 352.907
0.08934 29.8999 352.938
0.10636 29.8315 352.858
0.12412 29.7635 352.777
0.13322 29.6980 352.964
0.14868 29.6336 352.963
0.15809 29.5686 352.931
0.17218 29.5027 352.892
0.17891 29.4348 352.817
0.17626 29.3657 353.143
0.18278 29.2979 353.195
0.18461 29.2314 352.916
0.18519 29.1653 352.823
0.17728 29.0998 352.940
0.18926 29.0355 352.862
-0.11506 29.9341 355.885
-0.09327 29.8629 355.677
-0.0752 29.7911 355.441
-0.06459 29.7215 355.261
-0.0552 29.6523 355.160
-0.04327 29.5827 355.081
-0.01671 29.5106 354.841
-0.00423 29.4357 354.744
0.0029 29.3594 354.520
0.01679 29.2844 354.245
0.03044 29.2110 353.968
0.03335 29.1381 353.867
0.0346 29.0666 353.818
-0.42839 29.9933 359.947
-0.39012 29.9269 359.844
-0.37709 29.8648 359.682
-0.34646 29.8045 359.660
-0.31576 29.7438 359.534
-0.2937 29.6821 359.304
-0.2818 29.6203 359.038
-0.28242 29.5589 359.002
-0.2914 29.4961 359.244
-0.29402 29.4315 359.247
-0.29353 29.3667 359.473
-0.27337 29.3030 359.628
-0.25017 29.2407 359.307
-0.23736 29.1779 358.807
-0.23357 29.1143 358.603
-0.22414 29.0507 358.358
1.51915 29.9698 343.117
1.51515 29.9154 343.161
1.4716 29.8617 343.198
1.42501 29.8084 343.112
1.43587 29.7585 343.125
1.48953 29.7119 343.083
1.5284 29.6668 343.108
1.58374 29.6218 343.087
1.65866 29.5765 343.082
1.68213 29.5310 343.266
1.65614 29.4845 343.160
1.57128 29.4367 342.952
