%!PS-Adobe-2.0
%%Title: wl.ps
%%Creator: gnuplot3.6b336j
%%DocumentFonts: (atend)
%%BoundingBox: 50 50 554 770
%%Orientation: Landscape
%%Pages: (atend)
%%EndComments
/gnudict 120 dict def
gnudict begin
/Color false def
/Solid false def
/gnulinewidth 5.000 def
/userlinewidth gnulinewidth def
/vshift -46 def
/dl {10 mul} def
/hpt_ 31.5 def
/vpt_ 31.5 def
/hpt hpt_ def
/vpt vpt_ def
/M {moveto} bind def
/L {lineto} bind def
/R {rmoveto} bind def
/V {rlineto} bind def
/vpt2 vpt 2 mul def
/hpt2 hpt 2 mul def
/Lshow { currentpoint stroke M
  0 vshift R show } def
/Rshow { currentpoint stroke M
  dup stringwidth pop neg vshift R show } def
/Cshow { currentpoint stroke M
  dup stringwidth pop -2 div vshift R show } def
/UP { dup vpt_ mul /vpt exch def hpt_ mul /hpt exch def
  /hpt2 hpt 2 mul def /vpt2 vpt 2 mul def } def
/DL { Color {setrgbcolor Solid {pop []} if 0 setdash }
 {pop pop pop Solid {pop []} if 0 setdash} ifelse } def
/BL { stroke gnulinewidth 2 mul setlinewidth } def
/AL { stroke gnulinewidth 2 div setlinewidth } def
/UL { gnulinewidth mul /userlinewidth exch def } def
/PL { stroke userlinewidth setlinewidth } def
/LTb { BL [] 0 0 0 DL } def
/LTa { AL [1 dl 2 dl] 0 setdash 0 0 0 setrgbcolor } def
/LT0 { PL [] 0 1 0 DL } def
/LT1 { PL [4 dl 2 dl] 0 0 1 DL } def
/LT2 { PL [2 dl 3 dl] 1 0 0 DL } def
/LT3 { PL [1 dl 1.5 dl] 1 0 1 DL } def
/LT4 { PL [5 dl 2 dl 1 dl 2 dl] 0 1 1 DL } def
/LT5 { PL [4 dl 3 dl 1 dl 3 dl] 1 1 0 DL } def
/LT6 { PL [2 dl 2 dl 2 dl 4 dl] 0 0 0 DL } def
/LT7 { PL [2 dl 2 dl 2 dl 2 dl 2 dl 4 dl] 1 0.3 0 DL } def
/LT8 { PL [2 dl 2 dl 2 dl 2 dl 2 dl 2 dl 2 dl 4 dl] 0.5 0.5 0.5 DL } def
/Pnt { stroke [] 0 setdash
   gsave 1 setlinecap M 0 0 V stroke grestore } def
/Dia { stroke [] 0 setdash 2 copy vpt add M
  hpt neg vpt neg V hpt vpt neg V
  hpt vpt V hpt neg vpt V closepath stroke
  Pnt } def
/Pls { stroke [] 0 setdash vpt sub M 0 vpt2 V
  currentpoint stroke M
  hpt neg vpt neg R hpt2 0 V stroke
  } def
/Box { stroke [] 0 setdash 2 copy exch hpt sub exch vpt add M
  0 vpt2 neg V hpt2 0 V 0 vpt2 V
  hpt2 neg 0 V closepath stroke
  Pnt } def
/Crs { stroke [] 0 setdash exch hpt sub exch vpt add M
  hpt2 vpt2 neg V currentpoint stroke M
  hpt2 neg 0 R hpt2 vpt2 V stroke } def
/TriU { stroke [] 0 setdash 2 copy vpt 1.12 mul add M
  hpt neg vpt -1.62 mul V
  hpt 2 mul 0 V
  hpt neg vpt 1.62 mul V closepath stroke
  Pnt  } def
/Star { 2 copy Pls Crs } def
/BoxF { stroke [] 0 setdash exch hpt sub exch vpt add M
  0 vpt2 neg V  hpt2 0 V  0 vpt2 V
  hpt2 neg 0 V  closepath fill } def
/TriUF { stroke [] 0 setdash vpt 1.12 mul add M
  hpt neg vpt -1.62 mul V
  hpt 2 mul 0 V
  hpt neg vpt 1.62 mul V closepath fill } def
/TriD { stroke [] 0 setdash 2 copy vpt 1.12 mul sub M
  hpt neg vpt 1.62 mul V
  hpt 2 mul 0 V
  hpt neg vpt -1.62 mul V closepath stroke
  Pnt  } def
/TriDF { stroke [] 0 setdash vpt 1.12 mul sub M
  hpt neg vpt 1.62 mul V
  hpt 2 mul 0 V
  hpt neg vpt -1.62 mul V closepath fill} def
/DiaF { stroke [] 0 setdash vpt add M
  hpt neg vpt neg V hpt vpt neg V
  hpt vpt V hpt neg vpt V closepath fill } def
/Pent { stroke [] 0 setdash 2 copy gsave
  translate 0 hpt M 4 {72 rotate 0 hpt L} repeat
  closepath stroke grestore Pnt } def
/PentF { stroke [] 0 setdash gsave
  translate 0 hpt M 4 {72 rotate 0 hpt L} repeat
  closepath fill grestore } def
/Circle { stroke [] 0 setdash 2 copy
  hpt 0 360 arc stroke Pnt } def
/CircleF { stroke [] 0 setdash hpt 0 360 arc fill } def
/C0 { BL [] 0 setdash 2 copy moveto vpt 90 450  arc } bind def
/C1 { BL [] 0 setdash 2 copy        moveto
       2 copy  vpt 0 90 arc closepath fill
               vpt 0 360 arc closepath } bind def
/C2 { BL [] 0 setdash 2 copy moveto
       2 copy  vpt 90 180 arc closepath fill
               vpt 0 360 arc closepath } bind def
/C3 { BL [] 0 setdash 2 copy moveto
       2 copy  vpt 0 180 arc closepath fill
               vpt 0 360 arc closepath } bind def
/C4 { BL [] 0 setdash 2 copy moveto
       2 copy  vpt 180 270 arc closepath fill
               vpt 0 360 arc closepath } bind def
/C5 { BL [] 0 setdash 2 copy moveto
       2 copy  vpt 0 90 arc
       2 copy moveto
       2 copy  vpt 180 270 arc closepath fill
               vpt 0 360 arc } bind def
/C6 { BL [] 0 setdash 2 copy moveto
      2 copy  vpt 90 270 arc closepath fill
              vpt 0 360 arc closepath } bind def
/C7 { BL [] 0 setdash 2 copy moveto
      2 copy  vpt 0 270 arc closepath fill
              vpt 0 360 arc closepath } bind def
/C8 { BL [] 0 setdash 2 copy moveto
      2 copy vpt 270 360 arc closepath fill
              vpt 0 360 arc closepath } bind def
/C9 { BL [] 0 setdash 2 copy moveto
      2 copy  vpt 270 450 arc closepath fill
              vpt 0 360 arc closepath } bind def
/C10 { BL [] 0 setdash 2 copy 2 copy moveto vpt 270 360 arc closepath fill
       2 copy moveto
       2 copy vpt 90 180 arc closepath fill
               vpt 0 360 arc closepath } bind def
/C11 { BL [] 0 setdash 2 copy moveto
       2 copy  vpt 0 180 arc closepath fill
       2 copy moveto
       2 copy  vpt 270 360 arc closepath fill
               vpt 0 360 arc closepath } bind def
/C12 { BL [] 0 setdash 2 copy moveto
       2 copy  vpt 180 360 arc closepath fill
               vpt 0 360 arc closepath } bind def
/C13 { BL [] 0 setdash  2 copy moveto
       2 copy  vpt 0 90 arc closepath fill
       2 copy moveto
       2 copy  vpt 180 360 arc closepath fill
               vpt 0 360 arc closepath } bind def
/C14 { BL [] 0 setdash 2 copy moveto
       2 copy  vpt 90 360 arc closepath fill
               vpt 0 360 arc } bind def
/C15 { BL [] 0 setdash 2 copy vpt 0 360 arc closepath fill
               vpt 0 360 arc closepath } bind def
/Rec   { newpath 4 2 roll moveto 1 index 0 rlineto 0 exch rlineto
       neg 0 rlineto closepath } bind def
/Square { dup Rec } bind def
/Bsquare { vpt sub exch vpt sub exch vpt2 Square } bind def
/S0 { BL [] 0 setdash 2 copy moveto 0 vpt rlineto BL Bsquare } bind def
/S1 { BL [] 0 setdash 2 copy vpt Square fill Bsquare } bind def
/S2 { BL [] 0 setdash 2 copy exch vpt sub exch vpt Square fill Bsquare } bind def
/S3 { BL [] 0 setdash 2 copy exch vpt sub exch vpt2 vpt Rec fill Bsquare } bind def
/S4 { BL [] 0 setdash 2 copy exch vpt sub exch vpt sub vpt Square fill Bsquare } bind def
/S5 { BL [] 0 setdash 2 copy 2 copy vpt Square fill
       exch vpt sub exch vpt sub vpt Square fill Bsquare } bind def
/S6 { BL [] 0 setdash 2 copy exch vpt sub exch vpt sub vpt vpt2 Rec fill Bsquare } bind def
/S7 { BL [] 0 setdash 2 copy exch vpt sub exch vpt sub vpt vpt2 Rec fill
       2 copy vpt Square fill
       Bsquare } bind def
/S8 { BL [] 0 setdash 2 copy vpt sub vpt Square fill Bsquare } bind def
/S9 { BL [] 0 setdash 2 copy vpt sub vpt vpt2 Rec fill Bsquare } bind def
/S10 { BL [] 0 setdash 2 copy vpt sub vpt Square fill 2 copy exch vpt sub exch vpt Square fill
       Bsquare } bind def
/S11 { BL [] 0 setdash 2 copy vpt sub vpt Square fill 2 copy exch vpt sub exch vpt2 vpt Rec fill
       Bsquare } bind def
/S12 { BL [] 0 setdash 2 copy exch vpt sub exch vpt sub vpt2 vpt Rec fill Bsquare } bind def
/S13 { BL [] 0 setdash 2 copy exch vpt sub exch vpt sub vpt2 vpt Rec fill
       2 copy vpt Square fill Bsquare } bind def
/S14 { BL [] 0 setdash 2 copy exch vpt sub exch vpt sub vpt2 vpt Rec fill
       2 copy exch vpt sub exch vpt Square fill Bsquare } bind def
/S15 { BL [] 0 setdash 2 copy Bsquare fill Bsquare } bind def
/D0 { gsave translate 45 rotate 0 0 S0 stroke grestore } bind def
/D1 { gsave translate 45 rotate 0 0 S1 stroke grestore } bind def
/D2 { gsave translate 45 rotate 0 0 S2 stroke grestore } bind def
/D3 { gsave translate 45 rotate 0 0 S3 stroke grestore } bind def
/D4 { gsave translate 45 rotate 0 0 S4 stroke grestore } bind def
/D5 { gsave translate 45 rotate 0 0 S5 stroke grestore } bind def
/D6 { gsave translate 45 rotate 0 0 S6 stroke grestore } bind def
/D7 { gsave translate 45 rotate 0 0 S7 stroke grestore } bind def
/D8 { gsave translate 45 rotate 0 0 S8 stroke grestore } bind def
/D9 { gsave translate 45 rotate 0 0 S9 stroke grestore } bind def
/D10 { gsave translate 45 rotate 0 0 S10 stroke grestore } bind def
/D11 { gsave translate 45 rotate 0 0 S11 stroke grestore } bind def
/D12 { gsave translate 45 rotate 0 0 S12 stroke grestore } bind def
/D13 { gsave translate 45 rotate 0 0 S13 stroke grestore } bind def
/D14 { gsave translate 45 rotate 0 0 S14 stroke grestore } bind def
/D15 { gsave translate 45 rotate 0 0 S15 stroke grestore } bind def
/DiaE { stroke [] 0 setdash vpt add M
  hpt neg vpt neg V hpt vpt neg V
  hpt vpt V hpt neg vpt V closepath stroke } def
/BoxE { stroke [] 0 setdash exch hpt sub exch vpt add M
  0 vpt2 neg V hpt2 0 V 0 vpt2 V
  hpt2 neg 0 V closepath stroke } def
/TriUE { stroke [] 0 setdash vpt 1.12 mul add M
  hpt neg vpt -1.62 mul V
  hpt 2 mul 0 V
  hpt neg vpt 1.62 mul V closepath stroke } def
/TriDE { stroke [] 0 setdash vpt 1.12 mul sub M
  hpt neg vpt 1.62 mul V
  hpt 2 mul 0 V
  hpt neg vpt -1.62 mul V closepath stroke } def
/PentE { stroke [] 0 setdash gsave
  translate 0 hpt M 4 {72 rotate 0 hpt L} repeat
  closepath stroke grestore } def
/CircE { stroke [] 0 setdash 
  hpt 0 360 arc stroke } def
/BoxFill { gsave Rec 1 setgray fill grestore } def
end
%%EndProlog
%%Page: 1 1
gnudict begin
gsave
50 50 translate
0.100 0.100 scale
90 rotate
0 -5040 translate
0 setgray
newpath
(Helvetica) findfont 140 scalefont setfont
LTb
LTa
840 350 M
6276 0 V
LTb
840 350 M
63 0 V
6213 0 R
-63 0 V
756 350 M
(-0.01) Rshow
LTa
840 745 M
6276 0 V
LTb
840 745 M
63 0 V
6213 0 R
-63 0 V
756 745 M
(-0.005) Rshow
LTa
840 1139 M
6276 0 V
LTb
840 1139 M
63 0 V
6213 0 R
-63 0 V
-6297 0 R
(0) Rshow
LTa
840 1534 M
6276 0 V
LTb
840 1534 M
63 0 V
6213 0 R
-63 0 V
-6297 0 R
(0.005) Rshow
LTa
840 1928 M
6276 0 V
LTb
840 1928 M
63 0 V
6213 0 R
-63 0 V
-6297 0 R
(0.01) Rshow
LTa
840 2323 M
6276 0 V
LTb
840 2323 M
63 0 V
6213 0 R
-63 0 V
-6297 0 R
(0.015) Rshow
LTa
840 2717 M
6276 0 V
LTb
840 2717 M
63 0 V
6213 0 R
-63 0 V
-6297 0 R
(0.02) Rshow
LTa
840 3112 M
6276 0 V
LTb
840 3112 M
63 0 V
6213 0 R
-63 0 V
-6297 0 R
(0.025) Rshow
LTa
840 3506 M
6276 0 V
LTb
840 3506 M
63 0 V
6213 0 R
-63 0 V
-6297 0 R
(0.03) Rshow
LTa
840 3901 M
6276 0 V
LTb
840 3901 M
63 0 V
6213 0 R
-63 0 V
-6297 0 R
(0.035) Rshow
LTa
840 4295 M
6276 0 V
LTb
840 4295 M
63 0 V
6213 0 R
-63 0 V
-6297 0 R
(0.04) Rshow
LTa
840 4690 M
6276 0 V
LTb
840 4690 M
63 0 V
6213 0 R
-63 0 V
-6297 0 R
(0.045) Rshow
LTa
840 350 M
0 4340 V
LTb
840 350 M
0 63 V
0 4277 R
0 -63 V
840 210 M
(-100) Cshow
LTa
1468 350 M
0 4340 V
LTb
1468 350 M
0 63 V
0 4277 R
0 -63 V
0 -4417 R
(-80) Cshow
LTa
2095 350 M
0 4340 V
LTb
2095 350 M
0 63 V
0 4277 R
0 -63 V
0 -4417 R
(-60) Cshow
LTa
2723 350 M
0 4340 V
LTb
2723 350 M
0 63 V
0 4277 R
0 -63 V
0 -4417 R
(-40) Cshow
LTa
3350 350 M
0 4340 V
LTb
3350 350 M
0 63 V
0 4277 R
0 -63 V
0 -4417 R
(-20) Cshow
LTa
3978 350 M
0 4340 V
LTb
3978 350 M
0 63 V
0 4277 R
0 -63 V
0 -4417 R
(0) Cshow
LTa
4606 350 M
0 4340 V
LTb
4606 350 M
0 63 V
0 4277 R
0 -63 V
0 -4417 R
(20) Cshow
LTa
5233 350 M
0 4340 V
LTb
5233 350 M
0 63 V
0 4277 R
0 -63 V
0 -4417 R
(40) Cshow
LTa
5861 350 M
0 4137 V
0 140 R
0 63 V
LTb
5861 350 M
0 63 V
0 4277 R
0 -63 V
0 -4417 R
(60) Cshow
LTa
6488 350 M
0 4137 V
0 140 R
0 63 V
LTb
6488 350 M
0 63 V
0 4277 R
0 -63 V
0 -4417 R
(80) Cshow
LTa
7116 350 M
0 4340 V
LTb
7116 350 M
0 63 V
0 4277 R
0 -63 V
0 -4417 R
(100) Cshow
LTb
840 350 M
6276 0 V
0 4340 V
-6276 0 V
840 350 L
3978 4900 M
(THE WEIGHT OF LOW PASS FILTER \(1\)) Cshow
1.000 UL
LT0
6465 4557 M
("wl.dat") Rshow
6549 4557 M
399 0 V
1217 1132 M
31 -9 V
31 -3 V
32 -3 V
31 -3 V
31 -2 V
32 -2 V
31 -2 V
32 -1 V
31 0 V
31 1 V
32 2 V
31 3 V
32 5 V
31 6 V
31 7 V
32 8 V
31 10 V
31 11 V
32 12 V
31 12 V
32 14 V
31 14 V
31 14 V
32 14 V
31 13 V
31 13 V
32 11 V
31 9 V
32 7 V
31 5 V
31 1 V
32 -1 V
31 -6 V
31 -9 V
32 -13 V
31 -18 V
32 -22 V
31 -26 V
31 -31 V
32 -34 V
31 -38 V
32 -41 V
31 -43 V
31 -46 V
32 -46 V
31 -47 V
31 -47 V
32 -44 V
31 -42 V
32 -38 V
31 -33 V
31 -27 V
32 -20 V
31 -11 V
31 -2 V
32 8 V
31 20 V
32 31 V
31 44 V
31 58 V
32 71 V
31 84 V
32 98 V
31 111 V
31 124 V
32 136 V
31 147 V
31 158 V
32 167 V
31 174 V
32 180 V
31 184 V
31 187 V
32 188 V
31 186 V
31 183 V
32 177 V
31 170 V
32 160 V
31 150 V
31 136 V
32 122 V
31 105 V
31 88 V
32 70 V
31 51 V
32 30 V
31 10 V
31 -10 V
32 -30 V
31 -51 V
32 -70 V
31 -88 V
31 -105 V
32 -122 V
31 -136 V
31 -150 V
32 -160 V
31 -170 V
32 -177 V
31 -183 V
31 -186 V
32 -188 V
31 -187 V
31 -184 V
32 -180 V
31 -174 V
32 -167 V
31 -158 V
31 -147 V
32 -136 V
31 -124 V
32 -111 V
31 -98 V
31 -84 V
32 -71 V
31 -58 V
31 -44 V
32 -31 V
31 -20 V
32 -8 V
31 2 V
31 11 V
32 20 V
31 27 V
31 33 V
32 38 V
31 42 V
32 44 V
31 47 V
31 47 V
32 46 V
31 46 V
31 43 V
32 41 V
31 38 V
32 34 V
31 31 V
31 26 V
32 22 V
31 18 V
32 13 V
31 9 V
31 6 V
32 1 V
31 -1 V
31 -5 V
32 -7 V
31 -9 V
32 -11 V
31 -13 V
31 -13 V
32 -14 V
31 -14 V
31 -14 V
32 -14 V
31 -12 V
32 -12 V
31 -11 V
31 -10 V
32 -8 V
31 -7 V
32 -6 V
31 -5 V
31 -3 V
32 -2 V
31 -1 V
31 0 V
32 1 V
31 2 V
32 2 V
31 2 V
31 3 V
32 3 V
31 3 V
31 9 V
stroke
grestore
end
showpage
%%Trailer
%%DocumentFonts: Helvetica
%%Pages: 1
