# t0=   0.00000
# te=  10.00000
# c =   0.10000
# alp =   0.05000
# dt=   0.05000
# n =       200
# t, v
   0.00000  0.100000E+01
   0.05000  0.995000E+00
   0.10000  0.980100E+00
   0.15000  0.975150E+00
   0.20000  0.960840E+00
   0.25000  0.955706E+00
   0.30000  0.941949E+00
   0.35000  0.936657E+00
   0.40000  0.923422E+00
   0.45000  0.917995E+00
   0.50000  0.905253E+00
   0.55000  0.899712E+00
   0.60000  0.887434E+00
   0.65000  0.881799E+00
   0.70000  0.869960E+00
   0.75000  0.864249E+00
   0.80000  0.852824E+00
   0.85000  0.847053E+00
   0.90000  0.836021E+00
   0.95000  0.830205E+00
   1.00000  0.819544E+00
   1.05000  0.813696E+00
   1.10000  0.803388E+00
   1.15000  0.797520E+00
   1.20000  0.787546E+00
   1.25000  0.781669E+00
   1.30000  0.772012E+00
   1.35000  0.766137E+00
   1.40000  0.756782E+00
   1.45000  0.750916E+00
   1.50000  0.741848E+00
   1.55000  0.736001E+00
   1.60000  0.727207E+00
   1.65000  0.721385E+00
   1.70000  0.712852E+00
   1.75000  0.707062E+00
   1.80000  0.698777E+00
   1.85000  0.693026E+00
   1.90000  0.684979E+00
   1.95000  0.679271E+00
   2.00000  0.671450E+00
   2.05000  0.665790E+00
   2.10000  0.658187E+00
   2.15000  0.652579E+00
   2.20000  0.645184E+00
   2.25000  0.639632E+00
   2.30000  0.632437E+00
   2.35000  0.626943E+00
   2.40000  0.619939E+00
   2.45000  0.614508E+00
   2.50000  0.607688E+00
   2.55000  0.602320E+00
   2.60000  0.595677E+00
   2.65000  0.590376E+00
   2.70000  0.583902E+00
   2.75000  0.578669E+00
   2.80000  0.572359E+00
   2.85000  0.567196E+00
   2.90000  0.561043E+00
   2.95000  0.555951E+00
   3.00000  0.549950E+00
   3.05000  0.544930E+00
   3.10000  0.539075E+00
   3.15000  0.534128E+00
   3.20000  0.528415E+00
   3.25000  0.523541E+00
   3.30000  0.517965E+00
   3.35000  0.513165E+00
   3.40000  0.507720E+00
   3.45000  0.502995E+00
   3.50000  0.497678E+00
   3.55000  0.493027E+00
   3.60000  0.487834E+00
   3.65000  0.483257E+00
   3.70000  0.478184E+00
   3.75000  0.473681E+00
   3.80000  0.468724E+00
   3.85000  0.464296E+00
   3.90000  0.459451E+00
   3.95000  0.455097E+00
   4.00000  0.450361E+00
   4.05000  0.446080E+00
   4.10000  0.441451E+00
   4.15000  0.437243E+00
   4.20000  0.432716E+00
   4.25000  0.428581E+00
   4.30000  0.424154E+00
   4.35000  0.420091E+00
   4.40000  0.415761E+00
   4.45000  0.411769E+00
   4.50000  0.407534E+00
   4.55000  0.403612E+00
   4.60000  0.399469E+00
   4.65000  0.395618E+00
   4.70000  0.391564E+00
   4.75000  0.387782E+00
   4.80000  0.383815E+00
   4.85000  0.380101E+00
   4.90000  0.376219E+00
   4.95000  0.372572E+00
   5.00000  0.368774E+00
   5.05000  0.365193E+00
   5.10000  0.361475E+00
   5.15000  0.357960E+00
   5.20000  0.354321E+00
   5.25000  0.350871E+00
   5.30000  0.347308E+00
   5.35000  0.343922E+00
   5.40000  0.340434E+00
   5.45000  0.337111E+00
   5.50000  0.333696E+00
   5.55000  0.330435E+00
   5.60000  0.327091E+00
   5.65000  0.323891E+00
   5.70000  0.320617E+00
   5.75000  0.317477E+00
   5.80000  0.314271E+00
   5.85000  0.311190E+00
   5.90000  0.308050E+00
   5.95000  0.305028E+00
   6.00000  0.301952E+00
   6.05000  0.298987E+00
   6.10000  0.295975E+00
   6.15000  0.293067E+00
   6.20000  0.290116E+00
   6.25000  0.287263E+00
   6.30000  0.284374E+00
   6.35000  0.281575E+00
   6.40000  0.278744E+00
   6.45000  0.275999E+00
   6.50000  0.273226E+00
   6.55000  0.270534E+00
   6.60000  0.267818E+00
   6.65000  0.265177E+00
   6.70000  0.262516E+00
   6.75000  0.259926E+00
   6.80000  0.257319E+00
   6.85000  0.254780E+00
   6.90000  0.252225E+00
   6.95000  0.249735E+00
   7.00000  0.247232E+00
   7.05000  0.244790E+00
   7.10000  0.242338E+00
   7.15000  0.239943E+00
   7.20000  0.237541E+00
   7.25000  0.235192E+00
   7.30000  0.232838E+00
   7.35000  0.230535E+00
   7.40000  0.228229E+00
   7.45000  0.225970E+00
   7.50000  0.223710E+00
   7.55000  0.221496E+00
   7.60000  0.219282E+00
   7.65000  0.217111E+00
   7.70000  0.214940E+00
   7.75000  0.212812E+00
   7.80000  0.210685E+00
   7.85000  0.208598E+00
   7.90000  0.206514E+00
   7.95000  0.204468E+00
   8.00000  0.202426E+00
   8.05000  0.200420E+00
   8.10000  0.198418E+00
   8.15000  0.196451E+00
   8.20000  0.194490E+00
   8.25000  0.192562E+00
   8.30000  0.190640E+00
   8.35000  0.188749E+00
   8.40000  0.186866E+00
   8.45000  0.185012E+00
   8.50000  0.183166E+00
   8.55000  0.181349E+00
   8.60000  0.179540E+00
   8.65000  0.177758E+00
   8.70000  0.175985E+00
   8.75000  0.174239E+00
   8.80000  0.172501E+00
   8.85000  0.170789E+00
   8.90000  0.169086E+00
   8.95000  0.167408E+00
   9.00000  0.165739E+00
   9.05000  0.164093E+00
   9.10000  0.162457E+00
   9.15000  0.160844E+00
   9.20000  0.159241E+00
   9.25000  0.157660E+00
   9.30000  0.156088E+00
   9.35000  0.154538E+00
   9.40000  0.152998E+00
   9.45000  0.151478E+00
   9.50000  0.149969E+00
   9.55000  0.148479E+00
   9.60000  0.147000E+00
   9.65000  0.145540E+00
   9.70000  0.144090E+00
   9.75000  0.142658E+00
   9.80000  0.141237E+00
   9.85000  0.139834E+00
   9.90000  0.138441E+00
   9.95000  0.137065E+00
