# t0=   0.00000
# te=  10.00000
# c =   0.10000
# dt=   0.05000
# n =       200
# t, v
   0.00000  0.100000E+01
   0.05000  0.995000E+00
   0.10000  0.980100E+00
   0.15000  0.975398E+00
   0.20000  0.960592E+00
   0.25000  0.956186E+00
   0.30000  0.941468E+00
   0.35000  0.937357E+00
   0.40000  0.922721E+00
   0.45000  0.918902E+00
   0.50000  0.904343E+00
   0.55000  0.900816E+00
   0.60000  0.886327E+00
   0.65000  0.883089E+00
   0.70000  0.868665E+00
   0.75000  0.865716E+00
   0.80000  0.851351E+00
   0.85000  0.848689E+00
   0.90000  0.834377E+00
   0.95000  0.832001E+00
   1.00000  0.817737E+00
   1.05000  0.815646E+00
   1.10000  0.801424E+00
   1.15000  0.799618E+00
   1.20000  0.785432E+00
   1.25000  0.783909E+00
   1.30000  0.769753E+00
   1.35000  0.768514E+00
   1.40000  0.754383E+00
   1.45000  0.753427E+00
   1.50000  0.739315E+00
   1.55000  0.738640E+00
   1.60000  0.724542E+00
   1.65000  0.724149E+00
   1.70000  0.710059E+00
   1.75000  0.709948E+00
   1.80000  0.695860E+00
   1.85000  0.696031E+00
   1.90000  0.681939E+00
   1.95000  0.682392E+00
   2.00000  0.668291E+00
   2.05000  0.669026E+00
   2.10000  0.654911E+00
   2.15000  0.655928E+00
   2.20000  0.641792E+00
   2.25000  0.643092E+00
   2.30000  0.628930E+00
   2.35000  0.630514E+00
   2.40000  0.616320E+00
   2.45000  0.618187E+00
   2.50000  0.603956E+00
   2.55000  0.606108E+00
   2.60000  0.591834E+00
   2.65000  0.594272E+00
   2.70000  0.579949E+00
   2.75000  0.582673E+00
   2.80000  0.568295E+00
   2.85000  0.571307E+00
   2.90000  0.556869E+00
   2.95000  0.560169E+00
   3.00000  0.545666E+00
   3.05000  0.549256E+00
   3.10000  0.534681E+00
   3.15000  0.538562E+00
   3.20000  0.523909E+00
   3.25000  0.528084E+00
   3.30000  0.513348E+00
   3.35000  0.517817E+00
   3.40000  0.502991E+00
   3.45000  0.507757E+00
   3.50000  0.492836E+00
   3.55000  0.497901E+00
   3.60000  0.482878E+00
   3.65000  0.488243E+00
   3.70000  0.473113E+00
   3.75000  0.478781E+00
   3.80000  0.463538E+00
   3.85000  0.469510E+00
   3.90000  0.454148E+00
   3.95000  0.460427E+00
   4.00000  0.444939E+00
   4.05000  0.451528E+00
   4.10000  0.435908E+00
   4.15000  0.442810E+00
   4.20000  0.427052E+00
   4.25000  0.434269E+00
   4.30000  0.418367E+00
   4.35000  0.425902E+00
   4.40000  0.409849E+00
   4.45000  0.417705E+00
   4.50000  0.401495E+00
   4.55000  0.409675E+00
   4.60000  0.393301E+00
   4.65000  0.401809E+00
   4.70000  0.385265E+00
   4.75000  0.394104E+00
   4.80000  0.377383E+00
   4.85000  0.386556E+00
   4.90000  0.369652E+00
   4.95000  0.379163E+00
   5.00000  0.362069E+00
   5.05000  0.371922E+00
   5.10000  0.354630E+00
   5.15000  0.364829E+00
   5.20000  0.347334E+00
   5.25000  0.357882E+00
   5.30000  0.340176E+00
   5.35000  0.351079E+00
   5.40000  0.333154E+00
   5.45000  0.344416E+00
   5.50000  0.326266E+00
   5.55000  0.337890E+00
   5.60000  0.319508E+00
   5.65000  0.331500E+00
   5.70000  0.312878E+00
   5.75000  0.325243E+00
   5.80000  0.306373E+00
   5.85000  0.319115E+00
   5.90000  0.299991E+00
   5.95000  0.313115E+00
   6.00000  0.293729E+00
   6.05000  0.307241E+00
   6.10000  0.287584E+00
   6.15000  0.301489E+00
   6.20000  0.281554E+00
   6.25000  0.295858E+00
   6.30000  0.275637E+00
   6.35000  0.290345E+00
   6.40000  0.269830E+00
   6.45000  0.284949E+00
   6.50000  0.264131E+00
   6.55000  0.279666E+00
   6.60000  0.258538E+00
   6.65000  0.274495E+00
   6.70000  0.253048E+00
   6.75000  0.269434E+00
   6.80000  0.247659E+00
   6.85000  0.264481E+00
   6.90000  0.242370E+00
   6.95000  0.259634E+00
   7.00000  0.237177E+00
   7.05000  0.254890E+00
   7.10000  0.232079E+00
   7.15000  0.250249E+00
   7.20000  0.227074E+00
   7.25000  0.245707E+00
   7.30000  0.222160E+00
   7.35000  0.241264E+00
   7.40000  0.217335E+00
   7.45000  0.236917E+00
   7.50000  0.212596E+00
   7.55000  0.232665E+00
   7.60000  0.207943E+00
   7.65000  0.228506E+00
   7.70000  0.203373E+00
   7.75000  0.224439E+00
   7.80000  0.198884E+00
   7.85000  0.220461E+00
   7.90000  0.194475E+00
   7.95000  0.216572E+00
   8.00000  0.190144E+00
   8.05000  0.212769E+00
   8.10000  0.185888E+00
   8.15000  0.209051E+00
   8.20000  0.181707E+00
   8.25000  0.205417E+00
   8.30000  0.177599E+00
   8.35000  0.201865E+00
   8.40000  0.173561E+00
   8.45000  0.198394E+00
   8.50000  0.169594E+00
   8.55000  0.195002E+00
   8.60000  0.165694E+00
   8.65000  0.191688E+00
   8.70000  0.161860E+00
   8.75000  0.188451E+00
   8.80000  0.158091E+00
   8.85000  0.185289E+00
   8.90000  0.154385E+00
   8.95000  0.182201E+00
   9.00000  0.150741E+00
   9.05000  0.179186E+00
   9.10000  0.147157E+00
   9.15000  0.176243E+00
   9.20000  0.143632E+00
   9.25000  0.173371E+00
   9.30000  0.140165E+00
   9.35000  0.170567E+00
   9.40000  0.136754E+00
   9.45000  0.167832E+00
   9.50000  0.133397E+00
   9.55000  0.165164E+00
   9.60000  0.130094E+00
   9.65000  0.162562E+00
   9.70000  0.126842E+00
   9.75000  0.160026E+00
   9.80000  0.123642E+00
   9.85000  0.157553E+00
   9.90000  0.120491E+00
   9.95000  0.155143E+00
