
BD5904767

/work01/DATA/ARGO
$ ls BD5904767*|head -3
BD5904767_001.nc
BD5904767_002.nc
BD5904767_003.nc

$ ls BD5904767*|wc
    123     123    2091
BD5904767_001.nc 
BD5904767_025.nc  BD5904767_072.nc  BD5904767_097.nc  BD5904767_122.nc

/work03/am/2022.BGC_ARGO_SO/12.14.BBP_PROFILE_MAP/OUT_ALL.PROFILES.PLOT/3001-3500