# /work03/am/2022.06.ECS.OBS/12.22.SONDE_3SHIP/12.12.OBS_POINT
# /work09/am/00.WORK/2022.ECS2022/0.ECS2022.06_SUMMARY_2023-02-21/04.SOUNDING/22.12.SONDE/22.14.STN/62.32.CAPE3D_PLT
# ./OBSP.sh 
# Fri, 20 Jan 2023 08:59:43 +0900
# N /work01/DATA/IN_SITU/2022.06.ECS.SONDE/NAGASAKI/N
# K /work01/DATA/IN_SITU/2022.06.ECS.SONDE/KAGOSHIMA/01_KZ
# S /work01/DATA/IN_SITU/2022.06.ECS.SONDE/SEISUI/S
+30.16222 +128.33614 2022-06-18T23:30:55 N 1 /work01/DATA/IN_SITU/2022.06.ECS.SONDE/NAGASAKI/N/F2022061823S1103612.CSV
+30.15819 +128.18969 2022-06-19T00:31:15 N 2 /work01/DATA/IN_SITU/2022.06.ECS.SONDE/NAGASAKI/N/F2022061900S1103613.CSV
+30.15367 +128.03339 2022-06-19T01:31:16 N 3 /work01/DATA/IN_SITU/2022.06.ECS.SONDE/NAGASAKI/N/F2022061901S1103614.CSV
+30.29908 +127.99972 2022-06-19T02:31:19 N 4 /work01/DATA/IN_SITU/2022.06.ECS.SONDE/NAGASAKI/N/F2022061902S1103615.CSV
+30.29889 +128.16494 2022-06-19T03:31:47 N 5 /work01/DATA/IN_SITU/2022.06.ECS.SONDE/NAGASAKI/N/F2022061903S1103501.CSV
+30.30233 +128.33431 2022-06-19T04:31:24 N 6 /work01/DATA/IN_SITU/2022.06.ECS.SONDE/NAGASAKI/N/F2022061904S1103502.CSV
+30.36983 +128.33314 2022-06-19T05:31:05 N 7 /work01/DATA/IN_SITU/2022.06.ECS.SONDE/NAGASAKI/N/F2022061905S1103503.CSV
+30.43983 +128.33206 2022-06-19T06:31:13 N 8 /work01/DATA/IN_SITU/2022.06.ECS.SONDE/NAGASAKI/N/F2022061906S1103504.CSV
+30.44258 +128.16161 2022-06-19T07:31:21 N 9 /work01/DATA/IN_SITU/2022.06.ECS.SONDE/NAGASAKI/N/F2022061907S1103505.CSV
+30.44222 +128.00200 2022-06-19T08:30:59 N 10 /work01/DATA/IN_SITU/2022.06.ECS.SONDE/NAGASAKI/N/F2022061908S1103506.CSV
+30.58150 +127.99919 2022-06-19T09:30:57 N 11 /work01/DATA/IN_SITU/2022.06.ECS.SONDE/NAGASAKI/N/F2022061909S1103507.CSV
+30.58350 +128.16517 2022-06-19T10:30:49 N 12 /work01/DATA/IN_SITU/2022.06.ECS.SONDE/NAGASAKI/N/F2022061910S1103508.CSV
+30.58381 +128.33361 2022-06-19T11:30:58 N 13 /work01/DATA/IN_SITU/2022.06.ECS.SONDE/NAGASAKI/N/F2022061911S1103509.CSV
+30.72578 +128.33128 2022-06-19T13:30:50 N 14 /work01/DATA/IN_SITU/2022.06.ECS.SONDE/NAGASAKI/N/F2022061913S1103510.CSV
+30.72681 +128.16569 2022-06-19T14:30:57 N 15 /work01/DATA/IN_SITU/2022.06.ECS.SONDE/NAGASAKI/N/F2022061914S1103511.CSV
+30.72581 +128.00053 2022-06-19T15:31:01 N 16 /work01/DATA/IN_SITU/2022.06.ECS.SONDE/NAGASAKI/N/F2022061915S1103515.CSV
+30.86994 +127.99764 2022-06-19T16:31:26 N 17 /work01/DATA/IN_SITU/2022.06.ECS.SONDE/NAGASAKI/N/F2022061916S1103514.CSV
+30.86847 +128.16911 2022-06-19T17:31:13 N 18 /work01/DATA/IN_SITU/2022.06.ECS.SONDE/NAGASAKI/N/F2022061917S1103513.CSV
+30.94378 +128.33625 2022-06-19T19:30:59 N 19 /work01/DATA/IN_SITU/2022.06.ECS.SONDE/NAGASAKI/N/F2022061919S1103516.CSV
+31.00864 +128.33289 2022-06-19T20:30:54 N 20 /work01/DATA/IN_SITU/2022.06.ECS.SONDE/NAGASAKI/N/F2022061920S1103517.CSV
+31.00761 +128.17842 2022-06-19T21:30:56 N 21 /work01/DATA/IN_SITU/2022.06.ECS.SONDE/NAGASAKI/N/F2022061921S1103518.CSV
+31.00722 +128.01431 2022-06-19T22:31:06 N 22 /work01/DATA/IN_SITU/2022.06.ECS.SONDE/NAGASAKI/N/F2022061922S1103519.CSV
+31.14894 +128.00022 2022-06-19T23:30:47 N 23 /work01/DATA/IN_SITU/2022.06.ECS.SONDE/NAGASAKI/N/F2022061923S1103520.CSV
+31.14911 +128.16703 2022-06-20T00:30:52 N 24 /work01/DATA/IN_SITU/2022.06.ECS.SONDE/NAGASAKI/N/F2022062000S1103521.CSV
+31.15069 +128.33217 2022-06-20T01:31:01 N 25 /work01/DATA/IN_SITU/2022.06.ECS.SONDE/NAGASAKI/N/F2022062001S1103522.CSV
+30.15897 +128.83269 2022-06-18T23:31:42 K 1 /work01/DATA/IN_SITU/2022.06.ECS.SONDE/KAGOSHIMA/01_KZ/F2022061823S1101365.CSV
+30.15839 +128.66589 2022-06-19T00:31:36 K 2 /work01/DATA/IN_SITU/2022.06.ECS.SONDE/KAGOSHIMA/01_KZ/F2022061900S1101366.CSV
+30.15867 +128.49875 2022-06-19T01:31:19 K 3 /work01/DATA/IN_SITU/2022.06.ECS.SONDE/KAGOSHIMA/01_KZ/F2022061901S1101367.CSV
+30.30075 +128.66897 2022-06-19T03:32:04 K 4 /work01/DATA/IN_SITU/2022.06.ECS.SONDE/KAGOSHIMA/01_KZ/F2022061903S1101369.CSV
+30.29939 +128.83464 2022-06-19T04:32:26 K 5 /work01/DATA/IN_SITU/2022.06.ECS.SONDE/KAGOSHIMA/01_KZ/F2022061904S1101370.CSV
+30.44311 +128.83461 2022-06-19T06:33:15 K 6 /work01/DATA/IN_SITU/2022.06.ECS.SONDE/KAGOSHIMA/01_KZ/F2022061906S1101371.CSV
+30.44597 +128.66678 2022-06-19T07:34:11 K 7 /work01/DATA/IN_SITU/2022.06.ECS.SONDE/KAGOSHIMA/01_KZ/F2022061907S1101372.CSV
+30.44422 +128.50136 2022-06-19T08:34:38 K 8 /work01/DATA/IN_SITU/2022.06.ECS.SONDE/KAGOSHIMA/01_KZ/F2022061908S1101373.CSV
+30.58239 +128.50175 2022-06-19T09:31:43 K 9 /work01/DATA/IN_SITU/2022.06.ECS.SONDE/KAGOSHIMA/01_KZ/F2022061909S1101374.CSV
+30.59267 +128.63408 2022-06-19T10:32:28 K 10 /work01/DATA/IN_SITU/2022.06.ECS.SONDE/KAGOSHIMA/01_KZ/F2022061910S1101375.CSV
+30.58375 +128.83636 2022-06-19T11:32:59 K 11 /work01/DATA/IN_SITU/2022.06.ECS.SONDE/KAGOSHIMA/01_KZ/F2022061911S1101376.CSV
+30.72444 +128.83303 2022-06-19T13:31:45 K 12 /work01/DATA/IN_SITU/2022.06.ECS.SONDE/KAGOSHIMA/01_KZ/F2022061913S1101377.CSV
+30.73025 +128.66567 2022-06-19T14:41:32 K 13 /work01/DATA/IN_SITU/2022.06.ECS.SONDE/KAGOSHIMA/01_KZ/F2022061914S1101379.CSV
+30.72403 +128.50219 2022-06-19T15:33:36 K 14 /work01/DATA/IN_SITU/2022.06.ECS.SONDE/KAGOSHIMA/01_KZ/F2022061915S1101378.CSV
+30.86617 +128.49658 2022-06-19T16:32:26 K 15 /work01/DATA/IN_SITU/2022.06.ECS.SONDE/KAGOSHIMA/01_KZ/F2022061916S1101380.CSV
+30.86400 +128.66736 2022-06-19T17:32:38 K 16 /work01/DATA/IN_SITU/2022.06.ECS.SONDE/KAGOSHIMA/01_KZ/F2022061917S1103121.CSV
+30.86864 +128.83239 2022-06-19T18:32:43 K 17 /work01/DATA/IN_SITU/2022.06.ECS.SONDE/KAGOSHIMA/01_KZ/F2022061918S1103122.CSV
+31.00853 +128.83325 2022-06-19T20:32:40 K 18 /work01/DATA/IN_SITU/2022.06.ECS.SONDE/KAGOSHIMA/01_KZ/F2022061920S1103123.CSV
+31.01069 +128.67522 2022-06-19T21:32:19 K 19 /work01/DATA/IN_SITU/2022.06.ECS.SONDE/KAGOSHIMA/01_KZ/F2022061921S1103124.CSV
+31.00969 +128.50397 2022-06-19T22:32:40 K 20 /work01/DATA/IN_SITU/2022.06.ECS.SONDE/KAGOSHIMA/01_KZ/F2022061922S1103125.CSV
+31.15183 +128.49997 2022-06-19T23:32:04 K 21 /work01/DATA/IN_SITU/2022.06.ECS.SONDE/KAGOSHIMA/01_KZ/F2022061923S1103126.CSV
+31.14761 +128.66928 2022-06-20T00:33:12 K 22 /work01/DATA/IN_SITU/2022.06.ECS.SONDE/KAGOSHIMA/01_KZ/F2022062000S1103128.CSV
+31.15294 +128.83231 2022-06-20T01:32:49 K 23 /work01/DATA/IN_SITU/2022.06.ECS.SONDE/KAGOSHIMA/01_KZ/F2022062001S1103129.CSV
+30.15867 +129.33203 2022-06-18T23:30:50 S 1 /work01/DATA/IN_SITU/2022.06.ECS.SONDE/SEISUI/S/F2022061823S1102907.CSV
+30.15864 +129.16567 2022-06-19T00:31:02 S 2 /work01/DATA/IN_SITU/2022.06.ECS.SONDE/SEISUI/S/F2022061900S1102908.CSV
+30.15939 +128.99892 2022-06-19T01:31:06 S 3 /work01/DATA/IN_SITU/2022.06.ECS.SONDE/SEISUI/S/F2022061901S1102909.CSV
+30.30061 +129.00161 2022-06-19T02:36:49 S 4 /work01/DATA/IN_SITU/2022.06.ECS.SONDE/SEISUI/S/F2022061902S1102911.CSV
+30.29919 +129.17075 2022-06-19T03:30:41 S 5 /work01/DATA/IN_SITU/2022.06.ECS.SONDE/SEISUI/S/F2022061903S1102912.CSV
+30.30097 +129.33619 2022-06-19T04:31:02 S 6 /work01/DATA/IN_SITU/2022.06.ECS.SONDE/SEISUI/S/F2022061904S1102913.CSV
+30.44078 +129.33644 2022-06-19T06:31:17 S 7 /work01/DATA/IN_SITU/2022.06.ECS.SONDE/SEISUI/S/F2022061906S1102914.CSV
+30.43842 +129.16903 2022-06-19T07:31:35 S 8 /work01/DATA/IN_SITU/2022.06.ECS.SONDE/SEISUI/S/F2022061907S1102915.CSV
+30.44164 +128.99983 2022-06-19T08:31:11 S 9 /work01/DATA/IN_SITU/2022.06.ECS.SONDE/SEISUI/S/F2022061908S1102916.CSV
+30.58406 +129.00081 2022-06-19T09:30:52 S 10 /work01/DATA/IN_SITU/2022.06.ECS.SONDE/SEISUI/S/F2022061909S1102917.CSV
+30.58289 +129.16889 2022-06-19T10:30:57 S 11 /work01/DATA/IN_SITU/2022.06.ECS.SONDE/SEISUI/S/F2022061910S1102918.CSV
+30.58314 +129.33519 2022-06-19T11:30:47 S 12 /work01/DATA/IN_SITU/2022.06.ECS.SONDE/SEISUI/S/F2022061911S1102919.CSV
+30.72464 +129.33200 2022-06-19T13:30:50 S 13 /work01/DATA/IN_SITU/2022.06.ECS.SONDE/SEISUI/S/F2022061913S1102920.CSV
+30.72467 +129.16617 2022-06-19T14:30:42 S 14 /work01/DATA/IN_SITU/2022.06.ECS.SONDE/SEISUI/S/F2022061914S1103003.CSV
+30.72500 +129.00086 2022-06-19T15:30:55 S 15 /work01/DATA/IN_SITU/2022.06.ECS.SONDE/SEISUI/S/F2022061915S1103004.CSV
+30.86739 +128.99964 2022-06-19T16:31:08 S 16 /work01/DATA/IN_SITU/2022.06.ECS.SONDE/SEISUI/S/F2022061916S1103005.CSV
+30.86658 +129.16647 2022-06-19T17:31:30 S 17 /work01/DATA/IN_SITU/2022.06.ECS.SONDE/SEISUI/S/F2022061917S1103006.CSV
+30.86639 +129.33272 2022-06-19T18:31:09 S 18 /work01/DATA/IN_SITU/2022.06.ECS.SONDE/SEISUI/S/F2022061918S1103007.CSV
+31.00725 +129.33222 2022-06-19T20:30:57 S 19 /work01/DATA/IN_SITU/2022.06.ECS.SONDE/SEISUI/S/F2022061920S1103008.CSV
+31.00878 +129.16236 2022-06-19T21:31:15 S 20 /work01/DATA/IN_SITU/2022.06.ECS.SONDE/SEISUI/S/F2022061921S1103009.CSV
+31.00872 +129.00047 2022-06-19T22:30:54 S 21 /work01/DATA/IN_SITU/2022.06.ECS.SONDE/SEISUI/S/F2022061922S1103010.CSV
+31.14972 +129.00081 2022-06-19T23:30:37 S 22 /work01/DATA/IN_SITU/2022.06.ECS.SONDE/SEISUI/S/F2022061923S1103011.CSV
+31.15144 +129.16450 2022-06-20T00:31:22 S 23 /work01/DATA/IN_SITU/2022.06.ECS.SONDE/SEISUI/S/F2022062000S1103013.CSV
+31.15119 +129.33217 2022-06-20T01:30:55 S 24 /work01/DATA/IN_SITU/2022.06.ECS.SONDE/SEISUI/S/F2022062001S1103014.CSV
