netcdf LFM_PRS_FH00_VALID_2022-06-19_23 {
dimensions:
	time = 1 ;
	lv_ISBL1 = 12 ;
	lon_0 = 281 ;
	lat_0 = 316 ;
variables:
	double time(time) ;
		time:calendar = "standard" ;
		time:units = "hours since 2022-06-01 00:00:00" ;
	float p1(lv_ISBL1) ;
		p1:units = "Pa" ;
		p1:long_name = "Isobaric surface" ;
	float lv_ISBL1(lv_ISBL1) ;
		lv_ISBL1:units = "Pa" ;
		lv_ISBL1:long_name = "Isobaric surface" ;
	float lon(lon_0) ;
		lon:La1 = 47.6f ;
		lon:Lo1 = 120.f ;
		lon:La2 = 22.4f ;
		lon:Lo2 = 150.f ;
		lon:Di = 0.05f ;
		lon:Dj = 0.04f ;
		lon:units = "degrees_east" ;
		lon:grid_type = "Latitude/Longitude" ;
		lon:long_name = "longitude" ;
	float lon_0(lon_0) ;
		lon_0:La1 = 47.6f ;
		lon_0:Lo1 = 120.f ;
		lon_0:La2 = 22.4f ;
		lon_0:Lo2 = 150.f ;
		lon_0:Di = 0.05f ;
		lon_0:Dj = 0.04f ;
		lon_0:units = "degrees_east" ;
		lon_0:grid_type = "Latitude/Longitude" ;
		lon_0:long_name = "longitude" ;
	float lat(lat_0) ;
		lat:La1 = 47.6f ;
		lat:Lo1 = 120.f ;
		lat:La2 = 22.4f ;
		lat:Lo2 = 150.f ;
		lat:Di = 0.05f ;
		lat:Dj = 0.04f ;
		lat:units = "degrees_north" ;
		lat:grid_type = "Latitude/Longitude" ;
		lat:long_name = "latitude" ;
	float lat_0(lat_0) ;
		lat_0:La1 = 47.6f ;
		lat_0:Lo1 = 120.f ;
		lat_0:La2 = 22.4f ;
		lat_0:Lo2 = 150.f ;
		lat_0:Di = 0.05f ;
		lat_0:Dj = 0.04f ;
		lat_0:units = "degrees_north" ;
		lat_0:grid_type = "Latitude/Longitude" ;
		lat_0:long_name = "latitude" ;
	float u(lv_ISBL1, lat_0, lon_0) ;
		u:initial_time = "06/19/2022 (23:00)" ;
		u:forecast_time_units = "minutes" ;
		u:forecast_time = 0 ;
		u:level_type = "Isobaric surface (Pa)" ;
		u:parameter_template_discipline_category_number = 0, 0, 2, 2 ;
		u:parameter_discipline_and_category = "Meteorological products, Momentum" ;
		u:grid_type = "Latitude/longitude" ;
		u:_FillValue = 1.e+20f ;
		u:units = "m s-1" ;
		u:long_name = "U-component of wind" ;
		u:production_status = "Operational products" ;
		u:center = "Japanese Meteorological Agency - Tokyo (RSMC)" ;
	float v(lv_ISBL1, lat_0, lon_0) ;
		v:initial_time = "06/19/2022 (23:00)" ;
		v:forecast_time_units = "minutes" ;
		v:forecast_time = 0 ;
		v:level_type = "Isobaric surface (Pa)" ;
		v:parameter_template_discipline_category_number = 0, 0, 2, 3 ;
		v:parameter_discipline_and_category = "Meteorological products, Momentum" ;
		v:grid_type = "Latitude/longitude" ;
		v:_FillValue = 1.e+20f ;
		v:units = "m s-1" ;
		v:long_name = "V-component of wind" ;
		v:production_status = "Operational products" ;
		v:center = "Japanese Meteorological Agency - Tokyo (RSMC)" ;
	float w(lv_ISBL1, lat_0, lon_0) ;
		w:initial_time = "06/19/2022 (23:00)" ;
		w:forecast_time_units = "minutes" ;
		w:forecast_time = 0 ;
		w:level_type = "Isobaric surface (Pa)" ;
		w:parameter_template_discipline_category_number = 0, 0, 2, 8 ;
		w:parameter_discipline_and_category = "Meteorological products, Momentum" ;
		w:grid_type = "Latitude/longitude" ;
		w:_FillValue = 1.e+20f ;
		w:units = "Pa s-1" ;
		w:long_name = "Vertical velocity (pressure)" ;
		w:production_status = "Operational products" ;
		w:center = "Japanese Meteorological Agency - Tokyo (RSMC)" ;
	float z(lv_ISBL1, lat_0, lon_0) ;
		z:initial_time = "06/19/2022 (23:00)" ;
		z:forecast_time_units = "minutes" ;
		z:forecast_time = 0 ;
		z:level_type = "Isobaric surface (Pa)" ;
		z:parameter_template_discipline_category_number = 0, 0, 3, 5 ;
		z:parameter_discipline_and_category = "Meteorological products, Mass" ;
		z:grid_type = "Latitude/longitude" ;
		z:_FillValue = 1.e+20f ;
		z:units = "gpm" ;
		z:long_name = "Geopotential height" ;
		z:production_status = "Operational products" ;
		z:center = "Japanese Meteorological Agency - Tokyo (RSMC)" ;
	float temp(lv_ISBL1, lat_0, lon_0) ;
		temp:initial_time = "06/19/2022 (23:00)" ;
		temp:forecast_time_units = "minutes" ;
		temp:forecast_time = 0 ;
		temp:level_type = "Isobaric surface (Pa)" ;
		temp:parameter_template_discipline_category_number = 0, 0, 0, 0 ;
		temp:parameter_discipline_and_category = "Meteorological products, Temperature" ;
		temp:grid_type = "Latitude/longitude" ;
		temp:_FillValue = 1.e+20f ;
		temp:units = "K" ;
		temp:long_name = "Temperature" ;
		temp:production_status = "Operational products" ;
		temp:center = "Japanese Meteorological Agency - Tokyo (RSMC)" ;
	float rh(lv_ISBL1, lat_0, lon_0) ;
		rh:initial_time = "06/19/2022 (23:00)" ;
		rh:forecast_time_units = "minutes" ;
		rh:forecast_time = 0 ;
		rh:level_type = "Isobaric surface (Pa)" ;
		rh:parameter_template_discipline_category_number = 0, 0, 1, 1 ;
		rh:parameter_discipline_and_category = "Meteorological products, Moisture" ;
		rh:grid_type = "Latitude/longitude" ;
		rh:_FillValue = 1.e+20f ;
		rh:units = "%" ;
		rh:long_name = "Relative humidity" ;
		rh:production_status = "Operational products" ;
		rh:center = "Japanese Meteorological Agency - Tokyo (RSMC)" ;
}
