 
**** Compiling ARWpost ****
 
/bin/rm -f module_model_basics.o module_model_basics.mod
/bin/cp module_model_basics.f90 module_model_basics.f
ifort -FR -convert big_endian -I/cm/shared/apps/netcdf-f/4.4.5/intel/19.0.4/include -c module_model_basics.f 
/bin/rm -f module_model_basics.f
/bin/rm -f constants_module.o constants_module.mod
/bin/cp constants_module.f90 constants_module.f
ifort -FR -convert big_endian -I/cm/shared/apps/netcdf-f/4.4.5/intel/19.0.4/include -c constants_module.f 
/bin/rm -f constants_module.f
/bin/rm -f misc_definitions_module.o misc_definitions_module.mod
/bin/cp misc_definitions_module.f90 misc_definitions_module.f
ifort -FR -convert big_endian -I/cm/shared/apps/netcdf-f/4.4.5/intel/19.0.4/include -c misc_definitions_module.f 
/bin/rm -f misc_definitions_module.f
/bin/rm -f module_debug.o module_debug.mod
/bin/cp module_debug.f90 module_debug.f
ifort -FR -convert big_endian -I/cm/shared/apps/netcdf-f/4.4.5/intel/19.0.4/include -c module_debug.f 
/bin/rm -f module_debug.f
/bin/rm -f module_get_file_names.o module_get_file_names.mod
/lib/cpp -traditional -DIO_NETCDF -DIO_GRIB1 -DIO_BINARY -Dbytesw   module_get_file_names.F90 > module_get_file_names.f
ifort -FR -convert big_endian -I/cm/shared/apps/netcdf-f/4.4.5/intel/19.0.4/include -c module_get_file_names.f 
<コマンドライン>(5): 警告 #5117: # プリプロセッサー行が正しくありません。
# 1 "/usr/include/stdc-predef.h" 1 3 4
-----------------------------------^
/usr/include/stdc-predef.h(16): 警告 #5117: # プリプロセッサー行が正しくありません。
# 17 "/usr/include/stdc-predef.h" 3 4
----------------------------------^
/bin/rm -f module_get_file_names.f
/bin/rm -f gridinfo_module.o gridinfo_module.mod
/bin/cp gridinfo_module.f90 gridinfo_module.f
ifort -FR -convert big_endian -I/cm/shared/apps/netcdf-f/4.4.5/intel/19.0.4/include -c gridinfo_module.f 
/bin/rm -f gridinfo_module.f
/bin/rm -f module_date_pack.o module_date_pack.mod
/bin/cp module_date_pack.f90 module_date_pack.f
ifort -FR -convert big_endian -I/cm/shared/apps/netcdf-f/4.4.5/intel/19.0.4/include -c module_date_pack.f 
/bin/rm -f module_date_pack.f
/bin/rm -f input_module.o input_module.mod
/bin/cp input_module.f90 input_module.f
ifort -FR -convert big_endian -I/cm/shared/apps/netcdf-f/4.4.5/intel/19.0.4/include -c input_module.f 
/bin/rm -f input_module.f
/bin/rm -f module_arrays.o module_arrays.mod
/bin/cp module_arrays.f90 module_arrays.f
ifort -FR -convert big_endian -I/cm/shared/apps/netcdf-f/4.4.5/intel/19.0.4/include -c module_arrays.f 
/bin/rm -f module_arrays.f
/bin/rm -f module_pressure.o module_pressure.mod
/bin/cp module_pressure.f90 module_pressure.f
ifort -FR -convert big_endian -I/cm/shared/apps/netcdf-f/4.4.5/intel/19.0.4/include -c module_pressure.f 
/bin/rm -f module_pressure.f
/bin/rm -f module_interp.o module_interp.mod
/bin/cp module_interp.f90 module_interp.f
ifort -FR -convert big_endian -I/cm/shared/apps/netcdf-f/4.4.5/intel/19.0.4/include -c module_interp.f 
/bin/rm -f module_interp.f
/bin/rm -f output_module.o output_module.mod
/lib/cpp -traditional -DIO_NETCDF -DIO_GRIB1 -DIO_BINARY -Dbytesw   output_module.F90 > output_module.f
ifort -FR -convert big_endian -I/cm/shared/apps/netcdf-f/4.4.5/intel/19.0.4/include -c output_module.f 
<コマンドライン>(5): 警告 #5117: # プリプロセッサー行が正しくありません。
# 1 "/usr/include/stdc-predef.h" 1 3 4
-----------------------------------^
/usr/include/stdc-predef.h(16): 警告 #5117: # プリプロセッサー行が正しくありません。
# 17 "/usr/include/stdc-predef.h" 3 4
----------------------------------^
/bin/rm -f output_module.f
/bin/rm -f module_basic_arrays.o module_basic_arrays.mod
/bin/cp module_basic_arrays.f90 module_basic_arrays.f
ifort -FR -convert big_endian -I/cm/shared/apps/netcdf-f/4.4.5/intel/19.0.4/include -c module_basic_arrays.f 
/bin/rm -f module_basic_arrays.f
/bin/rm -f module_calc_height.o module_calc_height.mod
/bin/cp module_calc_height.f90 module_calc_height.f
ifort -FR -convert big_endian -I/cm/shared/apps/netcdf-f/4.4.5/intel/19.0.4/include -c module_calc_height.f 
/bin/rm -f module_calc_height.f
/bin/rm -f module_calc_pressure.o module_calc_pressure.mod
/bin/cp module_calc_pressure.f90 module_calc_pressure.f
ifort -FR -convert big_endian -I/cm/shared/apps/netcdf-f/4.4.5/intel/19.0.4/include -c module_calc_pressure.f 
/bin/rm -f module_calc_pressure.f
/bin/rm -f module_calc_tk.o module_calc_tk.mod
/bin/cp module_calc_tk.f90 module_calc_tk.f
ifort -FR -convert big_endian -I/cm/shared/apps/netcdf-f/4.4.5/intel/19.0.4/include -c module_calc_tk.f 
/bin/rm -f module_calc_tk.f
/bin/rm -f module_calc_tc.o module_calc_tc.mod
/bin/cp module_calc_tc.f90 module_calc_tc.f
ifort -FR -convert big_endian -I/cm/shared/apps/netcdf-f/4.4.5/intel/19.0.4/include -c module_calc_tc.f 
/bin/rm -f module_calc_tc.f
/bin/rm -f module_calc_theta.o module_calc_theta.mod
/bin/cp module_calc_theta.f90 module_calc_theta.f
ifort -FR -convert big_endian -I/cm/shared/apps/netcdf-f/4.4.5/intel/19.0.4/include -c module_calc_theta.f 
/bin/rm -f module_calc_theta.f
/bin/rm -f module_calc_td.o module_calc_td.mod
/bin/cp module_calc_td.f90 module_calc_td.f
ifort -FR -convert big_endian -I/cm/shared/apps/netcdf-f/4.4.5/intel/19.0.4/include -c module_calc_td.f 
/bin/rm -f module_calc_td.f
/bin/rm -f module_calc_td2.o module_calc_td2.mod
/bin/cp module_calc_td2.f90 module_calc_td2.f
ifort -FR -convert big_endian -I/cm/shared/apps/netcdf-f/4.4.5/intel/19.0.4/include -c module_calc_td2.f 
/bin/rm -f module_calc_td2.f
/bin/rm -f module_calc_rh.o module_calc_rh.mod
/bin/cp module_calc_rh.f90 module_calc_rh.f
ifort -FR -convert big_endian -I/cm/shared/apps/netcdf-f/4.4.5/intel/19.0.4/include -c module_calc_rh.f 
/bin/rm -f module_calc_rh.f
/bin/rm -f module_calc_rh2.o module_calc_rh2.mod
/bin/cp module_calc_rh2.f90 module_calc_rh2.f
ifort -FR -convert big_endian -I/cm/shared/apps/netcdf-f/4.4.5/intel/19.0.4/include -c module_calc_rh2.f 
/bin/rm -f module_calc_rh2.f
/bin/rm -f module_calc_uvmet.o module_calc_uvmet.mod
/bin/cp module_calc_uvmet.f90 module_calc_uvmet.f
ifort -FR -convert big_endian -I/cm/shared/apps/netcdf-f/4.4.5/intel/19.0.4/include -c module_calc_uvmet.f 
/bin/rm -f module_calc_uvmet.f
/bin/rm -f module_calc_slp.o module_calc_slp.mod
/bin/cp module_calc_slp.f90 module_calc_slp.f
ifort -FR -convert big_endian -I/cm/shared/apps/netcdf-f/4.4.5/intel/19.0.4/include -c module_calc_slp.f 
/bin/rm -f module_calc_slp.f
/bin/rm -f module_calc_dbz.o module_calc_dbz.mod
/bin/cp module_calc_dbz.f90 module_calc_dbz.f
ifort -FR -convert big_endian -I/cm/shared/apps/netcdf-f/4.4.5/intel/19.0.4/include -c module_calc_dbz.f 
/bin/rm -f module_calc_dbz.f
/bin/rm -f module_calc_cape.o module_calc_cape.mod
/bin/cp module_calc_cape.f90 module_calc_cape.f
ifort -FR -convert big_endian -I/cm/shared/apps/netcdf-f/4.4.5/intel/19.0.4/include -c module_calc_cape.f 
/bin/rm -f module_calc_cape.f
/bin/rm -f module_calc_wdir.o module_calc_wdir.mod
/bin/cp module_calc_wdir.f90 module_calc_wdir.f
ifort -FR -convert big_endian -I/cm/shared/apps/netcdf-f/4.4.5/intel/19.0.4/include -c module_calc_wdir.f 
/bin/rm -f module_calc_wdir.f
/bin/rm -f module_calc_wspd.o module_calc_wspd.mod
/bin/cp module_calc_wspd.f90 module_calc_wspd.f
ifort -FR -convert big_endian -I/cm/shared/apps/netcdf-f/4.4.5/intel/19.0.4/include -c module_calc_wspd.f 
/bin/rm -f module_calc_wspd.f
/bin/rm -f module_calc_clfr.o module_calc_clfr.mod
/bin/cp module_calc_clfr.f90 module_calc_clfr.f
ifort -FR -convert big_endian -I/cm/shared/apps/netcdf-f/4.4.5/intel/19.0.4/include -c module_calc_clfr.f 
/bin/rm -f module_calc_clfr.f
/bin/rm -f module_calc_myrh.o module_calc_myrh.mod
/bin/cp module_calc_myrh.f90 module_calc_myrh.f
ifort -FR -convert big_endian -I/cm/shared/apps/netcdf-f/4.4.5/intel/19.0.4/include -c module_calc_myrh.f 
/bin/rm -f module_calc_myrh.f
/bin/rm -f module_ept_bolton80.o module_ept_bolton80.mod
/bin/cp module_ept_bolton80.f90 module_ept_bolton80.f
ifort -FR -convert big_endian -I/cm/shared/apps/netcdf-f/4.4.5/intel/19.0.4/include -c module_ept_bolton80.f 
/bin/rm -f module_ept_bolton80.f
/bin/rm -f module_calc_ept.o module_calc_ept.mod
/bin/cp module_calc_ept.f90 module_calc_ept.f
ifort -FR -convert big_endian -I/cm/shared/apps/netcdf-f/4.4.5/intel/19.0.4/include -c module_calc_ept.f 
/bin/rm -f module_calc_ept.f
/bin/rm -f module_calc_LFC3.o module_calc_LFC3.mod
/bin/cp module_calc_LFC3.f90 module_calc_LFC3.f
ifort -FR -convert big_endian -I/cm/shared/apps/netcdf-f/4.4.5/intel/19.0.4/include -c module_calc_LFC3.f 
/bin/rm -f module_calc_LFC3.f
/bin/rm -f module_calc_EL3.o module_calc_EL3.mod
/bin/cp module_calc_EL3.f90 module_calc_EL3.f
ifort -FR -convert big_endian -I/cm/shared/apps/netcdf-f/4.4.5/intel/19.0.4/include -c module_calc_EL3.f 
/bin/rm -f module_calc_EL3.f
/bin/rm -f module_calc_ept_sat.o module_calc_ept_sat.mod
/bin/cp module_calc_ept_sat.f90 module_calc_ept_sat.f
ifort -FR -convert big_endian -I/cm/shared/apps/netcdf-f/4.4.5/intel/19.0.4/include -c module_calc_ept_sat.f 
/bin/rm -f module_calc_ept_sat.f
/bin/rm -f module_calc_LFC3PRES.o module_calc_LFC3PRES.mod
/bin/cp module_calc_LFC3PRES.f90 module_calc_LFC3PRES.f
ifort -FR -convert big_endian -I/cm/shared/apps/netcdf-f/4.4.5/intel/19.0.4/include -c module_calc_LFC3PRES.f 
/bin/rm -f module_calc_LFC3PRES.f
/bin/rm -f module_diagnostics.o module_diagnostics.mod
/bin/cp module_diagnostics.f90 module_diagnostics.f
ifort -FR -convert big_endian -I/cm/shared/apps/netcdf-f/4.4.5/intel/19.0.4/include -c module_diagnostics.f 
/bin/rm -f module_diagnostics.f
/bin/rm -f process_domain_module.o process_domain_module.mod
/lib/cpp -traditional -DIO_NETCDF -DIO_GRIB1 -DIO_BINARY -Dbytesw   process_domain_module.F90 > process_domain_module.f
ifort -FR -convert big_endian -I/cm/shared/apps/netcdf-f/4.4.5/intel/19.0.4/include -c process_domain_module.f 
<コマンドライン>(5): 警告 #5117: # プリプロセッサー行が正しくありません。
# 1 "/usr/include/stdc-predef.h" 1 3 4
-----------------------------------^
/usr/include/stdc-predef.h(16): 警告 #5117: # プリプロセッサー行が正しくありません。
# 17 "/usr/include/stdc-predef.h" 3 4
----------------------------------^
/bin/rm -f process_domain_module.f
/bin/rm -f ARWpost.o ARWpost.mod
/bin/cp ARWpost.f90 ARWpost.f
ifort -FR -convert big_endian -I/cm/shared/apps/netcdf-f/4.4.5/intel/19.0.4/include -c ARWpost.f 
/bin/rm -f ARWpost.f
/bin/rm -f module_map_utils.o module_map_utils.mod
/bin/cp module_map_utils.f90 module_map_utils.f
ifort -FR -convert big_endian -I/cm/shared/apps/netcdf-f/4.4.5/intel/19.0.4/include -c module_map_utils.f 
/bin/rm -f module_map_utils.f
ifort -FR -convert big_endian  -o ARWpost.exe module_model_basics.o constants_module.o gridinfo_module.o ARWpost.o input_module.o output_module.o module_map_utils.o misc_definitions_module.o module_date_pack.o module_debug.o process_domain_module.o module_get_file_names.o module_interp.o module_basic_arrays.o module_diagnostics.o module_arrays.o module_pressure.o module_calc_height.o module_calc_pressure.o module_calc_theta.o module_calc_tk.o module_calc_tc.o module_calc_td.o module_calc_td2.o module_calc_rh.o module_calc_rh2.o module_calc_uvmet.o module_calc_slp.o module_calc_dbz.o module_calc_cape.o module_calc_wdir.o module_calc_wspd.o module_calc_clfr.o module_calc_myrh.o module_calc_ept.o module_ept_bolton80.o module_calc_LFC3.o module_calc_EL3.o module_calc_ept_sat.o module_calc_LFC3PRES.o   \
	-L/cm/shared/apps/netcdf-f/4.4.5/intel/19.0.4/lib -I/cm/shared/apps/netcdf-f/4.4.5/intel/19.0.4/include  \
-lnetcdff
