#	cpt file created by: makecpt -Cpolar -T-3/3/0.5 -Z
#COLOR_MODEL = RGB
#
   -3.000000	0	0	255	   -2.500000	43	43	255
   -2.500000	43	43	255	   -2.000000	85	85	255
   -2.000000	85	85	255	   -1.500000	128	128	255
   -1.500000	128	128	255	   -1.000000	170	170	255
   -1.000000	170	170	255	   -0.500000	212	212	255
   -0.500000	212	212	255	    0.000000	255	255	255
    0.000000	255	255	255	    0.500000	255	212	212
    0.500000	255	212	212	    1.000000	255	170	170
    1.000000	255	170	170	    1.500000	255	127	127
    1.500000	255	127	127	    2.000000	255	85	85
    2.000000	255	85	85	    2.500000	255	43	43
    2.500000	255	43	43	    3.000000	255	0	0
B	0	0	0
F	255	255	255
N	128	128	128
