2023年  1月 21日 土曜日 10:01:32 JST
/work03/am/2022.06.ECS.OBS/12.22.SONDE_3SHIP/12.26.SONDE_VPROF_SUPP
./10.00.CHK.MAX.Z.sh

NAGASAKI/N/F2022061900S1103613.CSV 1154 <3.6/3780>

NAGASAKI/N/F2022061901S1103614.CSV 1732 <3.6/12090.2>

NAGASAKI/N/F2022061904S1103502.CSV 1716 <3.4/10368.7>

KAGOSHIMA/01_KZ/F2022061907S1101372.CSV 14271 <3.6/9635>

SEISUI/S/F2022061909S1102917.CSV 1931 <1.6/4822.5>

SEISUI/S/F2022061913S1102920.CSV 2052 <2/7991.2>

