# ECS_2022-06_A1_LINE
CSV.EDIT/F2022061900S1103613.edit.CSV  OUT_16.00.PRCOC.MEISEI/001.dat  35  ECS_A1_LINE_2022-06-19_00.grd
CSV.EDIT/F2022061901S1103614.edit.CSV  OUT_16.00.PRCOC.MEISEI/002.dat  49  ECS_A1_LINE_2022-06-19_01.grd
CSV.EDIT/F2022061904S1103502.edit.CSV  OUT_16.00.PRCOC.MEISEI/003.dat  53  ECS_A1_LINE_2022-06-19_04.grd
CSV.EDIT/F2022061907S1101372.edit.CSV  OUT_16.00.PRCOC.MEISEI/004.dat  48  ECS_A1_LINE_2022-06-19_07.grd
CSV.EDIT/F2022061909S1102917.edit.CSV  OUT_16.00.PRCOC.MEISEI/005.dat  43  ECS_A1_LINE_2022-06-19_09.grd
CSV.EDIT/F2022061913S1102920.edit.CSV  OUT_16.00.PRCOC.MEISEI/006.dat  53  ECS_A1_LINE_2022-06-19_13.grd
