/work03/am/2022.06.ECS.OBS/12.22.SONDE_3SHIP/12.22.TEST_PROC_SONDE/CSV.EDIT
Fri, 20 Jan 2023 09:05:41 +0900
/work03/am/2022.06.ECS.OBS/12.22.SONDE_3SHIP/12.26.SONDE_VPROF_SUPP/CSV.EDIT
Sat, 21 Jan 2023 09:49:59 +0900
/work03/am/2022.06.ECS.OBS/12.22.SONDE_3SHIP/12.26.SONDE_VPROF_SUPP/CSV.EDIT
Sat, 21 Jan 2023 10:01:20 +0900
