%!PS-Adobe-3.0 EPSF-3.0
%%Creator: cairo 1.12.16 (http://cairographics.org)
%%CreationDate: Fri Sep 30 23:24:43 2022
%%Pages: 1
%%DocumentData: Clean7Bit
%%LanguageLevel: 2
%%BoundingBox: 0 0 612 792
%%EndComments
%%BeginProlog
save
50 dict begin
/q { gsave } bind def
/Q { grestore } bind def
/cm { 6 array astore concat } bind def
/w { setlinewidth } bind def
/J { setlinecap } bind def
/j { setlinejoin } bind def
/M { setmiterlimit } bind def
/d { setdash } bind def
/m { moveto } bind def
/l { lineto } bind def
/c { curveto } bind def
/h { closepath } bind def
/re { exch dup neg 3 1 roll 5 3 roll moveto 0 rlineto
      0 exch rlineto 0 rlineto closepath } bind def
/S { stroke } bind def
/f { fill } bind def
/f* { eofill } bind def
/n { newpath } bind def
/W { clip } bind def
/W* { eoclip } bind def
/BT { } bind def
/ET { } bind def
/pdfmark where { pop globaldict /?pdfmark /exec load put }
    { globaldict begin /?pdfmark /pop load def /pdfmark
    /cleartomark load def end } ifelse
/BDC { mark 3 1 roll /BDC pdfmark } bind def
/EMC { mark /EMC pdfmark } bind def
/cairo_store_point { /cairo_point_y exch def /cairo_point_x exch def } def
/Tj { show currentpoint cairo_store_point } bind def
/TJ {
  {
    dup
    type /stringtype eq
    { show } { -0.001 mul 0 cairo_font_matrix dtransform rmoveto } ifelse
  } forall
  currentpoint cairo_store_point
} bind def
/cairo_selectfont { cairo_font_matrix aload pop pop pop 0 0 6 array astore
    cairo_font exch selectfont cairo_point_x cairo_point_y moveto } bind def
/Tf { pop /cairo_font exch def /cairo_font_matrix where
      { pop cairo_selectfont } if } bind def
/Td { matrix translate cairo_font_matrix matrix concatmatrix dup
      /cairo_font_matrix exch def dup 4 get exch 5 get cairo_store_point
      /cairo_font where { pop cairo_selectfont } if } bind def
/Tm { 2 copy 8 2 roll 6 array astore /cairo_font_matrix exch def
      cairo_store_point /cairo_font where { pop cairo_selectfont } if } bind def
/g { setgray } bind def
/rg { setrgbcolor } bind def
/d1 { setcachedevice } bind def
%%EndProlog
%%Page: 1 1
%%BeginPageSetup
%%PageBoundingBox: 0 0 612 792
%%EndPageSetup
q 0 0 612 792 rectclip q
1 g
0 0 612 792 rectfill
0 g
1.5 w
1 J
1 j
[] 0.0 d
10 M 45.926 640.84 138.707 -174.887 re S
1.25 w
145.32 465.953 m 141.816 509.676 l 128.188 553.398 l 122.434 597.121 l 
115.367 640.84 l S
1 g
146.711 468.379 m 145.32 468.754 l 143.934 468.379 l 142.918 467.355 l 
142.547 465.953 l 148.098 465.953 l 147.723 467.355 l 146.711 468.379 l f
0 g
146.711 468.379 m 145.32 468.754 l 143.934 468.379 l 142.918 467.355 l 
142.547 465.953 l S
148.098 465.953 m 147.723 467.355 l 146.711 468.379 l S
1 g
143.203 512.098 m 141.816 512.473 l 140.43 512.098 l 139.414 511.074 l 
139.043 509.676 l 139.414 508.277 l 140.43 507.254 l 141.816 506.879 l 143.203
 507.254 l 144.219 508.277 l 144.59 509.676 l 144.219 511.074 l 143.203 
512.098 l f
0 g
143.203 512.098 m 141.816 512.473 l 140.43 512.098 l 139.414 511.074 l 
139.043 509.676 l 139.414 508.277 l 140.43 507.254 l 141.816 506.879 l 143.203
 507.254 l 144.219 508.277 l 144.59 509.676 l 144.219 511.074 l 143.203 
512.098 l S
1 g
129.574 555.82 m 128.188 556.195 l 126.801 555.82 l 125.785 554.797 l 125.414
 553.398 l 125.785 552 l 126.801 550.973 l 128.188 550.598 l 129.574 550.973
 l 130.59 552 l 130.961 553.398 l 130.59 554.797 l 129.574 555.82 l f
0 g
129.574 555.82 m 128.188 556.195 l 126.801 555.82 l 125.785 554.797 l 125.414
 553.398 l 125.785 552 l 126.801 550.973 l 128.188 550.598 l 129.574 550.973
 l 130.59 552 l 130.961 553.398 l 130.59 554.797 l 129.574 555.82 l S
1 g
123.82 599.543 m 122.434 599.918 l 121.047 599.543 l 120.031 598.52 l 119.66
 597.121 l 120.031 595.719 l 121.047 594.695 l 122.434 594.32 l 123.82 594.695
 l 124.836 595.719 l 125.207 597.121 l 124.836 598.52 l 123.82 599.543 l
 f
0 g
123.82 599.543 m 122.434 599.918 l 121.047 599.543 l 120.031 598.52 l 119.66
 597.121 l 120.031 595.719 l 121.047 594.695 l 122.434 594.32 l 123.82 594.695
 l 124.836 595.719 l 125.207 597.121 l 124.836 598.52 l 123.82 599.543 l
 S
1 g
116.754 640.84 m 112.594 640.84 l 112.965 639.441 l 113.98 638.418 l 115.367
 638.043 l 116.754 638.418 l 117.77 639.441 l 118.145 640.84 l 116.754 640.84
 l f
0 g
112.594 640.84 m 112.965 639.441 l 113.98 638.418 l 115.367 638.043 l 116.754
 638.418 l 117.77 639.441 l 118.145 640.84 l S
45.926 465.953 m 45.926 462.035 l S
47.777 458.762 m 44.078 458.762 l 43.707 454.754 l 44.078 455.199 l 45.188
 455.645 l 46.297 455.645 l 47.406 455.199 l 48.145 454.309 l 48.516 452.973
 l 48.516 452.082 l 48.145 450.746 l 47.406 449.855 l 46.297 449.414 l 45.188
 449.414 l 44.078 449.855 l 43.707 450.301 l 43.336 451.191 l S
80.602 465.953 m 80.602 462.035 l S
75.238 456.98 m 75.98 457.426 l 77.09 458.762 l 77.09 449.414 l S
84.117 458.762 m 83.008 458.316 l 82.266 456.98 l 81.898 454.754 l 81.898
 453.418 l 82.266 451.191 l 83.008 449.855 l 84.117 449.414 l 84.855 449.414
 l 85.965 449.855 l 86.707 451.191 l 87.074 453.418 l 87.074 454.754 l 86.707
 456.98 l 85.965 458.316 l 84.855 458.762 l 84.117 458.762 l S
115.281 465.953 m 115.281 462.035 l S
109.918 456.98 m 110.656 457.426 l 111.766 458.762 l 111.766 449.414 l S
121.012 458.762 m 117.312 458.762 l 116.945 454.754 l 117.312 455.199 l
 118.422 455.645 l 119.531 455.645 l 120.645 455.199 l 121.383 454.309 l
 121.754 452.973 l 121.754 452.082 l 121.383 450.746 l 120.645 449.855 l
 119.531 449.414 l 118.422 449.414 l 117.312 449.855 l 116.945 450.301 l
 116.574 451.191 l S
149.957 465.953 m 149.957 462.035 l S
143.852 456.535 m 143.852 456.98 l 144.223 457.871 l 144.594 458.316 l 
145.332 458.762 l 146.812 458.762 l 147.551 458.316 l 147.922 457.871 l 
148.293 456.98 l 148.293 456.09 l 147.922 455.199 l 147.184 453.863 l 143.484
 449.414 l 148.66 449.414 l S
153.469 458.762 m 152.359 458.316 l 151.621 456.98 l 151.25 454.754 l 151.25
 453.418 l 151.621 451.191 l 152.359 449.855 l 153.469 449.414 l 154.211
 449.414 l 155.32 449.855 l 156.059 451.191 l 156.43 453.418 l 156.43 454.754
 l 156.059 456.98 l 155.32 458.316 l 154.211 458.762 l 153.469 458.762 l
 S
184.633 465.953 m 184.633 462.035 l S
178.527 456.535 m 178.527 456.98 l 178.898 457.871 l 179.27 458.316 l 180.008
 458.762 l 181.488 458.762 l 182.227 458.316 l 182.598 457.871 l 182.969
 456.98 l 182.969 456.09 l 182.598 455.199 l 181.859 453.863 l 178.16 449.414
 l 183.336 449.414 l S
190.367 458.762 m 186.668 458.762 l 186.297 454.754 l 186.668 455.199 l
 187.777 455.645 l 188.887 455.645 l 189.996 455.199 l 190.734 454.309 l
 191.105 452.973 l 191.105 452.082 l 190.734 450.746 l 189.996 449.855 l
 188.887 449.414 l 187.777 449.414 l 186.668 449.855 l 186.297 450.301 l
 185.926 451.191 l S
45.926 640.84 m 42.043 640.84 l S
20.961 642.285 m 20.59 640.949 l 19.852 640.059 l 18.738 639.613 l 18.371
 639.613 l 17.262 640.059 l 16.52 640.949 l 16.152 642.285 l 16.152 642.727
 l 16.52 644.062 l 17.262 644.953 l 18.371 645.398 l 18.738 645.398 l 19.852
 644.953 l 20.59 644.062 l 20.961 642.285 l 20.961 640.059 l 20.59 637.832
 l 19.852 636.496 l 18.738 636.051 l 18 636.051 l 16.891 636.496 l 16.52
 637.387 l S
26.137 645.398 m 25.027 644.953 l 24.289 643.617 l 23.918 641.395 l 23.918
 640.059 l 24.289 637.832 l 25.027 636.496 l 26.137 636.051 l 26.879 636.051
 l 27.988 636.496 l 28.727 637.832 l 29.098 640.059 l 29.098 641.395 l 28.727
 643.617 l 27.988 644.953 l 26.879 645.398 l 26.137 645.398 l S
33.906 645.398 m 32.797 644.953 l 32.055 643.617 l 31.688 641.395 l 31.688
 640.059 l 32.055 637.832 l 32.797 636.496 l 33.906 636.051 l 34.645 636.051
 l 35.754 636.496 l 36.496 637.832 l 36.863 640.059 l 36.863 641.395 l 36.496
 643.617 l 35.754 644.953 l 34.645 645.398 l 33.906 645.398 l S
45.926 553.398 m 42.043 553.398 l S
20.961 554.84 m 20.59 553.504 l 19.852 552.613 l 18.738 552.168 l 18.371
 552.168 l 17.262 552.613 l 16.52 553.504 l 16.152 554.84 l 16.152 555.285
 l 16.52 556.621 l 17.262 557.512 l 18.371 557.957 l 18.738 557.957 l 19.852
 557.512 l 20.59 556.621 l 20.961 554.84 l 20.961 552.613 l 20.59 550.387
 l 19.852 549.055 l 18.738 548.609 l 18 548.609 l 16.891 549.055 l 16.52
 549.941 l S
28.355 557.957 m 24.66 557.957 l 24.289 553.949 l 24.66 554.395 l 25.77
 554.84 l 26.879 554.84 l 27.988 554.395 l 28.727 553.504 l 29.098 552.168
 l 29.098 551.277 l 28.727 549.941 l 27.988 549.055 l 26.879 548.609 l 25.77
 548.609 l 24.66 549.055 l 24.289 549.5 l 23.918 550.387 l S
33.906 557.957 m 32.797 557.512 l 32.055 556.176 l 31.688 553.949 l 31.688
 552.613 l 32.055 550.387 l 32.797 549.055 l 33.906 548.609 l 34.645 548.609
 l 35.754 549.055 l 36.496 550.387 l 36.863 552.613 l 36.863 553.949 l 36.496
 556.176 l 35.754 557.512 l 34.645 557.957 l 33.906 557.957 l S
45.926 465.953 m 42.043 465.953 l S
11.25 470.402 m 11.344 470.512 l 11.344 461.164 l S
18.371 470.512 m 17.262 470.066 l 16.52 468.73 l 16.152 466.508 l 16.152
 465.172 l 16.52 462.945 l 17.262 461.609 l 18.371 461.164 l 19.109 461.164
 l 20.219 461.609 l 20.961 462.945 l 21.328 465.172 l 21.328 466.508 l 20.961
 468.73 l 20.219 470.066 l 19.109 470.512 l 18.371 470.512 l S
26.137 470.512 m 25.027 470.066 l 24.289 468.73 l 23.918 466.508 l 23.918
 465.172 l 24.289 462.945 l 25.027 461.609 l 26.137 461.164 l 26.879 461.164
 l 27.988 461.609 l 28.727 462.945 l 29.098 465.172 l 29.098 466.508 l 28.727
 468.73 l 27.988 470.066 l 26.879 470.512 l 26.137 470.512 l S
33.906 470.512 m 32.797 470.066 l 32.055 468.73 l 31.688 466.508 l 31.688
 465.172 l 32.055 462.945 l 32.797 461.609 l 33.906 461.164 l 34.645 461.164
 l 35.754 461.609 l 36.496 462.945 l 36.863 465.172 l 36.863 466.508 l 36.496
 468.73 l 35.754 470.066 l 34.645 470.512 l 33.906 470.512 l S
20.371 19.91 m 20.074 20.547 l 19.48 21.184 l 18.887 21.5 l 17.699 21.5
 l 17.102 21.184 l 16.508 20.547 l 16.211 19.91 l 15.914 18.957 l 15.914
 17.367 l 16.211 16.414 l 16.508 15.777 l 17.102 15.141 l 17.699 14.824 
l 18.887 14.824 l 19.48 15.141 l 20.074 15.777 l 20.371 16.414 l 20.371 
17.367 l S
18.887 17.367 m 20.371 17.367 l S
22.41 19.277 m 22.41 14.824 l S
22.41 17.367 m 22.707 18.32 l 23.301 18.957 l 23.895 19.277 l 24.785 19.277
 l S
28.137 21.5 m 25.758 14.824 l S
28.137 21.5 m 30.516 14.824 l S
26.652 17.051 m 29.625 17.051 l S
32.141 21.5 m 32.141 14.824 l S
32.141 21.5 m 34.223 21.5 l 35.113 21.184 l 35.711 20.547 l 36.008 19.91
 l 36.305 18.957 l 36.305 17.367 l 36.008 16.414 l 35.711 15.777 l 35.113
 15.141 l 34.223 14.824 l 32.141 14.824 l S
42.703 20.547 m 42.105 21.184 l 41.215 21.5 l 40.027 21.5 l 39.137 21.184
 l 38.539 20.547 l 38.539 19.91 l 38.836 19.277 l 39.137 18.957 l 39.73 
18.641 l 41.512 18.004 l 42.105 17.688 l 42.406 17.367 l 42.703 16.73 l 
42.703 15.777 l 42.105 15.141 l 41.215 14.824 l 40.027 14.824 l 39.137 15.141
 l 38.539 15.777 l S
49.852 22.773 m 44.5 12.598 l S
56.262 19.91 m 55.965 20.547 l 55.371 21.184 l 54.777 21.5 l 53.586 21.5
 l 52.992 21.184 l 52.398 20.547 l 52.102 19.91 l 51.805 18.957 l 51.805
 17.367 l 52.102 16.414 l 52.398 15.777 l 52.992 15.141 l 53.586 14.824 
l 54.777 14.824 l 55.371 15.141 l 55.965 15.777 l 56.262 16.414 l S
60 21.5 m 59.406 21.184 l 58.812 20.547 l 58.516 19.91 l 58.219 18.957 
l 58.219 17.367 l 58.516 16.414 l 58.812 15.777 l 59.406 15.141 l 60 14.824
 l 61.188 14.824 l 61.785 15.141 l 62.379 15.777 l 62.676 16.414 l 62.973
 17.367 l 62.973 18.957 l 62.676 19.91 l 62.379 20.547 l 61.785 21.184 l
 61.188 21.5 l 60 21.5 l S
64.898 21.5 m 64.898 14.824 l S
64.898 14.824 m 68.465 14.824 l S
72.141 21.5 m 69.766 14.824 l S
72.141 21.5 m 74.52 14.824 l S
70.656 17.051 m 73.629 17.051 l S
1 w
14.668 659.715 m 13.48 659.238 l 12.688 657.809 l 12.289 655.422 l 12.289
 653.992 l 12.688 651.609 l 13.48 650.176 l 14.668 649.699 l 15.461 649.699
 l 16.648 650.176 l 17.441 651.609 l 17.84 653.992 l 17.84 655.422 l 17.441
 657.809 l 16.648 659.238 l 15.461 659.715 l 14.668 659.715 l S
22.992 659.715 m 21.801 659.238 l 21.008 657.809 l 20.613 655.422 l 20.613
 653.992 l 21.008 651.609 l 21.801 650.176 l 22.992 649.699 l 23.781 649.699
 l 24.973 650.176 l 25.766 651.609 l 26.16 653.992 l 26.16 655.422 l 25.766
 657.809 l 24.973 659.238 l 23.781 659.715 l 22.992 659.715 l S
34.484 659.715 m 28.934 649.699 l S
28.934 659.715 m 34.484 659.715 l S
28.934 649.699 m 34.484 649.699 l S
39.637 659.715 m 38.445 659.238 l 37.652 657.809 l 37.258 655.422 l 37.258
 653.992 l 37.652 651.609 l 38.445 650.176 l 39.637 649.699 l 40.43 649.699
 l 41.617 650.176 l 42.41 651.609 l 42.805 653.992 l 42.805 655.422 l 42.41
 657.809 l 41.617 659.238 l 40.43 659.715 l 39.637 659.715 l S
50.336 659.715 m 46.371 659.715 l 45.977 655.422 l 46.371 655.898 l 47.562
 656.379 l 48.75 656.379 l 49.938 655.898 l 50.73 654.945 l 51.129 653.516
 l 51.129 652.562 l 50.73 651.129 l 49.938 650.176 l 48.75 649.699 l 47.562
 649.699 l 46.371 650.176 l 45.977 650.652 l 45.578 651.609 l S
57.43 659.715 m 57.43 652.086 l 57.031 650.652 l 56.637 650.176 l 55.844
 649.699 l 55.051 649.699 l 54.258 650.176 l 53.863 650.652 l 53.465 652.086
 l 53.465 653.039 l S
60.977 659.715 m 60.977 652.562 l 61.371 651.129 l 62.164 650.176 l 63.355
 649.699 l 64.148 649.699 l 65.336 650.176 l 66.129 651.129 l 66.523 652.562
 l 66.523 659.715 l S
69.488 659.715 m 69.488 649.699 l S
69.488 649.699 m 74.242 649.699 l S
77.184 657.332 m 77.184 657.809 l 77.582 658.762 l 77.977 659.238 l 78.77
 659.715 l 80.355 659.715 l 81.148 659.238 l 81.543 658.762 l 81.941 657.809
 l 81.941 656.855 l 81.543 655.898 l 80.75 654.469 l 76.789 649.699 l 82.336
 649.699 l S
87.488 659.715 m 86.301 659.238 l 85.508 657.809 l 85.109 655.422 l 85.109
 653.992 l 85.508 651.609 l 86.301 650.176 l 87.488 649.699 l 88.281 649.699
 l 89.469 650.176 l 90.262 651.609 l 90.66 653.992 l 90.66 655.422 l 90.262
 657.809 l 89.469 659.238 l 88.281 659.715 l 87.488 659.715 l S
93.828 657.332 m 93.828 657.809 l 94.227 658.762 l 94.621 659.238 l 95.414
 659.715 l 97 659.715 l 97.793 659.238 l 98.188 658.762 l 98.586 657.809
 l 98.586 656.855 l 98.188 655.898 l 97.395 654.469 l 93.434 649.699 l 98.98
 649.699 l S
102.152 657.332 m 102.152 657.809 l 102.547 658.762 l 102.945 659.238 l
 103.738 659.715 l 105.324 659.715 l 106.113 659.238 l 106.512 658.762 l
 106.906 657.809 l 106.906 656.855 l 106.512 655.898 l 105.719 654.469 l
 101.754 649.699 l 107.305 649.699 l S
1.5 w
233.18 640.84 138.707 -174.887 re S
0 0.862745 0 rg
1.25 w
332.477 465.953 m 329.5 509.676 l 318.633 553.398 l 312.852 597.121 l 307.727
 640.84 l S
333.863 468.379 m 332.477 468.754 l 331.09 468.379 l 330.074 467.355 l 
329.703 465.953 l 335.25 465.953 l 334.879 467.355 l 333.863 468.379 l f
330.887 512.098 m 329.5 512.473 l 328.113 512.098 l 327.098 511.074 l 326.727
 509.676 l 327.098 508.277 l 328.113 507.254 l 329.5 506.879 l 330.887 507.254
 l 331.902 508.277 l 332.277 509.676 l 331.902 511.074 l 330.887 512.098
 l f
320.02 555.82 m 318.633 556.195 l 317.246 555.82 l 316.23 554.797 l 315.859
 553.398 l 316.23 552 l 317.246 550.973 l 318.633 550.598 l 320.02 550.973
 l 321.035 552 l 321.406 553.398 l 321.035 554.797 l 320.02 555.82 l f
314.238 599.543 m 312.852 599.918 l 311.461 599.543 l 310.449 598.52 l 
310.074 597.121 l 310.449 595.719 l 311.461 594.695 l 312.852 594.32 l 314.238
 594.695 l 315.254 595.719 l 315.625 597.121 l 315.254 598.52 l 314.238 
599.543 l f
309.117 640.84 m 304.953 640.84 l 305.324 639.441 l 306.34 638.418 l 307.727
 638.043 l 309.117 638.418 l 310.129 639.441 l 310.504 640.84 l 309.117 
640.84 l f
0 g
233.18 465.953 m 233.18 462.035 l S
235.027 458.762 m 231.328 458.762 l 230.961 454.754 l 231.328 455.199 l
 232.441 455.645 l 233.551 455.645 l 234.66 455.199 l 235.398 454.309 l 
235.77 452.973 l 235.77 452.082 l 235.398 450.746 l 234.66 449.855 l 233.551
 449.414 l 232.441 449.414 l 231.328 449.855 l 230.961 450.301 l 230.59 
451.191 l S
267.855 465.953 m 267.855 462.035 l S
262.492 456.98 m 263.23 457.426 l 264.344 458.762 l 264.344 449.414 l S
271.371 458.762 m 270.262 458.316 l 269.52 456.98 l 269.152 454.754 l 269.152
 453.418 l 269.52 451.191 l 270.262 449.855 l 271.371 449.414 l 272.109 
449.414 l 273.219 449.855 l 273.957 451.191 l 274.328 453.418 l 274.328 
454.754 l 273.957 456.98 l 273.219 458.316 l 272.109 458.762 l 271.371 458.762
 l S
302.531 465.953 m 302.531 462.035 l S
297.168 456.98 m 297.91 457.426 l 299.02 458.762 l 299.02 449.414 l S
308.266 458.762 m 304.566 458.762 l 304.195 454.754 l 304.566 455.199 l
 305.676 455.645 l 306.785 455.645 l 307.895 455.199 l 308.637 454.309 l
 309.004 452.973 l 309.004 452.082 l 308.637 450.746 l 307.895 449.855 l
 306.785 449.414 l 305.676 449.414 l 304.566 449.855 l 304.195 450.301 l
 303.828 451.191 l S
337.207 465.953 m 337.207 462.035 l S
331.105 456.535 m 331.105 456.98 l 331.477 457.871 l 331.844 458.316 l 
332.586 458.762 l 334.066 458.762 l 334.805 458.316 l 335.176 457.871 l 
335.543 456.98 l 335.543 456.09 l 335.176 455.199 l 334.434 453.863 l 330.734
 449.414 l 335.914 449.414 l S
340.723 458.762 m 339.613 458.316 l 338.875 456.98 l 338.504 454.754 l 
338.504 453.418 l 338.875 451.191 l 339.613 449.855 l 340.723 449.414 l 
341.461 449.414 l 342.57 449.855 l 343.312 451.191 l 343.684 453.418 l 343.684
 454.754 l 343.312 456.98 l 342.57 458.316 l 341.461 458.762 l 340.723 458.762
 l S
371.887 465.953 m 371.887 462.035 l S
365.781 456.535 m 365.781 456.98 l 366.152 457.871 l 366.523 458.316 l 
367.262 458.762 l 368.742 458.762 l 369.48 458.316 l 369.852 457.871 l 370.223
 456.98 l 370.223 456.09 l 369.852 455.199 l 369.109 453.863 l 365.414 449.414
 l 370.59 449.414 l S
377.617 458.762 m 373.918 458.762 l 373.551 454.754 l 373.918 455.199 l
 375.027 455.645 l 376.141 455.645 l 377.25 455.199 l 377.988 454.309 l 
378.359 452.973 l 378.359 452.082 l 377.988 450.746 l 377.25 449.855 l 376.141
 449.414 l 375.027 449.414 l 373.918 449.855 l 373.551 450.301 l 373.18 
451.191 l S
233.18 640.84 m 229.297 640.84 l S
208.211 642.285 m 207.844 640.949 l 207.102 640.059 l 205.992 639.613 l
 205.625 639.613 l 204.512 640.059 l 203.773 640.949 l 203.402 642.285 l
 203.402 642.727 l 203.773 644.062 l 204.512 644.953 l 205.625 645.398 l
 205.992 645.398 l 207.102 644.953 l 207.844 644.062 l 208.211 642.285 l
 208.211 640.059 l 207.844 637.832 l 207.102 636.496 l 205.992 636.051 l
 205.254 636.051 l 204.145 636.496 l 203.773 637.387 l S
213.391 645.398 m 212.281 644.953 l 211.543 643.617 l 211.172 641.395 l
 211.172 640.059 l 211.543 637.832 l 212.281 636.496 l 213.391 636.051 l
 214.129 636.051 l 215.238 636.496 l 215.98 637.832 l 216.352 640.059 l 
216.352 641.395 l 215.98 643.617 l 215.238 644.953 l 214.129 645.398 l 213.391
 645.398 l S
221.16 645.398 m 220.047 644.953 l 219.309 643.617 l 218.938 641.395 l 
218.938 640.059 l 219.309 637.832 l 220.047 636.496 l 221.16 636.051 l 221.898
 636.051 l 223.008 636.496 l 223.746 637.832 l 224.117 640.059 l 224.117
 641.395 l 223.746 643.617 l 223.008 644.953 l 221.898 645.398 l 221.16 
645.398 l S
233.18 553.398 m 229.297 553.398 l S
208.211 554.84 m 207.844 553.504 l 207.102 552.613 l 205.992 552.168 l 
205.625 552.168 l 204.512 552.613 l 203.773 553.504 l 203.402 554.84 l 203.402
 555.285 l 203.773 556.621 l 204.512 557.512 l 205.625 557.957 l 205.992
 557.957 l 207.102 557.512 l 207.844 556.621 l 208.211 554.84 l 208.211 
552.613 l 207.844 550.387 l 207.102 549.055 l 205.992 548.609 l 205.254 
548.609 l 204.145 549.055 l 203.773 549.941 l S
215.609 557.957 m 211.91 557.957 l 211.543 553.949 l 211.91 554.395 l 213.02
 554.84 l 214.129 554.84 l 215.238 554.395 l 215.98 553.504 l 216.352 552.168
 l 216.352 551.277 l 215.98 549.941 l 215.238 549.055 l 214.129 548.609 
l 213.02 548.609 l 211.91 549.055 l 211.543 549.5 l 211.172 550.387 l S
221.16 557.957 m 220.047 557.512 l 219.309 556.176 l 218.938 553.949 l 
218.938 552.613 l 219.309 550.387 l 220.047 549.055 l 221.16 548.609 l 221.898
 548.609 l 223.008 549.055 l 223.746 550.387 l 224.117 552.613 l 224.117
 553.949 l 223.746 556.176 l 223.008 557.512 l 221.898 557.957 l 221.16 
557.957 l S
233.18 465.953 m 229.297 465.953 l S
196.746 468.73 m 197.484 469.176 l 198.594 470.512 l 198.594 461.164 l S
205.625 470.512 m 204.512 470.066 l 203.773 468.73 l 203.402 466.508 l 
203.402 465.172 l 203.773 462.945 l 204.512 461.609 l 205.625 461.164 l 
206.363 461.164 l 207.473 461.609 l 208.211 462.945 l 208.582 465.172 l 
208.582 466.508 l 208.211 468.73 l 207.473 470.066 l 206.363 470.512 l 205.625
 470.512 l S
213.391 470.512 m 212.281 470.066 l 211.543 468.73 l 211.172 466.508 l 
211.172 465.172 l 211.543 462.945 l 212.281 461.609 l 213.391 461.164 l 
214.129 461.164 l 215.238 461.609 l 215.98 462.945 l 216.352 465.172 l 216.352
 466.508 l 215.98 468.73 l 215.238 470.066 l 214.129 470.512 l 213.391 470.512
 l S
221.16 470.512 m 220.047 470.066 l 219.309 468.73 l 218.938 466.508 l 218.938
 465.172 l 219.309 462.945 l 220.047 461.609 l 221.16 461.164 l 221.898 
461.164 l 223.008 461.609 l 223.746 462.945 l 224.117 465.172 l 224.117 
466.508 l 223.746 468.73 l 223.008 470.066 l 221.898 470.512 l 221.16 470.512
 l S
1 w
201.922 659.715 m 200.73 659.238 l 199.941 657.809 l 199.543 655.422 l 
199.543 653.992 l 199.941 651.609 l 200.73 650.176 l 201.922 649.699 l 202.715
 649.699 l 203.902 650.176 l 204.695 651.609 l 205.09 653.992 l 205.09 655.422
 l 204.695 657.809 l 203.902 659.238 l 202.715 659.715 l 201.922 659.715
 l S
208.66 659.715 m 213.016 659.715 l 210.641 655.898 l 211.828 655.898 l 
212.621 655.422 l 213.016 654.945 l 213.414 653.516 l 213.414 652.562 l 
213.016 651.129 l 212.227 650.176 l 211.035 649.699 l 209.848 649.699 l 
208.66 650.176 l 208.262 650.652 l 207.867 651.609 l S
221.734 659.715 m 216.188 649.699 l S
216.188 659.715 m 221.734 659.715 l S
216.188 649.699 m 221.734 649.699 l S
226.887 659.715 m 225.699 659.238 l 224.906 657.809 l 224.512 655.422 l
 224.512 653.992 l 224.906 651.609 l 225.699 650.176 l 226.887 649.699 l
 227.68 649.699 l 228.871 650.176 l 229.664 651.609 l 230.059 653.992 l 
230.059 655.422 l 229.664 657.809 l 228.871 659.238 l 227.68 659.715 l 226.887
 659.715 l S
237.59 659.715 m 233.625 659.715 l 233.23 655.422 l 233.625 655.898 l 234.812
 656.379 l 236.004 656.379 l 237.191 655.898 l 237.984 654.945 l 238.383
 653.516 l 238.383 652.562 l 237.984 651.129 l 237.191 650.176 l 236.004
 649.699 l 234.812 649.699 l 233.625 650.176 l 233.23 650.652 l 232.832 
651.609 l S
244.684 659.715 m 244.684 652.086 l 244.285 650.652 l 243.891 650.176 l
 243.098 649.699 l 242.305 649.699 l 241.512 650.176 l 241.117 650.652 l
 240.719 652.086 l 240.719 653.039 l S
248.23 659.715 m 248.23 652.562 l 248.625 651.129 l 249.418 650.176 l 250.605
 649.699 l 251.398 649.699 l 252.59 650.176 l 253.383 651.129 l 253.777 
652.562 l 253.777 659.715 l S
256.738 659.715 m 256.738 649.699 l S
256.738 649.699 m 261.496 649.699 l S
264.438 657.332 m 264.438 657.809 l 264.836 658.762 l 265.23 659.238 l 
266.023 659.715 l 267.609 659.715 l 268.402 659.238 l 268.797 658.762 l 
269.195 657.809 l 269.195 656.855 l 268.797 655.898 l 268.004 654.469 l 
264.043 649.699 l 269.59 649.699 l S
274.742 659.715 m 273.555 659.238 l 272.762 657.809 l 272.363 655.422 l
 272.363 653.992 l 272.762 651.609 l 273.555 650.176 l 274.742 649.699 l
 275.535 649.699 l 276.723 650.176 l 277.516 651.609 l 277.91 653.992 l 
277.91 655.422 l 277.516 657.809 l 276.723 659.238 l 275.535 659.715 l 274.742
 659.715 l S
281.082 657.332 m 281.082 657.809 l 281.48 658.762 l 281.875 659.238 l 
282.668 659.715 l 284.254 659.715 l 285.047 659.238 l 285.441 658.762 l 
285.84 657.809 l 285.84 656.855 l 285.441 655.898 l 284.648 654.469 l 280.688
 649.699 l 286.234 649.699 l S
289.406 657.332 m 289.406 657.809 l 289.801 658.762 l 290.199 659.238 l
 290.988 659.715 l 292.574 659.715 l 293.367 659.238 l 293.766 658.762 l
 294.16 657.809 l 294.16 656.855 l 293.766 655.898 l 292.973 654.469 l 289.008
 649.699 l 294.559 649.699 l S
1.5 w
420.434 640.84 138.703 -174.887 re S
0.901961 0.862745 0.196078 rg
1.25 w
516.254 465.953 m 512.262 509.676 l 499.449 553.398 l 487.227 597.121 l
 479.797 640.84 l S
1 g
513.48 468.754 5.547 -2.801 re f
0.901961 0.862745 0.196078 rg
513.48 468.754 m 519.027 468.754 l 519.027 465.953 l S
513.48 465.953 m 513.48 468.754 l S
1 g
509.488 512.473 5.547 -5.594 re f
0.901961 0.862745 0.196078 rg
509.488 512.473 5.547 -5.594 re S
1 g
496.672 556.195 5.551 -5.598 re f
0.901961 0.862745 0.196078 rg
496.672 556.195 5.551 -5.598 re S
1 g
484.453 599.918 5.547 -5.598 re f
0.901961 0.862745 0.196078 rg
484.453 599.918 5.547 -5.598 re S
1 g
477.023 640.84 5.547 -2.797 re f
0.901961 0.862745 0.196078 rg
482.57 640.84 m 482.57 638.043 l 477.023 638.043 l 477.023 640.84 l S
0 g
420.434 465.953 m 420.434 462.035 l S
422.281 458.762 m 418.582 458.762 l 418.215 454.754 l 418.582 455.199 l
 419.691 455.645 l 420.801 455.645 l 421.91 455.199 l 422.652 454.309 l 
423.023 452.973 l 423.023 452.082 l 422.652 450.746 l 421.91 449.855 l 420.801
 449.414 l 419.691 449.414 l 418.582 449.855 l 418.215 450.301 l 417.844
 451.191 l S
455.109 465.953 m 455.109 462.035 l S
449.746 456.98 m 450.484 457.426 l 451.594 458.762 l 451.594 449.414 l S
458.621 458.762 m 457.512 458.316 l 456.773 456.98 l 456.402 454.754 l 
456.402 453.418 l 456.773 451.191 l 457.512 449.855 l 458.621 449.414 l 
459.363 449.414 l 460.473 449.855 l 461.211 451.191 l 461.582 453.418 l 
461.582 454.754 l 461.211 456.98 l 460.473 458.316 l 459.363 458.762 l 458.621
 458.762 l S
489.785 465.953 m 489.785 462.035 l S
484.422 456.98 m 485.16 457.426 l 486.27 458.762 l 486.27 449.414 l S
495.52 458.762 m 491.82 458.762 l 491.449 454.754 l 491.82 455.199 l 492.93
 455.645 l 494.039 455.645 l 495.148 455.199 l 495.887 454.309 l 496.258
 452.973 l 496.258 452.082 l 495.887 450.746 l 495.148 449.855 l 494.039
 449.414 l 492.93 449.414 l 491.82 449.855 l 491.449 450.301 l 491.078 451.191
 l S
524.461 465.953 m 524.461 462.035 l S
518.359 456.535 m 518.359 456.98 l 518.73 457.871 l 519.098 458.316 l 519.84
 458.762 l 521.316 458.762 l 522.059 458.316 l 522.426 457.871 l 522.797
 456.98 l 522.797 456.09 l 522.426 455.199 l 521.688 453.863 l 517.988 449.414
 l 523.168 449.414 l S
527.977 458.762 m 526.867 458.316 l 526.125 456.98 l 525.758 454.754 l 
525.758 453.418 l 526.125 451.191 l 526.867 449.855 l 527.977 449.414 l 
528.715 449.414 l 529.824 449.855 l 530.566 451.191 l 530.934 453.418 l 
530.934 454.754 l 530.566 456.98 l 529.824 458.316 l 528.715 458.762 l 527.977
 458.762 l S
559.137 465.953 m 559.137 462.035 l S
553.035 456.535 m 553.035 456.98 l 553.406 457.871 l 553.773 458.316 l 
554.516 458.762 l 555.996 458.762 l 556.734 458.316 l 557.105 457.871 l 
557.473 456.98 l 557.473 456.09 l 557.105 455.199 l 556.363 453.863 l 552.664
 449.414 l 557.844 449.414 l S
564.871 458.762 m 561.172 458.762 l 560.801 454.754 l 561.172 455.199 l
 562.281 455.645 l 563.391 455.645 l 564.5 455.199 l 565.242 454.309 l 565.609
 452.973 l 565.609 452.082 l 565.242 450.746 l 564.5 449.855 l 563.391 449.414
 l 562.281 449.414 l 561.172 449.855 l 560.801 450.301 l 560.434 451.191
 l S
420.434 640.84 m 416.547 640.84 l S
395.465 642.285 m 395.094 640.949 l 394.355 640.059 l 393.246 639.613 l
 392.875 639.613 l 391.766 640.059 l 391.027 640.949 l 390.656 642.285 l
 390.656 642.727 l 391.027 644.062 l 391.766 644.953 l 392.875 645.398 l
 393.246 645.398 l 394.355 644.953 l 395.094 644.062 l 395.465 642.285 l
 395.465 640.059 l 395.094 637.832 l 394.355 636.496 l 393.246 636.051 l
 392.508 636.051 l 391.398 636.496 l 391.027 637.387 l S
400.645 645.398 m 399.535 644.953 l 398.793 643.617 l 398.426 641.395 l
 398.426 640.059 l 398.793 637.832 l 399.535 636.496 l 400.645 636.051 l
 401.383 636.051 l 402.492 636.496 l 403.234 637.832 l 403.602 640.059 l
 403.602 641.395 l 403.234 643.617 l 402.492 644.953 l 401.383 645.398 l
 400.645 645.398 l S
408.41 645.398 m 407.301 644.953 l 406.562 643.617 l 406.191 641.395 l 
406.191 640.059 l 406.562 637.832 l 407.301 636.496 l 408.41 636.051 l 409.152
 636.051 l 410.262 636.496 l 411 637.832 l 411.371 640.059 l 411.371 641.395
 l 411 643.617 l 410.262 644.953 l 409.152 645.398 l 408.41 645.398 l S
420.434 553.398 m 416.547 553.398 l S
395.465 554.84 m 395.094 553.504 l 394.355 552.613 l 393.246 552.168 l 
392.875 552.168 l 391.766 552.613 l 391.027 553.504 l 390.656 554.84 l 390.656
 555.285 l 391.027 556.621 l 391.766 557.512 l 392.875 557.957 l 393.246
 557.957 l 394.355 557.512 l 395.094 556.621 l 395.465 554.84 l 395.465 
552.613 l 395.094 550.387 l 394.355 549.055 l 393.246 548.609 l 392.508 
548.609 l 391.398 549.055 l 391.027 549.941 l S
402.863 557.957 m 399.164 557.957 l 398.793 553.949 l 399.164 554.395 l
 400.273 554.84 l 401.383 554.84 l 402.492 554.395 l 403.234 553.504 l 403.602
 552.168 l 403.602 551.277 l 403.234 549.941 l 402.492 549.055 l 401.383
 548.609 l 400.273 548.609 l 399.164 549.055 l 398.793 549.5 l 398.426 550.387
 l S
408.41 557.957 m 407.301 557.512 l 406.562 556.176 l 406.191 553.949 l 
406.191 552.613 l 406.562 550.387 l 407.301 549.055 l 408.41 548.609 l 409.152
 548.609 l 410.262 549.055 l 411 550.387 l 411.371 552.613 l 411.371 553.949
 l 411 556.176 l 410.262 557.512 l 409.152 557.957 l 408.41 557.957 l S
420.434 465.953 m 416.547 465.953 l S
384 468.73 m 384.738 469.176 l 385.848 470.512 l 385.848 461.164 l S
392.875 470.512 m 391.766 470.066 l 391.027 468.73 l 390.656 466.508 l 
390.656 465.172 l 391.027 462.945 l 391.766 461.609 l 392.875 461.164 l 
393.617 461.164 l 394.727 461.609 l 395.465 462.945 l 395.836 465.172 l 
395.836 466.508 l 395.465 468.73 l 394.727 470.066 l 393.617 470.512 l 392.875
 470.512 l S
400.645 470.512 m 399.535 470.066 l 398.793 468.73 l 398.426 466.508 l 
398.426 465.172 l 398.793 462.945 l 399.535 461.609 l 400.645 461.164 l 
401.383 461.164 l 402.492 461.609 l 403.234 462.945 l 403.602 465.172 l 
403.602 466.508 l 403.234 468.73 l 402.492 470.066 l 401.383 470.512 l 400.645
 470.512 l S
408.41 470.512 m 407.301 470.066 l 406.562 468.73 l 406.191 466.508 l 406.191
 465.172 l 406.562 462.945 l 407.301 461.609 l 408.41 461.164 l 409.152 
461.164 l 410.262 461.609 l 411 462.945 l 411.371 465.172 l 411.371 466.508
 l 411 468.73 l 410.262 470.066 l 409.152 470.512 l 408.41 470.512 l S
1 w
389.176 659.715 m 387.984 659.238 l 387.191 657.809 l 386.797 655.422 l
 386.797 653.992 l 387.191 651.609 l 387.984 650.176 l 389.176 649.699 l
 389.965 649.699 l 391.156 650.176 l 391.949 651.609 l 392.344 653.992 l
 392.344 655.422 l 391.949 657.809 l 391.156 659.238 l 389.965 659.715 l
 389.176 659.715 l S
400.27 658.285 m 399.875 659.238 l 398.684 659.715 l 397.895 659.715 l 
396.703 659.238 l 395.91 657.809 l 395.516 655.422 l 395.516 653.039 l 395.91
 651.129 l 396.703 650.176 l 397.895 649.699 l 398.289 649.699 l 399.477
 650.176 l 400.27 651.129 l 400.668 652.562 l 400.668 653.039 l 400.27 654.469
 l 399.477 655.422 l 398.289 655.898 l 397.895 655.898 l 396.703 655.422
 l 395.91 654.469 l 395.516 653.039 l S
408.988 659.715 m 403.441 649.699 l S
403.441 659.715 m 408.988 659.715 l S
403.441 649.699 m 408.988 649.699 l S
414.141 659.715 m 412.953 659.238 l 412.16 657.809 l 411.762 655.422 l 
411.762 653.992 l 412.16 651.609 l 412.953 650.176 l 414.141 649.699 l 414.934
 649.699 l 416.121 650.176 l 416.914 651.609 l 417.312 653.992 l 417.312
 655.422 l 416.914 657.809 l 416.121 659.238 l 414.934 659.715 l 414.141
 659.715 l S
424.84 659.715 m 420.879 659.715 l 420.48 655.422 l 420.879 655.898 l 422.066
 656.379 l 423.258 656.379 l 424.445 655.898 l 425.238 654.945 l 425.633
 653.516 l 425.633 652.562 l 425.238 651.129 l 424.445 650.176 l 423.258
 649.699 l 422.066 649.699 l 420.879 650.176 l 420.48 650.652 l 420.086 
651.609 l S
431.934 659.715 m 431.934 652.086 l 431.539 650.652 l 431.141 650.176 l
 430.352 649.699 l 429.559 649.699 l 428.766 650.176 l 428.367 650.652 l
 427.973 652.086 l 427.973 653.039 l S
435.48 659.715 m 435.48 652.562 l 435.879 651.129 l 436.672 650.176 l 437.859
 649.699 l 438.652 649.699 l 439.84 650.176 l 440.633 651.129 l 441.031 
652.562 l 441.031 659.715 l S
443.992 659.715 m 443.992 649.699 l S
443.992 649.699 m 448.75 649.699 l S
451.691 657.332 m 451.691 657.809 l 452.086 658.762 l 452.484 659.238 l
 453.277 659.715 l 454.859 659.715 l 455.652 659.238 l 456.051 658.762 l
 456.445 657.809 l 456.445 656.855 l 456.051 655.898 l 455.258 654.469 l
 451.293 649.699 l 456.844 649.699 l S
461.996 659.715 m 460.805 659.238 l 460.012 657.809 l 459.617 655.422 l
 459.617 653.992 l 460.012 651.609 l 460.805 650.176 l 461.996 649.699 l
 462.789 649.699 l 463.977 650.176 l 464.77 651.609 l 465.164 653.992 l 
465.164 655.422 l 464.77 657.809 l 463.977 659.238 l 462.789 659.715 l 461.996
 659.715 l S
468.336 657.332 m 468.336 657.809 l 468.73 658.762 l 469.129 659.238 l 
469.922 659.715 l 471.504 659.715 l 472.297 659.238 l 472.695 658.762 l 
473.09 657.809 l 473.09 656.855 l 472.695 655.898 l 471.902 654.469 l 467.938
 649.699 l 473.488 649.699 l S
476.656 657.332 m 476.656 657.809 l 477.055 658.762 l 477.449 659.238 l
 478.242 659.715 l 479.828 659.715 l 480.621 659.238 l 481.016 658.762 l
 481.414 657.809 l 481.414 656.855 l 481.016 655.898 l 480.223 654.469 l
 476.262 649.699 l 481.809 649.699 l S
1.5 w
45.926 416.988 138.707 -174.887 re S
0.980392 0.235294 0.235294 rg
1.25 w
142.426 242.102 m 138.633 285.82 l 122.449 329.543 l 134.168 373.266 l 
128.512 416.988 l S
139.652 244.898 5.547 -2.797 re f
135.859 288.621 5.547 -5.598 re f
119.676 332.34 5.547 -5.594 re f
131.395 376.062 5.547 -5.598 re f
125.738 416.988 5.547 -2.801 re f
0 g
45.926 242.102 m 45.926 238.184 l S
47.777 234.906 m 44.078 234.906 l 43.707 230.898 l 44.078 231.344 l 45.188
 231.789 l 46.297 231.789 l 47.406 231.344 l 48.145 230.453 l 48.516 229.117
 l 48.516 228.23 l 48.145 226.895 l 47.406 226.004 l 46.297 225.559 l 45.188
 225.559 l 44.078 226.004 l 43.707 226.449 l 43.336 227.34 l S
80.602 242.102 m 80.602 238.184 l S
75.238 233.125 m 75.98 233.57 l 77.09 234.906 l 77.09 225.559 l S
84.117 234.906 m 83.008 234.461 l 82.266 233.125 l 81.898 230.898 l 81.898
 229.562 l 82.266 227.34 l 83.008 226.004 l 84.117 225.559 l 84.855 225.559
 l 85.965 226.004 l 86.707 227.34 l 87.074 229.562 l 87.074 230.898 l 86.707
 233.125 l 85.965 234.461 l 84.855 234.906 l 84.117 234.906 l S
115.281 242.102 m 115.281 238.184 l S
109.918 233.125 m 110.656 233.57 l 111.766 234.906 l 111.766 225.559 l S
121.012 234.906 m 117.312 234.906 l 116.945 230.898 l 117.312 231.344 l
 118.422 231.789 l 119.531 231.789 l 120.645 231.344 l 121.383 230.453 l
 121.754 229.117 l 121.754 228.23 l 121.383 226.895 l 120.645 226.004 l 
119.531 225.559 l 118.422 225.559 l 117.312 226.004 l 116.945 226.449 l 
116.574 227.34 l S
149.957 242.102 m 149.957 238.184 l S
143.852 232.68 m 143.852 233.125 l 144.223 234.016 l 144.594 234.461 l 
145.332 234.906 l 146.812 234.906 l 147.551 234.461 l 147.922 234.016 l 
148.293 233.125 l 148.293 232.234 l 147.922 231.344 l 147.184 230.008 l 
143.484 225.559 l 148.66 225.559 l S
153.469 234.906 m 152.359 234.461 l 151.621 233.125 l 151.25 230.898 l 
151.25 229.562 l 151.621 227.34 l 152.359 226.004 l 153.469 225.559 l 154.211
 225.559 l 155.32 226.004 l 156.059 227.34 l 156.43 229.562 l 156.43 230.898
 l 156.059 233.125 l 155.32 234.461 l 154.211 234.906 l 153.469 234.906 
l S
184.633 242.102 m 184.633 238.184 l S
178.527 232.68 m 178.527 233.125 l 178.898 234.016 l 179.27 234.461 l 180.008
 234.906 l 181.488 234.906 l 182.227 234.461 l 182.598 234.016 l 182.969
 233.125 l 182.969 232.234 l 182.598 231.344 l 181.859 230.008 l 178.16 
225.559 l 183.336 225.559 l S
190.367 234.906 m 186.668 234.906 l 186.297 230.898 l 186.668 231.344 l
 187.777 231.789 l 188.887 231.789 l 189.996 231.344 l 190.734 230.453 l
 191.105 229.117 l 191.105 228.23 l 190.734 226.895 l 189.996 226.004 l 
188.887 225.559 l 187.777 225.559 l 186.668 226.004 l 186.297 226.449 l 
185.926 227.34 l S
45.926 416.988 m 42.043 416.988 l S
20.961 418.43 m 20.59 417.094 l 19.852 416.203 l 18.738 415.758 l 18.371
 415.758 l 17.262 416.203 l 16.52 417.094 l 16.152 418.43 l 16.152 418.875
 l 16.52 420.211 l 17.262 421.102 l 18.371 421.543 l 18.738 421.543 l 19.852
 421.102 l 20.59 420.211 l 20.961 418.43 l 20.961 416.203 l 20.59 413.977
 l 19.852 412.641 l 18.738 412.195 l 18 412.195 l 16.891 412.641 l 16.52
 413.531 l S
26.137 421.543 m 25.027 421.102 l 24.289 419.766 l 23.918 417.539 l 23.918
 416.203 l 24.289 413.977 l 25.027 412.641 l 26.137 412.195 l 26.879 412.195
 l 27.988 412.641 l 28.727 413.977 l 29.098 416.203 l 29.098 417.539 l 28.727
 419.766 l 27.988 421.102 l 26.879 421.543 l 26.137 421.543 l S
33.906 421.543 m 32.797 421.102 l 32.055 419.766 l 31.688 417.539 l 31.688
 416.203 l 32.055 413.977 l 32.797 412.641 l 33.906 412.195 l 34.645 412.195
 l 35.754 412.641 l 36.496 413.977 l 36.863 416.203 l 36.863 417.539 l 36.496
 419.766 l 35.754 421.102 l 34.645 421.543 l 33.906 421.543 l S
45.926 329.543 m 42.043 329.543 l S
20.961 330.984 m 20.59 329.648 l 19.852 328.758 l 18.738 328.316 l 18.371
 328.316 l 17.262 328.758 l 16.52 329.648 l 16.152 330.984 l 16.152 331.43
 l 16.52 332.766 l 17.262 333.656 l 18.371 334.102 l 18.738 334.102 l 19.852
 333.656 l 20.59 332.766 l 20.961 330.984 l 20.961 328.758 l 20.59 326.535
 l 19.852 325.199 l 18.738 324.754 l 18 324.754 l 16.891 325.199 l 16.52
 326.09 l S
28.355 334.102 m 24.66 334.102 l 24.289 330.094 l 24.66 330.539 l 25.77
 330.984 l 26.879 330.984 l 27.988 330.539 l 28.727 329.648 l 29.098 328.316
 l 29.098 327.426 l 28.727 326.09 l 27.988 325.199 l 26.879 324.754 l 25.77
 324.754 l 24.66 325.199 l 24.289 325.645 l 23.918 326.535 l S
33.906 334.102 m 32.797 333.656 l 32.055 332.32 l 31.688 330.094 l 31.688
 328.758 l 32.055 326.535 l 32.797 325.199 l 33.906 324.754 l 34.645 324.754
 l 35.754 325.199 l 36.496 326.535 l 36.863 328.758 l 36.863 330.094 l 36.496
 332.32 l 35.754 333.656 l 34.645 334.102 l 33.906 334.102 l S
45.926 242.102 m 42.043 242.102 l S
11.25 246.547 m 11.344 246.66 l 11.344 237.309 l S
18.371 246.66 m 17.262 246.215 l 16.52 244.879 l 16.152 242.652 l 16.152
 241.316 l 16.52 239.09 l 17.262 237.754 l 18.371 237.309 l 19.109 237.309
 l 20.219 237.754 l 20.961 239.09 l 21.328 241.316 l 21.328 242.652 l 20.961
 244.879 l 20.219 246.215 l 19.109 246.66 l 18.371 246.66 l S
26.137 246.66 m 25.027 246.215 l 24.289 244.879 l 23.918 242.652 l 23.918
 241.316 l 24.289 239.09 l 25.027 237.754 l 26.137 237.309 l 26.879 237.309
 l 27.988 237.754 l 28.727 239.09 l 29.098 241.316 l 29.098 242.652 l 28.727
 244.879 l 27.988 246.215 l 26.879 246.66 l 26.137 246.66 l S
33.906 246.66 m 32.797 246.215 l 32.055 244.879 l 31.688 242.652 l 31.688
 241.316 l 32.055 239.09 l 32.797 237.754 l 33.906 237.309 l 34.645 237.309
 l 35.754 237.754 l 36.496 239.09 l 36.863 241.316 l 36.863 242.652 l 36.496
 244.879 l 35.754 246.215 l 34.645 246.66 l 33.906 246.66 l S
1 w
14.668 435.863 m 13.48 435.383 l 12.688 433.953 l 12.289 431.57 l 12.289
 430.137 l 12.688 427.754 l 13.48 426.32 l 14.668 425.844 l 15.461 425.844
 l 16.648 426.32 l 17.441 427.754 l 17.84 430.137 l 17.84 431.57 l 17.441
 433.953 l 16.648 435.383 l 15.461 435.863 l 14.668 435.863 l S
25.766 432.523 m 25.367 431.09 l 24.574 430.137 l 23.387 429.66 l 22.992
 429.66 l 21.801 430.137 l 21.008 431.09 l 20.613 432.523 l 20.613 433 l
 21.008 434.43 l 21.801 435.383 l 22.992 435.863 l 23.387 435.863 l 24.574
 435.383 l 25.367 434.43 l 25.766 432.523 l 25.766 430.137 l 25.367 427.754
 l 24.574 426.32 l 23.387 425.844 l 22.594 425.844 l 21.406 426.32 l 21.008
 427.277 l S
34.484 435.863 m 28.934 425.844 l S
28.934 435.863 m 34.484 435.863 l S
28.934 425.844 m 34.484 425.844 l S
39.637 435.863 m 38.445 435.383 l 37.652 433.953 l 37.258 431.57 l 37.258
 430.137 l 37.652 427.754 l 38.445 426.32 l 39.637 425.844 l 40.43 425.844
 l 41.617 426.32 l 42.41 427.754 l 42.805 430.137 l 42.805 431.57 l 42.41
 433.953 l 41.617 435.383 l 40.43 435.863 l 39.637 435.863 l S
50.336 435.863 m 46.371 435.863 l 45.977 431.57 l 46.371 432.047 l 47.562
 432.523 l 48.75 432.523 l 49.938 432.047 l 50.73 431.09 l 51.129 429.66
 l 51.129 428.707 l 50.73 427.277 l 49.938 426.32 l 48.75 425.844 l 47.562
 425.844 l 46.371 426.32 l 45.977 426.801 l 45.578 427.754 l S
57.43 435.863 m 57.43 428.23 l 57.031 426.801 l 56.637 426.32 l 55.844 
425.844 l 55.051 425.844 l 54.258 426.32 l 53.863 426.801 l 53.465 428.23
 l 53.465 429.184 l S
60.977 435.863 m 60.977 428.707 l 61.371 427.277 l 62.164 426.32 l 63.355
 425.844 l 64.148 425.844 l 65.336 426.32 l 66.129 427.277 l 66.523 428.707
 l 66.523 435.863 l S
69.488 435.863 m 69.488 425.844 l S
69.488 425.844 m 74.242 425.844 l S
77.184 433.477 m 77.184 433.953 l 77.582 434.906 l 77.977 435.383 l 78.77
 435.863 l 80.355 435.863 l 81.148 435.383 l 81.543 434.906 l 81.941 433.953
 l 81.941 433 l 81.543 432.047 l 80.75 430.613 l 76.789 425.844 l 82.336
 425.844 l S
87.488 435.863 m 86.301 435.383 l 85.508 433.953 l 85.109 431.57 l 85.109
 430.137 l 85.508 427.754 l 86.301 426.32 l 87.488 425.844 l 88.281 425.844
 l 89.469 426.32 l 90.262 427.754 l 90.66 430.137 l 90.66 431.57 l 90.262
 433.953 l 89.469 435.383 l 88.281 435.863 l 87.488 435.863 l S
93.828 433.477 m 93.828 433.953 l 94.227 434.906 l 94.621 435.383 l 95.414
 435.863 l 97 435.863 l 97.793 435.383 l 98.188 434.906 l 98.586 433.953
 l 98.586 433 l 98.188 432.047 l 97.395 430.613 l 93.434 425.844 l 98.98
 425.844 l S
102.152 433.477 m 102.152 433.953 l 102.547 434.906 l 102.945 435.383 l
 103.738 435.863 l 105.324 435.863 l 106.113 435.383 l 106.512 434.906 l
 106.906 433.953 l 106.906 433 l 106.512 432.047 l 105.719 430.613 l 101.754
 425.844 l 107.305 425.844 l S
1.5 w
233.18 416.988 138.707 -174.887 re S
0.941176 0 0.509804 rg
1.25 w
337.801 242.102 m 337.051 285.82 l 330.445 329.543 l 317.797 373.266 l 
310.867 416.988 l S
1 g
335.027 244.898 m 340.574 244.898 l 340.574 242.102 l S
335.027 242.102 m 335.027 244.898 l S
0.941176 0 0.509804 rg
337.801 242.102 m 337.801 244.898 l S
335.027 242.102 m 340.574 242.102 l S
1 g
334.277 288.621 5.551 -5.598 re S
0.941176 0 0.509804 rg
337.051 283.023 m 337.051 288.621 l S
334.277 285.82 m 339.828 285.82 l S
1 g
327.672 332.34 5.551 -5.594 re S
0.941176 0 0.509804 rg
330.445 326.746 m 330.445 332.34 l S
327.672 329.543 m 333.223 329.543 l S
1 g
315.023 376.062 5.547 -5.598 re S
0.941176 0 0.509804 rg
317.797 370.465 m 317.797 376.062 l S
315.023 373.266 m 320.57 373.266 l S
1 g
313.641 416.988 m 313.641 414.188 l 308.09 414.188 l 308.09 416.988 l S
0.941176 0 0.509804 rg
310.867 414.188 m 310.867 416.988 l S
0 g
233.18 242.102 m 233.18 238.184 l S
235.027 234.906 m 231.328 234.906 l 230.961 230.898 l 231.328 231.344 l
 232.441 231.789 l 233.551 231.789 l 234.66 231.344 l 235.398 230.453 l 
235.77 229.117 l 235.77 228.23 l 235.398 226.895 l 234.66 226.004 l 233.551
 225.559 l 232.441 225.559 l 231.328 226.004 l 230.961 226.449 l 230.59 
227.34 l S
267.855 242.102 m 267.855 238.184 l S
262.492 233.125 m 263.23 233.57 l 264.344 234.906 l 264.344 225.559 l S
271.371 234.906 m 270.262 234.461 l 269.52 233.125 l 269.152 230.898 l 
269.152 229.562 l 269.52 227.34 l 270.262 226.004 l 271.371 225.559 l 272.109
 225.559 l 273.219 226.004 l 273.957 227.34 l 274.328 229.562 l 274.328 
230.898 l 273.957 233.125 l 273.219 234.461 l 272.109 234.906 l 271.371 
234.906 l S
302.531 242.102 m 302.531 238.184 l S
297.168 233.125 m 297.91 233.57 l 299.02 234.906 l 299.02 225.559 l S
308.266 234.906 m 304.566 234.906 l 304.195 230.898 l 304.566 231.344 l
 305.676 231.789 l 306.785 231.789 l 307.895 231.344 l 308.637 230.453 l
 309.004 229.117 l 309.004 228.23 l 308.637 226.895 l 307.895 226.004 l 
306.785 225.559 l 305.676 225.559 l 304.566 226.004 l 304.195 226.449 l 
303.828 227.34 l S
337.207 242.102 m 337.207 238.184 l S
331.105 232.68 m 331.105 233.125 l 331.477 234.016 l 331.844 234.461 l 
332.586 234.906 l 334.066 234.906 l 334.805 234.461 l 335.176 234.016 l 
335.543 233.125 l 335.543 232.234 l 335.176 231.344 l 334.434 230.008 l 
330.734 225.559 l 335.914 225.559 l S
340.723 234.906 m 339.613 234.461 l 338.875 233.125 l 338.504 230.898 l
 338.504 229.562 l 338.875 227.34 l 339.613 226.004 l 340.723 225.559 l 
341.461 225.559 l 342.57 226.004 l 343.312 227.34 l 343.684 229.562 l 343.684
 230.898 l 343.312 233.125 l 342.57 234.461 l 341.461 234.906 l 340.723 
234.906 l S
371.887 242.102 m 371.887 238.184 l S
365.781 232.68 m 365.781 233.125 l 366.152 234.016 l 366.523 234.461 l 
367.262 234.906 l 368.742 234.906 l 369.48 234.461 l 369.852 234.016 l 370.223
 233.125 l 370.223 232.234 l 369.852 231.344 l 369.109 230.008 l 365.414
 225.559 l 370.59 225.559 l S
377.617 234.906 m 373.918 234.906 l 373.551 230.898 l 373.918 231.344 l
 375.027 231.789 l 376.141 231.789 l 377.25 231.344 l 377.988 230.453 l 
378.359 229.117 l 378.359 228.23 l 377.988 226.895 l 377.25 226.004 l 376.141
 225.559 l 375.027 225.559 l 373.918 226.004 l 373.551 226.449 l 373.18 
227.34 l S
233.18 416.988 m 229.297 416.988 l S
208.211 418.43 m 207.844 417.094 l 207.102 416.203 l 205.992 415.758 l 
205.625 415.758 l 204.512 416.203 l 203.773 417.094 l 203.402 418.43 l 203.402
 418.875 l 203.773 420.211 l 204.512 421.102 l 205.625 421.543 l 205.992
 421.543 l 207.102 421.102 l 207.844 420.211 l 208.211 418.43 l 208.211 
416.203 l 207.844 413.977 l 207.102 412.641 l 205.992 412.195 l 205.254 
412.195 l 204.145 412.641 l 203.773 413.531 l S
213.391 421.543 m 212.281 421.102 l 211.543 419.766 l 211.172 417.539 l
 211.172 416.203 l 211.543 413.977 l 212.281 412.641 l 213.391 412.195 l
 214.129 412.195 l 215.238 412.641 l 215.98 413.977 l 216.352 416.203 l 
216.352 417.539 l 215.98 419.766 l 215.238 421.102 l 214.129 421.543 l 213.391
 421.543 l S
221.16 421.543 m 220.047 421.102 l 219.309 419.766 l 218.938 417.539 l 
218.938 416.203 l 219.309 413.977 l 220.047 412.641 l 221.16 412.195 l 221.898
 412.195 l 223.008 412.641 l 223.746 413.977 l 224.117 416.203 l 224.117
 417.539 l 223.746 419.766 l 223.008 421.102 l 221.898 421.543 l 221.16 
421.543 l S
233.18 329.543 m 229.297 329.543 l S
208.211 330.984 m 207.844 329.648 l 207.102 328.758 l 205.992 328.316 l
 205.625 328.316 l 204.512 328.758 l 203.773 329.648 l 203.402 330.984 l
 203.402 331.43 l 203.773 332.766 l 204.512 333.656 l 205.625 334.102 l 
205.992 334.102 l 207.102 333.656 l 207.844 332.766 l 208.211 330.984 l 
208.211 328.758 l 207.844 326.535 l 207.102 325.199 l 205.992 324.754 l 
205.254 324.754 l 204.145 325.199 l 203.773 326.09 l S
215.609 334.102 m 211.91 334.102 l 211.543 330.094 l 211.91 330.539 l 213.02
 330.984 l 214.129 330.984 l 215.238 330.539 l 215.98 329.648 l 216.352 
328.316 l 216.352 327.426 l 215.98 326.09 l 215.238 325.199 l 214.129 324.754
 l 213.02 324.754 l 211.91 325.199 l 211.543 325.645 l 211.172 326.535 l
 S
221.16 334.102 m 220.047 333.656 l 219.309 332.32 l 218.938 330.094 l 218.938
 328.758 l 219.309 326.535 l 220.047 325.199 l 221.16 324.754 l 221.898 
324.754 l 223.008 325.199 l 223.746 326.535 l 224.117 328.758 l 224.117 
330.094 l 223.746 332.32 l 223.008 333.656 l 221.898 334.102 l 221.16 334.102
 l S
233.18 242.102 m 229.297 242.102 l S
196.746 244.879 m 197.484 245.324 l 198.594 246.66 l 198.594 237.309 l S
205.625 246.66 m 204.512 246.215 l 203.773 244.879 l 203.402 242.652 l 
203.402 241.316 l 203.773 239.09 l 204.512 237.754 l 205.625 237.309 l 206.363
 237.309 l 207.473 237.754 l 208.211 239.09 l 208.582 241.316 l 208.582 
242.652 l 208.211 244.879 l 207.473 246.215 l 206.363 246.66 l 205.625 246.66
 l S
213.391 246.66 m 212.281 246.215 l 211.543 244.879 l 211.172 242.652 l 
211.172 241.316 l 211.543 239.09 l 212.281 237.754 l 213.391 237.309 l 214.129
 237.309 l 215.238 237.754 l 215.98 239.09 l 216.352 241.316 l 216.352 242.652
 l 215.98 244.879 l 215.238 246.215 l 214.129 246.66 l 213.391 246.66 l S
221.16 246.66 m 220.047 246.215 l 219.309 244.879 l 218.938 242.652 l 218.938
 241.316 l 219.309 239.09 l 220.047 237.754 l 221.16 237.309 l 221.898 237.309
 l 223.008 237.754 l 223.746 239.09 l 224.117 241.316 l 224.117 242.652 
l 223.746 244.879 l 223.008 246.215 l 221.898 246.66 l 221.16 246.66 l S
1 w
200.73 433.953 m 201.523 434.43 l 202.715 435.863 l 202.715 425.844 l S
208.262 433.477 m 208.262 433.953 l 208.66 434.906 l 209.055 435.383 l 
209.848 435.863 l 211.434 435.863 l 212.227 435.383 l 212.621 434.906 l 
213.016 433.953 l 213.016 433 l 212.621 432.047 l 211.828 430.613 l 207.867
 425.844 l 213.414 425.844 l S
221.734 435.863 m 216.188 425.844 l S
216.188 435.863 m 221.734 435.863 l S
216.188 425.844 m 221.734 425.844 l S
226.887 435.863 m 225.699 435.383 l 224.906 433.953 l 224.512 431.57 l 
224.512 430.137 l 224.906 427.754 l 225.699 426.32 l 226.887 425.844 l 227.68
 425.844 l 228.871 426.32 l 229.664 427.754 l 230.059 430.137 l 230.059 
431.57 l 229.664 433.953 l 228.871 435.383 l 227.68 435.863 l 226.887 435.863
 l S
237.59 435.863 m 233.625 435.863 l 233.23 431.57 l 233.625 432.047 l 234.812
 432.523 l 236.004 432.523 l 237.191 432.047 l 237.984 431.09 l 238.383 
429.66 l 238.383 428.707 l 237.984 427.277 l 237.191 426.32 l 236.004 425.844
 l 234.812 425.844 l 233.625 426.32 l 233.23 426.801 l 232.832 427.754 l
 S
244.684 435.863 m 244.684 428.23 l 244.285 426.801 l 243.891 426.32 l 243.098
 425.844 l 242.305 425.844 l 241.512 426.32 l 241.117 426.801 l 240.719 
428.23 l 240.719 429.184 l S
248.23 435.863 m 248.23 428.707 l 248.625 427.277 l 249.418 426.32 l 250.605
 425.844 l 251.398 425.844 l 252.59 426.32 l 253.383 427.277 l 253.777 428.707
 l 253.777 435.863 l S
256.738 435.863 m 256.738 425.844 l S
256.738 425.844 m 261.496 425.844 l S
264.438 433.477 m 264.438 433.953 l 264.836 434.906 l 265.23 435.383 l 
266.023 435.863 l 267.609 435.863 l 268.402 435.383 l 268.797 434.906 l 
269.195 433.953 l 269.195 433 l 268.797 432.047 l 268.004 430.613 l 264.043
 425.844 l 269.59 425.844 l S
274.742 435.863 m 273.555 435.383 l 272.762 433.953 l 272.363 431.57 l 
272.363 430.137 l 272.762 427.754 l 273.555 426.32 l 274.742 425.844 l 275.535
 425.844 l 276.723 426.32 l 277.516 427.754 l 277.91 430.137 l 277.91 431.57
 l 277.516 433.953 l 276.723 435.383 l 275.535 435.863 l 274.742 435.863
 l S
281.082 433.477 m 281.082 433.953 l 281.48 434.906 l 281.875 435.383 l 
282.668 435.863 l 284.254 435.863 l 285.047 435.383 l 285.441 434.906 l 
285.84 433.953 l 285.84 433 l 285.441 432.047 l 284.648 430.613 l 280.688
 425.844 l 286.234 425.844 l S
289.406 433.477 m 289.406 433.953 l 289.801 434.906 l 290.199 435.383 l
 290.988 435.863 l 292.574 435.863 l 293.367 435.383 l 293.766 434.906 l
 294.16 433.953 l 294.16 433 l 293.766 432.047 l 292.973 430.613 l 289.008
 425.844 l 294.559 425.844 l S
1.5 w
420.434 416.988 138.703 -174.887 re S
0.627451 0 0.784314 rg
1.25 w
532.215 242.102 m 523.324 285.82 l 514.18 329.543 l 503.973 373.266 l 484.355
 416.988 l S
1 g
533.602 244.523 m 532.215 244.898 l 530.828 244.523 l 529.812 243.5 l 529.441
 242.102 l 534.988 242.102 l 534.617 243.5 l 533.602 244.523 l f
0.627451 0 0.784314 rg
533.602 244.523 m 532.215 244.898 l 530.828 244.523 l 529.812 243.5 l 529.441
 242.102 l S
534.988 242.102 m 534.617 243.5 l 533.602 244.523 l S
1 g
524.715 288.246 m 523.324 288.621 l 521.938 288.246 l 520.922 287.219 l
 520.551 285.82 l 520.922 284.422 l 521.938 283.398 l 523.324 283.023 l 
524.715 283.398 l 525.727 284.422 l 526.102 285.82 l 525.727 287.219 l 524.715
 288.246 l f
0.627451 0 0.784314 rg
524.715 288.246 m 523.324 288.621 l 521.938 288.246 l 520.922 287.219 l
 520.551 285.82 l 520.922 284.422 l 521.938 283.398 l 523.324 283.023 l 
524.715 283.398 l 525.727 284.422 l 526.102 285.82 l 525.727 287.219 l 524.715
 288.246 l S
1 g
515.566 331.965 m 514.18 332.34 l 512.793 331.965 l 511.777 330.941 l 511.406
 329.543 l 511.777 328.145 l 512.793 327.121 l 514.18 326.746 l 515.566 
327.121 l 516.582 328.145 l 516.953 329.543 l 516.582 330.941 l 515.566 
331.965 l f
0.627451 0 0.784314 rg
515.566 331.965 m 514.18 332.34 l 512.793 331.965 l 511.777 330.941 l 511.406
 329.543 l 511.777 328.145 l 512.793 327.121 l 514.18 326.746 l 515.566 
327.121 l 516.582 328.145 l 516.953 329.543 l 516.582 330.941 l 515.566 
331.965 l S
1 g
505.359 375.688 m 503.973 376.062 l 502.586 375.688 l 501.57 374.664 l 
501.199 373.266 l 501.57 371.867 l 502.586 370.84 l 503.973 370.465 l 505.359
 370.84 l 506.375 371.867 l 506.746 373.266 l 506.375 374.664 l 505.359 
375.688 l f
0.627451 0 0.784314 rg
505.359 375.688 m 503.973 376.062 l 502.586 375.688 l 501.57 374.664 l 
501.199 373.266 l 501.57 371.867 l 502.586 370.84 l 503.973 370.465 l 505.359
 370.84 l 506.375 371.867 l 506.746 373.266 l 506.375 374.664 l 505.359 
375.688 l S
1 g
485.742 416.988 m 481.582 416.988 l 481.953 415.586 l 482.969 414.562 l
 484.355 414.188 l 485.742 414.562 l 486.758 415.586 l 487.129 416.988 l
 485.742 416.988 l f
0.627451 0 0.784314 rg
481.582 416.988 m 481.953 415.586 l 482.969 414.562 l 484.355 414.188 l
 485.742 414.562 l 486.758 415.586 l 487.129 416.988 l S
0 g
420.434 242.102 m 420.434 238.184 l S
422.281 234.906 m 418.582 234.906 l 418.215 230.898 l 418.582 231.344 l
 419.691 231.789 l 420.801 231.789 l 421.91 231.344 l 422.652 230.453 l 
423.023 229.117 l 423.023 228.23 l 422.652 226.895 l 421.91 226.004 l 420.801
 225.559 l 419.691 225.559 l 418.582 226.004 l 418.215 226.449 l 417.844
 227.34 l S
455.109 242.102 m 455.109 238.184 l S
449.746 233.125 m 450.484 233.57 l 451.594 234.906 l 451.594 225.559 l S
458.621 234.906 m 457.512 234.461 l 456.773 233.125 l 456.402 230.898 l
 456.402 229.562 l 456.773 227.34 l 457.512 226.004 l 458.621 225.559 l 
459.363 225.559 l 460.473 226.004 l 461.211 227.34 l 461.582 229.562 l 461.582
 230.898 l 461.211 233.125 l 460.473 234.461 l 459.363 234.906 l 458.621
 234.906 l S
489.785 242.102 m 489.785 238.184 l S
484.422 233.125 m 485.16 233.57 l 486.27 234.906 l 486.27 225.559 l S
495.52 234.906 m 491.82 234.906 l 491.449 230.898 l 491.82 231.344 l 492.93
 231.789 l 494.039 231.789 l 495.148 231.344 l 495.887 230.453 l 496.258
 229.117 l 496.258 228.23 l 495.887 226.895 l 495.148 226.004 l 494.039 
225.559 l 492.93 225.559 l 491.82 226.004 l 491.449 226.449 l 491.078 227.34
 l S
524.461 242.102 m 524.461 238.184 l S
518.359 232.68 m 518.359 233.125 l 518.73 234.016 l 519.098 234.461 l 519.84
 234.906 l 521.316 234.906 l 522.059 234.461 l 522.426 234.016 l 522.797
 233.125 l 522.797 232.234 l 522.426 231.344 l 521.688 230.008 l 517.988
 225.559 l 523.168 225.559 l S
527.977 234.906 m 526.867 234.461 l 526.125 233.125 l 525.758 230.898 l
 525.758 229.562 l 526.125 227.34 l 526.867 226.004 l 527.977 225.559 l 
528.715 225.559 l 529.824 226.004 l 530.566 227.34 l 530.934 229.562 l 530.934
 230.898 l 530.566 233.125 l 529.824 234.461 l 528.715 234.906 l 527.977
 234.906 l S
559.137 242.102 m 559.137 238.184 l S
553.035 232.68 m 553.035 233.125 l 553.406 234.016 l 553.773 234.461 l 
554.516 234.906 l 555.996 234.906 l 556.734 234.461 l 557.105 234.016 l 
557.473 233.125 l 557.473 232.234 l 557.105 231.344 l 556.363 230.008 l 
552.664 225.559 l 557.844 225.559 l S
564.871 234.906 m 561.172 234.906 l 560.801 230.898 l 561.172 231.344 l
 562.281 231.789 l 563.391 231.789 l 564.5 231.344 l 565.242 230.453 l 565.609
 229.117 l 565.609 228.23 l 565.242 226.895 l 564.5 226.004 l 563.391 225.559
 l 562.281 225.559 l 561.172 226.004 l 560.801 226.449 l 560.434 227.34 
l S
420.434 416.988 m 416.547 416.988 l S
395.465 418.43 m 395.094 417.094 l 394.355 416.203 l 393.246 415.758 l 
392.875 415.758 l 391.766 416.203 l 391.027 417.094 l 390.656 418.43 l 390.656
 418.875 l 391.027 420.211 l 391.766 421.102 l 392.875 421.543 l 393.246
 421.543 l 394.355 421.102 l 395.094 420.211 l 395.465 418.43 l 395.465 
416.203 l 395.094 413.977 l 394.355 412.641 l 393.246 412.195 l 392.508 
412.195 l 391.398 412.641 l 391.027 413.531 l S
400.645 421.543 m 399.535 421.102 l 398.793 419.766 l 398.426 417.539 l
 398.426 416.203 l 398.793 413.977 l 399.535 412.641 l 400.645 412.195 l
 401.383 412.195 l 402.492 412.641 l 403.234 413.977 l 403.602 416.203 l
 403.602 417.539 l 403.234 419.766 l 402.492 421.102 l 401.383 421.543 l
 400.645 421.543 l S
408.41 421.543 m 407.301 421.102 l 406.562 419.766 l 406.191 417.539 l 
406.191 416.203 l 406.562 413.977 l 407.301 412.641 l 408.41 412.195 l 409.152
 412.195 l 410.262 412.641 l 411 413.977 l 411.371 416.203 l 411.371 417.539
 l 411 419.766 l 410.262 421.102 l 409.152 421.543 l 408.41 421.543 l S
420.434 329.543 m 416.547 329.543 l S
395.465 330.984 m 395.094 329.648 l 394.355 328.758 l 393.246 328.316 l
 392.875 328.316 l 391.766 328.758 l 391.027 329.648 l 390.656 330.984 l
 390.656 331.43 l 391.027 332.766 l 391.766 333.656 l 392.875 334.102 l 
393.246 334.102 l 394.355 333.656 l 395.094 332.766 l 395.465 330.984 l 
395.465 328.758 l 395.094 326.535 l 394.355 325.199 l 393.246 324.754 l 
392.508 324.754 l 391.398 325.199 l 391.027 326.09 l S
402.863 334.102 m 399.164 334.102 l 398.793 330.094 l 399.164 330.539 l
 400.273 330.984 l 401.383 330.984 l 402.492 330.539 l 403.234 329.648 l
 403.602 328.316 l 403.602 327.426 l 403.234 326.09 l 402.492 325.199 l 
401.383 324.754 l 400.273 324.754 l 399.164 325.199 l 398.793 325.645 l 
398.426 326.535 l S
408.41 334.102 m 407.301 333.656 l 406.562 332.32 l 406.191 330.094 l 406.191
 328.758 l 406.562 326.535 l 407.301 325.199 l 408.41 324.754 l 409.152 
324.754 l 410.262 325.199 l 411 326.535 l 411.371 328.758 l 411.371 330.094
 l 411 332.32 l 410.262 333.656 l 409.152 334.102 l 408.41 334.102 l S
420.434 242.102 m 416.547 242.102 l S
384 244.879 m 384.738 245.324 l 385.848 246.66 l 385.848 237.309 l S
392.875 246.66 m 391.766 246.215 l 391.027 244.879 l 390.656 242.652 l 
390.656 241.316 l 391.027 239.09 l 391.766 237.754 l 392.875 237.309 l 393.617
 237.309 l 394.727 237.754 l 395.465 239.09 l 395.836 241.316 l 395.836 
242.652 l 395.465 244.879 l 394.727 246.215 l 393.617 246.66 l 392.875 246.66
 l S
400.645 246.66 m 399.535 246.215 l 398.793 244.879 l 398.426 242.652 l 
398.426 241.316 l 398.793 239.09 l 399.535 237.754 l 400.645 237.309 l 401.383
 237.309 l 402.492 237.754 l 403.234 239.09 l 403.602 241.316 l 403.602 
242.652 l 403.234 244.879 l 402.492 246.215 l 401.383 246.66 l 400.645 246.66
 l S
408.41 246.66 m 407.301 246.215 l 406.562 244.879 l 406.191 242.652 l 406.191
 241.316 l 406.562 239.09 l 407.301 237.754 l 408.41 237.309 l 409.152 237.309
 l 410.262 237.754 l 411 239.09 l 411.371 241.316 l 411.371 242.652 l 411
 244.879 l 410.262 246.215 l 409.152 246.66 l 408.41 246.66 l S
1 w
387.984 433.953 m 388.777 434.43 l 389.965 435.863 l 389.965 425.844 l S
399.875 435.863 m 395.91 435.863 l 395.516 431.57 l 395.91 432.047 l 397.102
 432.523 l 398.289 432.523 l 399.477 432.047 l 400.27 431.09 l 400.668 429.66
 l 400.668 428.707 l 400.27 427.277 l 399.477 426.32 l 398.289 425.844 l
 397.102 425.844 l 395.91 426.32 l 395.516 426.801 l 395.117 427.754 l S
408.988 435.863 m 403.441 425.844 l S
403.441 435.863 m 408.988 435.863 l S
403.441 425.844 m 408.988 425.844 l S
414.141 435.863 m 412.953 435.383 l 412.16 433.953 l 411.762 431.57 l 411.762
 430.137 l 412.16 427.754 l 412.953 426.32 l 414.141 425.844 l 414.934 425.844
 l 416.121 426.32 l 416.914 427.754 l 417.312 430.137 l 417.312 431.57 l
 416.914 433.953 l 416.121 435.383 l 414.934 435.863 l 414.141 435.863 l
 S
424.84 435.863 m 420.879 435.863 l 420.48 431.57 l 420.879 432.047 l 422.066
 432.523 l 423.258 432.523 l 424.445 432.047 l 425.238 431.09 l 425.633 
429.66 l 425.633 428.707 l 425.238 427.277 l 424.445 426.32 l 423.258 425.844
 l 422.066 425.844 l 420.879 426.32 l 420.48 426.801 l 420.086 427.754 l
 S
431.934 435.863 m 431.934 428.23 l 431.539 426.801 l 431.141 426.32 l 430.352
 425.844 l 429.559 425.844 l 428.766 426.32 l 428.367 426.801 l 427.973 
428.23 l 427.973 429.184 l S
435.48 435.863 m 435.48 428.707 l 435.879 427.277 l 436.672 426.32 l 437.859
 425.844 l 438.652 425.844 l 439.84 426.32 l 440.633 427.277 l 441.031 428.707
 l 441.031 435.863 l S
443.992 435.863 m 443.992 425.844 l S
443.992 425.844 m 448.75 425.844 l S
451.691 433.477 m 451.691 433.953 l 452.086 434.906 l 452.484 435.383 l
 453.277 435.863 l 454.859 435.863 l 455.652 435.383 l 456.051 434.906 l
 456.445 433.953 l 456.445 433 l 456.051 432.047 l 455.258 430.613 l 451.293
 425.844 l 456.844 425.844 l S
461.996 435.863 m 460.805 435.383 l 460.012 433.953 l 459.617 431.57 l 
459.617 430.137 l 460.012 427.754 l 460.805 426.32 l 461.996 425.844 l 462.789
 425.844 l 463.977 426.32 l 464.77 427.754 l 465.164 430.137 l 465.164 431.57
 l 464.77 433.953 l 463.977 435.383 l 462.789 435.863 l 461.996 435.863 
l S
468.336 433.477 m 468.336 433.953 l 468.73 434.906 l 469.129 435.383 l 
469.922 435.863 l 471.504 435.863 l 472.297 435.383 l 472.695 434.906 l 
473.09 433.953 l 473.09 433 l 472.695 432.047 l 471.902 430.613 l 467.938
 425.844 l 473.488 425.844 l S
476.656 433.477 m 476.656 433.953 l 477.055 434.906 l 477.449 435.383 l
 478.242 435.863 l 479.828 435.863 l 480.621 435.383 l 481.016 434.906 l
 481.414 433.953 l 481.414 433 l 481.016 432.047 l 480.223 430.613 l 476.262
 425.844 l 481.809 425.844 l S
1.5 w
45.926 193.133 138.707 -174.887 re S
0.627451 0.901961 0.196078 rg
1.25 w
155.855 18.246 m 144.512 61.969 l 131.34 105.688 l 119.035 149.41 l 103.574
 193.133 l S
157.242 20.668 m 155.855 21.043 l 154.469 20.668 l 153.453 19.645 l 153.082
 18.246 l 158.629 18.246 l 158.258 19.645 l 157.242 20.668 l f
145.898 64.391 m 144.512 64.766 l 143.125 64.391 l 142.109 63.367 l 141.738
 61.969 l 142.109 60.566 l 143.125 59.543 l 144.512 59.168 l 145.898 59.543
 l 146.914 60.566 l 147.285 61.969 l 146.914 63.367 l 145.898 64.391 l f
132.727 108.113 m 131.34 108.488 l 129.953 108.113 l 128.938 107.086 l 
128.566 105.688 l 128.938 104.289 l 129.953 103.266 l 131.34 102.891 l 132.727
 103.266 l 133.742 104.289 l 134.113 105.688 l 133.742 107.086 l 132.727
 108.113 l f
120.422 151.832 m 119.035 152.207 l 117.648 151.832 l 116.633 150.809 l
 116.262 149.41 l 116.633 148.012 l 117.648 146.988 l 119.035 146.613 l 
120.422 146.988 l 121.438 148.012 l 121.809 149.41 l 121.438 150.809 l 120.422
 151.832 l f
104.961 193.133 m 100.797 193.133 l 101.168 191.734 l 102.184 190.707 l
 103.574 190.332 l 104.961 190.707 l 105.977 191.734 l 106.348 193.133 l
 104.961 193.133 l f
0 g
45.926 18.246 m 45.926 14.328 l S
80.602 18.246 m 80.602 14.328 l S
115.281 18.246 m 115.281 14.328 l S
149.957 18.246 m 149.957 14.328 l S
184.633 18.246 m 184.633 14.328 l S
45.926 193.133 m 42.043 193.133 l S
20.961 194.574 m 20.59 193.238 l 19.852 192.348 l 18.738 191.902 l 18.371
 191.902 l 17.262 192.348 l 16.52 193.238 l 16.152 194.574 l 16.152 195.02
 l 16.52 196.355 l 17.262 197.246 l 18.371 197.691 l 18.738 197.691 l 19.852
 197.246 l 20.59 196.355 l 20.961 194.574 l 20.961 192.348 l 20.59 190.121
 l 19.852 188.785 l 18.738 188.344 l 18 188.344 l 16.891 188.785 l 16.52
 189.676 l S
26.137 197.691 m 25.027 197.246 l 24.289 195.91 l 23.918 193.684 l 23.918
 192.348 l 24.289 190.121 l 25.027 188.785 l 26.137 188.344 l 26.879 188.344
 l 27.988 188.785 l 28.727 190.121 l 29.098 192.348 l 29.098 193.684 l 28.727
 195.91 l 27.988 197.246 l 26.879 197.691 l 26.137 197.691 l S
33.906 197.691 m 32.797 197.246 l 32.055 195.91 l 31.688 193.684 l 31.688
 192.348 l 32.055 190.121 l 32.797 188.785 l 33.906 188.344 l 34.645 188.344
 l 35.754 188.785 l 36.496 190.121 l 36.863 192.348 l 36.863 193.684 l 36.496
 195.91 l 35.754 197.246 l 34.645 197.691 l 33.906 197.691 l S
45.926 105.688 m 42.043 105.688 l S
20.961 107.133 m 20.59 105.797 l 19.852 104.906 l 18.738 104.461 l 18.371
 104.461 l 17.262 104.906 l 16.52 105.797 l 16.152 107.133 l 16.152 107.574
 l 16.52 108.91 l 17.262 109.801 l 18.371 110.246 l 18.738 110.246 l 19.852
 109.801 l 20.59 108.91 l 20.961 107.133 l 20.961 104.906 l 20.59 102.68
 l 19.852 101.344 l 18.738 100.898 l 18 100.898 l 16.891 101.344 l 16.52
 102.234 l S
28.355 110.246 m 24.66 110.246 l 24.289 106.242 l 24.66 106.688 l 25.77
 107.133 l 26.879 107.133 l 27.988 106.688 l 28.727 105.797 l 29.098 104.461
 l 29.098 103.57 l 28.727 102.234 l 27.988 101.344 l 26.879 100.898 l 25.77
 100.898 l 24.66 101.344 l 24.289 101.789 l 23.918 102.68 l S
33.906 110.246 m 32.797 109.801 l 32.055 108.465 l 31.688 106.242 l 31.688
 104.906 l 32.055 102.68 l 32.797 101.344 l 33.906 100.898 l 34.645 100.898
 l 35.754 101.344 l 36.496 102.68 l 36.863 104.906 l 36.863 106.242 l 36.496
 108.465 l 35.754 109.801 l 34.645 110.246 l 33.906 110.246 l S
45.926 18.246 m 42.043 18.246 l S
11.25 22.691 m 11.344 22.805 l 11.344 13.457 l S
18.371 22.805 m 17.262 22.359 l 16.52 21.023 l 16.152 18.797 l 16.152 17.461
 l 16.52 15.234 l 17.262 13.902 l 18.371 13.457 l 19.109 13.457 l 20.219
 13.902 l 20.961 15.234 l 21.328 17.461 l 21.328 18.797 l 20.961 21.023 
l 20.219 22.359 l 19.109 22.805 l 18.371 22.805 l S
26.137 22.805 m 25.027 22.359 l 24.289 21.023 l 23.918 18.797 l 23.918 
17.461 l 24.289 15.234 l 25.027 13.902 l 26.137 13.457 l 26.879 13.457 l
 27.988 13.902 l 28.727 15.234 l 29.098 17.461 l 29.098 18.797 l 28.727 
21.023 l 27.988 22.359 l 26.879 22.805 l 26.137 22.805 l S
33.906 22.805 m 32.797 22.359 l 32.055 21.023 l 31.688 18.797 l 31.688 
17.461 l 32.055 15.234 l 32.797 13.902 l 33.906 13.457 l 34.645 13.457 l
 35.754 13.902 l 36.496 15.234 l 36.863 17.461 l 36.863 18.797 l 36.496 
21.023 l 35.754 22.359 l 34.645 22.805 l 33.906 22.805 l S
1 w
13.48 210.098 m 14.273 210.574 l 15.461 212.008 l 15.461 201.992 l S
22.594 212.008 m 21.406 211.531 l 21.008 210.574 l 21.008 209.621 l 21.406
 208.668 l 22.199 208.191 l 23.781 207.715 l 24.973 207.238 l 25.766 206.285
 l 26.16 205.328 l 26.16 203.898 l 25.766 202.945 l 25.367 202.469 l 24.18
 201.992 l 22.594 201.992 l 21.406 202.469 l 21.008 202.945 l 20.613 203.898
 l 20.613 205.328 l 21.008 206.285 l 21.801 207.238 l 22.992 207.715 l 24.574
 208.191 l 25.367 208.668 l 25.766 209.621 l 25.766 210.574 l 25.367 211.531
 l 24.18 212.008 l 22.594 212.008 l S
34.484 212.008 m 28.934 201.992 l S
28.934 212.008 m 34.484 212.008 l S
28.934 201.992 m 34.484 201.992 l S
39.637 212.008 m 38.445 211.531 l 37.652 210.098 l 37.258 207.715 l 37.258
 206.285 l 37.652 203.898 l 38.445 202.469 l 39.637 201.992 l 40.43 201.992
 l 41.617 202.469 l 42.41 203.898 l 42.805 206.285 l 42.805 207.715 l 42.41
 210.098 l 41.617 211.531 l 40.43 212.008 l 39.637 212.008 l S
50.336 212.008 m 46.371 212.008 l 45.977 207.715 l 46.371 208.191 l 47.562
 208.668 l 48.75 208.668 l 49.938 208.191 l 50.73 207.238 l 51.129 205.805
 l 51.129 204.852 l 50.73 203.422 l 49.938 202.469 l 48.75 201.992 l 47.562
 201.992 l 46.371 202.469 l 45.977 202.945 l 45.578 203.898 l S
57.43 212.008 m 57.43 204.375 l 57.031 202.945 l 56.637 202.469 l 55.844
 201.992 l 55.051 201.992 l 54.258 202.469 l 53.863 202.945 l 53.465 204.375
 l 53.465 205.328 l S
60.977 212.008 m 60.977 204.852 l 61.371 203.422 l 62.164 202.469 l 63.355
 201.992 l 64.148 201.992 l 65.336 202.469 l 66.129 203.422 l 66.523 204.852
 l 66.523 212.008 l S
69.488 212.008 m 69.488 201.992 l S
69.488 201.992 m 74.242 201.992 l S
77.184 209.621 m 77.184 210.098 l 77.582 211.055 l 77.977 211.531 l 78.77
 212.008 l 80.355 212.008 l 81.148 211.531 l 81.543 211.055 l 81.941 210.098
 l 81.941 209.145 l 81.543 208.191 l 80.75 206.762 l 76.789 201.992 l 82.336
 201.992 l S
87.488 212.008 m 86.301 211.531 l 85.508 210.098 l 85.109 207.715 l 85.109
 206.285 l 85.508 203.898 l 86.301 202.469 l 87.488 201.992 l 88.281 201.992
 l 89.469 202.469 l 90.262 203.898 l 90.66 206.285 l 90.66 207.715 l 90.262
 210.098 l 89.469 211.531 l 88.281 212.008 l 87.488 212.008 l S
93.828 209.621 m 93.828 210.098 l 94.227 211.055 l 94.621 211.531 l 95.414
 212.008 l 97 212.008 l 97.793 211.531 l 98.188 211.055 l 98.586 210.098
 l 98.586 209.145 l 98.188 208.191 l 97.395 206.762 l 93.434 201.992 l 98.98
 201.992 l S
102.152 209.621 m 102.152 210.098 l 102.547 211.055 l 102.945 211.531 l
 103.738 212.008 l 105.324 212.008 l 106.113 211.531 l 106.512 211.055 l
 106.906 210.098 l 106.906 209.145 l 106.512 208.191 l 105.719 206.762 l
 101.754 201.992 l 107.305 201.992 l S
1.5 w
233.18 193.133 138.707 -174.887 re S
0 0.627451 1 rg
1.25 w
343.461 18.246 m 336.465 61.969 l 322.508 105.688 l 307.371 149.41 l 294.117
 193.133 l S
1 g
340.688 21.043 5.547 -2.797 re f
0 0.627451 1 rg
340.688 21.043 m 346.234 21.043 l 346.234 18.246 l S
340.688 18.246 m 340.688 21.043 l S
1 g
333.691 64.766 5.547 -5.598 re f
0 0.627451 1 rg
333.691 64.766 5.547 -5.598 re S
1 g
319.734 108.488 5.551 -5.598 re f
0 0.627451 1 rg
319.734 108.488 5.551 -5.598 re S
1 g
304.598 152.207 5.547 -5.594 re f
0 0.627451 1 rg
304.598 152.207 5.547 -5.594 re S
1 g
291.344 193.133 5.547 -2.801 re f
0 0.627451 1 rg
296.891 193.133 m 296.891 190.332 l 291.344 190.332 l 291.344 193.133 l
 S
0 g
233.18 18.246 m 233.18 14.328 l S
267.855 18.246 m 267.855 14.328 l S
302.531 18.246 m 302.531 14.328 l S
337.207 18.246 m 337.207 14.328 l S
371.887 18.246 m 371.887 14.328 l S
233.18 193.133 m 229.297 193.133 l S
208.211 194.574 m 207.844 193.238 l 207.102 192.348 l 205.992 191.902 l
 205.625 191.902 l 204.512 192.348 l 203.773 193.238 l 203.402 194.574 l
 203.402 195.02 l 203.773 196.355 l 204.512 197.246 l 205.625 197.691 l 
205.992 197.691 l 207.102 197.246 l 207.844 196.355 l 208.211 194.574 l 
208.211 192.348 l 207.844 190.121 l 207.102 188.785 l 205.992 188.344 l 
205.254 188.344 l 204.145 188.785 l 203.773 189.676 l S
213.391 197.691 m 212.281 197.246 l 211.543 195.91 l 211.172 193.684 l 
211.172 192.348 l 211.543 190.121 l 212.281 188.785 l 213.391 188.344 l 
214.129 188.344 l 215.238 188.785 l 215.98 190.121 l 216.352 192.348 l 216.352
 193.684 l 215.98 195.91 l 215.238 197.246 l 214.129 197.691 l 213.391 197.691
 l S
221.16 197.691 m 220.047 197.246 l 219.309 195.91 l 218.938 193.684 l 218.938
 192.348 l 219.309 190.121 l 220.047 188.785 l 221.16 188.344 l 221.898 
188.344 l 223.008 188.785 l 223.746 190.121 l 224.117 192.348 l 224.117 
193.684 l 223.746 195.91 l 223.008 197.246 l 221.898 197.691 l 221.16 197.691
 l S
233.18 105.688 m 229.297 105.688 l S
208.211 107.133 m 207.844 105.797 l 207.102 104.906 l 205.992 104.461 l
 205.625 104.461 l 204.512 104.906 l 203.773 105.797 l 203.402 107.133 l
 203.402 107.574 l 203.773 108.91 l 204.512 109.801 l 205.625 110.246 l 
205.992 110.246 l 207.102 109.801 l 207.844 108.91 l 208.211 107.133 l 208.211
 104.906 l 207.844 102.68 l 207.102 101.344 l 205.992 100.898 l 205.254 
100.898 l 204.145 101.344 l 203.773 102.234 l S
215.609 110.246 m 211.91 110.246 l 211.543 106.242 l 211.91 106.688 l 213.02
 107.133 l 214.129 107.133 l 215.238 106.688 l 215.98 105.797 l 216.352 
104.461 l 216.352 103.57 l 215.98 102.234 l 215.238 101.344 l 214.129 100.898
 l 213.02 100.898 l 211.91 101.344 l 211.543 101.789 l 211.172 102.68 l S
221.16 110.246 m 220.047 109.801 l 219.309 108.465 l 218.938 106.242 l 
218.938 104.906 l 219.309 102.68 l 220.047 101.344 l 221.16 100.898 l 221.898
 100.898 l 223.008 101.344 l 223.746 102.68 l 224.117 104.906 l 224.117 
106.242 l 223.746 108.465 l 223.008 109.801 l 221.898 110.246 l 221.16 110.246
 l S
233.18 18.246 m 229.297 18.246 l S
196.746 21.023 m 197.484 21.469 l 198.594 22.805 l 198.594 13.457 l S
205.625 22.805 m 204.512 22.359 l 203.773 21.023 l 203.402 18.797 l 203.402
 17.461 l 203.773 15.234 l 204.512 13.902 l 205.625 13.457 l 206.363 13.457
 l 207.473 13.902 l 208.211 15.234 l 208.582 17.461 l 208.582 18.797 l 208.211
 21.023 l 207.473 22.359 l 206.363 22.805 l 205.625 22.805 l S
213.391 22.805 m 212.281 22.359 l 211.543 21.023 l 211.172 18.797 l 211.172
 17.461 l 211.543 15.234 l 212.281 13.902 l 213.391 13.457 l 214.129 13.457
 l 215.238 13.902 l 215.98 15.234 l 216.352 17.461 l 216.352 18.797 l 215.98
 21.023 l 215.238 22.359 l 214.129 22.805 l 213.391 22.805 l S
221.16 22.805 m 220.047 22.359 l 219.309 21.023 l 218.938 18.797 l 218.938
 17.461 l 219.309 15.234 l 220.047 13.902 l 221.16 13.457 l 221.898 13.457
 l 223.008 13.902 l 223.746 15.234 l 224.117 17.461 l 224.117 18.797 l 223.746
 21.023 l 223.008 22.359 l 221.898 22.805 l 221.16 22.805 l S
1 w
199.941 209.621 m 199.941 210.098 l 200.336 211.055 l 200.73 211.531 l 
201.523 212.008 l 203.109 212.008 l 203.902 211.531 l 204.301 211.055 l 
204.695 210.098 l 204.695 209.145 l 204.301 208.191 l 203.508 206.762 l 
199.543 201.992 l 205.09 201.992 l S
209.055 210.098 m 209.848 210.574 l 211.035 212.008 l 211.035 201.992 l
 S
221.734 212.008 m 216.188 201.992 l S
216.188 212.008 m 221.734 212.008 l S
216.188 201.992 m 221.734 201.992 l S
226.887 212.008 m 225.699 211.531 l 224.906 210.098 l 224.512 207.715 l
 224.512 206.285 l 224.906 203.898 l 225.699 202.469 l 226.887 201.992 l
 227.68 201.992 l 228.871 202.469 l 229.664 203.898 l 230.059 206.285 l 
230.059 207.715 l 229.664 210.098 l 228.871 211.531 l 227.68 212.008 l 226.887
 212.008 l S
237.59 212.008 m 233.625 212.008 l 233.23 207.715 l 233.625 208.191 l 234.812
 208.668 l 236.004 208.668 l 237.191 208.191 l 237.984 207.238 l 238.383
 205.805 l 238.383 204.852 l 237.984 203.422 l 237.191 202.469 l 236.004
 201.992 l 234.812 201.992 l 233.625 202.469 l 233.23 202.945 l 232.832 
203.898 l S
244.684 212.008 m 244.684 204.375 l 244.285 202.945 l 243.891 202.469 l
 243.098 201.992 l 242.305 201.992 l 241.512 202.469 l 241.117 202.945 l
 240.719 204.375 l 240.719 205.328 l S
248.23 212.008 m 248.23 204.852 l 248.625 203.422 l 249.418 202.469 l 250.605
 201.992 l 251.398 201.992 l 252.59 202.469 l 253.383 203.422 l 253.777 
204.852 l 253.777 212.008 l S
256.738 212.008 m 256.738 201.992 l S
256.738 201.992 m 261.496 201.992 l S
264.438 209.621 m 264.438 210.098 l 264.836 211.055 l 265.23 211.531 l 
266.023 212.008 l 267.609 212.008 l 268.402 211.531 l 268.797 211.055 l 
269.195 210.098 l 269.195 209.145 l 268.797 208.191 l 268.004 206.762 l 
264.043 201.992 l 269.59 201.992 l S
274.742 212.008 m 273.555 211.531 l 272.762 210.098 l 272.363 207.715 l
 272.363 206.285 l 272.762 203.898 l 273.555 202.469 l 274.742 201.992 l
 275.535 201.992 l 276.723 202.469 l 277.516 203.898 l 277.91 206.285 l 
277.91 207.715 l 277.516 210.098 l 276.723 211.531 l 275.535 212.008 l 274.742
 212.008 l S
281.082 209.621 m 281.082 210.098 l 281.48 211.055 l 281.875 211.531 l 
282.668 212.008 l 284.254 212.008 l 285.047 211.531 l 285.441 211.055 l 
285.84 210.098 l 285.84 209.145 l 285.441 208.191 l 284.648 206.762 l 280.688
 201.992 l 286.234 201.992 l S
289.406 209.621 m 289.406 210.098 l 289.801 211.055 l 290.199 211.531 l
 290.988 212.008 l 292.574 212.008 l 293.367 211.531 l 293.766 211.055 l
 294.16 210.098 l 294.16 209.145 l 293.766 208.191 l 292.973 206.762 l 289.008
 201.992 l 294.559 201.992 l S
27.203 685.91 m 26.805 685.465 l 27.203 685.02 l 27.598 685.465 l 27.203
 685.91 l S
37.426 696.148 m 30.293 681.902 l S
45.977 692.141 m 45.578 693.031 l 44.789 693.922 l 43.996 694.367 l 42.41
 694.367 l 41.617 693.922 l 40.824 693.031 l 40.43 692.141 l 40.031 690.805
 l 40.031 688.582 l 40.43 687.246 l 40.824 686.355 l 41.617 685.465 l 42.41
 685.02 l 43.996 685.02 l 44.789 685.465 l 45.578 686.355 l 45.977 687.246
 l S
48.977 694.367 m 48.977 685.02 l S
54.527 694.367 m 54.527 685.02 l S
48.977 689.914 m 54.527 689.914 l S
57.926 694.367 m 57.926 685.02 l S
63.473 694.367 m 57.926 688.137 l S
59.906 690.359 m 63.473 685.02 l S
64.871 681.902 m 72.797 681.902 l S
77.176 694.367 m 76.383 693.922 l 75.59 693.031 l 75.195 692.141 l 74.797
 690.805 l 74.797 688.582 l 75.195 687.246 l 75.59 686.355 l 76.383 685.465
 l 77.176 685.02 l 78.762 685.02 l 79.555 685.465 l 80.344 686.355 l 80.742
 687.246 l 81.137 688.582 l 81.137 690.805 l 80.742 692.141 l 80.344 693.031
 l 79.555 693.922 l 78.762 694.367 l 77.176 694.367 l S
78.363 686.801 m 80.742 684.129 l S
83.121 694.367 m 86.289 685.02 l S
89.461 694.367 m 86.289 685.02 l S
89.836 681.902 m 97.762 681.902 l S
100.16 694.367 m 100.16 685.02 l S
100.16 694.367 m 105.707 685.02 l S
105.707 694.367 m 105.707 685.02 l S
115.051 692.141 m 114.656 693.031 l 113.863 693.922 l 113.07 694.367 l 
111.484 694.367 l 110.691 693.922 l 109.898 693.031 l 109.504 692.141 l 
109.105 690.805 l 109.105 688.582 l 109.504 687.246 l 109.898 686.355 l 
110.691 685.465 l 111.484 685.02 l 113.07 685.02 l 113.863 685.465 l 114.656
 686.355 l 115.051 687.246 l S
118.332 685.91 m 117.934 685.465 l 118.332 685.02 l 118.727 685.465 l 118.332
 685.91 l S
126.328 689.914 m 125.93 690.805 l 124.742 691.25 l 123.551 691.25 l 122.363
 690.805 l 121.969 689.914 l 122.363 689.027 l 123.156 688.582 l 125.137
 688.137 l 125.93 687.691 l 126.328 686.801 l 126.328 686.355 l 125.93 685.465
 l 124.742 685.02 l 123.551 685.02 l 122.363 685.465 l 121.969 686.355 l
 S
129.457 694.367 m 129.457 685.02 l S
129.457 689.473 m 130.645 690.805 l 131.438 691.25 l 132.629 691.25 l 133.422
 690.805 l 133.816 689.473 l 133.816 685.02 l S
26.488 708.359 m 26.488 699.012 l S
26.488 708.359 m 31.641 708.359 l S
26.488 703.906 m 29.66 703.906 l S
34.125 705.242 m 34.125 699.012 l S
34.125 702.57 m 34.523 703.906 l 35.316 704.797 l 36.109 705.242 l 37.297
 705.242 l S
39.289 708.359 m 39.684 707.914 l 40.082 708.359 l 39.684 708.805 l 39.289
 708.359 l S
39.684 705.242 m 39.684 699.012 l S
43.824 699.457 m 43.43 699.012 l 43.035 699.457 l 43.43 699.898 l 43.824
 699.457 l 43.824 698.566 l 43.43 697.676 l 43.035 697.23 l S
55.18 708.359 m 59.539 708.359 l 57.16 704.797 l 58.352 704.797 l 59.145
 704.352 l 59.539 703.906 l 59.938 702.57 l 59.938 701.68 l 59.539 700.344
 l 58.746 699.457 l 57.559 699.012 l 56.367 699.012 l 55.18 699.457 l 54.785
 699.898 l 54.387 700.789 l S
65.086 708.359 m 63.898 707.914 l 63.105 706.578 l 62.711 704.352 l 62.711
 703.016 l 63.105 700.789 l 63.898 699.457 l 65.086 699.012 l 65.879 699.012
 l 67.07 699.457 l 67.863 700.789 l 68.258 703.016 l 68.258 704.352 l 67.863
 706.578 l 67.07 707.914 l 65.879 708.359 l 65.086 708.359 l S
84.07 707.023 m 83.277 707.914 l 82.09 708.359 l 80.504 708.359 l 79.316
 707.914 l 78.523 707.023 l 78.523 706.133 l 78.918 705.242 l 79.316 704.797
 l 80.109 704.352 l 82.484 703.461 l 83.277 703.016 l 83.676 702.57 l 84.07
 701.68 l 84.07 700.344 l 83.277 699.457 l 82.09 699.012 l 80.504 699.012
 l 79.316 699.457 l 78.523 700.344 l S
86.824 702.57 m 91.582 702.57 l 91.582 703.461 l 91.184 704.352 l 90.789
 704.797 l 89.996 705.242 l 88.805 705.242 l 88.016 704.797 l 87.223 703.906
 l 86.824 702.57 l 86.824 701.68 l 87.223 700.344 l 88.016 699.457 l 88.805
 699.012 l 89.996 699.012 l 90.789 699.457 l 91.582 700.344 l S
94.523 705.242 m 94.523 695.895 l S
94.523 703.906 m 95.316 704.797 l 96.109 705.242 l 97.297 705.242 l 98.09
 704.797 l 98.883 703.906 l 99.277 702.57 l 99.277 701.68 l 98.883 700.344
 l 98.09 699.457 l 97.297 699.012 l 96.109 699.012 l 95.316 699.457 l 94.523
 700.344 l S
110.129 706.133 m 110.129 706.578 l 110.523 707.469 l 110.922 707.914 l
 111.711 708.359 l 113.297 708.359 l 114.09 707.914 l 114.488 707.469 l 
114.883 706.578 l 114.883 705.688 l 114.488 704.797 l 113.695 703.461 l 
109.73 699.012 l 115.281 699.012 l S
120.43 708.359 m 119.242 707.914 l 118.449 706.578 l 118.055 704.352 l 
118.055 703.016 l 118.449 700.789 l 119.242 699.457 l 120.43 699.012 l 121.223
 699.012 l 122.414 699.457 l 123.207 700.789 l 123.602 703.016 l 123.602
 704.352 l 123.207 706.578 l 122.414 707.914 l 121.223 708.359 l 120.43 
708.359 l S
126.773 706.133 m 126.773 706.578 l 127.168 707.469 l 127.566 707.914 l
 128.355 708.359 l 129.941 708.359 l 130.734 707.914 l 131.133 707.469 l
 131.527 706.578 l 131.527 705.688 l 131.133 704.797 l 130.34 703.461 l 
126.375 699.012 l 131.926 699.012 l S
135.094 706.133 m 135.094 706.578 l 135.492 707.469 l 135.887 707.914 l
 136.68 708.359 l 138.266 708.359 l 139.059 707.914 l 139.453 707.469 l 
139.852 706.578 l 139.852 705.688 l 139.453 704.797 l 138.66 703.461 l 134.699
 699.012 l 140.246 699.012 l S
150.906 706.133 m 150.906 706.578 l 151.305 707.469 l 151.699 707.914 l
 152.492 708.359 l 154.078 708.359 l 154.871 707.914 l 155.266 707.469 l
 155.664 706.578 l 155.664 705.688 l 155.266 704.797 l 154.473 703.461 l
 150.512 699.012 l 156.059 699.012 l S
159.625 708.359 m 163.984 708.359 l 161.605 704.797 l 162.797 704.797 l
 163.59 704.352 l 163.984 703.906 l 164.383 702.57 l 164.383 701.68 l 163.984
 700.344 l 163.191 699.457 l 162.004 699.012 l 160.816 699.012 l 159.625
 699.457 l 159.23 699.898 l 158.832 700.789 l S
167.848 705.242 m 167.453 704.797 l 167.848 704.352 l 168.246 704.797 l
 167.848 705.242 l S
167.848 699.898 m 167.453 699.457 l 167.848 699.012 l 168.246 699.457 l
 167.848 699.898 l S
171.715 706.133 m 171.715 706.578 l 172.109 707.469 l 172.504 707.914 l
 173.297 708.359 l 174.883 708.359 l 175.676 707.914 l 176.07 707.469 l 
176.469 706.578 l 176.469 705.688 l 176.07 704.797 l 175.281 703.461 l 171.316
 699.012 l 176.863 699.012 l S
183.602 708.359 m 179.641 702.125 l 185.582 702.125 l S
183.602 708.359 m 183.602 699.012 l S
188.656 705.242 m 188.258 704.797 l 188.656 704.352 l 189.051 704.797 l
 188.656 705.242 l S
188.656 699.898 m 188.258 699.457 l 188.656 699.012 l 189.051 699.457 l
 188.656 699.898 l S
196.086 708.359 m 192.121 702.125 l 198.066 702.125 l S
196.086 708.359 m 196.086 699.012 l S
201.238 708.359 m 205.598 708.359 l 203.219 704.797 l 204.406 704.797 l
 205.199 704.352 l 205.598 703.906 l 205.992 702.57 l 205.992 701.68 l 205.598
 700.344 l 204.805 699.457 l 203.617 699.012 l 202.426 699.012 l 201.238
 699.457 l 200.84 699.898 l 200.445 700.789 l S
220.281 707.023 m 220.281 699.012 l S
216.715 703.016 m 223.848 703.016 l S
229.453 708.359 m 228.266 707.914 l 227.473 706.578 l 227.078 704.352 l
 227.078 703.016 l 227.473 700.789 l 228.266 699.457 l 229.453 699.012 l
 230.246 699.012 l 231.438 699.457 l 232.227 700.789 l 232.625 703.016 l
 232.625 704.352 l 232.227 706.578 l 231.438 707.914 l 230.246 708.359 l
 229.453 708.359 l S
240.551 705.242 m 240.156 703.906 l 239.363 703.016 l 238.172 702.57 l 
237.777 702.57 l 236.586 703.016 l 235.797 703.906 l 235.398 705.242 l 235.398
 705.688 l 235.797 707.023 l 236.586 707.914 l 237.777 708.359 l 238.172
 708.359 l 239.363 707.914 l 240.156 707.023 l 240.551 705.242 l 240.551
 703.016 l 240.156 700.789 l 239.363 699.457 l 238.172 699.012 l 237.379
 699.012 l 236.191 699.457 l 235.797 700.344 l S
246.098 708.359 m 244.91 707.914 l 244.117 706.578 l 243.723 704.352 l 
243.723 703.016 l 244.117 700.789 l 244.91 699.457 l 246.098 699.012 l 246.891
 699.012 l 248.082 699.457 l 248.871 700.789 l 249.27 703.016 l 249.27 704.352
 l 248.871 706.578 l 248.082 707.914 l 246.891 708.359 l 246.098 708.359
 l S
254.422 708.359 m 253.23 707.914 l 252.441 706.578 l 252.043 704.352 l 
252.043 703.016 l 252.441 700.789 l 253.23 699.457 l 254.422 699.012 l 255.215
 699.012 l 256.402 699.457 l 257.195 700.789 l 257.59 703.016 l 257.59 704.352
 l 257.195 706.578 l 256.402 707.914 l 255.215 708.359 l 254.422 708.359
 l S
26.695 719.234 m 26.695 709.883 l S
26.695 717.898 m 27.488 718.789 l 28.281 719.234 l 29.469 719.234 l 30.262
 718.789 l 31.055 717.898 l 31.453 716.562 l 31.453 715.672 l 31.055 714.336
 l 30.262 713.445 l 29.469 713 l 28.281 713 l 27.488 713.445 l 26.695 714.336
 l S
39.168 722.348 m 35.207 722.348 l 34.809 718.344 l 35.207 718.789 l 36.395
 719.234 l 37.586 719.234 l 38.773 718.789 l 39.566 717.898 l 39.961 716.562
 l 39.961 715.672 l 39.566 714.336 l 38.773 713.445 l 37.586 713 l 36.395
 713 l 35.207 713.445 l 34.809 713.891 l 34.414 714.781 l S
44.719 722.348 m 43.527 721.902 l 43.133 721.016 l 43.133 720.125 l 43.527
 719.234 l 44.32 718.789 l 45.906 718.344 l 47.094 717.898 l 47.887 717.008
 l 48.285 716.117 l 48.285 714.781 l 47.887 713.891 l 47.492 713.445 l 46.305
 713 l 44.719 713 l 43.527 713.445 l 43.133 713.891 l 42.734 714.781 l 42.734
 716.117 l 43.133 717.008 l 43.926 717.898 l 45.113 718.344 l 46.699 718.789
 l 47.492 719.234 l 47.887 720.125 l 47.887 721.016 l 47.492 721.902 l 46.305
 722.348 l 44.719 722.348 l S
51.453 720.125 m 51.453 720.57 l 51.852 721.461 l 52.246 721.902 l 53.039
 722.348 l 54.625 722.348 l 55.418 721.902 l 55.812 721.461 l 56.211 720.57
 l 56.211 719.68 l 55.812 718.789 l 55.023 717.453 l 51.059 713 l 56.605
 713 l S
61.758 722.348 m 60.57 721.902 l 59.777 720.57 l 59.383 718.344 l 59.383
 717.008 l 59.777 714.781 l 60.57 713.445 l 61.758 713 l 62.551 713 l 63.742
 713.445 l 64.531 714.781 l 64.93 717.008 l 64.93 718.344 l 64.531 720.57
 l 63.742 721.902 l 62.551 722.348 l 61.758 722.348 l S
68.398 713.891 m 68 713.445 l 68.398 713 l 68.793 713.445 l 68.398 713.891
 l S
72.051 722.348 m 72.051 713 l S
72.051 717.898 m 72.844 718.789 l 73.637 719.234 l 74.828 719.234 l 75.621
 718.789 l 76.41 717.898 l 76.809 716.562 l 76.809 715.672 l 76.41 714.336
 l 75.621 713.445 l 74.828 713 l 73.637 713 l 72.844 713.445 l 72.051 714.336
 l S
79.652 722.348 m 80.047 721.902 l 80.445 722.348 l 80.047 722.793 l 79.652
 722.348 l S
80.047 719.234 m 80.047 713 l S
85.27 719.234 m 84.477 718.789 l 83.684 717.898 l 83.289 716.562 l 83.289
 715.672 l 83.684 714.336 l 84.477 713.445 l 85.27 713 l 86.457 713 l 87.25
 713.445 l 88.043 714.336 l 88.441 715.672 l 88.441 716.562 l 88.043 717.898
 l 87.25 718.789 l 86.457 719.234 l 85.27 719.234 l S
91.699 713.891 m 91.305 713.445 l 91.699 713 l 92.098 713.445 l 91.699 
713.891 l S
95.664 719.234 m 95.664 713 l S
95.664 717.453 m 96.852 718.789 l 97.645 719.234 l 98.832 719.234 l 99.625
 718.789 l 100.023 717.453 l 100.023 713 l S
100.023 717.453 m 101.211 718.789 l 102.004 719.234 l 103.191 719.234 l
 103.984 718.789 l 104.383 717.453 l 104.383 713 l S
107.531 722.348 m 107.93 721.902 l 108.324 722.348 l 107.93 722.793 l 107.531
 722.348 l S
107.93 719.234 m 107.93 713 l S
110.961 716.562 m 115.715 716.562 l 115.715 717.453 l 115.32 718.344 l 
114.922 718.789 l 114.129 719.234 l 112.941 719.234 l 112.148 718.789 l 
111.355 717.898 l 110.961 716.562 l 110.961 715.672 l 111.355 714.336 l 
112.148 713.445 l 112.941 713 l 114.129 713 l 114.922 713.445 l 115.715 
714.336 l S
118.926 717.008 m 126.059 717.008 l S
129.875 719.234 m 129.875 714.781 l 130.27 713.445 l 131.062 713 l 132.25
 713 l 133.043 713.445 l 134.234 714.781 l S
134.234 719.234 m 134.234 713 l S
137.887 713.891 m 137.492 713.445 l 137.887 713 l 138.285 713.445 l 137.887
 713.891 l S
146.301 719.234 m 146.301 713 l S
146.301 717.898 m 145.508 718.789 l 144.715 719.234 l 143.527 719.234 l
 142.734 718.789 l 141.941 717.898 l 141.543 716.562 l 141.543 715.672 l
 141.941 714.336 l 142.734 713.445 l 143.527 713 l 144.715 713 l 145.508
 713.445 l 146.301 714.336 l S
154 717.898 m 153.207 718.789 l 152.414 719.234 l 151.223 719.234 l 150.43
 718.789 l 149.641 717.898 l 149.242 716.562 l 149.242 715.672 l 149.641
 714.336 l 150.43 713.445 l 151.223 713 l 152.414 713 l 153.207 713.445 
l 154 714.336 l S
157.445 713.891 m 157.051 713.445 l 157.445 713 l 157.844 713.445 l 157.445
 713.891 l S
161.605 722.348 m 162.004 721.902 l 162.398 722.348 l 162.004 722.793 l
 161.605 722.348 l S
162.004 719.234 m 162.004 711.664 l 161.605 710.328 l 160.816 709.883 l
 160.023 709.883 l S
165.262 719.234 m 165.262 709.883 l S
165.262 717.898 m 166.055 718.789 l 166.848 719.234 l 168.039 719.234 l
 168.828 718.789 l 169.621 717.898 l 170.02 716.562 l 170.02 715.672 l 169.621
 714.336 l 168.828 713.445 l 168.039 713 l 166.848 713 l 166.055 713.445
 l 165.262 714.336 l S
33.266 738.121 m 26.133 723.875 l S
35.684 733.223 m 37.266 726.992 l S
38.852 733.223 m 37.266 726.992 l S
38.852 733.223 m 40.438 726.992 l S
42.023 733.223 m 40.438 726.992 l S
46.988 733.223 m 46.195 732.777 l 45.402 731.887 l 45.004 730.555 l 45.004
 729.664 l 45.402 728.328 l 46.195 727.438 l 46.988 726.992 l 48.176 726.992
 l 48.969 727.438 l 49.762 728.328 l 50.156 729.664 l 50.156 730.555 l 49.762
 731.887 l 48.969 732.777 l 48.176 733.223 l 46.988 733.223 l S
52.852 733.223 m 52.852 726.992 l S
52.852 730.555 m 53.25 731.887 l 54.039 732.777 l 54.832 733.223 l 56.023
 733.223 l S
58.301 736.34 m 58.301 726.992 l S
62.266 733.223 m 58.301 728.773 l S
59.887 730.555 m 62.66 726.992 l S
67.586 736.34 m 66.395 735.895 l 65.602 734.559 l 65.207 732.332 l 65.207
 731 l 65.602 728.773 l 66.395 727.438 l 67.586 726.992 l 68.379 726.992
 l 69.566 727.438 l 70.359 728.773 l 70.754 731 l 70.754 732.332 l 70.359
 734.559 l 69.566 735.895 l 68.379 736.34 l 67.586 736.34 l S
74.32 736.34 m 78.68 736.34 l 76.305 732.777 l 77.492 732.777 l 78.285 
732.332 l 78.68 731.887 l 79.078 730.555 l 79.078 729.664 l 78.68 728.328
 l 77.887 727.438 l 76.699 726.992 l 75.512 726.992 l 74.32 727.438 l 73.926
 727.883 l 73.527 728.773 l S
88.609 738.121 m 81.477 723.875 l S
95.949 733.223 m 95.949 726.992 l S
95.949 731.887 m 95.156 732.777 l 94.363 733.223 l 93.176 733.223 l 92.383
 732.777 l 91.59 731.887 l 91.195 730.555 l 91.195 729.664 l 91.59 728.328
 l 92.383 727.438 l 93.176 726.992 l 94.363 726.992 l 95.156 727.438 l 95.949
 728.328 l S
99.406 733.223 m 99.406 726.992 l S
99.406 731.445 m 100.598 732.777 l 101.391 733.223 l 102.578 733.223 l 
103.371 732.777 l 103.766 731.445 l 103.766 726.992 l S
103.766 731.445 m 104.957 732.777 l 105.75 733.223 l 106.938 733.223 l 
107.73 732.777 l 108.125 731.445 l 108.125 726.992 l S
118.152 738.121 m 111.02 723.875 l S
120.945 734.113 m 120.945 734.559 l 121.344 735.449 l 121.738 735.895 l
 122.531 736.34 l 124.117 736.34 l 124.91 735.895 l 125.305 735.449 l 125.703
 734.559 l 125.703 733.668 l 125.305 732.777 l 124.512 731.445 l 120.551
 726.992 l 126.098 726.992 l S
131.25 736.34 m 130.062 735.895 l 129.27 734.559 l 128.871 732.332 l 128.871
 731 l 129.27 728.773 l 130.062 727.438 l 131.25 726.992 l 132.043 726.992
 l 133.23 727.438 l 134.023 728.773 l 134.422 731 l 134.422 732.332 l 134.023
 734.559 l 133.23 735.895 l 132.043 736.34 l 131.25 736.34 l S
137.59 734.113 m 137.59 734.559 l 137.988 735.449 l 138.383 735.895 l 139.176
 736.34 l 140.762 736.34 l 141.555 735.895 l 141.949 735.449 l 142.348 734.559
 l 142.348 733.668 l 141.949 732.777 l 141.156 731.445 l 137.195 726.992
 l 142.742 726.992 l S
145.914 734.113 m 145.914 734.559 l 146.309 735.449 l 146.707 735.895 l
 147.5 736.34 l 149.086 736.34 l 149.875 735.895 l 150.273 735.449 l 150.668
 734.559 l 150.668 733.668 l 150.273 732.777 l 149.48 731.445 l 145.516 
726.992 l 151.066 726.992 l S
154.531 727.883 m 154.137 727.438 l 154.531 726.992 l 154.93 727.438 l 
154.531 727.883 l S
158.418 736.34 m 158.418 726.992 l S
158.418 736.34 m 163.965 726.992 l S
163.965 736.34 m 163.965 726.992 l S
169.512 736.34 m 166.344 726.992 l S
169.512 736.34 m 172.684 726.992 l S
167.531 730.109 m 171.496 730.109 l S
174.855 736.34 m 174.855 726.992 l S
180.402 736.34 m 174.855 730.109 l S
176.836 732.332 m 180.402 726.992 l S
185.742 736.34 m 182.57 726.992 l S
185.742 736.34 m 188.914 726.992 l S
183.762 730.109 m 187.723 730.109 l S
191.309 736.34 m 191.309 726.992 l S
191.309 736.34 m 194.48 726.992 l S
197.652 736.34 m 194.48 726.992 l S
197.652 736.34 m 197.652 726.992 l S
201.277 736.34 m 201.277 729.664 l 201.672 728.328 l 202.465 727.438 l 
203.656 726.992 l 204.449 726.992 l 205.637 727.438 l 206.43 728.328 l 206.824
 729.664 l 206.824 736.34 l S
210.223 736.34 m 210.223 726.992 l S
210.223 736.34 m 213.789 736.34 l 214.98 735.895 l 215.375 735.449 l 215.773
 734.559 l 215.773 733.668 l 215.375 732.777 l 214.98 732.332 l 213.789 
731.887 l 210.223 731.887 l S
212.996 731.887 m 215.773 726.992 l S
221.152 736.34 m 220.359 735.895 l 219.566 735.004 l 219.172 734.113 l 
218.773 732.777 l 218.773 730.555 l 219.172 729.219 l 219.566 728.328 l 
220.359 727.438 l 221.152 726.992 l 222.738 726.992 l 223.531 727.438 l 
224.32 728.328 l 224.719 729.219 l 225.113 730.555 l 225.113 732.777 l 224.719
 734.113 l 224.32 735.004 l 223.531 735.895 l 222.738 736.34 l 221.152 736.34
 l S
226.324 723.875 m 234.25 723.875 l S
236.211 736.34 m 236.211 726.992 l S
236.211 736.34 m 241.363 736.34 l S
236.211 731.887 m 239.383 731.887 l S
243.492 736.34 m 243.492 726.992 l S
243.492 726.992 m 248.25 726.992 l S
251.211 736.34 m 251.211 729.664 l 251.609 728.328 l 252.398 727.438 l 
253.59 726.992 l 254.383 726.992 l 255.57 727.438 l 256.363 728.328 l 256.758
 729.664 l 256.758 736.34 l S
259.949 736.34 m 265.496 726.992 l S
265.496 736.34 m 259.949 726.992 l S
275.027 738.121 m 267.895 723.875 l S
278.617 734.559 m 279.406 735.004 l 280.598 736.34 l 280.598 726.992 l S
289.711 736.34 m 285.75 730.109 l 291.695 730.109 l S
289.711 736.34 m 289.711 726.992 l S
294.766 727.883 m 294.367 727.438 l 294.766 726.992 l 295.16 727.438 l 
294.766 727.883 l S
300.609 736.34 m 299.422 735.895 l 298.629 734.559 l 298.234 732.332 l 
298.234 731 l 298.629 728.773 l 299.422 727.438 l 300.609 726.992 l 301.402
 726.992 l 302.594 727.438 l 303.383 728.773 l 303.781 731 l 303.781 732.332
 l 303.383 734.559 l 302.594 735.895 l 301.402 736.34 l 300.609 736.34 l
 S
306.949 734.113 m 306.949 734.559 l 307.348 735.449 l 307.742 735.895 l
 308.535 736.34 l 310.121 736.34 l 310.914 735.895 l 311.309 735.449 l 311.707
 734.559 l 311.707 733.668 l 311.309 732.777 l 310.52 731.445 l 306.555 
726.992 l 312.102 726.992 l S
315.57 727.883 m 315.176 727.438 l 315.57 726.992 l 315.969 727.438 l 315.57
 727.883 l S
320.98 736.34 m 320.98 726.992 l S
318.207 736.34 m 323.754 736.34 l S
325.883 736.34 m 325.883 726.992 l S
325.883 736.34 m 331.035 736.34 l S
325.883 731.887 m 329.055 731.887 l S
325.883 726.992 m 331.035 726.992 l S
339.152 735.004 m 338.359 735.895 l 337.168 736.34 l 335.586 736.34 l 334.395
 735.895 l 333.602 735.004 l 333.602 734.113 l 334 733.223 l 334.395 732.777
 l 335.188 732.332 l 337.566 731.445 l 338.359 731 l 338.754 730.555 l 339.152
 729.664 l 339.152 728.328 l 338.359 727.438 l 337.168 726.992 l 335.586
 726.992 l 334.395 727.438 l 333.602 728.328 l S
343.867 736.34 m 343.867 726.992 l S
341.094 736.34 m 346.641 736.34 l S
346.996 723.875 m 354.922 723.875 l S
357.184 736.34 m 357.184 726.992 l S
360.648 736.34 m 360.648 726.992 l S
360.648 736.34 m 366.199 726.992 l S
366.199 736.34 m 366.199 726.992 l S
371.332 736.34 m 371.332 726.992 l S
368.555 736.34 m 374.105 736.34 l S
376.234 736.34 m 376.234 726.992 l S
376.234 736.34 m 381.387 736.34 l S
376.234 731.887 m 379.406 731.887 l S
376.234 726.992 m 381.387 726.992 l S
384.16 736.34 m 384.16 726.992 l S
384.16 736.34 m 387.727 736.34 l 388.918 735.895 l 389.312 735.449 l 389.711
 734.559 l 389.711 733.668 l 389.312 732.777 l 388.918 732.332 l 387.727
 731.887 l 384.16 731.887 l S
386.934 731.887 m 389.711 726.992 l S
392.898 736.34 m 392.898 726.992 l S
392.898 736.34 m 396.465 736.34 l 397.656 735.895 l 398.051 735.449 l 398.449
 734.559 l 398.449 733.223 l 398.051 732.332 l 397.656 731.887 l 396.465
 731.445 l 392.898 731.445 l S
403.828 736.34 m 403.035 735.895 l 402.242 735.004 l 401.848 734.113 l 
401.449 732.777 l 401.449 730.555 l 401.848 729.219 l 402.242 728.328 l 
403.035 727.438 l 403.828 726.992 l 405.414 726.992 l 406.207 727.438 l 
406.996 728.328 l 407.395 729.219 l 407.789 730.555 l 407.789 732.777 l 
407.395 734.113 l 406.996 735.004 l 406.207 735.895 l 405.414 736.34 l 403.828
 736.34 l S
410.355 736.34 m 410.355 726.992 l S
410.355 726.992 m 415.113 726.992 l S
420.016 736.34 m 416.848 726.992 l S
420.016 736.34 m 423.188 726.992 l S
418.035 730.109 m 421.996 730.109 l S
427.09 736.34 m 427.09 726.992 l S
424.316 736.34 m 429.863 736.34 l S
432.082 736.34 m 432.082 726.992 l S
437.531 736.34 m 436.738 735.895 l 435.949 735.004 l 435.551 734.113 l 
435.156 732.777 l 435.156 730.555 l 435.551 729.219 l 435.949 728.328 l 
436.738 727.438 l 437.531 726.992 l 439.117 726.992 l 439.91 727.438 l 440.703
 728.328 l 441.098 729.219 l 441.496 730.555 l 441.496 732.777 l 441.098
 734.113 l 440.703 735.004 l 439.91 735.895 l 439.117 736.34 l 437.531 736.34
 l S
444.707 736.34 m 444.707 726.992 l S
444.707 736.34 m 450.254 726.992 l S
450.254 736.34 m 450.254 726.992 l S
460.203 738.121 m 453.066 723.875 l S
463.789 734.559 m 464.582 735.004 l 465.77 736.34 l 465.77 726.992 l S
474.883 736.34 m 470.922 730.109 l 476.867 730.109 l S
474.883 736.34 m 474.883 726.992 l S
479.938 727.883 m 479.539 727.438 l 479.938 726.992 l 480.332 727.438 l
 479.938 727.883 l S
485.781 736.34 m 484.594 735.895 l 483.801 734.559 l 483.406 732.332 l 
483.406 731 l 483.801 728.773 l 484.594 727.438 l 485.781 726.992 l 486.574
 726.992 l 487.766 727.438 l 488.559 728.773 l 488.953 731 l 488.953 732.332
 l 488.559 734.559 l 487.766 735.895 l 486.574 736.34 l 485.781 736.34 l
 S
492.125 734.113 m 492.125 734.559 l 492.52 735.449 l 492.918 735.895 l 
493.707 736.34 l 495.293 736.34 l 496.086 735.895 l 496.484 735.449 l 496.879
 734.559 l 496.879 733.668 l 496.484 732.777 l 495.691 731.445 l 491.727
 726.992 l 497.277 726.992 l S
500.742 727.883 m 500.348 727.438 l 500.742 726.992 l 501.141 727.438 l
 500.742 727.883 l S
506.609 736.34 m 505.816 735.895 l 505.023 735.004 l 504.625 734.113 l 
504.23 732.777 l 504.23 730.555 l 504.625 729.219 l 505.023 728.328 l 505.816
 727.438 l 506.609 726.992 l 508.195 726.992 l 508.984 727.438 l 509.777
 728.328 l 510.176 729.219 l 510.57 730.555 l 510.57 732.777 l 510.176 734.113
 l 509.777 735.004 l 508.984 735.895 l 508.195 736.34 l 506.609 736.34 l
 S
507.797 728.773 m 510.176 726.102 l S
512.555 736.34 m 515.723 726.992 l S
518.895 736.34 m 515.723 726.992 l S
519.27 723.875 m 527.195 723.875 l S
535.332 734.113 m 534.934 735.004 l 534.141 735.895 l 533.348 736.34 l 
531.762 736.34 l 530.973 735.895 l 530.18 735.004 l 529.781 734.113 l 529.387
 732.777 l 529.387 730.555 l 529.781 729.219 l 530.18 728.328 l 530.973 
727.438 l 531.762 726.992 l 533.348 726.992 l 534.141 727.438 l 534.934 
728.328 l 535.332 729.219 l S
540.273 736.34 m 537.105 726.992 l S
540.273 736.34 m 543.445 726.992 l S
538.293 730.109 m 542.254 730.109 l S
545.18 736.34 m 545.18 726.992 l S
545.18 726.992 m 549.934 726.992 l S
558.633 734.113 m 558.238 735.004 l 557.445 735.895 l 556.652 736.34 l 
555.066 736.34 l 554.273 735.895 l 553.48 735.004 l 553.086 734.113 l 552.688
 732.777 l 552.688 730.555 l 553.086 729.219 l 553.48 728.328 l 554.273 
727.438 l 555.066 726.992 l 556.652 726.992 l 557.445 727.438 l 558.238 
728.328 l 558.633 729.219 l S
Q Q
showpage
%%Trailer
end restore
%%EOF
