2020	7	20	121.2766848	5.77639
2020	7	21	94.07747347	7.44063
2020	8	6	109.5452086	7.0436
2020	8	7	116.2392546	6.44984
2020	8	8	135.1485066	3.95647
2020	8	9	148.4811815	6.02996
2020	8	12	86.73967647	1.22498
2020	8	25	82.13014715	6.12698
2020	8	26	95.58250407	7.51163
2021	7	4	133.8251146	4.93525
2021	7	5	105.0198791	3.13726
2021	7	6	116.9813511	2.38038
2021	7	7	147.9897935	5.98663
2021	7	12	76.49607723	2.35065
2022	6	23	149.0672597	1.0203
2022	6	24	126.6813589	7.18457
2022	6	26	74.65065756	2.89001
2022	7	17	104.0179231	4.61276
2022	7	20	113.7987993	3.37212
2022	7	31	81.8460737	3.42731
2022	8	1	117.995381	1.62497
2022	8	7	75.54089682	4.79901
2022	8	13	75.24373969	6.09582
2022	8	14	76.27909021	1.68611
2022	8	19	111.2467273	1.64744
2023	6	26	121.6327153	4.93717
2023	6	27	92.82141608	3.20896
2023	7	4	99.85182886	5.77278
2023	7	6	92.76005089	1.96319
2023	7	11	118.3866507	3.34481
2023	7	13	107.2842775	1.37989
2023	7	15	101.8093548	3.83899
2023	7	23	109.3544386	3.78062
2023	8	23	75.00679431	5.59068
