/work09/2021/nakamuro/RAINDAY/N-KYUSHU_R3HMAX/QFLUX.ge.50PCNT/AN/98.30_EPT/EPT-SEPT/01.NC_OUT_EPT-SEPT/2020/00.NC/MSM-P_EPT950-SEPT700_2020062418.nc
/work09/2021/nakamuro/RAINDAY/N-KYUSHU_R3HMAX/QFLUX.ge.50PCNT/AN/98.30_EPT/EPT-SEPT/01.NC_OUT_EPT-SEPT/2020/00.NC/MSM-P_EPT950-SEPT700_2020062421.nc
/work09/2021/nakamuro/RAINDAY/N-KYUSHU_R3HMAX/QFLUX.ge.50PCNT/AN/98.30_EPT/EPT-SEPT/01.NC_OUT_EPT-SEPT/2020/00.NC/MSM-P_EPT950-SEPT700_2020062500.nc
/work09/2021/nakamuro/RAINDAY/N-KYUSHU_R3HMAX/QFLUX.ge.50PCNT/AN/98.30_EPT/EPT-SEPT/01.NC_OUT_EPT-SEPT/2020/00.NC/MSM-P_EPT950-SEPT700_2020062506.nc
/work09/2021/nakamuro/RAINDAY/N-KYUSHU_R3HMAX/QFLUX.ge.50PCNT/AN/98.30_EPT/EPT-SEPT/01.NC_OUT_EPT-SEPT/2020/00.NC/MSM-P_EPT950-SEPT700_2020062509.nc
/work09/2021/nakamuro/RAINDAY/N-KYUSHU_R3HMAX/QFLUX.ge.50PCNT/AN/98.30_EPT/EPT-SEPT/01.NC_OUT_EPT-SEPT/2020/00.NC/MSM-P_EPT950-SEPT700_2020062512.nc
/work09/2021/nakamuro/RAINDAY/N-KYUSHU_R3HMAX/QFLUX.ge.50PCNT/AN/98.30_EPT/EPT-SEPT/01.NC_OUT_EPT-SEPT/2020/00.NC/MSM-P_EPT950-SEPT700_2020062615.nc
/work09/2021/nakamuro/RAINDAY/N-KYUSHU_R3HMAX/QFLUX.ge.50PCNT/AN/98.30_EPT/EPT-SEPT/01.NC_OUT_EPT-SEPT/2020/00.NC/MSM-P_EPT950-SEPT700_2020062618.nc
/work09/2021/nakamuro/RAINDAY/N-KYUSHU_R3HMAX/QFLUX.ge.50PCNT/AN/98.30_EPT/EPT-SEPT/01.NC_OUT_EPT-SEPT/2020/00.NC/MSM-P_EPT950-SEPT700_2020062621.nc
/work09/2021/nakamuro/RAINDAY/N-KYUSHU_R3HMAX/QFLUX.ge.50PCNT/AN/98.30_EPT/EPT-SEPT/01.NC_OUT_EPT-SEPT/2020/00.NC/MSM-P_EPT950-SEPT700_2020062700.nc
/work09/2021/nakamuro/RAINDAY/N-KYUSHU_R3HMAX/QFLUX.ge.50PCNT/AN/98.30_EPT/EPT-SEPT/01.NC_OUT_EPT-SEPT/2020/00.NC/MSM-P_EPT950-SEPT700_2020062703.nc
/work09/2021/nakamuro/RAINDAY/N-KYUSHU_R3HMAX/QFLUX.ge.50PCNT/AN/98.30_EPT/EPT-SEPT/01.NC_OUT_EPT-SEPT/2020/00.NC/MSM-P_EPT950-SEPT700_2020062706.nc
/work09/2021/nakamuro/RAINDAY/N-KYUSHU_R3HMAX/QFLUX.ge.50PCNT/AN/98.30_EPT/EPT-SEPT/01.NC_OUT_EPT-SEPT/2020/00.NC/MSM-P_EPT950-SEPT700_2020062709.nc
/work09/2021/nakamuro/RAINDAY/N-KYUSHU_R3HMAX/QFLUX.ge.50PCNT/AN/98.30_EPT/EPT-SEPT/01.NC_OUT_EPT-SEPT/2020/00.NC/MSM-P_EPT950-SEPT700_2020062712.nc
/work09/2021/nakamuro/RAINDAY/N-KYUSHU_R3HMAX/QFLUX.ge.50PCNT/AN/98.30_EPT/EPT-SEPT/01.NC_OUT_EPT-SEPT/2020/00.NC/MSM-P_EPT950-SEPT700_2020062912.nc
/work09/2021/nakamuro/RAINDAY/N-KYUSHU_R3HMAX/QFLUX.ge.50PCNT/AN/98.30_EPT/EPT-SEPT/01.NC_OUT_EPT-SEPT/2020/00.NC/MSM-P_EPT950-SEPT700_2020062915.nc
/work09/2021/nakamuro/RAINDAY/N-KYUSHU_R3HMAX/QFLUX.ge.50PCNT/AN/98.30_EPT/EPT-SEPT/01.NC_OUT_EPT-SEPT/2020/00.NC/MSM-P_EPT950-SEPT700_2020062918.nc
/work09/2021/nakamuro/RAINDAY/N-KYUSHU_R3HMAX/QFLUX.ge.50PCNT/AN/98.30_EPT/EPT-SEPT/01.NC_OUT_EPT-SEPT/2020/00.NC/MSM-P_EPT950-SEPT700_2020062921.nc
/work09/2021/nakamuro/RAINDAY/N-KYUSHU_R3HMAX/QFLUX.ge.50PCNT/AN/98.30_EPT/EPT-SEPT/01.NC_OUT_EPT-SEPT/2020/00.NC/MSM-P_EPT950-SEPT700_2020070515.nc
/work09/2021/nakamuro/RAINDAY/N-KYUSHU_R3HMAX/QFLUX.ge.50PCNT/AN/98.30_EPT/EPT-SEPT/01.NC_OUT_EPT-SEPT/2020/00.NC/MSM-P_EPT950-SEPT700_2020070518.nc
/work09/2021/nakamuro/RAINDAY/N-KYUSHU_R3HMAX/QFLUX.ge.50PCNT/AN/98.30_EPT/EPT-SEPT/01.NC_OUT_EPT-SEPT/2020/00.NC/MSM-P_EPT950-SEPT700_2020070521.nc
/work09/2021/nakamuro/RAINDAY/N-KYUSHU_R3HMAX/QFLUX.ge.50PCNT/AN/98.30_EPT/EPT-SEPT/01.NC_OUT_EPT-SEPT/2020/00.NC/MSM-P_EPT950-SEPT700_2020070600.nc
/work09/2021/nakamuro/RAINDAY/N-KYUSHU_R3HMAX/QFLUX.ge.50PCNT/AN/98.30_EPT/EPT-SEPT/01.NC_OUT_EPT-SEPT/2020/00.NC/MSM-P_EPT950-SEPT700_2020070603.nc
/work09/2021/nakamuro/RAINDAY/N-KYUSHU_R3HMAX/QFLUX.ge.50PCNT/AN/98.30_EPT/EPT-SEPT/01.NC_OUT_EPT-SEPT/2020/00.NC/MSM-P_EPT950-SEPT700_2020070606.nc
/work09/2021/nakamuro/RAINDAY/N-KYUSHU_R3HMAX/QFLUX.ge.50PCNT/AN/98.30_EPT/EPT-SEPT/01.NC_OUT_EPT-SEPT/2020/00.NC/MSM-P_EPT950-SEPT700_2020070609.nc
/work09/2021/nakamuro/RAINDAY/N-KYUSHU_R3HMAX/QFLUX.ge.50PCNT/AN/98.30_EPT/EPT-SEPT/01.NC_OUT_EPT-SEPT/2020/00.NC/MSM-P_EPT950-SEPT700_2020070612.nc
/work09/2021/nakamuro/RAINDAY/N-KYUSHU_R3HMAX/QFLUX.ge.50PCNT/AN/98.30_EPT/EPT-SEPT/01.NC_OUT_EPT-SEPT/2020/00.NC/MSM-P_EPT950-SEPT700_2020070615.nc
/work09/2021/nakamuro/RAINDAY/N-KYUSHU_R3HMAX/QFLUX.ge.50PCNT/AN/98.30_EPT/EPT-SEPT/01.NC_OUT_EPT-SEPT/2020/00.NC/MSM-P_EPT950-SEPT700_2020070618.nc
/work09/2021/nakamuro/RAINDAY/N-KYUSHU_R3HMAX/QFLUX.ge.50PCNT/AN/98.30_EPT/EPT-SEPT/01.NC_OUT_EPT-SEPT/2020/00.NC/MSM-P_EPT950-SEPT700_2020070621.nc
/work09/2021/nakamuro/RAINDAY/N-KYUSHU_R3HMAX/QFLUX.ge.50PCNT/AN/98.30_EPT/EPT-SEPT/01.NC_OUT_EPT-SEPT/2020/00.NC/MSM-P_EPT950-SEPT700_2020070700.nc
/work09/2021/nakamuro/RAINDAY/N-KYUSHU_R3HMAX/QFLUX.ge.50PCNT/AN/98.30_EPT/EPT-SEPT/01.NC_OUT_EPT-SEPT/2020/00.NC/MSM-P_EPT950-SEPT700_2020070703.nc
/work09/2021/nakamuro/RAINDAY/N-KYUSHU_R3HMAX/QFLUX.ge.50PCNT/AN/98.30_EPT/EPT-SEPT/01.NC_OUT_EPT-SEPT/2020/00.NC/MSM-P_EPT950-SEPT700_2020070706.nc
/work09/2021/nakamuro/RAINDAY/N-KYUSHU_R3HMAX/QFLUX.ge.50PCNT/AN/98.30_EPT/EPT-SEPT/01.NC_OUT_EPT-SEPT/2020/00.NC/MSM-P_EPT950-SEPT700_2020070709.nc
/work09/2021/nakamuro/RAINDAY/N-KYUSHU_R3HMAX/QFLUX.ge.50PCNT/AN/98.30_EPT/EPT-SEPT/01.NC_OUT_EPT-SEPT/2020/00.NC/MSM-P_EPT950-SEPT700_2020070712.nc
/work09/2021/nakamuro/RAINDAY/N-KYUSHU_R3HMAX/QFLUX.ge.50PCNT/AN/98.30_EPT/EPT-SEPT/01.NC_OUT_EPT-SEPT/2020/00.NC/MSM-P_EPT950-SEPT700_2020070715.nc
/work09/2021/nakamuro/RAINDAY/N-KYUSHU_R3HMAX/QFLUX.ge.50PCNT/AN/98.30_EPT/EPT-SEPT/01.NC_OUT_EPT-SEPT/2020/00.NC/MSM-P_EPT950-SEPT700_2020070818.nc
/work09/2021/nakamuro/RAINDAY/N-KYUSHU_R3HMAX/QFLUX.ge.50PCNT/AN/98.30_EPT/EPT-SEPT/01.NC_OUT_EPT-SEPT/2020/00.NC/MSM-P_EPT950-SEPT700_2020070900.nc
/work09/2021/nakamuro/RAINDAY/N-KYUSHU_R3HMAX/QFLUX.ge.50PCNT/AN/98.30_EPT/EPT-SEPT/01.NC_OUT_EPT-SEPT/2020/00.NC/MSM-P_EPT950-SEPT700_2020070906.nc
/work09/2021/nakamuro/RAINDAY/N-KYUSHU_R3HMAX/QFLUX.ge.50PCNT/AN/98.30_EPT/EPT-SEPT/01.NC_OUT_EPT-SEPT/2020/00.NC/MSM-P_EPT950-SEPT700_2020070915.nc
/work09/2021/nakamuro/RAINDAY/N-KYUSHU_R3HMAX/QFLUX.ge.50PCNT/AN/98.30_EPT/EPT-SEPT/01.NC_OUT_EPT-SEPT/2020/00.NC/MSM-P_EPT950-SEPT700_2020070918.nc
/work09/2021/nakamuro/RAINDAY/N-KYUSHU_R3HMAX/QFLUX.ge.50PCNT/AN/98.30_EPT/EPT-SEPT/01.NC_OUT_EPT-SEPT/2020/00.NC/MSM-P_EPT950-SEPT700_2020070921.nc
/work09/2021/nakamuro/RAINDAY/N-KYUSHU_R3HMAX/QFLUX.ge.50PCNT/AN/98.30_EPT/EPT-SEPT/01.NC_OUT_EPT-SEPT/2020/00.NC/MSM-P_EPT950-SEPT700_2020071003.nc
/work09/2021/nakamuro/RAINDAY/N-KYUSHU_R3HMAX/QFLUX.ge.50PCNT/AN/98.30_EPT/EPT-SEPT/01.NC_OUT_EPT-SEPT/2020/00.NC/MSM-P_EPT950-SEPT700_2020071009.nc
/work09/2021/nakamuro/RAINDAY/N-KYUSHU_R3HMAX/QFLUX.ge.50PCNT/AN/98.30_EPT/EPT-SEPT/01.NC_OUT_EPT-SEPT/2020/00.NC/MSM-P_EPT950-SEPT700_2020071012.nc
/work09/2021/nakamuro/RAINDAY/N-KYUSHU_R3HMAX/QFLUX.ge.50PCNT/AN/98.30_EPT/EPT-SEPT/01.NC_OUT_EPT-SEPT/2020/00.NC/MSM-P_EPT950-SEPT700_2020071309.nc
/work09/2021/nakamuro/RAINDAY/N-KYUSHU_R3HMAX/QFLUX.ge.50PCNT/AN/98.30_EPT/EPT-SEPT/01.NC_OUT_EPT-SEPT/2020/00.NC/MSM-P_EPT950-SEPT700_2020071312.nc
/work09/2021/nakamuro/RAINDAY/N-KYUSHU_R3HMAX/QFLUX.ge.50PCNT/AN/98.30_EPT/EPT-SEPT/01.NC_OUT_EPT-SEPT/2020/00.NC/MSM-P_EPT950-SEPT700_2020072006.nc
/work09/2021/nakamuro/RAINDAY/N-KYUSHU_R3HMAX/QFLUX.ge.50PCNT/AN/98.30_EPT/EPT-SEPT/01.NC_OUT_EPT-SEPT/2020/00.NC/MSM-P_EPT950-SEPT700_2020072106.nc
/work09/2021/nakamuro/RAINDAY/N-KYUSHU_R3HMAX/QFLUX.ge.50PCNT/AN/98.30_EPT/EPT-SEPT/01.NC_OUT_EPT-SEPT/2020/00.NC/MSM-P_EPT950-SEPT700_2020072303.nc
/work09/2021/nakamuro/RAINDAY/N-KYUSHU_R3HMAX/QFLUX.ge.50PCNT/AN/98.30_EPT/EPT-SEPT/01.NC_OUT_EPT-SEPT/2020/00.NC/MSM-P_EPT950-SEPT700_2020072403.nc
/work09/2021/nakamuro/RAINDAY/N-KYUSHU_R3HMAX/QFLUX.ge.50PCNT/AN/98.30_EPT/EPT-SEPT/01.NC_OUT_EPT-SEPT/2020/00.NC/MSM-P_EPT950-SEPT700_2020072409.nc
/work09/2021/nakamuro/RAINDAY/N-KYUSHU_R3HMAX/QFLUX.ge.50PCNT/AN/98.30_EPT/EPT-SEPT/01.NC_OUT_EPT-SEPT/2020/00.NC/MSM-P_EPT950-SEPT700_2020072615.nc
/work09/2021/nakamuro/RAINDAY/N-KYUSHU_R3HMAX/QFLUX.ge.50PCNT/AN/98.30_EPT/EPT-SEPT/01.NC_OUT_EPT-SEPT/2020/00.NC/MSM-P_EPT950-SEPT700_2020072618.nc
/work09/2021/nakamuro/RAINDAY/N-KYUSHU_R3HMAX/QFLUX.ge.50PCNT/AN/98.30_EPT/EPT-SEPT/01.NC_OUT_EPT-SEPT/2020/00.NC/MSM-P_EPT950-SEPT700_2020072712.nc
/work09/2021/nakamuro/RAINDAY/N-KYUSHU_R3HMAX/QFLUX.ge.50PCNT/AN/98.30_EPT/EPT-SEPT/01.NC_OUT_EPT-SEPT/2020/00.NC/MSM-P_EPT950-SEPT700_2020072800.nc
/work09/2021/nakamuro/RAINDAY/N-KYUSHU_R3HMAX/QFLUX.ge.50PCNT/AN/98.30_EPT/EPT-SEPT/01.NC_OUT_EPT-SEPT/2020/00.NC/MSM-P_EPT950-SEPT700_2020072806.nc
/work09/2021/nakamuro/RAINDAY/N-KYUSHU_R3HMAX/QFLUX.ge.50PCNT/AN/98.30_EPT/EPT-SEPT/01.NC_OUT_EPT-SEPT/2020/00.NC/MSM-P_EPT950-SEPT700_2020080618.nc
/work09/2021/nakamuro/RAINDAY/N-KYUSHU_R3HMAX/QFLUX.ge.50PCNT/AN/98.30_EPT/EPT-SEPT/01.NC_OUT_EPT-SEPT/2020/00.NC/MSM-P_EPT950-SEPT700_2020080621.nc
/work09/2021/nakamuro/RAINDAY/N-KYUSHU_R3HMAX/QFLUX.ge.50PCNT/AN/98.30_EPT/EPT-SEPT/01.NC_OUT_EPT-SEPT/2020/00.NC/MSM-P_EPT950-SEPT700_2020080700.nc
/work09/2021/nakamuro/RAINDAY/N-KYUSHU_R3HMAX/QFLUX.ge.50PCNT/AN/98.30_EPT/EPT-SEPT/01.NC_OUT_EPT-SEPT/2020/00.NC/MSM-P_EPT950-SEPT700_2020080706.nc
/work09/2021/nakamuro/RAINDAY/N-KYUSHU_R3HMAX/QFLUX.ge.50PCNT/AN/98.30_EPT/EPT-SEPT/01.NC_OUT_EPT-SEPT/2020/00.NC/MSM-P_EPT950-SEPT700_2020080709.nc
/work09/2021/nakamuro/RAINDAY/N-KYUSHU_R3HMAX/QFLUX.ge.50PCNT/AN/98.30_EPT/EPT-SEPT/01.NC_OUT_EPT-SEPT/2020/00.NC/MSM-P_EPT950-SEPT700_2020080718.nc
/work09/2021/nakamuro/RAINDAY/N-KYUSHU_R3HMAX/QFLUX.ge.50PCNT/AN/98.30_EPT/EPT-SEPT/01.NC_OUT_EPT-SEPT/2020/00.NC/MSM-P_EPT950-SEPT700_2020080721.nc
/work09/2021/nakamuro/RAINDAY/N-KYUSHU_R3HMAX/QFLUX.ge.50PCNT/AN/98.30_EPT/EPT-SEPT/01.NC_OUT_EPT-SEPT/2020/00.NC/MSM-P_EPT950-SEPT700_2020080800.nc
/work09/2021/nakamuro/RAINDAY/N-KYUSHU_R3HMAX/QFLUX.ge.50PCNT/AN/98.30_EPT/EPT-SEPT/01.NC_OUT_EPT-SEPT/2020/00.NC/MSM-P_EPT950-SEPT700_2020080803.nc
/work09/2021/nakamuro/RAINDAY/N-KYUSHU_R3HMAX/QFLUX.ge.50PCNT/AN/98.30_EPT/EPT-SEPT/01.NC_OUT_EPT-SEPT/2020/00.NC/MSM-P_EPT950-SEPT700_2020080806.nc
/work09/2021/nakamuro/RAINDAY/N-KYUSHU_R3HMAX/QFLUX.ge.50PCNT/AN/98.30_EPT/EPT-SEPT/01.NC_OUT_EPT-SEPT/2020/00.NC/MSM-P_EPT950-SEPT700_2020080906.nc
/work09/2021/nakamuro/RAINDAY/N-KYUSHU_R3HMAX/QFLUX.ge.50PCNT/AN/98.30_EPT/EPT-SEPT/01.NC_OUT_EPT-SEPT/2020/00.NC/MSM-P_EPT950-SEPT700_2020081003.nc
/work09/2021/nakamuro/RAINDAY/N-KYUSHU_R3HMAX/QFLUX.ge.50PCNT/AN/98.30_EPT/EPT-SEPT/01.NC_OUT_EPT-SEPT/2020/00.NC/MSM-P_EPT950-SEPT700_2020081006.nc
/work09/2021/nakamuro/RAINDAY/N-KYUSHU_R3HMAX/QFLUX.ge.50PCNT/AN/98.30_EPT/EPT-SEPT/01.NC_OUT_EPT-SEPT/2020/00.NC/MSM-P_EPT950-SEPT700_2020081021.nc
/work09/2021/nakamuro/RAINDAY/N-KYUSHU_R3HMAX/QFLUX.ge.50PCNT/AN/98.30_EPT/EPT-SEPT/01.NC_OUT_EPT-SEPT/2020/00.NC/MSM-P_EPT950-SEPT700_2020081100.nc
/work09/2021/nakamuro/RAINDAY/N-KYUSHU_R3HMAX/QFLUX.ge.50PCNT/AN/98.30_EPT/EPT-SEPT/01.NC_OUT_EPT-SEPT/2020/00.NC/MSM-P_EPT950-SEPT700_2020081103.nc
/work09/2021/nakamuro/RAINDAY/N-KYUSHU_R3HMAX/QFLUX.ge.50PCNT/AN/98.30_EPT/EPT-SEPT/01.NC_OUT_EPT-SEPT/2020/00.NC/MSM-P_EPT950-SEPT700_2020081106.nc
/work09/2021/nakamuro/RAINDAY/N-KYUSHU_R3HMAX/QFLUX.ge.50PCNT/AN/98.30_EPT/EPT-SEPT/01.NC_OUT_EPT-SEPT/2020/00.NC/MSM-P_EPT950-SEPT700_2020081203.nc
/work09/2021/nakamuro/RAINDAY/N-KYUSHU_R3HMAX/QFLUX.ge.50PCNT/AN/98.30_EPT/EPT-SEPT/01.NC_OUT_EPT-SEPT/2020/00.NC/MSM-P_EPT950-SEPT700_2020082618.nc
/work09/2021/nakamuro/RAINDAY/N-KYUSHU_R3HMAX/QFLUX.ge.50PCNT/AN/98.30_EPT/EPT-SEPT/01.NC_OUT_EPT-SEPT/2020/00.NC/MSM-P_EPT950-SEPT700_2020082621.nc
/work09/2021/nakamuro/RAINDAY/N-KYUSHU_R3HMAX/QFLUX.ge.50PCNT/AN/98.30_EPT/EPT-SEPT/01.NC_OUT_EPT-SEPT/2020/00.NC/MSM-P_EPT950-SEPT700_2020082700.nc
/work09/2021/nakamuro/RAINDAY/N-KYUSHU_R3HMAX/QFLUX.ge.50PCNT/AN/98.30_EPT/EPT-SEPT/01.NC_OUT_EPT-SEPT/2021/00.NC/MSM-P_EPT950-SEPT700_2021060306.nc
/work09/2021/nakamuro/RAINDAY/N-KYUSHU_R3HMAX/QFLUX.ge.50PCNT/AN/98.30_EPT/EPT-SEPT/01.NC_OUT_EPT-SEPT/2021/00.NC/MSM-P_EPT950-SEPT700_2021060309.nc
/work09/2021/nakamuro/RAINDAY/N-KYUSHU_R3HMAX/QFLUX.ge.50PCNT/AN/98.30_EPT/EPT-SEPT/01.NC_OUT_EPT-SEPT/2021/00.NC/MSM-P_EPT950-SEPT700_2021060312.nc
/work09/2021/nakamuro/RAINDAY/N-KYUSHU_R3HMAX/QFLUX.ge.50PCNT/AN/98.30_EPT/EPT-SEPT/01.NC_OUT_EPT-SEPT/2021/00.NC/MSM-P_EPT950-SEPT700_2021061800.nc
/work09/2021/nakamuro/RAINDAY/N-KYUSHU_R3HMAX/QFLUX.ge.50PCNT/AN/98.30_EPT/EPT-SEPT/01.NC_OUT_EPT-SEPT/2021/00.NC/MSM-P_EPT950-SEPT700_2021070300.nc
/work09/2021/nakamuro/RAINDAY/N-KYUSHU_R3HMAX/QFLUX.ge.50PCNT/AN/98.30_EPT/EPT-SEPT/01.NC_OUT_EPT-SEPT/2021/00.NC/MSM-P_EPT950-SEPT700_2021070303.nc
/work09/2021/nakamuro/RAINDAY/N-KYUSHU_R3HMAX/QFLUX.ge.50PCNT/AN/98.30_EPT/EPT-SEPT/01.NC_OUT_EPT-SEPT/2021/00.NC/MSM-P_EPT950-SEPT700_2021070706.nc
/work09/2021/nakamuro/RAINDAY/N-KYUSHU_R3HMAX/QFLUX.ge.50PCNT/AN/98.30_EPT/EPT-SEPT/01.NC_OUT_EPT-SEPT/2021/00.NC/MSM-P_EPT950-SEPT700_2021070721.nc
/work09/2021/nakamuro/RAINDAY/N-KYUSHU_R3HMAX/QFLUX.ge.50PCNT/AN/98.30_EPT/EPT-SEPT/01.NC_OUT_EPT-SEPT/2021/00.NC/MSM-P_EPT950-SEPT700_2021070800.nc
/work09/2021/nakamuro/RAINDAY/N-KYUSHU_R3HMAX/QFLUX.ge.50PCNT/AN/98.30_EPT/EPT-SEPT/01.NC_OUT_EPT-SEPT/2021/00.NC/MSM-P_EPT950-SEPT700_2021070812.nc
/work09/2021/nakamuro/RAINDAY/N-KYUSHU_R3HMAX/QFLUX.ge.50PCNT/AN/98.30_EPT/EPT-SEPT/01.NC_OUT_EPT-SEPT/2021/00.NC/MSM-P_EPT950-SEPT700_2021070815.nc
/work09/2021/nakamuro/RAINDAY/N-KYUSHU_R3HMAX/QFLUX.ge.50PCNT/AN/98.30_EPT/EPT-SEPT/01.NC_OUT_EPT-SEPT/2021/00.NC/MSM-P_EPT950-SEPT700_2021070818.nc
/work09/2021/nakamuro/RAINDAY/N-KYUSHU_R3HMAX/QFLUX.ge.50PCNT/AN/98.30_EPT/EPT-SEPT/01.NC_OUT_EPT-SEPT/2021/00.NC/MSM-P_EPT950-SEPT700_2021070821.nc
/work09/2021/nakamuro/RAINDAY/N-KYUSHU_R3HMAX/QFLUX.ge.50PCNT/AN/98.30_EPT/EPT-SEPT/01.NC_OUT_EPT-SEPT/2021/00.NC/MSM-P_EPT950-SEPT700_2021070900.nc
/work09/2021/nakamuro/RAINDAY/N-KYUSHU_R3HMAX/QFLUX.ge.50PCNT/AN/98.30_EPT/EPT-SEPT/01.NC_OUT_EPT-SEPT/2021/00.NC/MSM-P_EPT950-SEPT700_2021071103.nc
/work09/2021/nakamuro/RAINDAY/N-KYUSHU_R3HMAX/QFLUX.ge.50PCNT/AN/98.30_EPT/EPT-SEPT/01.NC_OUT_EPT-SEPT/2021/00.NC/MSM-P_EPT950-SEPT700_2021071106.nc
/work09/2021/nakamuro/RAINDAY/N-KYUSHU_R3HMAX/QFLUX.ge.50PCNT/AN/98.30_EPT/EPT-SEPT/01.NC_OUT_EPT-SEPT/2021/00.NC/MSM-P_EPT950-SEPT700_2021073106.nc
/work09/2021/nakamuro/RAINDAY/N-KYUSHU_R3HMAX/QFLUX.ge.50PCNT/AN/98.30_EPT/EPT-SEPT/01.NC_OUT_EPT-SEPT/2021/00.NC/MSM-P_EPT950-SEPT700_2021081106.nc
/work09/2021/nakamuro/RAINDAY/N-KYUSHU_R3HMAX/QFLUX.ge.50PCNT/AN/98.30_EPT/EPT-SEPT/01.NC_OUT_EPT-SEPT/2021/00.NC/MSM-P_EPT950-SEPT700_2021081112.nc
/work09/2021/nakamuro/RAINDAY/N-KYUSHU_R3HMAX/QFLUX.ge.50PCNT/AN/98.30_EPT/EPT-SEPT/01.NC_OUT_EPT-SEPT/2021/00.NC/MSM-P_EPT950-SEPT700_2021081118.nc
/work09/2021/nakamuro/RAINDAY/N-KYUSHU_R3HMAX/QFLUX.ge.50PCNT/AN/98.30_EPT/EPT-SEPT/01.NC_OUT_EPT-SEPT/2021/00.NC/MSM-P_EPT950-SEPT700_2021081121.nc
/work09/2021/nakamuro/RAINDAY/N-KYUSHU_R3HMAX/QFLUX.ge.50PCNT/AN/98.30_EPT/EPT-SEPT/01.NC_OUT_EPT-SEPT/2021/00.NC/MSM-P_EPT950-SEPT700_2021081200.nc
/work09/2021/nakamuro/RAINDAY/N-KYUSHU_R3HMAX/QFLUX.ge.50PCNT/AN/98.30_EPT/EPT-SEPT/01.NC_OUT_EPT-SEPT/2021/00.NC/MSM-P_EPT950-SEPT700_2021081203.nc
/work09/2021/nakamuro/RAINDAY/N-KYUSHU_R3HMAX/QFLUX.ge.50PCNT/AN/98.30_EPT/EPT-SEPT/01.NC_OUT_EPT-SEPT/2021/00.NC/MSM-P_EPT950-SEPT700_2021081206.nc
/work09/2021/nakamuro/RAINDAY/N-KYUSHU_R3HMAX/QFLUX.ge.50PCNT/AN/98.30_EPT/EPT-SEPT/01.NC_OUT_EPT-SEPT/2021/00.NC/MSM-P_EPT950-SEPT700_2021081209.nc
/work09/2021/nakamuro/RAINDAY/N-KYUSHU_R3HMAX/QFLUX.ge.50PCNT/AN/98.30_EPT/EPT-SEPT/01.NC_OUT_EPT-SEPT/2021/00.NC/MSM-P_EPT950-SEPT700_2021081212.nc
/work09/2021/nakamuro/RAINDAY/N-KYUSHU_R3HMAX/QFLUX.ge.50PCNT/AN/98.30_EPT/EPT-SEPT/01.NC_OUT_EPT-SEPT/2021/00.NC/MSM-P_EPT950-SEPT700_2021081218.nc
/work09/2021/nakamuro/RAINDAY/N-KYUSHU_R3HMAX/QFLUX.ge.50PCNT/AN/98.30_EPT/EPT-SEPT/01.NC_OUT_EPT-SEPT/2021/00.NC/MSM-P_EPT950-SEPT700_2021081300.nc
/work09/2021/nakamuro/RAINDAY/N-KYUSHU_R3HMAX/QFLUX.ge.50PCNT/AN/98.30_EPT/EPT-SEPT/01.NC_OUT_EPT-SEPT/2021/00.NC/MSM-P_EPT950-SEPT700_2021081303.nc
/work09/2021/nakamuro/RAINDAY/N-KYUSHU_R3HMAX/QFLUX.ge.50PCNT/AN/98.30_EPT/EPT-SEPT/01.NC_OUT_EPT-SEPT/2021/00.NC/MSM-P_EPT950-SEPT700_2021081306.nc
/work09/2021/nakamuro/RAINDAY/N-KYUSHU_R3HMAX/QFLUX.ge.50PCNT/AN/98.30_EPT/EPT-SEPT/01.NC_OUT_EPT-SEPT/2021/00.NC/MSM-P_EPT950-SEPT700_2021081309.nc
/work09/2021/nakamuro/RAINDAY/N-KYUSHU_R3HMAX/QFLUX.ge.50PCNT/AN/98.30_EPT/EPT-SEPT/01.NC_OUT_EPT-SEPT/2021/00.NC/MSM-P_EPT950-SEPT700_2021081312.nc
/work09/2021/nakamuro/RAINDAY/N-KYUSHU_R3HMAX/QFLUX.ge.50PCNT/AN/98.30_EPT/EPT-SEPT/01.NC_OUT_EPT-SEPT/2021/00.NC/MSM-P_EPT950-SEPT700_2021081315.nc
/work09/2021/nakamuro/RAINDAY/N-KYUSHU_R3HMAX/QFLUX.ge.50PCNT/AN/98.30_EPT/EPT-SEPT/01.NC_OUT_EPT-SEPT/2021/00.NC/MSM-P_EPT950-SEPT700_2021081318.nc
/work09/2021/nakamuro/RAINDAY/N-KYUSHU_R3HMAX/QFLUX.ge.50PCNT/AN/98.30_EPT/EPT-SEPT/01.NC_OUT_EPT-SEPT/2021/00.NC/MSM-P_EPT950-SEPT700_2021081321.nc
/work09/2021/nakamuro/RAINDAY/N-KYUSHU_R3HMAX/QFLUX.ge.50PCNT/AN/98.30_EPT/EPT-SEPT/01.NC_OUT_EPT-SEPT/2021/00.NC/MSM-P_EPT950-SEPT700_2021081400.nc
/work09/2021/nakamuro/RAINDAY/N-KYUSHU_R3HMAX/QFLUX.ge.50PCNT/AN/98.30_EPT/EPT-SEPT/01.NC_OUT_EPT-SEPT/2021/00.NC/MSM-P_EPT950-SEPT700_2021081403.nc
/work09/2021/nakamuro/RAINDAY/N-KYUSHU_R3HMAX/QFLUX.ge.50PCNT/AN/98.30_EPT/EPT-SEPT/01.NC_OUT_EPT-SEPT/2021/00.NC/MSM-P_EPT950-SEPT700_2021081406.nc
/work09/2021/nakamuro/RAINDAY/N-KYUSHU_R3HMAX/QFLUX.ge.50PCNT/AN/98.30_EPT/EPT-SEPT/01.NC_OUT_EPT-SEPT/2021/00.NC/MSM-P_EPT950-SEPT700_2021081409.nc
/work09/2021/nakamuro/RAINDAY/N-KYUSHU_R3HMAX/QFLUX.ge.50PCNT/AN/98.30_EPT/EPT-SEPT/01.NC_OUT_EPT-SEPT/2021/00.NC/MSM-P_EPT950-SEPT700_2021081412.nc
/work09/2021/nakamuro/RAINDAY/N-KYUSHU_R3HMAX/QFLUX.ge.50PCNT/AN/98.30_EPT/EPT-SEPT/01.NC_OUT_EPT-SEPT/2021/00.NC/MSM-P_EPT950-SEPT700_2021081600.nc
/work09/2021/nakamuro/RAINDAY/N-KYUSHU_R3HMAX/QFLUX.ge.50PCNT/AN/98.30_EPT/EPT-SEPT/01.NC_OUT_EPT-SEPT/2021/00.NC/MSM-P_EPT950-SEPT700_2021081603.nc
/work09/2021/nakamuro/RAINDAY/N-KYUSHU_R3HMAX/QFLUX.ge.50PCNT/AN/98.30_EPT/EPT-SEPT/01.NC_OUT_EPT-SEPT/2021/00.NC/MSM-P_EPT950-SEPT700_2021081612.nc
/work09/2021/nakamuro/RAINDAY/N-KYUSHU_R3HMAX/QFLUX.ge.50PCNT/AN/98.30_EPT/EPT-SEPT/01.NC_OUT_EPT-SEPT/2021/00.NC/MSM-P_EPT950-SEPT700_2021081615.nc
/work09/2021/nakamuro/RAINDAY/N-KYUSHU_R3HMAX/QFLUX.ge.50PCNT/AN/98.30_EPT/EPT-SEPT/01.NC_OUT_EPT-SEPT/2021/00.NC/MSM-P_EPT950-SEPT700_2021081618.nc
/work09/2021/nakamuro/RAINDAY/N-KYUSHU_R3HMAX/QFLUX.ge.50PCNT/AN/98.30_EPT/EPT-SEPT/01.NC_OUT_EPT-SEPT/2021/00.NC/MSM-P_EPT950-SEPT700_2021081621.nc
/work09/2021/nakamuro/RAINDAY/N-KYUSHU_R3HMAX/QFLUX.ge.50PCNT/AN/98.30_EPT/EPT-SEPT/01.NC_OUT_EPT-SEPT/2021/00.NC/MSM-P_EPT950-SEPT700_2021082106.nc
/work09/2021/nakamuro/RAINDAY/N-KYUSHU_R3HMAX/QFLUX.ge.50PCNT/AN/98.30_EPT/EPT-SEPT/01.NC_OUT_EPT-SEPT/2021/00.NC/MSM-P_EPT950-SEPT700_2021082109.nc
/work09/2021/nakamuro/RAINDAY/N-KYUSHU_R3HMAX/QFLUX.ge.50PCNT/AN/98.30_EPT/EPT-SEPT/01.NC_OUT_EPT-SEPT/2021/00.NC/MSM-P_EPT950-SEPT700_2021082118.nc
/work09/2021/nakamuro/RAINDAY/N-KYUSHU_R3HMAX/QFLUX.ge.50PCNT/AN/98.30_EPT/EPT-SEPT/01.NC_OUT_EPT-SEPT/2021/00.NC/MSM-P_EPT950-SEPT700_2021082121.nc
/work09/2021/nakamuro/RAINDAY/N-KYUSHU_R3HMAX/QFLUX.ge.50PCNT/AN/98.30_EPT/EPT-SEPT/01.NC_OUT_EPT-SEPT/2021/00.NC/MSM-P_EPT950-SEPT700_2021082200.nc
/work09/2021/nakamuro/RAINDAY/N-KYUSHU_R3HMAX/QFLUX.ge.50PCNT/AN/98.30_EPT/EPT-SEPT/01.NC_OUT_EPT-SEPT/2021/00.NC/MSM-P_EPT950-SEPT700_2021082203.nc
/work09/2021/nakamuro/RAINDAY/N-KYUSHU_R3HMAX/QFLUX.ge.50PCNT/AN/98.30_EPT/EPT-SEPT/01.NC_OUT_EPT-SEPT/2021/00.NC/MSM-P_EPT950-SEPT700_2021082400.nc
/work09/2021/nakamuro/RAINDAY/N-KYUSHU_R3HMAX/QFLUX.ge.50PCNT/AN/98.30_EPT/EPT-SEPT/01.NC_OUT_EPT-SEPT/2021/00.NC/MSM-P_EPT950-SEPT700_2021082409.nc
/work09/2021/nakamuro/RAINDAY/N-KYUSHU_R3HMAX/QFLUX.ge.50PCNT/AN/98.30_EPT/EPT-SEPT/01.NC_OUT_EPT-SEPT/2021/00.NC/MSM-P_EPT950-SEPT700_2021082412.nc
/work09/2021/nakamuro/RAINDAY/N-KYUSHU_R3HMAX/QFLUX.ge.50PCNT/AN/98.30_EPT/EPT-SEPT/01.NC_OUT_EPT-SEPT/2021/00.NC/MSM-P_EPT950-SEPT700_2021082415.nc
/work09/2021/nakamuro/RAINDAY/N-KYUSHU_R3HMAX/QFLUX.ge.50PCNT/AN/98.30_EPT/EPT-SEPT/01.NC_OUT_EPT-SEPT/2021/00.NC/MSM-P_EPT950-SEPT700_2021082418.nc
/work09/2021/nakamuro/RAINDAY/N-KYUSHU_R3HMAX/QFLUX.ge.50PCNT/AN/98.30_EPT/EPT-SEPT/01.NC_OUT_EPT-SEPT/2021/00.NC/MSM-P_EPT950-SEPT700_2021082421.nc
/work09/2021/nakamuro/RAINDAY/N-KYUSHU_R3HMAX/QFLUX.ge.50PCNT/AN/98.30_EPT/EPT-SEPT/01.NC_OUT_EPT-SEPT/2021/00.NC/MSM-P_EPT950-SEPT700_2021082500.nc
/work09/2021/nakamuro/RAINDAY/N-KYUSHU_R3HMAX/QFLUX.ge.50PCNT/AN/98.30_EPT/EPT-SEPT/01.NC_OUT_EPT-SEPT/2021/00.NC/MSM-P_EPT950-SEPT700_2021082518.nc
/work09/2021/nakamuro/RAINDAY/N-KYUSHU_R3HMAX/QFLUX.ge.50PCNT/AN/98.30_EPT/EPT-SEPT/01.NC_OUT_EPT-SEPT/2021/00.NC/MSM-P_EPT950-SEPT700_2021082521.nc
/work09/2021/nakamuro/RAINDAY/N-KYUSHU_R3HMAX/QFLUX.ge.50PCNT/AN/98.30_EPT/EPT-SEPT/01.NC_OUT_EPT-SEPT/2021/00.NC/MSM-P_EPT950-SEPT700_2021082600.nc
/work09/2021/nakamuro/RAINDAY/N-KYUSHU_R3HMAX/QFLUX.ge.50PCNT/AN/98.30_EPT/EPT-SEPT/01.NC_OUT_EPT-SEPT/2021/00.NC/MSM-P_EPT950-SEPT700_2021082606.nc
/work09/2021/nakamuro/RAINDAY/N-KYUSHU_R3HMAX/QFLUX.ge.50PCNT/AN/98.30_EPT/EPT-SEPT/01.NC_OUT_EPT-SEPT/2022/00.NC/MSM-P_EPT950-SEPT700_2022062018.nc
/work09/2021/nakamuro/RAINDAY/N-KYUSHU_R3HMAX/QFLUX.ge.50PCNT/AN/98.30_EPT/EPT-SEPT/01.NC_OUT_EPT-SEPT/2022/00.NC/MSM-P_EPT950-SEPT700_2022062021.nc
/work09/2021/nakamuro/RAINDAY/N-KYUSHU_R3HMAX/QFLUX.ge.50PCNT/AN/98.30_EPT/EPT-SEPT/01.NC_OUT_EPT-SEPT/2022/00.NC/MSM-P_EPT950-SEPT700_2022062400.nc
/work09/2021/nakamuro/RAINDAY/N-KYUSHU_R3HMAX/QFLUX.ge.50PCNT/AN/98.30_EPT/EPT-SEPT/01.NC_OUT_EPT-SEPT/2022/00.NC/MSM-P_EPT950-SEPT700_2022062412.nc
/work09/2021/nakamuro/RAINDAY/N-KYUSHU_R3HMAX/QFLUX.ge.50PCNT/AN/98.30_EPT/EPT-SEPT/01.NC_OUT_EPT-SEPT/2022/00.NC/MSM-P_EPT950-SEPT700_2022062500.nc
/work09/2021/nakamuro/RAINDAY/N-KYUSHU_R3HMAX/QFLUX.ge.50PCNT/AN/98.30_EPT/EPT-SEPT/01.NC_OUT_EPT-SEPT/2022/00.NC/MSM-P_EPT950-SEPT700_2022062503.nc
/work09/2021/nakamuro/RAINDAY/N-KYUSHU_R3HMAX/QFLUX.ge.50PCNT/AN/98.30_EPT/EPT-SEPT/01.NC_OUT_EPT-SEPT/2022/00.NC/MSM-P_EPT950-SEPT700_2022062506.nc
/work09/2021/nakamuro/RAINDAY/N-KYUSHU_R3HMAX/QFLUX.ge.50PCNT/AN/98.30_EPT/EPT-SEPT/01.NC_OUT_EPT-SEPT/2022/00.NC/MSM-P_EPT950-SEPT700_2022070806.nc
/work09/2021/nakamuro/RAINDAY/N-KYUSHU_R3HMAX/QFLUX.ge.50PCNT/AN/98.30_EPT/EPT-SEPT/01.NC_OUT_EPT-SEPT/2022/00.NC/MSM-P_EPT950-SEPT700_2022071409.nc
/work09/2021/nakamuro/RAINDAY/N-KYUSHU_R3HMAX/QFLUX.ge.50PCNT/AN/98.30_EPT/EPT-SEPT/01.NC_OUT_EPT-SEPT/2022/00.NC/MSM-P_EPT950-SEPT700_2022071512.nc
/work09/2021/nakamuro/RAINDAY/N-KYUSHU_R3HMAX/QFLUX.ge.50PCNT/AN/98.30_EPT/EPT-SEPT/01.NC_OUT_EPT-SEPT/2022/00.NC/MSM-P_EPT950-SEPT700_2022071515.nc
/work09/2021/nakamuro/RAINDAY/N-KYUSHU_R3HMAX/QFLUX.ge.50PCNT/AN/98.30_EPT/EPT-SEPT/01.NC_OUT_EPT-SEPT/2022/00.NC/MSM-P_EPT950-SEPT700_2022071721.nc
/work09/2021/nakamuro/RAINDAY/N-KYUSHU_R3HMAX/QFLUX.ge.50PCNT/AN/98.30_EPT/EPT-SEPT/01.NC_OUT_EPT-SEPT/2022/00.NC/MSM-P_EPT950-SEPT700_2022071800.nc
/work09/2021/nakamuro/RAINDAY/N-KYUSHU_R3HMAX/QFLUX.ge.50PCNT/AN/98.30_EPT/EPT-SEPT/01.NC_OUT_EPT-SEPT/2022/00.NC/MSM-P_EPT950-SEPT700_2022071809.nc
/work09/2021/nakamuro/RAINDAY/N-KYUSHU_R3HMAX/QFLUX.ge.50PCNT/AN/98.30_EPT/EPT-SEPT/01.NC_OUT_EPT-SEPT/2022/00.NC/MSM-P_EPT950-SEPT700_2022071812.nc
/work09/2021/nakamuro/RAINDAY/N-KYUSHU_R3HMAX/QFLUX.ge.50PCNT/AN/98.30_EPT/EPT-SEPT/01.NC_OUT_EPT-SEPT/2022/00.NC/MSM-P_EPT950-SEPT700_2022071815.nc
/work09/2021/nakamuro/RAINDAY/N-KYUSHU_R3HMAX/QFLUX.ge.50PCNT/AN/98.30_EPT/EPT-SEPT/01.NC_OUT_EPT-SEPT/2022/00.NC/MSM-P_EPT950-SEPT700_2022071818.nc
/work09/2021/nakamuro/RAINDAY/N-KYUSHU_R3HMAX/QFLUX.ge.50PCNT/AN/98.30_EPT/EPT-SEPT/01.NC_OUT_EPT-SEPT/2022/00.NC/MSM-P_EPT950-SEPT700_2022071821.nc
/work09/2021/nakamuro/RAINDAY/N-KYUSHU_R3HMAX/QFLUX.ge.50PCNT/AN/98.30_EPT/EPT-SEPT/01.NC_OUT_EPT-SEPT/2022/00.NC/MSM-P_EPT950-SEPT700_2022071903.nc
/work09/2021/nakamuro/RAINDAY/N-KYUSHU_R3HMAX/QFLUX.ge.50PCNT/AN/98.30_EPT/EPT-SEPT/01.NC_OUT_EPT-SEPT/2022/00.NC/MSM-P_EPT950-SEPT700_2022072000.nc
/work09/2021/nakamuro/RAINDAY/N-KYUSHU_R3HMAX/QFLUX.ge.50PCNT/AN/98.30_EPT/EPT-SEPT/01.NC_OUT_EPT-SEPT/2022/00.NC/MSM-P_EPT950-SEPT700_2022080706.nc
/work09/2021/nakamuro/RAINDAY/N-KYUSHU_R3HMAX/QFLUX.ge.50PCNT/AN/98.30_EPT/EPT-SEPT/01.NC_OUT_EPT-SEPT/2022/00.NC/MSM-P_EPT950-SEPT700_2022081118.nc
/work09/2021/nakamuro/RAINDAY/N-KYUSHU_R3HMAX/QFLUX.ge.50PCNT/AN/98.30_EPT/EPT-SEPT/01.NC_OUT_EPT-SEPT/2022/00.NC/MSM-P_EPT950-SEPT700_2022081306.nc
/work09/2021/nakamuro/RAINDAY/N-KYUSHU_R3HMAX/QFLUX.ge.50PCNT/AN/98.30_EPT/EPT-SEPT/01.NC_OUT_EPT-SEPT/2022/00.NC/MSM-P_EPT950-SEPT700_2022081503.nc
/work09/2021/nakamuro/RAINDAY/N-KYUSHU_R3HMAX/QFLUX.ge.50PCNT/AN/98.30_EPT/EPT-SEPT/01.NC_OUT_EPT-SEPT/2022/00.NC/MSM-P_EPT950-SEPT700_2022081506.nc
/work09/2021/nakamuro/RAINDAY/N-KYUSHU_R3HMAX/QFLUX.ge.50PCNT/AN/98.30_EPT/EPT-SEPT/01.NC_OUT_EPT-SEPT/2022/00.NC/MSM-P_EPT950-SEPT700_2022081509.nc
/work09/2021/nakamuro/RAINDAY/N-KYUSHU_R3HMAX/QFLUX.ge.50PCNT/AN/98.30_EPT/EPT-SEPT/01.NC_OUT_EPT-SEPT/2022/00.NC/MSM-P_EPT950-SEPT700_2022081515.nc
/work09/2021/nakamuro/RAINDAY/N-KYUSHU_R3HMAX/QFLUX.ge.50PCNT/AN/98.30_EPT/EPT-SEPT/01.NC_OUT_EPT-SEPT/2022/00.NC/MSM-P_EPT950-SEPT700_2022081518.nc
/work09/2021/nakamuro/RAINDAY/N-KYUSHU_R3HMAX/QFLUX.ge.50PCNT/AN/98.30_EPT/EPT-SEPT/01.NC_OUT_EPT-SEPT/2022/00.NC/MSM-P_EPT950-SEPT700_2022081521.nc
/work09/2021/nakamuro/RAINDAY/N-KYUSHU_R3HMAX/QFLUX.ge.50PCNT/AN/98.30_EPT/EPT-SEPT/01.NC_OUT_EPT-SEPT/2022/00.NC/MSM-P_EPT950-SEPT700_2022081600.nc
/work09/2021/nakamuro/RAINDAY/N-KYUSHU_R3HMAX/QFLUX.ge.50PCNT/AN/98.30_EPT/EPT-SEPT/01.NC_OUT_EPT-SEPT/2022/00.NC/MSM-P_EPT950-SEPT700_2022081603.nc
/work09/2021/nakamuro/RAINDAY/N-KYUSHU_R3HMAX/QFLUX.ge.50PCNT/AN/98.30_EPT/EPT-SEPT/01.NC_OUT_EPT-SEPT/2022/00.NC/MSM-P_EPT950-SEPT700_2022081606.nc
/work09/2021/nakamuro/RAINDAY/N-KYUSHU_R3HMAX/QFLUX.ge.50PCNT/AN/98.30_EPT/EPT-SEPT/01.NC_OUT_EPT-SEPT/2022/00.NC/MSM-P_EPT950-SEPT700_2022081609.nc
/work09/2021/nakamuro/RAINDAY/N-KYUSHU_R3HMAX/QFLUX.ge.50PCNT/AN/98.30_EPT/EPT-SEPT/01.NC_OUT_EPT-SEPT/2022/00.NC/MSM-P_EPT950-SEPT700_2022081612.nc
/work09/2021/nakamuro/RAINDAY/N-KYUSHU_R3HMAX/QFLUX.ge.50PCNT/AN/98.30_EPT/EPT-SEPT/01.NC_OUT_EPT-SEPT/2022/00.NC/MSM-P_EPT950-SEPT700_2022081615.nc
/work09/2021/nakamuro/RAINDAY/N-KYUSHU_R3HMAX/QFLUX.ge.50PCNT/AN/98.30_EPT/EPT-SEPT/01.NC_OUT_EPT-SEPT/2022/00.NC/MSM-P_EPT950-SEPT700_2022081618.nc
/work09/2021/nakamuro/RAINDAY/N-KYUSHU_R3HMAX/QFLUX.ge.50PCNT/AN/98.30_EPT/EPT-SEPT/01.NC_OUT_EPT-SEPT/2022/00.NC/MSM-P_EPT950-SEPT700_2022081621.nc
/work09/2021/nakamuro/RAINDAY/N-KYUSHU_R3HMAX/QFLUX.ge.50PCNT/AN/98.30_EPT/EPT-SEPT/01.NC_OUT_EPT-SEPT/2022/00.NC/MSM-P_EPT950-SEPT700_2022081700.nc
/work09/2021/nakamuro/RAINDAY/N-KYUSHU_R3HMAX/QFLUX.ge.50PCNT/AN/98.30_EPT/EPT-SEPT/01.NC_OUT_EPT-SEPT/2022/00.NC/MSM-P_EPT950-SEPT700_2022081703.nc
/work09/2021/nakamuro/RAINDAY/N-KYUSHU_R3HMAX/QFLUX.ge.50PCNT/AN/98.30_EPT/EPT-SEPT/01.NC_OUT_EPT-SEPT/2022/00.NC/MSM-P_EPT950-SEPT700_2022081706.nc
/work09/2021/nakamuro/RAINDAY/N-KYUSHU_R3HMAX/QFLUX.ge.50PCNT/AN/98.30_EPT/EPT-SEPT/01.NC_OUT_EPT-SEPT/2022/00.NC/MSM-P_EPT950-SEPT700_2022081709.nc
/work09/2021/nakamuro/RAINDAY/N-KYUSHU_R3HMAX/QFLUX.ge.50PCNT/AN/98.30_EPT/EPT-SEPT/01.NC_OUT_EPT-SEPT/2022/00.NC/MSM-P_EPT950-SEPT700_2022081712.nc
/work09/2021/nakamuro/RAINDAY/N-KYUSHU_R3HMAX/QFLUX.ge.50PCNT/AN/98.30_EPT/EPT-SEPT/01.NC_OUT_EPT-SEPT/2022/00.NC/MSM-P_EPT950-SEPT700_2022081715.nc
/work09/2021/nakamuro/RAINDAY/N-KYUSHU_R3HMAX/QFLUX.ge.50PCNT/AN/98.30_EPT/EPT-SEPT/01.NC_OUT_EPT-SEPT/2022/00.NC/MSM-P_EPT950-SEPT700_2022081718.nc
/work09/2021/nakamuro/RAINDAY/N-KYUSHU_R3HMAX/QFLUX.ge.50PCNT/AN/98.30_EPT/EPT-SEPT/01.NC_OUT_EPT-SEPT/2022/00.NC/MSM-P_EPT950-SEPT700_2022082006.nc
/work09/2021/nakamuro/RAINDAY/N-KYUSHU_R3HMAX/QFLUX.ge.50PCNT/AN/98.30_EPT/EPT-SEPT/01.NC_OUT_EPT-SEPT/2022/00.NC/MSM-P_EPT950-SEPT700_2022082009.nc
/work09/2021/nakamuro/RAINDAY/N-KYUSHU_R3HMAX/QFLUX.ge.50PCNT/AN/98.30_EPT/EPT-SEPT/01.NC_OUT_EPT-SEPT/2022/00.NC/MSM-P_EPT950-SEPT700_2022082012.nc
/work09/2021/nakamuro/RAINDAY/N-KYUSHU_R3HMAX/QFLUX.ge.50PCNT/AN/98.30_EPT/EPT-SEPT/01.NC_OUT_EPT-SEPT/2022/00.NC/MSM-P_EPT950-SEPT700_2022082015.nc
/work09/2021/nakamuro/RAINDAY/N-KYUSHU_R3HMAX/QFLUX.ge.50PCNT/AN/98.30_EPT/EPT-SEPT/01.NC_OUT_EPT-SEPT/2023/00.NC/MSM-P_EPT950-SEPT700_2023062618.nc
/work09/2021/nakamuro/RAINDAY/N-KYUSHU_R3HMAX/QFLUX.ge.50PCNT/AN/98.30_EPT/EPT-SEPT/01.NC_OUT_EPT-SEPT/2023/00.NC/MSM-P_EPT950-SEPT700_2023062800.nc
/work09/2021/nakamuro/RAINDAY/N-KYUSHU_R3HMAX/QFLUX.ge.50PCNT/AN/98.30_EPT/EPT-SEPT/01.NC_OUT_EPT-SEPT/2023/00.NC/MSM-P_EPT950-SEPT700_2023062803.nc
/work09/2021/nakamuro/RAINDAY/N-KYUSHU_R3HMAX/QFLUX.ge.50PCNT/AN/98.30_EPT/EPT-SEPT/01.NC_OUT_EPT-SEPT/2023/00.NC/MSM-P_EPT950-SEPT700_2023062903.nc
/work09/2021/nakamuro/RAINDAY/N-KYUSHU_R3HMAX/QFLUX.ge.50PCNT/AN/98.30_EPT/EPT-SEPT/01.NC_OUT_EPT-SEPT/2023/00.NC/MSM-P_EPT950-SEPT700_2023062906.nc
/work09/2021/nakamuro/RAINDAY/N-KYUSHU_R3HMAX/QFLUX.ge.50PCNT/AN/98.30_EPT/EPT-SEPT/01.NC_OUT_EPT-SEPT/2023/00.NC/MSM-P_EPT950-SEPT700_2023062912.nc
/work09/2021/nakamuro/RAINDAY/N-KYUSHU_R3HMAX/QFLUX.ge.50PCNT/AN/98.30_EPT/EPT-SEPT/01.NC_OUT_EPT-SEPT/2023/00.NC/MSM-P_EPT950-SEPT700_2023062915.nc
/work09/2021/nakamuro/RAINDAY/N-KYUSHU_R3HMAX/QFLUX.ge.50PCNT/AN/98.30_EPT/EPT-SEPT/01.NC_OUT_EPT-SEPT/2023/00.NC/MSM-P_EPT950-SEPT700_2023062921.nc
/work09/2021/nakamuro/RAINDAY/N-KYUSHU_R3HMAX/QFLUX.ge.50PCNT/AN/98.30_EPT/EPT-SEPT/01.NC_OUT_EPT-SEPT/2023/00.NC/MSM-P_EPT950-SEPT700_2023063000.nc
/work09/2021/nakamuro/RAINDAY/N-KYUSHU_R3HMAX/QFLUX.ge.50PCNT/AN/98.30_EPT/EPT-SEPT/01.NC_OUT_EPT-SEPT/2023/00.NC/MSM-P_EPT950-SEPT700_2023063003.nc
/work09/2021/nakamuro/RAINDAY/N-KYUSHU_R3HMAX/QFLUX.ge.50PCNT/AN/98.30_EPT/EPT-SEPT/01.NC_OUT_EPT-SEPT/2023/00.NC/MSM-P_EPT950-SEPT700_2023063006.nc
/work09/2021/nakamuro/RAINDAY/N-KYUSHU_R3HMAX/QFLUX.ge.50PCNT/AN/98.30_EPT/EPT-SEPT/01.NC_OUT_EPT-SEPT/2023/00.NC/MSM-P_EPT950-SEPT700_2023063009.nc
/work09/2021/nakamuro/RAINDAY/N-KYUSHU_R3HMAX/QFLUX.ge.50PCNT/AN/98.30_EPT/EPT-SEPT/01.NC_OUT_EPT-SEPT/2023/00.NC/MSM-P_EPT950-SEPT700_2023063012.nc
/work09/2021/nakamuro/RAINDAY/N-KYUSHU_R3HMAX/QFLUX.ge.50PCNT/AN/98.30_EPT/EPT-SEPT/01.NC_OUT_EPT-SEPT/2023/00.NC/MSM-P_EPT950-SEPT700_2023063015.nc
/work09/2021/nakamuro/RAINDAY/N-KYUSHU_R3HMAX/QFLUX.ge.50PCNT/AN/98.30_EPT/EPT-SEPT/01.NC_OUT_EPT-SEPT/2023/00.NC/MSM-P_EPT950-SEPT700_2023063018.nc
/work09/2021/nakamuro/RAINDAY/N-KYUSHU_R3HMAX/QFLUX.ge.50PCNT/AN/98.30_EPT/EPT-SEPT/01.NC_OUT_EPT-SEPT/2023/00.NC/MSM-P_EPT950-SEPT700_2023070212.nc
/work09/2021/nakamuro/RAINDAY/N-KYUSHU_R3HMAX/QFLUX.ge.50PCNT/AN/98.30_EPT/EPT-SEPT/01.NC_OUT_EPT-SEPT/2023/00.NC/MSM-P_EPT950-SEPT700_2023070215.nc
/work09/2021/nakamuro/RAINDAY/N-KYUSHU_R3HMAX/QFLUX.ge.50PCNT/AN/98.30_EPT/EPT-SEPT/01.NC_OUT_EPT-SEPT/2023/00.NC/MSM-P_EPT950-SEPT700_2023070218.nc
/work09/2021/nakamuro/RAINDAY/N-KYUSHU_R3HMAX/QFLUX.ge.50PCNT/AN/98.30_EPT/EPT-SEPT/01.NC_OUT_EPT-SEPT/2023/00.NC/MSM-P_EPT950-SEPT700_2023070221.nc
/work09/2021/nakamuro/RAINDAY/N-KYUSHU_R3HMAX/QFLUX.ge.50PCNT/AN/98.30_EPT/EPT-SEPT/01.NC_OUT_EPT-SEPT/2023/00.NC/MSM-P_EPT950-SEPT700_2023070300.nc
/work09/2021/nakamuro/RAINDAY/N-KYUSHU_R3HMAX/QFLUX.ge.50PCNT/AN/98.30_EPT/EPT-SEPT/01.NC_OUT_EPT-SEPT/2023/00.NC/MSM-P_EPT950-SEPT700_2023070303.nc
/work09/2021/nakamuro/RAINDAY/N-KYUSHU_R3HMAX/QFLUX.ge.50PCNT/AN/98.30_EPT/EPT-SEPT/01.NC_OUT_EPT-SEPT/2023/00.NC/MSM-P_EPT950-SEPT700_2023070500.nc
/work09/2021/nakamuro/RAINDAY/N-KYUSHU_R3HMAX/QFLUX.ge.50PCNT/AN/98.30_EPT/EPT-SEPT/01.NC_OUT_EPT-SEPT/2023/00.NC/MSM-P_EPT950-SEPT700_2023070621.nc
/work09/2021/nakamuro/RAINDAY/N-KYUSHU_R3HMAX/QFLUX.ge.50PCNT/AN/98.30_EPT/EPT-SEPT/01.NC_OUT_EPT-SEPT/2023/00.NC/MSM-P_EPT950-SEPT700_2023070800.nc
/work09/2021/nakamuro/RAINDAY/N-KYUSHU_R3HMAX/QFLUX.ge.50PCNT/AN/98.30_EPT/EPT-SEPT/01.NC_OUT_EPT-SEPT/2023/00.NC/MSM-P_EPT950-SEPT700_2023070803.nc
/work09/2021/nakamuro/RAINDAY/N-KYUSHU_R3HMAX/QFLUX.ge.50PCNT/AN/98.30_EPT/EPT-SEPT/01.NC_OUT_EPT-SEPT/2023/00.NC/MSM-P_EPT950-SEPT700_2023070806.nc
/work09/2021/nakamuro/RAINDAY/N-KYUSHU_R3HMAX/QFLUX.ge.50PCNT/AN/98.30_EPT/EPT-SEPT/01.NC_OUT_EPT-SEPT/2023/00.NC/MSM-P_EPT950-SEPT700_2023070809.nc
/work09/2021/nakamuro/RAINDAY/N-KYUSHU_R3HMAX/QFLUX.ge.50PCNT/AN/98.30_EPT/EPT-SEPT/01.NC_OUT_EPT-SEPT/2023/00.NC/MSM-P_EPT950-SEPT700_2023070812.nc
/work09/2021/nakamuro/RAINDAY/N-KYUSHU_R3HMAX/QFLUX.ge.50PCNT/AN/98.30_EPT/EPT-SEPT/01.NC_OUT_EPT-SEPT/2023/00.NC/MSM-P_EPT950-SEPT700_2023070815.nc
/work09/2021/nakamuro/RAINDAY/N-KYUSHU_R3HMAX/QFLUX.ge.50PCNT/AN/98.30_EPT/EPT-SEPT/01.NC_OUT_EPT-SEPT/2023/00.NC/MSM-P_EPT950-SEPT700_2023070818.nc
/work09/2021/nakamuro/RAINDAY/N-KYUSHU_R3HMAX/QFLUX.ge.50PCNT/AN/98.30_EPT/EPT-SEPT/01.NC_OUT_EPT-SEPT/2023/00.NC/MSM-P_EPT950-SEPT700_2023070821.nc
/work09/2021/nakamuro/RAINDAY/N-KYUSHU_R3HMAX/QFLUX.ge.50PCNT/AN/98.30_EPT/EPT-SEPT/01.NC_OUT_EPT-SEPT/2023/00.NC/MSM-P_EPT950-SEPT700_2023070900.nc
/work09/2021/nakamuro/RAINDAY/N-KYUSHU_R3HMAX/QFLUX.ge.50PCNT/AN/98.30_EPT/EPT-SEPT/01.NC_OUT_EPT-SEPT/2023/00.NC/MSM-P_EPT950-SEPT700_2023070903.nc
/work09/2021/nakamuro/RAINDAY/N-KYUSHU_R3HMAX/QFLUX.ge.50PCNT/AN/98.30_EPT/EPT-SEPT/01.NC_OUT_EPT-SEPT/2023/00.NC/MSM-P_EPT950-SEPT700_2023070906.nc
/work09/2021/nakamuro/RAINDAY/N-KYUSHU_R3HMAX/QFLUX.ge.50PCNT/AN/98.30_EPT/EPT-SEPT/01.NC_OUT_EPT-SEPT/2023/00.NC/MSM-P_EPT950-SEPT700_2023070909.nc
/work09/2021/nakamuro/RAINDAY/N-KYUSHU_R3HMAX/QFLUX.ge.50PCNT/AN/98.30_EPT/EPT-SEPT/01.NC_OUT_EPT-SEPT/2023/00.NC/MSM-P_EPT950-SEPT700_2023070912.nc
/work09/2021/nakamuro/RAINDAY/N-KYUSHU_R3HMAX/QFLUX.ge.50PCNT/AN/98.30_EPT/EPT-SEPT/01.NC_OUT_EPT-SEPT/2023/00.NC/MSM-P_EPT950-SEPT700_2023070915.nc
/work09/2021/nakamuro/RAINDAY/N-KYUSHU_R3HMAX/QFLUX.ge.50PCNT/AN/98.30_EPT/EPT-SEPT/01.NC_OUT_EPT-SEPT/2023/00.NC/MSM-P_EPT950-SEPT700_2023070918.nc
/work09/2021/nakamuro/RAINDAY/N-KYUSHU_R3HMAX/QFLUX.ge.50PCNT/AN/98.30_EPT/EPT-SEPT/01.NC_OUT_EPT-SEPT/2023/00.NC/MSM-P_EPT950-SEPT700_2023070921.nc
/work09/2021/nakamuro/RAINDAY/N-KYUSHU_R3HMAX/QFLUX.ge.50PCNT/AN/98.30_EPT/EPT-SEPT/01.NC_OUT_EPT-SEPT/2023/00.NC/MSM-P_EPT950-SEPT700_2023071000.nc
/work09/2021/nakamuro/RAINDAY/N-KYUSHU_R3HMAX/QFLUX.ge.50PCNT/AN/98.30_EPT/EPT-SEPT/01.NC_OUT_EPT-SEPT/2023/00.NC/MSM-P_EPT950-SEPT700_2023071003.nc
/work09/2021/nakamuro/RAINDAY/N-KYUSHU_R3HMAX/QFLUX.ge.50PCNT/AN/98.30_EPT/EPT-SEPT/01.NC_OUT_EPT-SEPT/2023/00.NC/MSM-P_EPT950-SEPT700_2023071006.nc
/work09/2021/nakamuro/RAINDAY/N-KYUSHU_R3HMAX/QFLUX.ge.50PCNT/AN/98.30_EPT/EPT-SEPT/01.NC_OUT_EPT-SEPT/2023/00.NC/MSM-P_EPT950-SEPT700_2023071121.nc
/work09/2021/nakamuro/RAINDAY/N-KYUSHU_R3HMAX/QFLUX.ge.50PCNT/AN/98.30_EPT/EPT-SEPT/01.NC_OUT_EPT-SEPT/2023/00.NC/MSM-P_EPT950-SEPT700_2023071200.nc
/work09/2021/nakamuro/RAINDAY/N-KYUSHU_R3HMAX/QFLUX.ge.50PCNT/AN/98.30_EPT/EPT-SEPT/01.NC_OUT_EPT-SEPT/2023/00.NC/MSM-P_EPT950-SEPT700_2023071203.nc
/work09/2021/nakamuro/RAINDAY/N-KYUSHU_R3HMAX/QFLUX.ge.50PCNT/AN/98.30_EPT/EPT-SEPT/01.NC_OUT_EPT-SEPT/2023/00.NC/MSM-P_EPT950-SEPT700_2023071206.nc
/work09/2021/nakamuro/RAINDAY/N-KYUSHU_R3HMAX/QFLUX.ge.50PCNT/AN/98.30_EPT/EPT-SEPT/01.NC_OUT_EPT-SEPT/2023/00.NC/MSM-P_EPT950-SEPT700_2023071812.nc
/work09/2021/nakamuro/RAINDAY/N-KYUSHU_R3HMAX/QFLUX.ge.50PCNT/AN/98.30_EPT/EPT-SEPT/01.NC_OUT_EPT-SEPT/2023/00.NC/MSM-P_EPT950-SEPT700_2023071818.nc
/work09/2021/nakamuro/RAINDAY/N-KYUSHU_R3HMAX/QFLUX.ge.50PCNT/AN/98.30_EPT/EPT-SEPT/01.NC_OUT_EPT-SEPT/2023/00.NC/MSM-P_EPT950-SEPT700_2023072303.nc
/work09/2021/nakamuro/RAINDAY/N-KYUSHU_R3HMAX/QFLUX.ge.50PCNT/AN/98.30_EPT/EPT-SEPT/01.NC_OUT_EPT-SEPT/2023/00.NC/MSM-P_EPT950-SEPT700_2023072409.nc
/work09/2021/nakamuro/RAINDAY/N-KYUSHU_R3HMAX/QFLUX.ge.50PCNT/AN/98.30_EPT/EPT-SEPT/01.NC_OUT_EPT-SEPT/2023/00.NC/MSM-P_EPT950-SEPT700_2023081000.nc
/work09/2021/nakamuro/RAINDAY/N-KYUSHU_R3HMAX/QFLUX.ge.50PCNT/AN/98.30_EPT/EPT-SEPT/01.NC_OUT_EPT-SEPT/2023/00.NC/MSM-P_EPT950-SEPT700_2023081003.nc
/work09/2021/nakamuro/RAINDAY/N-KYUSHU_R3HMAX/QFLUX.ge.50PCNT/AN/98.30_EPT/EPT-SEPT/01.NC_OUT_EPT-SEPT/2023/00.NC/MSM-P_EPT950-SEPT700_2023081812.nc
/work09/2021/nakamuro/RAINDAY/N-KYUSHU_R3HMAX/QFLUX.ge.50PCNT/AN/98.30_EPT/EPT-SEPT/01.NC_OUT_EPT-SEPT/2023/00.NC/MSM-P_EPT950-SEPT700_2023082403.nc
/work09/2021/nakamuro/RAINDAY/N-KYUSHU_R3HMAX/QFLUX.ge.50PCNT/AN/98.30_EPT/EPT-SEPT/01.NC_OUT_EPT-SEPT/2023/00.NC/MSM-P_EPT950-SEPT700_2023082406.nc
/work09/2021/nakamuro/RAINDAY/N-KYUSHU_R3HMAX/QFLUX.ge.50PCNT/AN/98.30_EPT/EPT-SEPT/01.NC_OUT_EPT-SEPT/2023/00.NC/MSM-P_EPT950-SEPT700_2023082412.nc
/work09/2021/nakamuro/RAINDAY/N-KYUSHU_R3HMAX/QFLUX.ge.50PCNT/AN/98.30_EPT/EPT-SEPT/01.NC_OUT_EPT-SEPT/2023/00.NC/MSM-P_EPT950-SEPT700_2023082415.nc
