2012 06 15 11 129.607  32.5414
2012 06 15 12 129.654  32.3677
2012 06 15 13 129.836  32.1521
2012 06 15 14 129.921  32.0480
2012 06 15 15 130.056  31.9070
2012 06 15 16 130.062  31.7205
2012 06 15 17 130.050  31.4864
2012 06 15 18 130.053  31.3434
2012 06 15 19 130.058  31.1561
2012 06 15 20 130.073  30.9609
2012 06 15 21 130.043  30.7565
2012 06 15 22 129.855  30.5166
2012 06 15 23 129.696  30.3081
2012 06 16 00 129.653  30.2938
2012 06 16 01 129.532  30.1333
2012 06 16 02 129.472  29.9550
2012 06 16 03 129.473  29.7799
2012 06 16 05 129.463  29.3908
2012 06 16 07 129.370  29.9772





Back-up
2012 06 15 11 129.607  32.5414
2012 06 15 12 129.654  32.3677
2012 06 15 13 129.836  32.1521
2012 06 15 14 129.921  32.0480
2012 06 15 15 130.056  31.9070
2012 06 15 16 130.062  31.7205
2012 06 15 17 130.050  31.4864
2012 06 15 18 130.053  31.3434
2012 06 15 19 130.058  31.1561
2012 06 15 20 130.073  30.9609
2012 06 15 21 130.043  30.7565
2012 06 15 22 129.855  30.5166
2012 06 15 23 129.696  30.3081
2012 06 16 00 129.653  30.2938
2012 06 16 01 129.532  30.1333
2012 06 16 02 129.472  29.9550
2012 06 16 03 129.473  29.7799
2012 06 16 05 129.463  29.3908
2012 06 16 07 129.370  29.9772
