# D:\12.00.DATA.OBS\12.00.2022-06_ECS\00.DATA\2023-04-19_EDIT_2022-06_VESSEL_MOUNT_TSR_RAW_DATA\FOR_SST
# SST_INTAKE_CALIBRATION_2022-06_ECS.xlsx

X=INTAKE Y=BUCKET

NAGASAKI-MARU
y = 0.9103x + 2.256 R2 = 0.9366

KAGOSHIMA-MARU
y = 0.9357x + 1.7637 R2 = 0.9657

SEISUI-MARU
y = 0.9717x + 0.471 R2 = 0.9961
