/work02/DATA/MSM.NC/MSM_CUT_125-133_29-35/OUT_0.ECAPE_NO_ENTRAINMENT_500m/ECAPE_RH_125-133_29-35_2020-06-24_21_500m_NO_ENTRAINMENT.nc \
/work02/DATA/MSM.NC/MSM_CUT_125-133_29-35/OUT_0.ECAPE_NO_ENTRAINMENT_500m/ECAPE_RH_125-133_29-35_2020-07-03_09_500m_NO_ENTRAINMENT.nc \
/work02/DATA/MSM.NC/MSM_CUT_125-133_29-35/OUT_0.ECAPE_NO_ENTRAINMENT_500m/ECAPE_RH_125-133_29-35_2020-07-08_09_500m_NO_ENTRAINMENT.nc \
/work02/DATA/MSM.NC/MSM_CUT_125-133_29-35/OUT_0.ECAPE_NO_ENTRAINMENT_500m/ECAPE_RH_125-133_29-35_2020-07-13_00_500m_NO_ENTRAINMENT.nc \
/work02/DATA/MSM.NC/MSM_CUT_125-133_29-35/OUT_0.ECAPE_NO_ENTRAINMENT_500m/ECAPE_RH_125-133_29-35_2020-07-19_21_500m_NO_ENTRAINMENT.nc \
/work02/DATA/MSM.NC/MSM_CUT_125-133_29-35/OUT_0.ECAPE_NO_ENTRAINMENT_500m/ECAPE_RH_125-133_29-35_2020-07-20_03_500m_NO_ENTRAINMENT.nc \
/work02/DATA/MSM.NC/MSM_CUT_125-133_29-35/OUT_0.ECAPE_NO_ENTRAINMENT_500m/ECAPE_RH_125-133_29-35_2020-07-20_21_500m_NO_ENTRAINMENT.nc \
/work02/DATA/MSM.NC/MSM_CUT_125-133_29-35/OUT_0.ECAPE_NO_ENTRAINMENT_500m/ECAPE_RH_125-133_29-35_2020-07-24_00_500m_NO_ENTRAINMENT.nc \
/work02/DATA/MSM.NC/MSM_CUT_125-133_29-35/OUT_0.ECAPE_NO_ENTRAINMENT_500m/ECAPE_RH_125-133_29-35_2020-07-25_03_500m_NO_ENTRAINMENT.nc \
/work02/DATA/MSM.NC/MSM_CUT_125-133_29-35/OUT_0.ECAPE_NO_ENTRAINMENT_500m/ECAPE_RH_125-133_29-35_2020-07-27_09_500m_NO_ENTRAINMENT.nc \
/work02/DATA/MSM.NC/MSM_CUT_125-133_29-35/OUT_0.ECAPE_NO_ENTRAINMENT_500m/ECAPE_RH_125-133_29-35_2020-07-27_12_500m_NO_ENTRAINMENT.nc \
/work02/DATA/MSM.NC/MSM_CUT_125-133_29-35/OUT_0.ECAPE_NO_ENTRAINMENT_500m/ECAPE_RH_125-133_29-35_2020-07-27_15_500m_NO_ENTRAINMENT.nc \
/work02/DATA/MSM.NC/MSM_CUT_125-133_29-35/OUT_0.ECAPE_NO_ENTRAINMENT_500m/ECAPE_RH_125-133_29-35_2020-08-05_18_500m_NO_ENTRAINMENT.nc \
/work02/DATA/MSM.NC/MSM_CUT_125-133_29-35/OUT_0.ECAPE_NO_ENTRAINMENT_500m/ECAPE_RH_125-133_29-35_2020-08-05_21_500m_NO_ENTRAINMENT.nc \
/work02/DATA/MSM.NC/MSM_CUT_125-133_29-35/OUT_0.ECAPE_NO_ENTRAINMENT_500m/ECAPE_RH_125-133_29-35_2020-08-06_00_500m_NO_ENTRAINMENT.nc \
/work02/DATA/MSM.NC/MSM_CUT_125-133_29-35/OUT_0.ECAPE_NO_ENTRAINMENT_500m/ECAPE_RH_125-133_29-35_2020-08-06_03_500m_NO_ENTRAINMENT.nc \
/work02/DATA/MSM.NC/MSM_CUT_125-133_29-35/OUT_0.ECAPE_NO_ENTRAINMENT_500m/ECAPE_RH_125-133_29-35_2020-08-06_06_500m_NO_ENTRAINMENT.nc \
/work02/DATA/MSM.NC/MSM_CUT_125-133_29-35/OUT_0.ECAPE_NO_ENTRAINMENT_500m/ECAPE_RH_125-133_29-35_2020-08-06_09_500m_NO_ENTRAINMENT.nc \
/work02/DATA/MSM.NC/MSM_CUT_125-133_29-35/OUT_0.ECAPE_NO_ENTRAINMENT_500m/ECAPE_RH_125-133_29-35_2020-08-07_06_500m_NO_ENTRAINMENT.nc \
/work02/DATA/MSM.NC/MSM_CUT_125-133_29-35/OUT_0.ECAPE_NO_ENTRAINMENT_500m/ECAPE_RH_125-133_29-35_2020-08-07_09_500m_NO_ENTRAINMENT.nc \
/work02/DATA/MSM.NC/MSM_CUT_125-133_29-35/OUT_0.ECAPE_NO_ENTRAINMENT_500m/ECAPE_RH_125-133_29-35_2020-08-08_03_500m_NO_ENTRAINMENT.nc \
/work02/DATA/MSM.NC/MSM_CUT_125-133_29-35/OUT_0.ECAPE_NO_ENTRAINMENT_500m/ECAPE_RH_125-133_29-35_2020-08-08_12_500m_NO_ENTRAINMENT.nc \
/work02/DATA/MSM.NC/MSM_CUT_125-133_29-35/OUT_0.ECAPE_NO_ENTRAINMENT_500m/ECAPE_RH_125-133_29-35_2020-08-08_15_500m_NO_ENTRAINMENT.nc \
/work02/DATA/MSM.NC/MSM_CUT_125-133_29-35/OUT_0.ECAPE_NO_ENTRAINMENT_500m/ECAPE_RH_125-133_29-35_2020-08-08_18_500m_NO_ENTRAINMENT.nc \
/work02/DATA/MSM.NC/MSM_CUT_125-133_29-35/OUT_0.ECAPE_NO_ENTRAINMENT_500m/ECAPE_RH_125-133_29-35_2020-08-10_03_500m_NO_ENTRAINMENT.nc \
/work02/DATA/MSM.NC/MSM_CUT_125-133_29-35/OUT_0.ECAPE_NO_ENTRAINMENT_500m/ECAPE_RH_125-133_29-35_2020-08-10_06_500m_NO_ENTRAINMENT.nc \
/work02/DATA/MSM.NC/MSM_CUT_125-133_29-35/OUT_0.ECAPE_NO_ENTRAINMENT_500m/ECAPE_RH_125-133_29-35_2020-08-10_09_500m_NO_ENTRAINMENT.nc \
/work02/DATA/MSM.NC/MSM_CUT_125-133_29-35/OUT_0.ECAPE_NO_ENTRAINMENT_500m/ECAPE_RH_125-133_29-35_2020-08-10_12_500m_NO_ENTRAINMENT.nc \
/work02/DATA/MSM.NC/MSM_CUT_125-133_29-35/OUT_0.ECAPE_NO_ENTRAINMENT_500m/ECAPE_RH_125-133_29-35_2020-08-11_03_500m_NO_ENTRAINMENT.nc \
/work02/DATA/MSM.NC/MSM_CUT_125-133_29-35/OUT_0.ECAPE_NO_ENTRAINMENT_500m/ECAPE_RH_125-133_29-35_2020-08-11_06_500m_NO_ENTRAINMENT.nc \
/work02/DATA/MSM.NC/MSM_CUT_125-133_29-35/OUT_0.ECAPE_NO_ENTRAINMENT_500m/ECAPE_RH_125-133_29-35_2020-08-11_09_500m_NO_ENTRAINMENT.nc \
/work02/DATA/MSM.NC/MSM_CUT_125-133_29-35/OUT_0.ECAPE_NO_ENTRAINMENT_500m/ECAPE_RH_125-133_29-35_2020-08-11_12_500m_NO_ENTRAINMENT.nc \
/work02/DATA/MSM.NC/MSM_CUT_125-133_29-35/OUT_0.ECAPE_NO_ENTRAINMENT_500m/ECAPE_RH_125-133_29-35_2020-08-11_15_500m_NO_ENTRAINMENT.nc \
/work02/DATA/MSM.NC/MSM_CUT_125-133_29-35/OUT_0.ECAPE_NO_ENTRAINMENT_500m/ECAPE_RH_125-133_29-35_2020-08-11_18_500m_NO_ENTRAINMENT.nc \
/work02/DATA/MSM.NC/MSM_CUT_125-133_29-35/OUT_0.ECAPE_NO_ENTRAINMENT_500m/ECAPE_RH_125-133_29-35_2020-08-12_00_500m_NO_ENTRAINMENT.nc \
/work02/DATA/MSM.NC/MSM_CUT_125-133_29-35/OUT_0.ECAPE_NO_ENTRAINMENT_500m/ECAPE_RH_125-133_29-35_2020-08-12_12_500m_NO_ENTRAINMENT.nc \
/work02/DATA/MSM.NC/MSM_CUT_125-133_29-35/OUT_0.ECAPE_NO_ENTRAINMENT_500m/ECAPE_RH_125-133_29-35_2020-08-12_15_500m_NO_ENTRAINMENT.nc \
/work02/DATA/MSM.NC/MSM_CUT_125-133_29-35/OUT_0.ECAPE_NO_ENTRAINMENT_500m/ECAPE_RH_125-133_29-35_2020-08-24_21_500m_NO_ENTRAINMENT.nc \
/work02/DATA/MSM.NC/MSM_CUT_125-133_29-35/OUT_0.ECAPE_NO_ENTRAINMENT_500m/ECAPE_RH_125-133_29-35_2020-08-25_00_500m_NO_ENTRAINMENT.nc \
/work02/DATA/MSM.NC/MSM_CUT_125-133_29-35/OUT_0.ECAPE_NO_ENTRAINMENT_500m/ECAPE_RH_125-133_29-35_2021-06-02_21_500m_NO_ENTRAINMENT.nc \
/work02/DATA/MSM.NC/MSM_CUT_125-133_29-35/OUT_0.ECAPE_NO_ENTRAINMENT_500m/ECAPE_RH_125-133_29-35_2021-07-03_00_500m_NO_ENTRAINMENT.nc \
/work02/DATA/MSM.NC/MSM_CUT_125-133_29-35/OUT_0.ECAPE_NO_ENTRAINMENT_500m/ECAPE_RH_125-133_29-35_2021-07-03_03_500m_NO_ENTRAINMENT.nc \
/work02/DATA/MSM.NC/MSM_CUT_125-133_29-35/OUT_0.ECAPE_NO_ENTRAINMENT_500m/ECAPE_RH_125-133_29-35_2021-07-03_09_500m_NO_ENTRAINMENT.nc \
/work02/DATA/MSM.NC/MSM_CUT_125-133_29-35/OUT_0.ECAPE_NO_ENTRAINMENT_500m/ECAPE_RH_125-133_29-35_2021-07-03_12_500m_NO_ENTRAINMENT.nc \
/work02/DATA/MSM.NC/MSM_CUT_125-133_29-35/OUT_0.ECAPE_NO_ENTRAINMENT_500m/ECAPE_RH_125-133_29-35_2021-07-03_15_500m_NO_ENTRAINMENT.nc \
/work02/DATA/MSM.NC/MSM_CUT_125-133_29-35/OUT_0.ECAPE_NO_ENTRAINMENT_500m/ECAPE_RH_125-133_29-35_2021-07-03_18_500m_NO_ENTRAINMENT.nc \
/work02/DATA/MSM.NC/MSM_CUT_125-133_29-35/OUT_0.ECAPE_NO_ENTRAINMENT_500m/ECAPE_RH_125-133_29-35_2021-07-03_21_500m_NO_ENTRAINMENT.nc \
/work02/DATA/MSM.NC/MSM_CUT_125-133_29-35/OUT_0.ECAPE_NO_ENTRAINMENT_500m/ECAPE_RH_125-133_29-35_2021-07-04_00_500m_NO_ENTRAINMENT.nc \
/work02/DATA/MSM.NC/MSM_CUT_125-133_29-35/OUT_0.ECAPE_NO_ENTRAINMENT_500m/ECAPE_RH_125-133_29-35_2021-07-04_03_500m_NO_ENTRAINMENT.nc \
/work02/DATA/MSM.NC/MSM_CUT_125-133_29-35/OUT_0.ECAPE_NO_ENTRAINMENT_500m/ECAPE_RH_125-133_29-35_2021-07-04_06_500m_NO_ENTRAINMENT.nc \
/work02/DATA/MSM.NC/MSM_CUT_125-133_29-35/OUT_0.ECAPE_NO_ENTRAINMENT_500m/ECAPE_RH_125-133_29-35_2021-07-04_09_500m_NO_ENTRAINMENT.nc \
/work02/DATA/MSM.NC/MSM_CUT_125-133_29-35/OUT_0.ECAPE_NO_ENTRAINMENT_500m/ECAPE_RH_125-133_29-35_2021-07-04_12_500m_NO_ENTRAINMENT.nc \
/work02/DATA/MSM.NC/MSM_CUT_125-133_29-35/OUT_0.ECAPE_NO_ENTRAINMENT_500m/ECAPE_RH_125-133_29-35_2021-07-04_15_500m_NO_ENTRAINMENT.nc \
/work02/DATA/MSM.NC/MSM_CUT_125-133_29-35/OUT_0.ECAPE_NO_ENTRAINMENT_500m/ECAPE_RH_125-133_29-35_2021-07-04_18_500m_NO_ENTRAINMENT.nc \
/work02/DATA/MSM.NC/MSM_CUT_125-133_29-35/OUT_0.ECAPE_NO_ENTRAINMENT_500m/ECAPE_RH_125-133_29-35_2021-07-05_03_500m_NO_ENTRAINMENT.nc \
/work02/DATA/MSM.NC/MSM_CUT_125-133_29-35/OUT_0.ECAPE_NO_ENTRAINMENT_500m/ECAPE_RH_125-133_29-35_2021-07-05_12_500m_NO_ENTRAINMENT.nc \
/work02/DATA/MSM.NC/MSM_CUT_125-133_29-35/OUT_0.ECAPE_NO_ENTRAINMENT_500m/ECAPE_RH_125-133_29-35_2021-07-05_15_500m_NO_ENTRAINMENT.nc \
/work02/DATA/MSM.NC/MSM_CUT_125-133_29-35/OUT_0.ECAPE_NO_ENTRAINMENT_500m/ECAPE_RH_125-133_29-35_2021-07-05_18_500m_NO_ENTRAINMENT.nc \
/work02/DATA/MSM.NC/MSM_CUT_125-133_29-35/OUT_0.ECAPE_NO_ENTRAINMENT_500m/ECAPE_RH_125-133_29-35_2021-07-05_21_500m_NO_ENTRAINMENT.nc \
/work02/DATA/MSM.NC/MSM_CUT_125-133_29-35/OUT_0.ECAPE_NO_ENTRAINMENT_500m/ECAPE_RH_125-133_29-35_2021-07-06_00_500m_NO_ENTRAINMENT.nc \
/work02/DATA/MSM.NC/MSM_CUT_125-133_29-35/OUT_0.ECAPE_NO_ENTRAINMENT_500m/ECAPE_RH_125-133_29-35_2021-07-06_03_500m_NO_ENTRAINMENT.nc \
/work02/DATA/MSM.NC/MSM_CUT_125-133_29-35/OUT_0.ECAPE_NO_ENTRAINMENT_500m/ECAPE_RH_125-133_29-35_2021-07-06_06_500m_NO_ENTRAINMENT.nc \
/work02/DATA/MSM.NC/MSM_CUT_125-133_29-35/OUT_0.ECAPE_NO_ENTRAINMENT_500m/ECAPE_RH_125-133_29-35_2021-07-06_09_500m_NO_ENTRAINMENT.nc \
/work02/DATA/MSM.NC/MSM_CUT_125-133_29-35/OUT_0.ECAPE_NO_ENTRAINMENT_500m/ECAPE_RH_125-133_29-35_2021-07-06_12_500m_NO_ENTRAINMENT.nc \
/work02/DATA/MSM.NC/MSM_CUT_125-133_29-35/OUT_0.ECAPE_NO_ENTRAINMENT_500m/ECAPE_RH_125-133_29-35_2021-07-06_15_500m_NO_ENTRAINMENT.nc \
/work02/DATA/MSM.NC/MSM_CUT_125-133_29-35/OUT_0.ECAPE_NO_ENTRAINMENT_500m/ECAPE_RH_125-133_29-35_2021-07-06_18_500m_NO_ENTRAINMENT.nc \
/work02/DATA/MSM.NC/MSM_CUT_125-133_29-35/OUT_0.ECAPE_NO_ENTRAINMENT_500m/ECAPE_RH_125-133_29-35_2021-07-06_21_500m_NO_ENTRAINMENT.nc \
/work02/DATA/MSM.NC/MSM_CUT_125-133_29-35/OUT_0.ECAPE_NO_ENTRAINMENT_500m/ECAPE_RH_125-133_29-35_2021-07-07_03_500m_NO_ENTRAINMENT.nc \
/work02/DATA/MSM.NC/MSM_CUT_125-133_29-35/OUT_0.ECAPE_NO_ENTRAINMENT_500m/ECAPE_RH_125-133_29-35_2021-07-07_06_500m_NO_ENTRAINMENT.nc \
/work02/DATA/MSM.NC/MSM_CUT_125-133_29-35/OUT_0.ECAPE_NO_ENTRAINMENT_500m/ECAPE_RH_125-133_29-35_2021-07-07_09_500m_NO_ENTRAINMENT.nc \
/work02/DATA/MSM.NC/MSM_CUT_125-133_29-35/OUT_0.ECAPE_NO_ENTRAINMENT_500m/ECAPE_RH_125-133_29-35_2021-07-07_12_500m_NO_ENTRAINMENT.nc \
/work02/DATA/MSM.NC/MSM_CUT_125-133_29-35/OUT_0.ECAPE_NO_ENTRAINMENT_500m/ECAPE_RH_125-133_29-35_2021-07-08_00_500m_NO_ENTRAINMENT.nc \
/work02/DATA/MSM.NC/MSM_CUT_125-133_29-35/OUT_0.ECAPE_NO_ENTRAINMENT_500m/ECAPE_RH_125-133_29-35_2021-07-08_03_500m_NO_ENTRAINMENT.nc \
/work02/DATA/MSM.NC/MSM_CUT_125-133_29-35/OUT_0.ECAPE_NO_ENTRAINMENT_500m/ECAPE_RH_125-133_29-35_2021-07-09_15_500m_NO_ENTRAINMENT.nc \
/work02/DATA/MSM.NC/MSM_CUT_125-133_29-35/OUT_0.ECAPE_NO_ENTRAINMENT_500m/ECAPE_RH_125-133_29-35_2021-07-10_18_500m_NO_ENTRAINMENT.nc \
/work02/DATA/MSM.NC/MSM_CUT_125-133_29-35/OUT_0.ECAPE_NO_ENTRAINMENT_500m/ECAPE_RH_125-133_29-35_2021-07-11_12_500m_NO_ENTRAINMENT.nc \
/work02/DATA/MSM.NC/MSM_CUT_125-133_29-35/OUT_0.ECAPE_NO_ENTRAINMENT_500m/ECAPE_RH_125-133_29-35_2021-07-11_15_500m_NO_ENTRAINMENT.nc \
/work02/DATA/MSM.NC/MSM_CUT_125-133_29-35/OUT_0.ECAPE_NO_ENTRAINMENT_500m/ECAPE_RH_125-133_29-35_2021-08-21_09_500m_NO_ENTRAINMENT.nc \
/work02/DATA/MSM.NC/MSM_CUT_125-133_29-35/OUT_0.ECAPE_NO_ENTRAINMENT_500m/ECAPE_RH_125-133_29-35_2021-08-23_15_500m_NO_ENTRAINMENT.nc \
/work02/DATA/MSM.NC/MSM_CUT_125-133_29-35/OUT_0.ECAPE_NO_ENTRAINMENT_500m/ECAPE_RH_125-133_29-35_2021-08-23_21_500m_NO_ENTRAINMENT.nc \
/work02/DATA/MSM.NC/MSM_CUT_125-133_29-35/OUT_0.ECAPE_NO_ENTRAINMENT_500m/ECAPE_RH_125-133_29-35_2021-08-24_00_500m_NO_ENTRAINMENT.nc \
/work02/DATA/MSM.NC/MSM_CUT_125-133_29-35/OUT_0.ECAPE_NO_ENTRAINMENT_500m/ECAPE_RH_125-133_29-35_2021-08-24_21_500m_NO_ENTRAINMENT.nc \
/work02/DATA/MSM.NC/MSM_CUT_125-133_29-35/OUT_0.ECAPE_NO_ENTRAINMENT_500m/ECAPE_RH_125-133_29-35_2021-08-25_00_500m_NO_ENTRAINMENT.nc \
/work02/DATA/MSM.NC/MSM_CUT_125-133_29-35/OUT_0.ECAPE_NO_ENTRAINMENT_500m/ECAPE_RH_125-133_29-35_2021-08-25_03_500m_NO_ENTRAINMENT.nc \
/work02/DATA/MSM.NC/MSM_CUT_125-133_29-35/OUT_0.ECAPE_NO_ENTRAINMENT_500m/ECAPE_RH_125-133_29-35_2021-08-25_06_500m_NO_ENTRAINMENT.nc \
/work02/DATA/MSM.NC/MSM_CUT_125-133_29-35/OUT_0.ECAPE_NO_ENTRAINMENT_500m/ECAPE_RH_125-133_29-35_2021-08-25_09_500m_NO_ENTRAINMENT.nc \
/work02/DATA/MSM.NC/MSM_CUT_125-133_29-35/OUT_0.ECAPE_NO_ENTRAINMENT_500m/ECAPE_RH_125-133_29-35_2021-08-25_21_500m_NO_ENTRAINMENT.nc \
/work02/DATA/MSM.NC/MSM_CUT_125-133_29-35/OUT_0.ECAPE_NO_ENTRAINMENT_500m/ECAPE_RH_125-133_29-35_2022-06-22_18_500m_NO_ENTRAINMENT.nc \
/work02/DATA/MSM.NC/MSM_CUT_125-133_29-35/OUT_0.ECAPE_NO_ENTRAINMENT_500m/ECAPE_RH_125-133_29-35_2022-06-22_21_500m_NO_ENTRAINMENT.nc \
/work02/DATA/MSM.NC/MSM_CUT_125-133_29-35/OUT_0.ECAPE_NO_ENTRAINMENT_500m/ECAPE_RH_125-133_29-35_2022-06-23_00_500m_NO_ENTRAINMENT.nc \
/work02/DATA/MSM.NC/MSM_CUT_125-133_29-35/OUT_0.ECAPE_NO_ENTRAINMENT_500m/ECAPE_RH_125-133_29-35_2022-06-23_03_500m_NO_ENTRAINMENT.nc \
/work02/DATA/MSM.NC/MSM_CUT_125-133_29-35/OUT_0.ECAPE_NO_ENTRAINMENT_500m/ECAPE_RH_125-133_29-35_2022-06-23_06_500m_NO_ENTRAINMENT.nc \
/work02/DATA/MSM.NC/MSM_CUT_125-133_29-35/OUT_0.ECAPE_NO_ENTRAINMENT_500m/ECAPE_RH_125-133_29-35_2022-06-23_09_500m_NO_ENTRAINMENT.nc \
/work02/DATA/MSM.NC/MSM_CUT_125-133_29-35/OUT_0.ECAPE_NO_ENTRAINMENT_500m/ECAPE_RH_125-133_29-35_2022-06-23_12_500m_NO_ENTRAINMENT.nc \
/work02/DATA/MSM.NC/MSM_CUT_125-133_29-35/OUT_0.ECAPE_NO_ENTRAINMENT_500m/ECAPE_RH_125-133_29-35_2022-06-23_15_500m_NO_ENTRAINMENT.nc \
/work02/DATA/MSM.NC/MSM_CUT_125-133_29-35/OUT_0.ECAPE_NO_ENTRAINMENT_500m/ECAPE_RH_125-133_29-35_2022-06-23_21_500m_NO_ENTRAINMENT.nc \
/work02/DATA/MSM.NC/MSM_CUT_125-133_29-35/OUT_0.ECAPE_NO_ENTRAINMENT_500m/ECAPE_RH_125-133_29-35_2022-06-24_00_500m_NO_ENTRAINMENT.nc \
/work02/DATA/MSM.NC/MSM_CUT_125-133_29-35/OUT_0.ECAPE_NO_ENTRAINMENT_500m/ECAPE_RH_125-133_29-35_2022-06-24_03_500m_NO_ENTRAINMENT.nc \
/work02/DATA/MSM.NC/MSM_CUT_125-133_29-35/OUT_0.ECAPE_NO_ENTRAINMENT_500m/ECAPE_RH_125-133_29-35_2022-06-24_12_500m_NO_ENTRAINMENT.nc \
/work02/DATA/MSM.NC/MSM_CUT_125-133_29-35/OUT_0.ECAPE_NO_ENTRAINMENT_500m/ECAPE_RH_125-133_29-35_2022-06-24_15_500m_NO_ENTRAINMENT.nc \
/work02/DATA/MSM.NC/MSM_CUT_125-133_29-35/OUT_0.ECAPE_NO_ENTRAINMENT_500m/ECAPE_RH_125-133_29-35_2022-06-25_03_500m_NO_ENTRAINMENT.nc \
/work02/DATA/MSM.NC/MSM_CUT_125-133_29-35/OUT_0.ECAPE_NO_ENTRAINMENT_500m/ECAPE_RH_125-133_29-35_2022-06-25_15_500m_NO_ENTRAINMENT.nc \
/work02/DATA/MSM.NC/MSM_CUT_125-133_29-35/OUT_0.ECAPE_NO_ENTRAINMENT_500m/ECAPE_RH_125-133_29-35_2022-07-07_21_500m_NO_ENTRAINMENT.nc \
/work02/DATA/MSM.NC/MSM_CUT_125-133_29-35/OUT_0.ECAPE_NO_ENTRAINMENT_500m/ECAPE_RH_125-133_29-35_2022-07-08_03_500m_NO_ENTRAINMENT.nc \
/work02/DATA/MSM.NC/MSM_CUT_125-133_29-35/OUT_0.ECAPE_NO_ENTRAINMENT_500m/ECAPE_RH_125-133_29-35_2022-07-13_18_500m_NO_ENTRAINMENT.nc \
/work02/DATA/MSM.NC/MSM_CUT_125-133_29-35/OUT_0.ECAPE_NO_ENTRAINMENT_500m/ECAPE_RH_125-133_29-35_2022-07-13_21_500m_NO_ENTRAINMENT.nc \
/work02/DATA/MSM.NC/MSM_CUT_125-133_29-35/OUT_0.ECAPE_NO_ENTRAINMENT_500m/ECAPE_RH_125-133_29-35_2022-07-14_00_500m_NO_ENTRAINMENT.nc \
/work02/DATA/MSM.NC/MSM_CUT_125-133_29-35/OUT_0.ECAPE_NO_ENTRAINMENT_500m/ECAPE_RH_125-133_29-35_2022-07-17_12_500m_NO_ENTRAINMENT.nc \
/work02/DATA/MSM.NC/MSM_CUT_125-133_29-35/OUT_0.ECAPE_NO_ENTRAINMENT_500m/ECAPE_RH_125-133_29-35_2022-07-17_21_500m_NO_ENTRAINMENT.nc \
/work02/DATA/MSM.NC/MSM_CUT_125-133_29-35/OUT_0.ECAPE_NO_ENTRAINMENT_500m/ECAPE_RH_125-133_29-35_2022-07-18_00_500m_NO_ENTRAINMENT.nc \
/work02/DATA/MSM.NC/MSM_CUT_125-133_29-35/OUT_0.ECAPE_NO_ENTRAINMENT_500m/ECAPE_RH_125-133_29-35_2022-07-19_15_500m_NO_ENTRAINMENT.nc \
/work02/DATA/MSM.NC/MSM_CUT_125-133_29-35/OUT_0.ECAPE_NO_ENTRAINMENT_500m/ECAPE_RH_125-133_29-35_2022-07-20_00_500m_NO_ENTRAINMENT.nc \
/work02/DATA/MSM.NC/MSM_CUT_125-133_29-35/OUT_0.ECAPE_NO_ENTRAINMENT_500m/ECAPE_RH_125-133_29-35_2022-07-20_03_500m_NO_ENTRAINMENT.nc \
/work02/DATA/MSM.NC/MSM_CUT_125-133_29-35/OUT_0.ECAPE_NO_ENTRAINMENT_500m/ECAPE_RH_125-133_29-35_2022-07-20_06_500m_NO_ENTRAINMENT.nc \
/work02/DATA/MSM.NC/MSM_CUT_125-133_29-35/OUT_0.ECAPE_NO_ENTRAINMENT_500m/ECAPE_RH_125-133_29-35_2022-07-20_09_500m_NO_ENTRAINMENT.nc \
/work02/DATA/MSM.NC/MSM_CUT_125-133_29-35/OUT_0.ECAPE_NO_ENTRAINMENT_500m/ECAPE_RH_125-133_29-35_2022-07-20_12_500m_NO_ENTRAINMENT.nc \
/work02/DATA/MSM.NC/MSM_CUT_125-133_29-35/OUT_0.ECAPE_NO_ENTRAINMENT_500m/ECAPE_RH_125-133_29-35_2022-07-20_15_500m_NO_ENTRAINMENT.nc \
/work02/DATA/MSM.NC/MSM_CUT_125-133_29-35/OUT_0.ECAPE_NO_ENTRAINMENT_500m/ECAPE_RH_125-133_29-35_2022-08-01_00_500m_NO_ENTRAINMENT.nc \
/work02/DATA/MSM.NC/MSM_CUT_125-133_29-35/OUT_0.ECAPE_NO_ENTRAINMENT_500m/ECAPE_RH_125-133_29-35_2022-08-07_09_500m_NO_ENTRAINMENT.nc \
/work02/DATA/MSM.NC/MSM_CUT_125-133_29-35/OUT_0.ECAPE_NO_ENTRAINMENT_500m/ECAPE_RH_125-133_29-35_2022-08-07_12_500m_NO_ENTRAINMENT.nc \
/work02/DATA/MSM.NC/MSM_CUT_125-133_29-35/OUT_0.ECAPE_NO_ENTRAINMENT_500m/ECAPE_RH_125-133_29-35_2022-08-13_18_500m_NO_ENTRAINMENT.nc \
/work02/DATA/MSM.NC/MSM_CUT_125-133_29-35/OUT_0.ECAPE_NO_ENTRAINMENT_500m/ECAPE_RH_125-133_29-35_2022-08-14_15_500m_NO_ENTRAINMENT.nc \
/work02/DATA/MSM.NC/MSM_CUT_125-133_29-35/OUT_0.ECAPE_NO_ENTRAINMENT_500m/ECAPE_RH_125-133_29-35_2022-08-15_06_500m_NO_ENTRAINMENT.nc \
/work02/DATA/MSM.NC/MSM_CUT_125-133_29-35/OUT_0.ECAPE_NO_ENTRAINMENT_500m/ECAPE_RH_125-133_29-35_2022-08-18_21_500m_NO_ENTRAINMENT.nc \
/work02/DATA/MSM.NC/MSM_CUT_125-133_29-35/OUT_0.ECAPE_NO_ENTRAINMENT_500m/ECAPE_RH_125-133_29-35_2022-08-19_00_500m_NO_ENTRAINMENT.nc \
/work02/DATA/MSM.NC/MSM_CUT_125-133_29-35/OUT_0.ECAPE_NO_ENTRAINMENT_500m/ECAPE_RH_125-133_29-35_2022-08-19_03_500m_NO_ENTRAINMENT.nc \
/work02/DATA/MSM.NC/MSM_CUT_125-133_29-35/OUT_0.ECAPE_NO_ENTRAINMENT_500m/ECAPE_RH_125-133_29-35_2022-08-19_06_500m_NO_ENTRAINMENT.nc \
/work02/DATA/MSM.NC/MSM_CUT_125-133_29-35/OUT_0.ECAPE_NO_ENTRAINMENT_500m/ECAPE_RH_125-133_29-35_2022-08-19_09_500m_NO_ENTRAINMENT.nc \
/work02/DATA/MSM.NC/MSM_CUT_125-133_29-35/OUT_0.ECAPE_NO_ENTRAINMENT_500m/ECAPE_RH_125-133_29-35_2022-08-19_12_500m_NO_ENTRAINMENT.nc \
/work02/DATA/MSM.NC/MSM_CUT_125-133_29-35/OUT_0.ECAPE_NO_ENTRAINMENT_500m/ECAPE_RH_125-133_29-35_2022-08-19_15_500m_NO_ENTRAINMENT.nc \
/work02/DATA/MSM.NC/MSM_CUT_125-133_29-35/OUT_0.ECAPE_NO_ENTRAINMENT_500m/ECAPE_RH_125-133_29-35_2022-08-19_18_500m_NO_ENTRAINMENT.nc \
/work02/DATA/MSM.NC/MSM_CUT_125-133_29-35/OUT_0.ECAPE_NO_ENTRAINMENT_500m/ECAPE_RH_125-133_29-35_2022-08-19_21_500m_NO_ENTRAINMENT.nc \
/work02/DATA/MSM.NC/MSM_CUT_125-133_29-35/OUT_0.ECAPE_NO_ENTRAINMENT_500m/ECAPE_RH_125-133_29-35_2023-06-26_21_500m_NO_ENTRAINMENT.nc \
/work02/DATA/MSM.NC/MSM_CUT_125-133_29-35/OUT_0.ECAPE_NO_ENTRAINMENT_500m/ECAPE_RH_125-133_29-35_2023-06-27_12_500m_NO_ENTRAINMENT.nc \
/work02/DATA/MSM.NC/MSM_CUT_125-133_29-35/OUT_0.ECAPE_NO_ENTRAINMENT_500m/ECAPE_RH_125-133_29-35_2023-06-28_00_500m_NO_ENTRAINMENT.nc \
/work02/DATA/MSM.NC/MSM_CUT_125-133_29-35/OUT_0.ECAPE_NO_ENTRAINMENT_500m/ECAPE_RH_125-133_29-35_2023-06-28_03_500m_NO_ENTRAINMENT.nc \
/work02/DATA/MSM.NC/MSM_CUT_125-133_29-35/OUT_0.ECAPE_NO_ENTRAINMENT_500m/ECAPE_RH_125-133_29-35_2023-06-29_03_500m_NO_ENTRAINMENT.nc \
/work02/DATA/MSM.NC/MSM_CUT_125-133_29-35/OUT_0.ECAPE_NO_ENTRAINMENT_500m/ECAPE_RH_125-133_29-35_2023-07-01_21_500m_NO_ENTRAINMENT.nc \
/work02/DATA/MSM.NC/MSM_CUT_125-133_29-35/OUT_0.ECAPE_NO_ENTRAINMENT_500m/ECAPE_RH_125-133_29-35_2023-07-02_00_500m_NO_ENTRAINMENT.nc \
/work02/DATA/MSM.NC/MSM_CUT_125-133_29-35/OUT_0.ECAPE_NO_ENTRAINMENT_500m/ECAPE_RH_125-133_29-35_2023-07-02_03_500m_NO_ENTRAINMENT.nc \
/work02/DATA/MSM.NC/MSM_CUT_125-133_29-35/OUT_0.ECAPE_NO_ENTRAINMENT_500m/ECAPE_RH_125-133_29-35_2023-07-03_15_500m_NO_ENTRAINMENT.nc \
/work02/DATA/MSM.NC/MSM_CUT_125-133_29-35/OUT_0.ECAPE_NO_ENTRAINMENT_500m/ECAPE_RH_125-133_29-35_2023-07-04_00_500m_NO_ENTRAINMENT.nc \
/work02/DATA/MSM.NC/MSM_CUT_125-133_29-35/OUT_0.ECAPE_NO_ENTRAINMENT_500m/ECAPE_RH_125-133_29-35_2023-07-04_09_500m_NO_ENTRAINMENT.nc \
/work02/DATA/MSM.NC/MSM_CUT_125-133_29-35/OUT_0.ECAPE_NO_ENTRAINMENT_500m/ECAPE_RH_125-133_29-35_2023-07-04_12_500m_NO_ENTRAINMENT.nc \
/work02/DATA/MSM.NC/MSM_CUT_125-133_29-35/OUT_0.ECAPE_NO_ENTRAINMENT_500m/ECAPE_RH_125-133_29-35_2023-07-04_15_500m_NO_ENTRAINMENT.nc \
/work02/DATA/MSM.NC/MSM_CUT_125-133_29-35/OUT_0.ECAPE_NO_ENTRAINMENT_500m/ECAPE_RH_125-133_29-35_2023-07-07_00_500m_NO_ENTRAINMENT.nc \
/work02/DATA/MSM.NC/MSM_CUT_125-133_29-35/OUT_0.ECAPE_NO_ENTRAINMENT_500m/ECAPE_RH_125-133_29-35_2023-07-07_03_500m_NO_ENTRAINMENT.nc \
/work02/DATA/MSM.NC/MSM_CUT_125-133_29-35/OUT_0.ECAPE_NO_ENTRAINMENT_500m/ECAPE_RH_125-133_29-35_2023-07-07_06_500m_NO_ENTRAINMENT.nc \
/work02/DATA/MSM.NC/MSM_CUT_125-133_29-35/OUT_0.ECAPE_NO_ENTRAINMENT_500m/ECAPE_RH_125-133_29-35_2023-07-07_12_500m_NO_ENTRAINMENT.nc \
/work02/DATA/MSM.NC/MSM_CUT_125-133_29-35/OUT_0.ECAPE_NO_ENTRAINMENT_500m/ECAPE_RH_125-133_29-35_2023-07-07_15_500m_NO_ENTRAINMENT.nc \
/work02/DATA/MSM.NC/MSM_CUT_125-133_29-35/OUT_0.ECAPE_NO_ENTRAINMENT_500m/ECAPE_RH_125-133_29-35_2023-07-10_03_500m_NO_ENTRAINMENT.nc \
/work02/DATA/MSM.NC/MSM_CUT_125-133_29-35/OUT_0.ECAPE_NO_ENTRAINMENT_500m/ECAPE_RH_125-133_29-35_2023-07-10_06_500m_NO_ENTRAINMENT.nc \
/work02/DATA/MSM.NC/MSM_CUT_125-133_29-35/OUT_0.ECAPE_NO_ENTRAINMENT_500m/ECAPE_RH_125-133_29-35_2023-07-10_12_500m_NO_ENTRAINMENT.nc \
/work02/DATA/MSM.NC/MSM_CUT_125-133_29-35/OUT_0.ECAPE_NO_ENTRAINMENT_500m/ECAPE_RH_125-133_29-35_2023-07-10_15_500m_NO_ENTRAINMENT.nc \
/work02/DATA/MSM.NC/MSM_CUT_125-133_29-35/OUT_0.ECAPE_NO_ENTRAINMENT_500m/ECAPE_RH_125-133_29-35_2023-07-10_18_500m_NO_ENTRAINMENT.nc \
/work02/DATA/MSM.NC/MSM_CUT_125-133_29-35/OUT_0.ECAPE_NO_ENTRAINMENT_500m/ECAPE_RH_125-133_29-35_2023-07-11_03_500m_NO_ENTRAINMENT.nc \
/work02/DATA/MSM.NC/MSM_CUT_125-133_29-35/OUT_0.ECAPE_NO_ENTRAINMENT_500m/ECAPE_RH_125-133_29-35_2023-07-11_09_500m_NO_ENTRAINMENT.nc \
/work02/DATA/MSM.NC/MSM_CUT_125-133_29-35/OUT_0.ECAPE_NO_ENTRAINMENT_500m/ECAPE_RH_125-133_29-35_2023-07-11_12_500m_NO_ENTRAINMENT.nc \
/work02/DATA/MSM.NC/MSM_CUT_125-133_29-35/OUT_0.ECAPE_NO_ENTRAINMENT_500m/ECAPE_RH_125-133_29-35_2023-07-12_03_500m_NO_ENTRAINMENT.nc \
/work02/DATA/MSM.NC/MSM_CUT_125-133_29-35/OUT_0.ECAPE_NO_ENTRAINMENT_500m/ECAPE_RH_125-133_29-35_2023-07-12_06_500m_NO_ENTRAINMENT.nc \
/work02/DATA/MSM.NC/MSM_CUT_125-133_29-35/OUT_0.ECAPE_NO_ENTRAINMENT_500m/ECAPE_RH_125-133_29-35_2023-07-12_09_500m_NO_ENTRAINMENT.nc \
/work02/DATA/MSM.NC/MSM_CUT_125-133_29-35/OUT_0.ECAPE_NO_ENTRAINMENT_500m/ECAPE_RH_125-133_29-35_2023-07-12_12_500m_NO_ENTRAINMENT.nc \
/work02/DATA/MSM.NC/MSM_CUT_125-133_29-35/OUT_0.ECAPE_NO_ENTRAINMENT_500m/ECAPE_RH_125-133_29-35_2023-07-12_15_500m_NO_ENTRAINMENT.nc \
/work02/DATA/MSM.NC/MSM_CUT_125-133_29-35/OUT_0.ECAPE_NO_ENTRAINMENT_500m/ECAPE_RH_125-133_29-35_2023-07-12_18_500m_NO_ENTRAINMENT.nc \
/work02/DATA/MSM.NC/MSM_CUT_125-133_29-35/OUT_0.ECAPE_NO_ENTRAINMENT_500m/ECAPE_RH_125-133_29-35_2023-07-12_21_500m_NO_ENTRAINMENT.nc \
/work02/DATA/MSM.NC/MSM_CUT_125-133_29-35/OUT_0.ECAPE_NO_ENTRAINMENT_500m/ECAPE_RH_125-133_29-35_2023-07-13_00_500m_NO_ENTRAINMENT.nc \
/work02/DATA/MSM.NC/MSM_CUT_125-133_29-35/OUT_0.ECAPE_NO_ENTRAINMENT_500m/ECAPE_RH_125-133_29-35_2023-07-13_15_500m_NO_ENTRAINMENT.nc \
/work02/DATA/MSM.NC/MSM_CUT_125-133_29-35/OUT_0.ECAPE_NO_ENTRAINMENT_500m/ECAPE_RH_125-133_29-35_2023-07-14_18_500m_NO_ENTRAINMENT.nc \
/work02/DATA/MSM.NC/MSM_CUT_125-133_29-35/OUT_0.ECAPE_NO_ENTRAINMENT_500m/ECAPE_RH_125-133_29-35_2023-07-18_09_500m_NO_ENTRAINMENT.nc \
/work02/DATA/MSM.NC/MSM_CUT_125-133_29-35/OUT_0.ECAPE_NO_ENTRAINMENT_500m/ECAPE_RH_125-133_29-35_2023-08-18_03_500m_NO_ENTRAINMENT.nc \
/work02/DATA/MSM.NC/MSM_CUT_125-133_29-35/OUT_0.ECAPE_NO_ENTRAINMENT_500m/ECAPE_RH_125-133_29-35_2023-08-23_18_500m_NO_ENTRAINMENT.nc \
