netcdf \20220705_MESHIMA_MSM-S_HINTPL {
dimensions:
	time = UNLIMITED ; // (24 currently)
	lon = 1 ;
	lat = 1 ;
variables:
	float time(time) ;
		time:standard_name = "time" ;
		time:long_name = "time" ;
		time:units = "hours since 2022-07-05 00:00:00+00:00" ;
		time:calendar = "standard" ;
		time:axis = "T" ;
	double lon(lon) ;
		lon:standard_name = "longitude" ;
		lon:long_name = "longitude" ;
		lon:units = "degrees_east" ;
		lon:axis = "X" ;
	double lat(lat) ;
		lat:standard_name = "latitude" ;
		lat:long_name = "latitude" ;
		lat:units = "degrees_north" ;
		lat:axis = "Y" ;
	short psea(time, lat, lon) ;
		psea:standard_name = "air_pressure" ;
		psea:long_name = "sea level pressure" ;
		psea:units = "Pa" ;
		psea:add_offset = 95000. ;
		psea:scale_factor = 0.4587155879 ;
	short sp(time, lat, lon) ;
		sp:standard_name = "surface_air_pressure" ;
		sp:long_name = "surface air pressure" ;
		sp:units = "Pa" ;
		sp:add_offset = 80000. ;
		sp:scale_factor = 0.9174311758 ;
	short u(time, lat, lon) ;
		u:standard_name = "eastward_wind" ;
		u:long_name = "eastward component of wind" ;
		u:units = "m/s" ;
		u:add_offset = 0. ;
		u:scale_factor = 0.006116208155 ;
	short v(time, lat, lon) ;
		v:standard_name = "northward_wind" ;
		v:long_name = "northward component of wind" ;
		v:units = "m/s" ;
		v:add_offset = 0. ;
		v:scale_factor = 0.006116208155 ;
	short temp(time, lat, lon) ;
		temp:standard_name = "air_temperature" ;
		temp:long_name = "temperature" ;
		temp:units = "K" ;
		temp:add_offset = 255.4004974 ;
		temp:scale_factor = 0.002613491379 ;
	short rh(time, lat, lon) ;
		rh:standard_name = "relative_humidity" ;
		rh:long_name = "relative humidity" ;
		rh:units = "%" ;
		rh:add_offset = 75. ;
		rh:scale_factor = 0.002293577883 ;
	short r1h(time, lat, lon) ;
		r1h:standard_name = "rainfall_rate" ;
		r1h:long_name = "rainfall in 1 hour" ;
		r1h:units = "mm/h" ;
		r1h:add_offset = 200. ;
		r1h:scale_factor = 0.006116208155 ;
	short ncld_upper(time, lat, lon) ;
		ncld_upper:long_name = "upper-level cloudiness" ;
		ncld_upper:units = "%" ;
		ncld_upper:add_offset = 50. ;
		ncld_upper:scale_factor = 0.001666666591 ;
	short ncld_mid(time, lat, lon) ;
		ncld_mid:long_name = "mid-level cloudiness" ;
		ncld_mid:units = "%" ;
		ncld_mid:add_offset = 50. ;
		ncld_mid:scale_factor = 0.001666666591 ;
	short ncld_low(time, lat, lon) ;
		ncld_low:long_name = "low-level cloudiness" ;
		ncld_low:units = "%" ;
		ncld_low:add_offset = 50. ;
		ncld_low:scale_factor = 0.001666666591 ;
	short ncld(time, lat, lon) ;
		ncld:standard_name = "cloud_area_fraction" ;
		ncld:long_name = "cloud amount" ;
		ncld:units = "%" ;
		ncld:add_offset = 50. ;
		ncld:scale_factor = 0.001666666591 ;
	short dswrf(time, lat, lon) ;
		dswrf:standard_name = "surface_net_downward_shortwave_flux" ;
		dswrf:long_name = "Downward Short-Wave Radiation Flux" ;
		dswrf:units = "W/m^2" ;
		dswrf:add_offset = 665. ;
		dswrf:scale_factor = 0.0205 ;

// global attributes:
		:CDI = "Climate Data Interface version 1.9.10 (https://mpimet.mpg.de/cdi)" ;
		:Conventions = "CF-1.0" ;
		:history = "Wed Nov 30 22:36:37 2022: cdo -remapbil,lon=128.350833333_lat=31.9980555556 /work01/DATA/MSM/MSM-S/2022/0705.nc OUT_NC_MESHIMA/20220705_MESHIMA_MSM-S_HINTPL.nc\n",
			"created by create_1daync_msm_s.rb  2022-07-06" ;
		:CDO = "Climate Data Operators version 1.9.10 (https://mpimet.mpg.de/cdo)" ;
}
