%!PS-Adobe-3.0 EPSF-3.0
%%Creator: cairo 1.12.16 (http://cairographics.org)
%%CreationDate: Mon Nov  7 16:12:12 2022
%%Pages: 1
%%DocumentData: Clean7Bit
%%LanguageLevel: 2
%%BoundingBox: 0 0 612 792
%%EndComments
%%BeginProlog
save
50 dict begin
/q { gsave } bind def
/Q { grestore } bind def
/cm { 6 array astore concat } bind def
/w { setlinewidth } bind def
/J { setlinecap } bind def
/j { setlinejoin } bind def
/M { setmiterlimit } bind def
/d { setdash } bind def
/m { moveto } bind def
/l { lineto } bind def
/c { curveto } bind def
/h { closepath } bind def
/re { exch dup neg 3 1 roll 5 3 roll moveto 0 rlineto
      0 exch rlineto 0 rlineto closepath } bind def
/S { stroke } bind def
/f { fill } bind def
/f* { eofill } bind def
/n { newpath } bind def
/W { clip } bind def
/W* { eoclip } bind def
/BT { } bind def
/ET { } bind def
/pdfmark where { pop globaldict /?pdfmark /exec load put }
    { globaldict begin /?pdfmark /pop load def /pdfmark
    /cleartomark load def end } ifelse
/BDC { mark 3 1 roll /BDC pdfmark } bind def
/EMC { mark /EMC pdfmark } bind def
/cairo_store_point { /cairo_point_y exch def /cairo_point_x exch def } def
/Tj { show currentpoint cairo_store_point } bind def
/TJ {
  {
    dup
    type /stringtype eq
    { show } { -0.001 mul 0 cairo_font_matrix dtransform rmoveto } ifelse
  } forall
  currentpoint cairo_store_point
} bind def
/cairo_selectfont { cairo_font_matrix aload pop pop pop 0 0 6 array astore
    cairo_font exch selectfont cairo_point_x cairo_point_y moveto } bind def
/Tf { pop /cairo_font exch def /cairo_font_matrix where
      { pop cairo_selectfont } if } bind def
/Td { matrix translate cairo_font_matrix matrix concatmatrix dup
      /cairo_font_matrix exch def dup 4 get exch 5 get cairo_store_point
      /cairo_font where { pop cairo_selectfont } if } bind def
/Tm { 2 copy 8 2 roll 6 array astore /cairo_font_matrix exch def
      cairo_store_point /cairo_font where { pop cairo_selectfont } if } bind def
/g { setgray } bind def
/rg { setrgbcolor } bind def
/d1 { setcachedevice } bind def
%%EndProlog
%%Page: 1 1
%%BeginPageSetup
%%PageBoundingBox: 0 0 612 792
%%EndPageSetup
q 0 0 612 792 rectclip q
1 g
0 0 612 792 rectfill
0 g
1.5 w
1 J
1 j
[] 0.0 d
10 M 80.602 728.285 479.691 -664.57 re S
1.25 w
499.492 63.715 m 499.484 87.449 l 453.387 111.184 l 426.754 134.918 l 422.598
 158.652 l 331.789 206.125 l 172.852 253.594 l 159.855 348.531 l 179.094
 443.469 l 134.121 538.406 l 219.93 633.348 l 319.844 728.285 l S
1 g
500.879 66.141 m 499.492 66.516 l 498.105 66.141 l 497.09 65.113 l 496.719
 63.715 l 502.266 63.715 l 501.895 65.113 l 500.879 66.141 l f
0 g
500.879 66.141 m 499.492 66.516 l 498.105 66.141 l 497.09 65.113 l 496.719
 63.715 l S
502.266 63.715 m 501.895 65.113 l 500.879 66.141 l S
1 g
500.871 89.875 m 499.484 90.25 l 498.098 89.875 l 497.082 88.848 l 496.711
 87.449 l 497.082 86.051 l 498.098 85.027 l 499.484 84.652 l 500.871 85.027
 l 501.887 86.051 l 502.258 87.449 l 501.887 88.848 l 500.871 89.875 l f
0 g
500.871 89.875 m 499.484 90.25 l 498.098 89.875 l 497.082 88.848 l 496.711
 87.449 l 497.082 86.051 l 498.098 85.027 l 499.484 84.652 l 500.871 85.027
 l 501.887 86.051 l 502.258 87.449 l 501.887 88.848 l 500.871 89.875 l S
1 g
454.773 113.609 m 453.387 113.984 l 452 113.609 l 450.984 112.586 l 450.613
 111.184 l 450.984 109.785 l 452 108.762 l 453.387 108.387 l 454.773 108.762
 l 455.789 109.785 l 456.16 111.184 l 455.789 112.586 l 454.773 113.609 
l f
0 g
454.773 113.609 m 453.387 113.984 l 452 113.609 l 450.984 112.586 l 450.613
 111.184 l 450.984 109.785 l 452 108.762 l 453.387 108.387 l 454.773 108.762
 l 455.789 109.785 l 456.16 111.184 l 455.789 112.586 l 454.773 113.609 
l S
1 g
428.141 137.344 m 426.754 137.719 l 425.367 137.344 l 424.352 136.32 l 
423.98 134.918 l 424.352 133.52 l 425.367 132.496 l 426.754 132.121 l 428.141
 132.496 l 429.156 133.52 l 429.527 134.918 l 429.156 136.32 l 428.141 137.344
 l f
0 g
428.141 137.344 m 426.754 137.719 l 425.367 137.344 l 424.352 136.32 l 
423.98 134.918 l 424.352 133.52 l 425.367 132.496 l 426.754 132.121 l 428.141
 132.496 l 429.156 133.52 l 429.527 134.918 l 429.156 136.32 l 428.141 137.344
 l S
1 g
423.984 161.078 m 422.598 161.453 l 421.207 161.078 l 420.195 160.055 l
 419.82 158.652 l 420.195 157.254 l 421.207 156.23 l 422.598 155.855 l 423.984
 156.23 l 425 157.254 l 425.371 158.652 l 425 160.055 l 423.984 161.078 
l f
0 g
423.984 161.078 m 422.598 161.453 l 421.207 161.078 l 420.195 160.055 l
 419.82 158.652 l 420.195 157.254 l 421.207 156.23 l 422.598 155.855 l 423.984
 156.23 l 425 157.254 l 425.371 158.652 l 425 160.055 l 423.984 161.078 
l S
1 g
333.176 208.547 m 331.789 208.922 l 330.402 208.547 l 329.387 207.523 l
 329.016 206.125 l 329.387 204.723 l 330.402 203.699 l 331.789 203.324 l
 333.176 203.699 l 334.191 204.723 l 334.562 206.125 l 334.191 207.523 l
 333.176 208.547 l f
0 g
333.176 208.547 m 331.789 208.922 l 330.402 208.547 l 329.387 207.523 l
 329.016 206.125 l 329.387 204.723 l 330.402 203.699 l 331.789 203.324 l
 333.176 203.699 l 334.191 204.723 l 334.562 206.125 l 334.191 207.523 l
 333.176 208.547 l S
1 g
174.238 256.016 m 172.852 256.391 l 171.465 256.016 l 170.449 254.992 l
 170.078 253.594 l 170.449 252.195 l 171.465 251.168 l 172.852 250.793 l
 174.238 251.168 l 175.254 252.195 l 175.625 253.594 l 175.254 254.992 l
 174.238 256.016 l f
0 g
174.238 256.016 m 172.852 256.391 l 171.465 256.016 l 170.449 254.992 l
 170.078 253.594 l 170.449 252.195 l 171.465 251.168 l 172.852 250.793 l
 174.238 251.168 l 175.254 252.195 l 175.625 253.594 l 175.254 254.992 l
 174.238 256.016 l S
1 g
161.242 350.953 m 159.855 351.328 l 158.469 350.953 l 157.453 349.93 l 
157.082 348.531 l 157.453 347.133 l 158.469 346.109 l 159.855 345.734 l 
161.242 346.109 l 162.258 347.133 l 162.629 348.531 l 162.258 349.93 l 161.242
 350.953 l f
0 g
161.242 350.953 m 159.855 351.328 l 158.469 350.953 l 157.453 349.93 l 
157.082 348.531 l 157.453 347.133 l 158.469 346.109 l 159.855 345.734 l 
161.242 346.109 l 162.258 347.133 l 162.629 348.531 l 162.258 349.93 l 161.242
 350.953 l S
1 g
180.484 445.891 m 179.094 446.266 l 177.707 445.891 l 176.691 444.867 l
 176.32 443.469 l 176.691 442.07 l 177.707 441.047 l 179.094 440.672 l 180.484
 441.047 l 181.496 442.07 l 181.871 443.469 l 181.496 444.867 l 180.484 
445.891 l f
0 g
180.484 445.891 m 179.094 446.266 l 177.707 445.891 l 176.691 444.867 l
 176.32 443.469 l 176.691 442.07 l 177.707 441.047 l 179.094 440.672 l 180.484
 441.047 l 181.496 442.07 l 181.871 443.469 l 181.496 444.867 l 180.484 
445.891 l S
1 g
135.508 540.832 m 134.121 541.207 l 132.734 540.832 l 131.719 539.805 l
 131.348 538.406 l 131.719 537.008 l 132.734 535.984 l 134.121 535.609 l
 135.508 535.984 l 136.523 537.008 l 136.895 538.406 l 136.523 539.805 l
 135.508 540.832 l f
0 g
135.508 540.832 m 134.121 541.207 l 132.734 540.832 l 131.719 539.805 l
 131.348 538.406 l 131.719 537.008 l 132.734 535.984 l 134.121 535.609 l
 135.508 535.984 l 136.523 537.008 l 136.895 538.406 l 136.523 539.805 l
 135.508 540.832 l S
1 g
221.316 635.77 m 219.93 636.145 l 218.539 635.77 l 217.523 634.746 l 217.152
 633.348 l 217.523 631.945 l 218.539 630.922 l 219.93 630.547 l 221.316 
630.922 l 222.332 631.945 l 222.703 633.348 l 222.332 634.746 l 221.316 
635.77 l f
0 g
221.316 635.77 m 219.93 636.145 l 218.539 635.77 l 217.523 634.746 l 217.152
 633.348 l 217.523 631.945 l 218.539 630.922 l 219.93 630.547 l 221.316 
630.922 l 222.332 631.945 l 222.703 633.348 l 222.332 634.746 l 221.316 
635.77 l S
1 g
321.23 728.285 m 317.07 728.285 l 317.441 726.887 l 318.457 725.859 l 319.844
 725.484 l 321.23 725.859 l 322.246 726.887 l 322.621 728.285 l 321.23 728.285
 l f
0 g
317.07 728.285 m 317.441 726.887 l 318.457 725.859 l 319.844 725.484 l 
321.23 725.859 l 322.246 726.887 l 322.621 728.285 l S
80.602 63.715 m 80.602 59.797 l S
70.984 56.523 m 75.055 56.523 l 72.836 52.961 l 73.945 52.961 l 74.684 
52.516 l 75.055 52.07 l 75.426 50.734 l 75.426 49.844 l 75.055 48.508 l 
74.316 47.617 l 73.207 47.172 l 72.094 47.172 l 70.984 47.617 l 70.617 48.062
 l 70.246 48.953 l S
78.754 56.523 m 82.82 56.523 l 80.602 52.961 l 81.711 52.961 l 82.453 52.516
 l 82.82 52.07 l 83.191 50.734 l 83.191 49.844 l 82.82 48.508 l 82.082 47.617
 l 80.973 47.172 l 79.863 47.172 l 78.754 47.617 l 78.383 48.062 l 78.016
 48.953 l S
88 56.523 m 86.891 56.078 l 86.152 54.742 l 85.781 52.516 l 85.781 51.18
 l 86.152 48.953 l 86.891 47.617 l 88 47.172 l 88.742 47.172 l 89.852 47.617
 l 90.59 48.953 l 90.961 51.18 l 90.961 52.516 l 90.59 54.742 l 89.852 56.078
 l 88.742 56.523 l 88 56.523 l S
124.211 63.715 m 124.211 59.797 l S
114.594 56.523 m 118.664 56.523 l 116.445 52.961 l 117.555 52.961 l 118.293
 52.516 l 118.664 52.07 l 119.031 50.734 l 119.031 49.844 l 118.664 48.508
 l 117.922 47.617 l 116.812 47.172 l 115.703 47.172 l 114.594 47.617 l 114.223
 48.062 l 113.855 48.953 l S
122.363 56.523 m 126.43 56.523 l 124.211 52.961 l 125.32 52.961 l 126.062
 52.516 l 126.43 52.07 l 126.801 50.734 l 126.801 49.844 l 126.43 48.508
 l 125.691 47.617 l 124.582 47.172 l 123.473 47.172 l 122.363 47.617 l 121.992
 48.062 l 121.621 48.953 l S
130.129 56.523 m 134.199 56.523 l 131.98 52.961 l 133.09 52.961 l 133.828
 52.516 l 134.199 52.07 l 134.566 50.734 l 134.566 49.844 l 134.199 48.508
 l 133.457 47.617 l 132.348 47.172 l 131.238 47.172 l 130.129 47.617 l 129.758
 48.062 l 129.391 48.953 l S
167.82 63.715 m 167.82 59.797 l S
158.203 56.523 m 162.27 56.523 l 160.051 52.961 l 161.16 52.961 l 161.902
 52.516 l 162.27 52.07 l 162.641 50.734 l 162.641 49.844 l 162.27 48.508
 l 161.531 47.617 l 160.422 47.172 l 159.312 47.172 l 158.203 47.617 l 157.832
 48.062 l 157.461 48.953 l S
165.969 56.523 m 170.039 56.523 l 167.82 52.961 l 168.93 52.961 l 169.668
 52.516 l 170.039 52.07 l 170.41 50.734 l 170.41 49.844 l 170.039 48.508
 l 169.301 47.617 l 168.188 47.172 l 167.078 47.172 l 165.969 47.617 l 165.602
 48.062 l 165.23 48.953 l S
177.805 55.188 m 177.438 56.078 l 176.328 56.523 l 175.586 56.523 l 174.477
 56.078 l 173.738 54.742 l 173.367 52.516 l 173.367 50.289 l 173.738 48.508
 l 174.477 47.617 l 175.586 47.172 l 175.957 47.172 l 177.066 47.617 l 177.805
 48.508 l 178.176 49.844 l 178.176 50.289 l 177.805 51.625 l 177.066 52.516
 l 175.957 52.961 l 175.586 52.961 l 174.477 52.516 l 173.738 51.625 l 173.367
 50.289 l S
211.43 63.715 m 211.43 59.797 l S
201.812 56.523 m 205.879 56.523 l 203.66 52.961 l 204.77 52.961 l 205.508
 52.516 l 205.879 52.07 l 206.25 50.734 l 206.25 49.844 l 205.879 48.508
 l 205.141 47.617 l 204.031 47.172 l 202.922 47.172 l 201.812 47.617 l 201.441
 48.062 l 201.07 48.953 l S
209.578 56.523 m 213.648 56.523 l 211.43 52.961 l 212.539 52.961 l 213.277
 52.516 l 213.648 52.07 l 214.016 50.734 l 214.016 49.844 l 213.648 48.508
 l 212.906 47.617 l 211.797 47.172 l 210.688 47.172 l 209.578 47.617 l 209.207
 48.062 l 208.84 48.953 l S
221.414 53.406 m 221.043 52.07 l 220.305 51.18 l 219.195 50.734 l 218.824
 50.734 l 217.715 51.18 l 216.977 52.07 l 216.605 53.406 l 216.605 53.852
 l 216.977 55.188 l 217.715 56.078 l 218.824 56.523 l 219.195 56.523 l 220.305
 56.078 l 221.043 55.188 l 221.414 53.406 l 221.414 51.18 l 221.043 48.953
 l 220.305 47.617 l 219.195 47.172 l 218.457 47.172 l 217.348 47.617 l 216.977
 48.508 l S
255.035 63.715 m 255.035 59.797 l S
245.418 56.523 m 249.488 56.523 l 247.27 52.961 l 248.379 52.961 l 249.117
 52.516 l 249.488 52.07 l 249.859 50.734 l 249.859 49.844 l 249.488 48.508
 l 248.75 47.617 l 247.637 47.172 l 246.527 47.172 l 245.418 47.617 l 245.051
 48.062 l 244.68 48.953 l S
256.145 56.523 m 252.445 50.289 l 257.996 50.289 l S
256.145 56.523 m 256.145 47.172 l S
260.586 54.297 m 260.586 54.742 l 260.953 55.633 l 261.324 56.078 l 262.062
 56.523 l 263.543 56.523 l 264.281 56.078 l 264.652 55.633 l 265.023 54.742
 l 265.023 53.852 l 264.652 52.961 l 263.914 51.625 l 260.215 47.172 l 265.395
 47.172 l S
298.645 63.715 m 298.645 59.797 l S
289.027 56.523 m 293.098 56.523 l 290.875 52.961 l 291.988 52.961 l 292.727
 52.516 l 293.098 52.07 l 293.465 50.734 l 293.465 49.844 l 293.098 48.508
 l 292.355 47.617 l 291.246 47.172 l 290.137 47.172 l 289.027 47.617 l 288.656
 48.062 l 288.289 48.953 l S
299.754 56.523 m 296.055 50.289 l 301.602 50.289 l S
299.754 56.523 m 299.754 47.172 l S
308.262 56.523 m 304.562 56.523 l 304.191 52.516 l 304.562 52.961 l 305.672
 53.406 l 306.781 53.406 l 307.891 52.961 l 308.633 52.07 l 309 50.734 l
 309 49.844 l 308.633 48.508 l 307.891 47.617 l 306.781 47.172 l 305.672
 47.172 l 304.562 47.617 l 304.191 48.062 l 303.824 48.953 l S
342.254 63.715 m 342.254 59.797 l S
332.637 56.523 m 336.703 56.523 l 334.484 52.961 l 335.594 52.961 l 336.336
 52.516 l 336.703 52.07 l 337.074 50.734 l 337.074 49.844 l 336.703 48.508
 l 335.965 47.617 l 334.855 47.172 l 333.746 47.172 l 332.637 47.617 l 332.266
 48.062 l 331.895 48.953 l S
343.363 56.523 m 339.664 50.289 l 345.211 50.289 l S
343.363 56.523 m 343.363 47.172 l S
349.281 56.523 m 348.172 56.078 l 347.801 55.188 l 347.801 54.297 l 348.172
 53.406 l 348.91 52.961 l 350.391 52.516 l 351.5 52.07 l 352.238 51.18 l
 352.609 50.289 l 352.609 48.953 l 352.238 48.062 l 351.871 47.617 l 350.762
 47.172 l 349.281 47.172 l 348.172 47.617 l 347.801 48.062 l 347.43 48.953
 l 347.43 50.289 l 347.801 51.18 l 348.539 52.07 l 349.648 52.516 l 351.129
 52.961 l 351.871 53.406 l 352.238 54.297 l 352.238 55.188 l 351.871 56.078
 l 350.762 56.523 l 349.281 56.523 l S
385.859 63.715 m 385.859 59.797 l S
376.242 56.523 m 380.312 56.523 l 378.094 52.961 l 379.203 52.961 l 379.941
 52.516 l 380.312 52.07 l 380.684 50.734 l 380.684 49.844 l 380.312 48.508
 l 379.574 47.617 l 378.465 47.172 l 377.355 47.172 l 376.242 47.617 l 375.875
 48.062 l 375.504 48.953 l S
387.711 56.523 m 384.012 56.523 l 383.641 52.516 l 384.012 52.961 l 385.121
 53.406 l 386.23 53.406 l 387.34 52.961 l 388.082 52.07 l 388.449 50.734
 l 388.449 49.844 l 388.082 48.508 l 387.34 47.617 l 386.23 47.172 l 385.121
 47.172 l 384.012 47.617 l 383.641 48.062 l 383.273 48.953 l S
392.148 54.742 m 392.891 55.188 l 394 56.523 l 394 47.172 l S
429.469 63.715 m 429.469 59.797 l S
419.852 56.523 m 423.922 56.523 l 421.703 52.961 l 422.812 52.961 l 423.551
 52.516 l 423.922 52.07 l 424.289 50.734 l 424.289 49.844 l 423.922 48.508
 l 423.18 47.617 l 422.07 47.172 l 420.961 47.172 l 419.852 47.617 l 419.484
 48.062 l 419.113 48.953 l S
431.32 56.523 m 427.621 56.523 l 427.25 52.516 l 427.621 52.961 l 428.73
 53.406 l 429.84 53.406 l 430.949 52.961 l 431.688 52.07 l 432.059 50.734
 l 432.059 49.844 l 431.688 48.508 l 430.949 47.617 l 429.84 47.172 l 428.73
 47.172 l 427.621 47.617 l 427.25 48.062 l 426.879 48.953 l S
438.348 56.523 m 434.648 50.289 l 440.195 50.289 l S
438.348 56.523 m 438.348 47.172 l S
473.078 63.715 m 473.078 59.797 l S
463.461 56.523 m 467.531 56.523 l 465.309 52.961 l 466.418 52.961 l 467.16
 52.516 l 467.531 52.07 l 467.898 50.734 l 467.898 49.844 l 467.531 48.508
 l 466.789 47.617 l 465.68 47.172 l 464.57 47.172 l 463.461 47.617 l 463.09
 48.062 l 462.723 48.953 l S
474.926 56.523 m 471.227 56.523 l 470.859 52.516 l 471.227 52.961 l 472.336
 53.406 l 473.449 53.406 l 474.559 52.961 l 475.297 52.07 l 475.668 50.734
 l 475.668 49.844 l 475.297 48.508 l 474.559 47.617 l 473.449 47.172 l 472.336
 47.172 l 471.227 47.617 l 470.859 48.062 l 470.488 48.953 l S
483.434 56.523 m 479.734 47.172 l S
478.258 56.523 m 483.434 56.523 l S
516.688 63.715 m 516.688 59.797 l S
507.07 56.523 m 511.137 56.523 l 508.918 52.961 l 510.027 52.961 l 510.77
 52.516 l 511.137 52.07 l 511.508 50.734 l 511.508 49.844 l 511.137 48.508
 l 510.398 47.617 l 509.289 47.172 l 508.18 47.172 l 507.07 47.617 l 506.699
 48.062 l 506.328 48.953 l S
518.906 55.188 m 518.535 56.078 l 517.426 56.523 l 516.688 56.523 l 515.578
 56.078 l 514.836 54.742 l 514.465 52.516 l 514.465 50.289 l 514.836 48.508
 l 515.578 47.617 l 516.688 47.172 l 517.055 47.172 l 518.164 47.617 l 518.906
 48.508 l 519.273 49.844 l 519.273 50.289 l 518.906 51.625 l 518.164 52.516
 l 517.055 52.961 l 516.688 52.961 l 515.578 52.516 l 514.836 51.625 l 514.465
 50.289 l S
524.082 56.523 m 522.973 56.078 l 522.234 54.742 l 521.863 52.516 l 521.863
 51.18 l 522.234 48.953 l 522.973 47.617 l 524.082 47.172 l 524.824 47.172
 l 525.934 47.617 l 526.672 48.953 l 527.043 51.18 l 527.043 52.516 l 526.672
 54.742 l 525.934 56.078 l 524.824 56.523 l 524.082 56.523 l S
560.293 63.715 m 560.293 59.797 l S
550.676 56.523 m 554.746 56.523 l 552.527 52.961 l 553.637 52.961 l 554.375
 52.516 l 554.746 52.07 l 555.117 50.734 l 555.117 49.844 l 554.746 48.508
 l 554.008 47.617 l 552.895 47.172 l 551.785 47.172 l 550.676 47.617 l 550.309
 48.062 l 549.938 48.953 l S
562.512 55.188 m 562.145 56.078 l 561.035 56.523 l 560.293 56.523 l 559.184
 56.078 l 558.445 54.742 l 558.074 52.516 l 558.074 50.289 l 558.445 48.508
 l 559.184 47.617 l 560.293 47.172 l 560.664 47.172 l 561.773 47.617 l 562.512
 48.508 l 562.883 49.844 l 562.883 50.289 l 562.512 51.625 l 561.773 52.516
 l 560.664 52.961 l 560.293 52.961 l 559.184 52.516 l 558.445 51.625 l 558.074
 50.289 l S
566.211 56.523 m 570.281 56.523 l 568.062 52.961 l 569.172 52.961 l 569.91
 52.516 l 570.281 52.07 l 570.652 50.734 l 570.652 49.844 l 570.281 48.508
 l 569.543 47.617 l 568.43 47.172 l 567.32 47.172 l 566.211 47.617 l 565.844
 48.062 l 565.473 48.953 l S
80.602 728.285 m 76.719 728.285 l S
51.566 732.844 m 55.637 732.844 l 53.418 729.281 l 54.527 729.281 l 55.266
 728.836 l 55.637 728.391 l 56.004 727.055 l 56.004 726.164 l 55.637 724.828
 l 54.895 723.938 l 53.785 723.492 l 52.676 723.492 l 51.566 723.938 l 51.199
 724.383 l 50.828 725.273 l S
60.812 732.844 m 59.703 732.398 l 58.965 731.062 l 58.594 728.836 l 58.594
 727.5 l 58.965 725.273 l 59.703 723.938 l 60.812 723.492 l 61.555 723.492
 l 62.664 723.938 l 63.402 725.273 l 63.773 727.5 l 63.773 728.836 l 63.402
 731.062 l 62.664 732.398 l 61.555 732.844 l 60.812 732.844 l S
68.582 732.844 m 67.473 732.398 l 66.73 731.062 l 66.363 728.836 l 66.363
 727.5 l 66.73 725.273 l 67.473 723.938 l 68.582 723.492 l 69.32 723.492
 l 70.43 723.938 l 71.172 725.273 l 71.539 727.5 l 71.539 728.836 l 71.172
 731.062 l 70.43 732.398 l 69.32 732.844 l 68.582 732.844 l S
80.602 680.816 m 76.719 680.816 l S
51.566 685.375 m 55.637 685.375 l 53.418 681.812 l 54.527 681.812 l 55.266
 681.367 l 55.637 680.922 l 56.004 679.586 l 56.004 678.695 l 55.637 677.359
 l 54.895 676.469 l 53.785 676.023 l 52.676 676.023 l 51.566 676.469 l 51.199
 676.914 l 50.828 677.805 l S
63.035 685.375 m 59.336 685.375 l 58.965 681.367 l 59.336 681.812 l 60.445
 682.258 l 61.555 682.258 l 62.664 681.812 l 63.402 680.922 l 63.773 679.586
 l 63.773 678.695 l 63.402 677.359 l 62.664 676.469 l 61.555 676.023 l 60.445
 676.023 l 59.336 676.469 l 58.965 676.914 l 58.594 677.805 l S
68.582 685.375 m 67.473 684.93 l 66.73 683.594 l 66.363 681.367 l 66.363
 680.031 l 66.73 677.805 l 67.473 676.469 l 68.582 676.023 l 69.32 676.023
 l 70.43 676.469 l 71.172 677.805 l 71.539 680.031 l 71.539 681.367 l 71.172
 683.594 l 70.43 684.93 l 69.32 685.375 l 68.582 685.375 l S
80.602 633.348 m 76.719 633.348 l S
54.527 637.906 m 50.828 631.672 l 56.375 631.672 l S
54.527 637.906 m 54.527 628.555 l S
60.812 637.906 m 59.703 637.461 l 58.965 636.125 l 58.594 633.898 l 58.594
 632.562 l 58.965 630.336 l 59.703 629 l 60.812 628.555 l 61.555 628.555
 l 62.664 629 l 63.402 630.336 l 63.773 632.562 l 63.773 633.898 l 63.402
 636.125 l 62.664 637.461 l 61.555 637.906 l 60.812 637.906 l S
68.582 637.906 m 67.473 637.461 l 66.73 636.125 l 66.363 633.898 l 66.363
 632.562 l 66.73 630.336 l 67.473 629 l 68.582 628.555 l 69.32 628.555 l
 70.43 629 l 71.172 630.336 l 71.539 632.562 l 71.539 633.898 l 71.172 636.125
 l 70.43 637.461 l 69.32 637.906 l 68.582 637.906 l S
80.602 585.875 m 76.719 585.875 l S
54.527 590.434 m 50.828 584.203 l 56.375 584.203 l S
54.527 590.434 m 54.527 581.086 l S
63.035 590.434 m 59.336 590.434 l 58.965 586.43 l 59.336 586.875 l 60.445
 587.32 l 61.555 587.32 l 62.664 586.875 l 63.402 585.984 l 63.773 584.648
 l 63.773 583.758 l 63.402 582.422 l 62.664 581.531 l 61.555 581.086 l 60.445
 581.086 l 59.336 581.531 l 58.965 581.977 l 58.594 582.867 l S
68.582 590.434 m 67.473 589.988 l 66.73 588.656 l 66.363 586.43 l 66.363
 585.094 l 66.73 582.867 l 67.473 581.531 l 68.582 581.086 l 69.32 581.086
 l 70.43 581.531 l 71.172 582.867 l 71.539 585.094 l 71.539 586.43 l 71.172
 588.656 l 70.43 589.988 l 69.32 590.434 l 68.582 590.434 l S
80.602 538.406 m 76.719 538.406 l S
55.266 542.965 m 51.566 542.965 l 51.199 538.961 l 51.566 539.406 l 52.676
 539.852 l 53.785 539.852 l 54.895 539.406 l 55.637 538.516 l 56.004 537.18
 l 56.004 536.289 l 55.637 534.953 l 54.895 534.062 l 53.785 533.617 l 52.676
 533.617 l 51.566 534.062 l 51.199 534.508 l 50.828 535.398 l S
60.812 542.965 m 59.703 542.52 l 58.965 541.184 l 58.594 538.961 l 58.594
 537.625 l 58.965 535.398 l 59.703 534.062 l 60.812 533.617 l 61.555 533.617
 l 62.664 534.062 l 63.402 535.398 l 63.773 537.625 l 63.773 538.961 l 63.402
 541.184 l 62.664 542.52 l 61.555 542.965 l 60.812 542.965 l S
68.582 542.965 m 67.473 542.52 l 66.73 541.184 l 66.363 538.961 l 66.363
 537.625 l 66.73 535.398 l 67.473 534.062 l 68.582 533.617 l 69.32 533.617
 l 70.43 534.062 l 71.172 535.398 l 71.539 537.625 l 71.539 538.961 l 71.172
 541.184 l 70.43 542.52 l 69.32 542.965 l 68.582 542.965 l S
80.602 490.938 m 76.719 490.938 l S
55.266 495.496 m 51.566 495.496 l 51.199 491.492 l 51.566 491.934 l 52.676
 492.379 l 53.785 492.379 l 54.895 491.934 l 55.637 491.047 l 56.004 489.711
 l 56.004 488.82 l 55.637 487.484 l 54.895 486.594 l 53.785 486.148 l 52.676
 486.148 l 51.566 486.594 l 51.199 487.039 l 50.828 487.93 l S
63.035 495.496 m 59.336 495.496 l 58.965 491.492 l 59.336 491.934 l 60.445
 492.379 l 61.555 492.379 l 62.664 491.934 l 63.402 491.047 l 63.773 489.711
 l 63.773 488.82 l 63.402 487.484 l 62.664 486.594 l 61.555 486.148 l 60.445
 486.148 l 59.336 486.594 l 58.965 487.039 l 58.594 487.93 l S
68.582 495.496 m 67.473 495.051 l 66.73 493.715 l 66.363 491.492 l 66.363
 490.156 l 66.73 487.93 l 67.473 486.594 l 68.582 486.148 l 69.32 486.148
 l 70.43 486.594 l 71.172 487.93 l 71.539 490.156 l 71.539 491.492 l 71.172
 493.715 l 70.43 495.051 l 69.32 495.496 l 68.582 495.496 l S
80.602 443.469 m 76.719 443.469 l S
55.637 446.691 m 55.266 447.582 l 54.156 448.027 l 53.418 448.027 l 52.309
 447.582 l 51.566 446.246 l 51.199 444.02 l 51.199 441.797 l 51.566 440.016
 l 52.309 439.125 l 53.418 438.68 l 53.785 438.68 l 54.895 439.125 l 55.637
 440.016 l 56.004 441.352 l 56.004 441.797 l 55.637 443.129 l 54.895 444.02
 l 53.785 444.465 l 53.418 444.465 l 52.309 444.02 l 51.566 443.129 l 51.199
 441.797 l S
60.812 448.027 m 59.703 447.582 l 58.965 446.246 l 58.594 444.02 l 58.594
 442.688 l 58.965 440.461 l 59.703 439.125 l 60.812 438.68 l 61.555 438.68
 l 62.664 439.125 l 63.402 440.461 l 63.773 442.688 l 63.773 444.02 l 63.402
 446.246 l 62.664 447.582 l 61.555 448.027 l 60.812 448.027 l S
68.582 448.027 m 67.473 447.582 l 66.73 446.246 l 66.363 444.02 l 66.363
 442.688 l 66.73 440.461 l 67.473 439.125 l 68.582 438.68 l 69.32 438.68
 l 70.43 439.125 l 71.172 440.461 l 71.539 442.688 l 71.539 444.02 l 71.172
 446.246 l 70.43 447.582 l 69.32 448.027 l 68.582 448.027 l S
80.602 396 m 76.719 396 l S
55.637 399.223 m 55.266 400.113 l 54.156 400.559 l 53.418 400.559 l 52.309
 400.113 l 51.566 398.777 l 51.199 396.551 l 51.199 394.328 l 51.566 392.547
 l 52.309 391.656 l 53.418 391.211 l 53.785 391.211 l 54.895 391.656 l 55.637
 392.547 l 56.004 393.883 l 56.004 394.328 l 55.637 395.66 l 54.895 396.551
 l 53.785 396.996 l 53.418 396.996 l 52.309 396.551 l 51.566 395.66 l 51.199
 394.328 l S
63.035 400.559 m 59.336 400.559 l 58.965 396.551 l 59.336 396.996 l 60.445
 397.441 l 61.555 397.441 l 62.664 396.996 l 63.402 396.105 l 63.773 394.77
 l 63.773 393.883 l 63.402 392.547 l 62.664 391.656 l 61.555 391.211 l 60.445
 391.211 l 59.336 391.656 l 58.965 392.102 l 58.594 392.992 l S
68.582 400.559 m 67.473 400.113 l 66.73 398.777 l 66.363 396.551 l 66.363
 395.215 l 66.73 392.992 l 67.473 391.656 l 68.582 391.211 l 69.32 391.211
 l 70.43 391.656 l 71.172 392.992 l 71.539 395.215 l 71.539 396.551 l 71.172
 398.777 l 70.43 400.113 l 69.32 400.559 l 68.582 400.559 l S
80.602 348.531 m 76.719 348.531 l S
56.004 353.09 m 52.309 343.742 l S
50.828 353.09 m 56.004 353.09 l S
60.812 353.09 m 59.703 352.645 l 58.965 351.309 l 58.594 349.082 l 58.594
 347.746 l 58.965 345.523 l 59.703 344.188 l 60.812 343.742 l 61.555 343.742
 l 62.664 344.188 l 63.402 345.523 l 63.773 347.746 l 63.773 349.082 l 63.402
 351.309 l 62.664 352.645 l 61.555 353.09 l 60.812 353.09 l S
68.582 353.09 m 67.473 352.645 l 66.73 351.309 l 66.363 349.082 l 66.363
 347.746 l 66.73 345.523 l 67.473 344.188 l 68.582 343.742 l 69.32 343.742
 l 70.43 344.188 l 71.172 345.523 l 71.539 347.746 l 71.539 349.082 l 71.172
 351.309 l 70.43 352.645 l 69.32 353.09 l 68.582 353.09 l S
80.602 301.062 m 76.719 301.062 l S
56.004 305.621 m 52.309 296.273 l S
50.828 305.621 m 56.004 305.621 l S
63.035 305.621 m 59.336 305.621 l 58.965 301.613 l 59.336 302.059 l 60.445
 302.504 l 61.555 302.504 l 62.664 302.059 l 63.402 301.168 l 63.773 299.832
 l 63.773 298.941 l 63.402 297.605 l 62.664 296.719 l 61.555 296.273 l 60.445
 296.273 l 59.336 296.719 l 58.965 297.16 l 58.594 298.051 l S
68.582 305.621 m 67.473 305.176 l 66.73 303.84 l 66.363 301.613 l 66.363
 300.277 l 66.73 298.051 l 67.473 296.719 l 68.582 296.273 l 69.32 296.273
 l 70.43 296.719 l 71.172 298.051 l 71.539 300.277 l 71.539 301.613 l 71.172
 303.84 l 70.43 305.176 l 69.32 305.621 l 68.582 305.621 l S
80.602 253.594 m 76.719 253.594 l S
52.676 258.152 m 51.566 257.707 l 51.199 256.816 l 51.199 255.926 l 51.566
 255.035 l 52.309 254.59 l 53.785 254.145 l 54.895 253.699 l 55.637 252.809
 l 56.004 251.918 l 56.004 250.582 l 55.637 249.691 l 55.266 249.246 l 54.156
 248.801 l 52.676 248.801 l 51.566 249.246 l 51.199 249.691 l 50.828 250.582
 l 50.828 251.918 l 51.199 252.809 l 51.938 253.699 l 53.047 254.145 l 54.527
 254.59 l 55.266 255.035 l 55.637 255.926 l 55.637 256.816 l 55.266 257.707
 l 54.156 258.152 l 52.676 258.152 l S
60.812 258.152 m 59.703 257.707 l 58.965 256.371 l 58.594 254.145 l 58.594
 252.809 l 58.965 250.582 l 59.703 249.246 l 60.812 248.801 l 61.555 248.801
 l 62.664 249.246 l 63.402 250.582 l 63.773 252.809 l 63.773 254.145 l 63.402
 256.371 l 62.664 257.707 l 61.555 258.152 l 60.812 258.152 l S
68.582 258.152 m 67.473 257.707 l 66.73 256.371 l 66.363 254.145 l 66.363
 252.809 l 66.73 250.582 l 67.473 249.246 l 68.582 248.801 l 69.32 248.801
 l 70.43 249.246 l 71.172 250.582 l 71.539 252.809 l 71.539 254.145 l 71.172
 256.371 l 70.43 257.707 l 69.32 258.152 l 68.582 258.152 l S
80.602 206.125 m 76.719 206.125 l S
52.676 210.684 m 51.566 210.238 l 51.199 209.348 l 51.199 208.457 l 51.566
 207.566 l 52.309 207.121 l 53.785 206.676 l 54.895 206.23 l 55.637 205.34
 l 56.004 204.449 l 56.004 203.113 l 55.637 202.223 l 55.266 201.777 l 54.156
 201.332 l 52.676 201.332 l 51.566 201.777 l 51.199 202.223 l 50.828 203.113
 l 50.828 204.449 l 51.199 205.34 l 51.938 206.23 l 53.047 206.676 l 54.527
 207.121 l 55.266 207.566 l 55.637 208.457 l 55.637 209.348 l 55.266 210.238
 l 54.156 210.684 l 52.676 210.684 l S
63.035 210.684 m 59.336 210.684 l 58.965 206.676 l 59.336 207.121 l 60.445
 207.566 l 61.555 207.566 l 62.664 207.121 l 63.402 206.23 l 63.773 204.895
 l 63.773 204.004 l 63.402 202.668 l 62.664 201.777 l 61.555 201.332 l 60.445
 201.332 l 59.336 201.777 l 58.965 202.223 l 58.594 203.113 l S
68.582 210.684 m 67.473 210.238 l 66.73 208.902 l 66.363 206.676 l 66.363
 205.34 l 66.73 203.113 l 67.473 201.777 l 68.582 201.332 l 69.32 201.332
 l 70.43 201.777 l 71.172 203.113 l 71.539 205.34 l 71.539 206.676 l 71.172
 208.902 l 70.43 210.238 l 69.32 210.684 l 68.582 210.684 l S
80.602 158.652 m 76.719 158.652 l S
55.637 160.098 m 55.266 158.762 l 54.527 157.871 l 53.418 157.426 l 53.047
 157.426 l 51.938 157.871 l 51.199 158.762 l 50.828 160.098 l 50.828 160.543
 l 51.199 161.879 l 51.938 162.766 l 53.047 163.211 l 53.418 163.211 l 54.527
 162.766 l 55.266 161.879 l 55.637 160.098 l 55.637 157.871 l 55.266 155.645
 l 54.527 154.309 l 53.418 153.863 l 52.676 153.863 l 51.566 154.309 l 51.199
 155.199 l S
60.812 163.211 m 59.703 162.766 l 58.965 161.434 l 58.594 159.207 l 58.594
 157.871 l 58.965 155.645 l 59.703 154.309 l 60.812 153.863 l 61.555 153.863
 l 62.664 154.309 l 63.402 155.645 l 63.773 157.871 l 63.773 159.207 l 63.402
 161.434 l 62.664 162.766 l 61.555 163.211 l 60.812 163.211 l S
68.582 163.211 m 67.473 162.766 l 66.73 161.434 l 66.363 159.207 l 66.363
 157.871 l 66.73 155.645 l 67.473 154.309 l 68.582 153.863 l 69.32 153.863
 l 70.43 154.309 l 71.172 155.645 l 71.539 157.871 l 71.539 159.207 l 71.172
 161.434 l 70.43 162.766 l 69.32 163.211 l 68.582 163.211 l S
80.602 111.184 m 76.719 111.184 l S
55.637 112.629 m 55.266 111.293 l 54.527 110.402 l 53.418 109.957 l 53.047
 109.957 l 51.938 110.402 l 51.199 111.293 l 50.828 112.629 l 50.828 113.074
 l 51.199 114.406 l 51.938 115.297 l 53.047 115.742 l 53.418 115.742 l 54.527
 115.297 l 55.266 114.406 l 55.637 112.629 l 55.637 110.402 l 55.266 108.176
 l 54.527 106.84 l 53.418 106.395 l 52.676 106.395 l 51.566 106.84 l 51.199
 107.73 l S
63.035 115.742 m 59.336 115.742 l 58.965 111.738 l 59.336 112.184 l 60.445
 112.629 l 61.555 112.629 l 62.664 112.184 l 63.402 111.293 l 63.773 109.957
 l 63.773 109.066 l 63.402 107.73 l 62.664 106.84 l 61.555 106.395 l 60.445
 106.395 l 59.336 106.84 l 58.965 107.285 l 58.594 108.176 l S
68.582 115.742 m 67.473 115.297 l 66.73 113.965 l 66.363 111.738 l 66.363
 110.402 l 66.73 108.176 l 67.473 106.84 l 68.582 106.395 l 69.32 106.395
 l 70.43 106.84 l 71.172 108.176 l 71.539 110.402 l 71.539 111.738 l 71.172
 113.965 l 70.43 115.297 l 69.32 115.742 l 68.582 115.742 l S
80.602 63.715 m 76.719 63.715 l S
44.168 66.492 m 44.91 66.938 l 46.02 68.273 l 46.02 58.926 l S
53.047 68.273 m 51.938 67.828 l 51.199 66.492 l 50.828 64.27 l 50.828 62.934
 l 51.199 60.707 l 51.938 59.371 l 53.047 58.926 l 53.785 58.926 l 54.895
 59.371 l 55.637 60.707 l 56.004 62.934 l 56.004 64.27 l 55.637 66.492 l
 54.895 67.828 l 53.785 68.273 l 53.047 68.273 l S
60.812 68.273 m 59.703 67.828 l 58.965 66.492 l 58.594 64.27 l 58.594 62.934
 l 58.965 60.707 l 59.703 59.371 l 60.812 58.926 l 61.555 58.926 l 62.664
 59.371 l 63.402 60.707 l 63.773 62.934 l 63.773 64.27 l 63.402 66.492 l
 62.664 67.828 l 61.555 68.273 l 60.812 68.273 l S
68.582 68.273 m 67.473 67.828 l 66.73 66.492 l 66.363 64.27 l 66.363 62.934
 l 66.73 60.707 l 67.473 59.371 l 68.582 58.926 l 69.32 58.926 l 70.43 59.371
 l 71.172 60.707 l 71.539 62.934 l 71.539 64.27 l 71.172 66.492 l 70.43 
67.828 l 69.32 68.273 l 68.582 68.273 l S
20.371 19.91 m 20.074 20.547 l 19.48 21.184 l 18.887 21.5 l 17.699 21.5
 l 17.102 21.184 l 16.508 20.547 l 16.211 19.91 l 15.914 18.957 l 15.914
 17.367 l 16.211 16.414 l 16.508 15.777 l 17.102 15.141 l 17.699 14.824 
l 18.887 14.824 l 19.48 15.141 l 20.074 15.777 l 20.371 16.414 l 20.371 
17.367 l S
18.887 17.367 m 20.371 17.367 l S
22.41 19.277 m 22.41 14.824 l S
22.41 17.367 m 22.707 18.32 l 23.301 18.957 l 23.895 19.277 l 24.785 19.277
 l S
28.137 21.5 m 25.758 14.824 l S
28.137 21.5 m 30.516 14.824 l S
26.652 17.051 m 29.625 17.051 l S
32.141 21.5 m 32.141 14.824 l S
32.141 21.5 m 34.223 21.5 l 35.113 21.184 l 35.711 20.547 l 36.008 19.91
 l 36.305 18.957 l 36.305 17.367 l 36.008 16.414 l 35.711 15.777 l 35.113
 15.141 l 34.223 14.824 l 32.141 14.824 l S
42.703 20.547 m 42.105 21.184 l 41.215 21.5 l 40.027 21.5 l 39.137 21.184
 l 38.539 20.547 l 38.539 19.91 l 38.836 19.277 l 39.137 18.957 l 39.73 
18.641 l 41.512 18.004 l 42.105 17.688 l 42.406 17.367 l 42.703 16.73 l 
42.703 15.777 l 42.105 15.141 l 41.215 14.824 l 40.027 14.824 l 39.137 15.141
 l 38.539 15.777 l S
49.852 22.773 m 44.5 12.598 l S
56.262 19.91 m 55.965 20.547 l 55.371 21.184 l 54.777 21.5 l 53.586 21.5
 l 52.992 21.184 l 52.398 20.547 l 52.102 19.91 l 51.805 18.957 l 51.805
 17.367 l 52.102 16.414 l 52.398 15.777 l 52.992 15.141 l 53.586 14.824 
l 54.777 14.824 l 55.371 15.141 l 55.965 15.777 l 56.262 16.414 l S
60 21.5 m 59.406 21.184 l 58.812 20.547 l 58.516 19.91 l 58.219 18.957 
l 58.219 17.367 l 58.516 16.414 l 58.812 15.777 l 59.406 15.141 l 60 14.824
 l 61.188 14.824 l 61.785 15.141 l 62.379 15.777 l 62.676 16.414 l 62.973
 17.367 l 62.973 18.957 l 62.676 19.91 l 62.379 20.547 l 61.785 21.184 l
 61.188 21.5 l 60 21.5 l S
64.898 21.5 m 64.898 14.824 l S
64.898 14.824 m 68.465 14.824 l S
72.141 21.5 m 69.766 14.824 l S
72.141 21.5 m 74.52 14.824 l S
70.656 17.051 m 73.629 17.051 l S
1.5 w
16.469 754.031 m 17.789 754.797 l 19.77 757.086 l 19.77 741.059 l S
29.016 753.27 m 29.016 754.031 l 29.68 755.559 l 30.34 756.32 l 31.66 757.086
 l 34.301 757.086 l 35.621 756.32 l 36.281 755.559 l 36.945 754.031 l 36.945
 752.508 l 36.281 750.98 l 34.961 748.691 l 28.355 741.059 l 37.605 741.059
 l S
42.887 753.27 m 42.887 754.031 l 43.547 755.559 l 44.211 756.32 l 45.531
 757.086 l 48.172 757.086 l 49.492 756.32 l 50.152 755.559 l 50.812 754.031
 l 50.812 752.508 l 50.152 750.98 l 48.832 748.691 l 42.227 741.059 l 51.477
 741.059 l S
69.242 753.27 m 69.242 754.031 l 69.902 755.559 l 70.562 756.32 l 71.883
 757.086 l 74.527 757.086 l 75.848 756.32 l 76.508 755.559 l 77.168 754.031
 l 77.168 752.508 l 76.508 750.98 l 75.188 748.691 l 68.582 741.059 l 77.828
 741.059 l S
83.773 757.086 m 91.039 757.086 l 87.074 750.98 l 89.059 750.98 l 90.379
 750.215 l 91.039 749.453 l 91.699 747.164 l 91.699 745.637 l 91.039 743.348
 l 89.719 741.82 l 87.738 741.059 l 85.754 741.059 l 83.773 741.82 l 83.113
 742.586 l 82.453 744.113 l S
97.48 742.586 m 96.816 741.82 l 97.48 741.059 l 98.141 741.82 l 97.48 742.586
 l S
111.844 754.797 m 111.184 756.32 l 109.203 757.086 l 107.883 757.086 l 
105.898 756.32 l 104.578 754.031 l 103.918 750.215 l 103.918 746.402 l 104.578
 743.348 l 105.898 741.82 l 107.883 741.059 l 108.543 741.059 l 110.523 
741.82 l 111.844 743.348 l 112.504 745.637 l 112.504 746.402 l 111.844 748.691
 l 110.523 750.215 l 108.543 750.98 l 107.883 750.98 l 105.898 750.215 l
 104.578 748.691 l 103.918 746.402 l S
129.234 757.086 m 129.234 741.059 l S
129.234 741.059 m 137.16 741.059 l S
141.371 757.086 m 141.371 741.059 l S
141.371 757.086 m 149.957 757.086 l S
141.371 749.453 m 146.652 749.453 l S
154.613 757.086 m 154.613 741.059 l S
154.613 757.086 m 159.895 741.059 l S
165.18 757.086 m 159.895 741.059 l S
165.18 757.086 m 165.18 741.059 l S
167.887 735.719 m 181.098 735.719 l S
184.746 757.086 m 184.746 741.059 l S
184.746 757.086 m 190.691 757.086 l 192.676 756.32 l 193.336 755.559 l 
193.996 754.031 l 193.996 751.742 l 193.336 750.215 l 192.676 749.453 l 
190.691 748.691 l 184.746 748.691 l S
199.312 757.086 m 199.312 741.059 l S
199.312 757.086 m 205.258 757.086 l 207.238 756.32 l 207.898 755.559 l 
208.559 754.031 l 208.559 752.508 l 207.898 750.98 l 207.238 750.215 l 205.258
 749.453 l 199.312 749.453 l S
203.938 749.453 m 208.559 741.059 l S
222.777 754.797 m 221.457 756.32 l 219.473 757.086 l 216.832 757.086 l 
214.852 756.32 l 213.531 754.797 l 213.531 753.27 l 214.191 751.742 l 214.852
 750.98 l 216.172 750.215 l 220.133 748.691 l 221.457 747.926 l 222.117 
747.164 l 222.777 745.637 l 222.777 743.348 l 221.457 741.82 l 219.473 741.059
 l 216.832 741.059 l 214.852 741.82 l 213.531 743.348 l S
224.758 735.719 m 237.969 735.719 l S
241.238 757.086 m 241.238 741.059 l S
241.238 757.086 m 249.824 757.086 l S
241.238 749.453 m 246.523 749.453 l S
254.449 757.086 m 254.449 741.059 l S
263.695 757.086 m 263.695 741.059 l S
254.449 749.453 m 263.695 749.453 l S
272.977 757.086 m 270.992 756.32 l 269.672 754.031 l 269.012 750.215 l 
269.012 747.926 l 269.672 744.113 l 270.992 741.82 l 272.977 741.059 l 274.297
 741.059 l 276.277 741.82 l 277.598 744.113 l 278.258 747.926 l 278.258 
750.215 l 277.598 754.031 l 276.277 756.32 l 274.297 757.086 l 272.977 757.086
 l S
286.844 757.086 m 284.863 756.32 l 283.543 754.031 l 282.883 750.215 l 
282.883 747.926 l 283.543 744.113 l 284.863 741.82 l 286.844 741.059 l 288.168
 741.059 l 290.148 741.82 l 291.469 744.113 l 292.129 747.926 l 292.129 
750.215 l 291.469 754.031 l 290.148 756.32 l 288.168 757.086 l 286.844 757.086
 l S
294.109 735.719 m 307.32 735.719 l S
310.969 757.086 m 310.969 741.059 l S
310.969 757.086 m 316.914 757.086 l 318.895 756.32 l 319.559 755.559 l 
320.219 754.031 l 320.219 751.742 l 319.559 750.215 l 318.895 749.453 l 
316.914 748.691 l 310.969 748.691 l S
325.535 757.086 m 325.535 741.059 l S
325.535 757.086 m 331.48 757.086 l 333.461 756.32 l 334.121 755.559 l 334.781
 754.031 l 334.781 752.508 l 334.121 750.98 l 333.461 750.215 l 331.48 749.453
 l 325.535 749.453 l S
330.156 749.453 m 334.781 741.059 l S
343.746 757.086 m 342.426 756.32 l 341.105 754.797 l 340.445 753.27 l 339.785
 750.98 l 339.785 747.164 l 340.445 744.875 l 341.105 743.348 l 342.426 
741.82 l 343.746 741.059 l 346.391 741.059 l 347.711 741.82 l 349.031 743.348
 l 349.691 744.875 l 350.352 747.164 l 350.352 750.98 l 349.691 753.27 l
 349.031 754.797 l 347.711 756.32 l 346.391 757.086 l 343.746 757.086 l S
365.266 753.27 m 364.602 754.797 l 363.281 756.32 l 361.961 757.086 l 359.32
 757.086 l 358 756.32 l 356.676 754.797 l 356.016 753.27 l 355.355 750.98
 l 355.355 747.164 l 356.016 744.875 l 356.676 743.348 l 358 741.82 l 359.32
 741.059 l 361.961 741.059 l 363.281 741.82 l 364.602 743.348 l 365.266 
744.875 l S
366.93 735.719 m 380.141 735.719 l S
382.09 757.086 m 387.375 741.059 l S
392.656 757.086 m 387.375 741.059 l S
393.285 735.719 m 406.496 735.719 l S
410.457 753.27 m 410.457 754.031 l 411.121 755.559 l 411.781 756.32 l 413.102
 757.086 l 415.742 757.086 l 417.062 756.32 l 417.723 755.559 l 418.387 
754.031 l 418.387 752.508 l 417.723 750.98 l 416.402 748.691 l 409.797 741.059
 l 419.047 741.059 l S
427.633 757.086 m 425.648 756.32 l 424.328 754.031 l 423.668 750.215 l 
423.668 747.926 l 424.328 744.113 l 425.648 741.82 l 427.633 741.059 l 428.953
 741.059 l 430.934 741.82 l 432.254 744.113 l 432.914 747.926 l 432.914 
750.215 l 432.254 754.031 l 430.934 756.32 l 428.953 757.086 l 427.633 757.086
 l S
438.199 753.27 m 438.199 754.031 l 438.859 755.559 l 439.52 756.32 l 440.844
 757.086 l 443.484 757.086 l 444.805 756.32 l 445.465 755.559 l 446.125 
754.031 l 446.125 752.508 l 445.465 750.98 l 444.145 748.691 l 437.539 741.059
 l 446.785 741.059 l S
452.07 753.27 m 452.07 754.031 l 452.73 755.559 l 453.391 756.32 l 454.711
 757.086 l 457.355 757.086 l 458.676 756.32 l 459.336 755.559 l 459.996 
754.031 l 459.996 752.508 l 459.336 750.98 l 458.016 748.691 l 451.41 741.059
 l 460.656 741.059 l S
466.039 747.926 m 477.93 747.926 l S
487.273 757.086 m 485.293 756.32 l 483.973 754.031 l 483.312 750.215 l 
483.312 747.926 l 483.973 744.113 l 485.293 741.82 l 487.273 741.059 l 488.598
 741.059 l 490.578 741.82 l 491.898 744.113 l 492.559 747.926 l 492.559 
750.215 l 491.898 754.031 l 490.578 756.32 l 488.598 757.086 l 487.273 757.086
 l S
505.77 754.797 m 505.109 756.32 l 503.129 757.086 l 501.805 757.086 l 499.824
 756.32 l 498.504 754.031 l 497.844 750.215 l 497.844 746.402 l 498.504 
743.348 l 499.824 741.82 l 501.805 741.059 l 502.469 741.059 l 504.449 741.82
 l 505.77 743.348 l 506.43 745.637 l 506.43 746.402 l 505.77 748.691 l 504.449
 750.215 l 502.469 750.98 l 501.805 750.98 l 499.824 750.215 l 498.504 748.691
 l 497.844 746.402 l S
511.812 747.926 m 523.703 747.926 l S
531.066 754.031 m 532.387 754.797 l 534.371 757.086 l 534.371 741.059 l
 S
551.543 751.742 m 550.883 749.453 l 549.562 747.926 l 547.578 747.164 l
 546.918 747.164 l 544.938 747.926 l 543.617 749.453 l 542.957 751.742 l
 542.957 752.508 l 543.617 754.797 l 544.938 756.32 l 546.918 757.086 l 
547.578 757.086 l 549.562 756.32 l 550.883 754.797 l 551.543 751.742 l 551.543
 747.926 l 550.883 744.113 l 549.562 741.82 l 547.578 741.059 l 546.258 
741.059 l 544.277 741.82 l 543.617 743.348 l S
554.184 735.719 m 567.395 735.719 l S
574.66 757.086 m 572.68 756.32 l 571.359 754.031 l 570.695 750.215 l 570.695
 747.926 l 571.359 744.113 l 572.68 741.82 l 574.66 741.059 l 575.98 741.059
 l 577.961 741.82 l 579.285 744.113 l 579.945 747.926 l 579.945 750.215 
l 579.285 754.031 l 577.961 756.32 l 575.98 757.086 l 574.66 757.086 l S
588.531 757.086 m 586.551 756.32 l 585.227 754.031 l 584.566 750.215 l 
584.566 747.926 l 585.227 744.113 l 586.551 741.82 l 588.531 741.059 l 589.852
 741.059 l 591.832 741.82 l 593.152 744.113 l 593.816 747.926 l 593.816 
750.215 l 593.152 754.031 l 591.832 756.32 l 589.852 757.086 l 588.531 757.086
 l S
599.594 742.586 m 598.934 741.82 l 599.594 741.059 l 600.254 741.82 l 599.594
 742.586 l S
Q Q
showpage
%%Trailer
end restore
%%EOF
