#	cpt file created by: makecpt -Cpolar -T-2/2/0.5 -Z
#COLOR_MODEL = RGB
#
-2	0	0	255	-1.5	64	64	255
-1.5	64	64	255	-1	128	128	255
-1	128	128	255	-0.5	191	191	255
-0.5	191	191	255	0	255	255	255
0	255	255	255	0.5	255	191	191
0.5	255	191	191	1	255	127	127
1	255	127	127	1.5	255	64	64
1.5	255	64	64	2	255	0	0
B	0	0	0
F	255	255	255
N	128	128	128
